[
  {
    "type": "mapgen",
    "method": "json",
    "om_terrain": [ [ "campus_media_0_0_4", "campus_media_1_0_4" ], [ "campus_media_0_1_4", "campus_media_1_1_4" ] ],
    "weight": 250,
    "object": {
      "fill_ter": "t_open_air",
      "rows": [
        "                                                ",
        "                                                ",
        "                                                ",
        "                                                ",
        "                                                ",
        "                                                ",
        "                                                ",
        "                                                ",
        "                                                ",
        "                                                ",
        "                                                ",
        "                                                ",
        "                                                ",
        "                                                ",
        "     RRRRRRRRRRRRRRRRRRRRRRRR                   ",
        "     RRRRRRRRRRRRRRRRRRRRRRRR                   ",
        "     RRRRRRRRRRRRRRRRRRRRRRRR                   ",
        "     RRRRRRRRRRRRRRRRRRRRRRRR                   ",
        "     RRRRRRRRRRRRRRRRRRRRRRRR                   ",
        "     RRRRRRRRRRRRRRRRRRRRRRRR                   ",
        "     RRRRRRRRRRRRRRRRRRRRRRRR                   ",
        "     RRRRRRRRRRRRRRRRRRRRRRRR                   ",
        "     RRRRRRRRRRRRRRRRRRRRRRRR                   ",
        "     RRRRRRRRRRRRRRRRRRRRRRRR                   ",
        "     RRRRRRRRRRRRRRRRRRRRRRRR                   ",
        "     RRRRRRRRRRRRRRRRRRRRRRRR                   ",
        "                                                ",
        "                                                ",
        "                                                ",
        "                                                ",
        "                                                ",
        "                                                ",
        "                                                ",
        "                                                ",
        "                                                ",
        "                                                ",
        "     RRRRRRRRRRRRRRRRRRRR                       ",
        "     RRRRRRRRRRRRRRRRRRRR                       ",
        "     RRRRRRRRRRRRRRRRRRRR                       ",
        "     RRRRRRRRRRRRRRRRRRRR                       ",
        "     RRRRRRRRRRRRRRRRRRRR                       ",
        "     RRRRRRRRRRRRRRRRRRRR                       ",
        "                                                ",
        "                                                ",
        "                                                ",
        "                                                ",
        "                                                ",
        "                                                "
      ],
      "terrain": {  },
      "furniture": {  },
      "palettes": [ "campus_common" ]
    },
    "id": "161118fd-93d4-4e14-a6fd-a6ef18b4cb1a"
  }
]
