[
  {
    "type": "mapgen",
    "method": "json",
    "om_terrain": [
      [ "farm_dairy_twd_1", "farm_dairy_twd_2", "farm_dairy_twd_3", "farm_dairy_twd_4" ],
      [ "farm_dairy_twd_5", "farm_dairy_twd_6", "farm_dairy_twd_7", "farm_dairy_twd_8" ],
      [ "farm_dairy_twd_9", "farm_dairy_twd_10", "farm_dairy_twd_11", "farm_dairy_twd_12" ]
    ],
    "weight": 250,
    "object": {
      "fill_ter": "t_dirtfloor",
      "rows": [
        "................................................................................................",
        "................................................................................................",
        "...%%%%%%%%%%%%%%%%%%%%%%%%%%%%%%%%%%%%%%%%%%%%%%%%%%%%%%%%%%%%%%%%%%%%%%%%%%%%%%%%%%%%%%%%%%%..",
        "...%pppppppppppppppppppppppppp%pppppppppppppppppppppppppppppppppppppppppppppppppppppppppppppp%..",
        "...%pppppppppppppppppppppppppp%pppppppppppppppppppppppppppppppppppppppppppppppppppppppppppppp%..",
        "...%pp.#.#.#.#.#.#.#.#.#.#.#.#%............................................................pp%..",
        "...%pp.#.#.#.#.#.#.#.#.#.#.#.#%...............vvvvvvvvvvvvvvvvvvvvvvvvvvvvvvvvvvvvvvvvvvvv.pp%..",
        "...%pp.#.#.#.#.#.#.#.#.#.#.#.#%...............v..........................................v.pp%..",
        "...%pp.#.#.#.#.#.#.#.#.#.#.#.#%...............v..........................................v.pp%..",
        "...%pp.#.#.#.#.#.#.#.#.#.#.#.#%...............v..........................................v.pp%..",
        "...%pp.#.#.#.#.#.#.#.#.#.#.#.#%...............v............|---ll---|--ll--|---ll---|....v.pp%..",
        "...%pp.#.#.#.#.#.#.#.#.#.#.#.#%...............v............|}]}~~~~3|aaa~~O|`7=55=6/|....v.pp%..",
        "...%pp.#.#.#.#.#.#.#.#.#.#.#.#%...............v............l~~~~~~~~+aaa~~O|0~~~~~~0|....v.pp%..",
        "...%pp.#.#.#.#.#.#.#.#.#.#.#.#%...............v............l~~~~2222|aaa~~O|9~~~~~~8|....v.pp%..",
        "...%pp.#.#.#.#.#.#.#.#.#.#.#.#%...............v.....P......|:::~|---|>|44--|---~~---|....v.pp%..",
        "...%pp.#.#.#.#.#.#.#.#.#.#.#.#%...............v.....P.c....|~{~~|<~)|>|~~~3|3~~~~~~3|....v.pp%..",
        "...%pp.#.#.#.#.#.#.#.#.#.#.#.#%.....................c......|----|~~~|~~~~~~|~~~~~~~~|....v.pp%..",
        "...%pp.#.#.#.#.#.#.#.#.#.#.#.#%............................|::::|_~~+~~~~~~|~~(&&(~~|....v.pp%..",
        "...%pp.#.#.#.#.#.#.#.#.#.#.#.#%............................|~~~~|---|~~~X~[|~~(&&(~~|....v.pp%..",
        "...%pp.#.#.#.#.#.#.#.#.#.#.#.#%......vvvvvvvvvv............l3~~~~222|~~~~~[|~~(&&(~~l....v.pp%..",
        "...%pp.#.#.#.#.#.#.#.#.#.#.#.#%......vakkaLKKLv............l1~~~~~~~+~~~~~~+~~(&&(~~l....v.pp%..",
        "...%pp.#.#.#.#.#.#.#.#.#.#.#.#%......vaaaaKKKKv............|111~~~~~|Z~~~~~|~~~~~~~~|....v.pp%..",
        "...%pp.#.#.#.#.#.#.#.#.#.#.#.#%......vaaaaLKKLv............|---ll---|---+--|---ll---|t...v.pp%..",
        "...%pp.#.#.#.#.#.#.#.#.#.#.#.#%......vaaaaaaaav............vaaaaaaaaaaaaaaaakkaaaaamvb...v.pp%..",
        "...%pp.#.#.#.#.#.#.#.#.#.#.#.#%......vkkaaaaaav............vaaaaaaaaaaaaaaaaaaaaaaamv....v.pp%..",
        "...%pp.#.#.#.#.#.#.#.#.#.#.#.#%....B%vvvvaavvvv............vvvvvvvvvvvvaavvvvvvvvvvvv....v.pp%..",
        "...%pp.#.#.#.#.#.#.#.#.#.#.#.#%.btBB%....,,............................aa................v.pp%..",
        "...%pp.#.#.#.#.#.#.#.#.#.#.#..f,,,,,f,,,,,,............................;;................v.pp%..",
        "...%%%%%%%%%%%%%%%%%%%%%%%%%%%%.T..b%;;;;,,.....t......................aa................v.pp%..",
        "...%pp..........................T...%;;;;;;;;;%vv......................;;................v.pp%..",
        "...%pp..........................T...%;nnn;;;;;%.vv.....................aa................v.pp%..",
        "...%pp..............................%;non;;;;;%.cvv....................;;................v.pp%..",
        "...%pp...|------|--w----w----w------|;nnn;;;;;%.b.vv...................aab...............vbBB%..",
        "...%pp...|xxxxxW|o'''Go'''Go'''GΔΔ'?|;;;;;;;;;%Ee.hvvvvrrvvvvvvvvvvvvvvggvvvvvvvvvvvvvvvvBBB.%..",
        "...%pp...|WzzuUz|o'''Go'''Go'''G'Δ'?|@;;;;;;;;%.......................,,,,..............bt...%..",
        "...%pp...|zyzzUU|GGHGGGGHGGGGHGGqΔ'A|;;;;;;;;;%Q......................,,,,...............S...%..",
        "...%pp...|---V--|'''''''''C'''''''''|@;;;;;;;;%.......................,,,,................T..%..",
        "...%pp...|Ozzzzz|^''''''''''''''''''|;;;;;;;;;%.......................,,,,................T..%..",
        "...%pp...|OzIIzz*'$$$$$$$$$$$$$$$$$'+;;;;;;;;;%b......................,,,,................T..%..",
        "...%pp...|OIIIIz*'$$$$$$$$$$$$$$$$$'+;;;;;;;;;%J......................,,,,...................%..",
        "...%pp...|NIzIIN|'''''''''''''''''''|;;;;;;;;;%J......................,,,,...................%..",
        "...%pp...|NIIIIN|'''''''''''''''''''|;;;;;;;;;%j......................,,,,...................%..",
        "...%pp...|NIIIIN|''''''''''''''!''''|;;;;;;;;;g,,,,,,,,,,,,,,,,,,,,,,,,,,,,,,................%..",
        "...%pp...|iIzIIz|GGHGGGGHGGGGHGG''''|;;;;;;;;;g,,,,,,,,,,,,,,,,,,,,,,,,,,,,,,................%..",
        "...%pp...|NIIIMM|o'''Go'''Go'''GD'''|;;;;;;;;;%,,,,,,,,,,,,,,,,,,,,,,,,,,,,,,................%..",
        "...%pp...|zxxzMM|o'''Go'''Go'''G?'YD|;;;;;;;;;%j,,,,,,,,,,,,,,,,,,,,,,,,,,,,,................%..",
        "...%pp...|------|--w----w----w------|;;;;;;;;;%jj,,,,,,,,,,,,,,,,,,,,,,,,,,,,..............bb%..",
        "...%pp................;;;;;;;;;;;;;;@@;;;;;;;;%%%%%%FFFFFFFFF%%%%%%%%%%%%%%f%%%%%%%%%%%%%%%%%%..",
        "...%pp................;;;;;;;;;;;;;;;;;;;;;;;@%.c.,,,,,,,,,,,,d...%........,...............t.%..",
        "...%pp................;;;;;;;;;;;;;;;;;;;;;@@@%...,,,,,,,,,,,,,...%.c...@..,............@@...%..",
        "...%%%%%%%%%%%%%%%%%%%%%%%%f%%%%%%%%%%%%%%%%%%%...,,,,,,,,,,,,,...%....@@..,....@............%..",
        "...%.#.#.#.#.#.#.#.#.#.#.#...#.#.#.#.#.#.#.#.#%...,,,,,,,,,,,,,...%.c......,........@........%..",
        "...%.#.#.#.#.#.#.#.#.#.#.#.#.#.#.#.#.#.#.#.#.#%...,,,,,,,,,,,,,...%....c...,......@..........%..",
        "...%.#.#.#.#.#.#.#.#.#.#.#.#.#.#.#.#.#.#.#.#.#%...,,,,,,,,,,,,,...%........,,...@@@..........%..",
        "...%.#.#.#.#.#.#.#.#.#.#.#.#.#.#.#.#.#.#.#.#.#%...,,,,,,,,,,,,,...%.c......,,,........@@.....%..",
        "...%.#.#.#.#.#.#.#.#.#.#.#.#.#.#.#.#.#.#.#.#.#%...,,,,,,,,,,,,,...%....|-----+-----|.........%..",
        "...%.#.#.#.#.#.#.#.#.#.#.#.#.#.#.#.#.#.#.#.#.#%...,,,,,,,,,,,,,...%....|''ΔΔ''''''Δ|....@....%..",
        "...%.#.#.#.#.#.#.#.#.#.#.#.#.#.#.#.#.#.#.#.#.#%...,,,,,,,,,,,,,...%....|'Δ'''''''''|....@....%..",
        "...%.#.#.#.#.#.#.#.#.#.#.#.#.#.#.#.#.#.#.#.#.#%...,,,,,,,,,,,,,...%....w'''Δ'''Δ'''w....@....%..",
        "...%.#.#.#.#.#.#.#.#.#.#.#.#.#.#.#.#.#.#.#.#.#%.s.,,,,,,,,,,,,,...%....|'''''Δ'''ΔΔ|..@......%..",
        "...%.#.#.#.#.#.#.#.#.#.#.#.#.#.#.#.#.#.#.#.#.#%...,,,,,,,,,,,,,...%....|ΔΔ'''Δ'''ΔΔ|.........%..",
        "...%.#.#.#.#.#.#.#.#.#.#.#.#.#.#.#.#.#.#.#.#.#%...,,,,,,,,,,,,,...%....|ΔΔ'''''Δ'ΔΔ|.........%..",
        "...%.#.#.#.#.#.#.#.#.#.#.#.#.#.#.#.#.#.#.#.#.#%...,,,,,,,,,,,,,...%....|'''Δ'''''''|...@@....%..",
        "...%.#.#.#.#.#.#.#.#.#.#.#.#.#.#.#.#.#.#.#.#.#%...,,,,,,,,,,,,,..@%....|ΔΔ''''''OOO|.........%..",
        "...%.#.#.#.#.#.#.#.#.#.#.#.#.#.#.#.#.#.#.#.#.#%...,,,,,,,,,,,,,...%@...|-----------|.........%..",
        "...%.#.#.#.#.#.#.#.#.#.#.#.#.#.#.#.#.#.#.#.#.#%...,,,,,,,,,,,,,...%@...................@@....%..",
        "...%.#.#.#.#.#.#.#.#.#.#.#.#.#.#.#.#.#.#.#.#.t%...,,,,,,,,,,,,,...%...........@@@............%..",
        "...%.#.#.#.#.#.#.#.#.#.#.#.#.#.#.#.#.#.#.#.#.B%...,,,,,,,,,,,,,@..%@........@................%..",
        "...%.#.#.#.#.#.#.#.#.#.#.#.#.#.#.#.#.#.#.#.#.B%t..,,,,,,,,,,,,,...%.........@................%..",
        "...%%%%%%%%%%%%%%%%%%%%%%%%%%%%%%%%%%%%%%%%%%%%.@@,,,,,,,,,,,,,.@.%%%%%%%%%%%%%%%%%%%%%%%%%%%%..",
        "..............................................%.@.,,,,,,,,,,,,,...%.............................",
        "..............................................%...,,,,,,,,,,,,,.@.%............................."
      ],
      "sealed_item": { "#": { "item": { "item": "seed_corn" }, "furniture": "f_plant_seedling" } },
      "terrain": {
        "0": "t_floor",
        "1": "t_floor",
        "2": "t_floor",
        "3": "t_floor",
        "4": "t_floor",
        "5": "t_floor",
        "6": "t_floor",
        "7": "t_floor",
        "8": "t_floor",
        "9": "t_floor",
        ".": [ [ "t_region_groundcover", 99 ], [ "t_shrub", 1 ] ],
        ",": [ [ "t_dirt", 200 ], [ "t_railroad_rubble", 15 ], [ "t_region_groundcover", 55 ] ],
        "'": "t_dirtfloor",
        ";": [ [ "t_dirtfloor_no_roof", 80 ], [ "t_dirt", 20 ] ],
        "b": "t_dirt",
        "@": "t_dirt",
        "s": "t_dirt",
        "d": "t_dirt",
        "J": "t_dirt",
        "j": "t_dirt",
        "B": "t_dirt",
        "o": "t_dirt",
        "h": "t_dirt",
        "e": "t_dirt",
        "E": "t_dirt",
        "!": "t_dirtfloor",
        "?": "t_dirtfloor",
        "^": "t_dirtfloor",
        "$": "t_grate",
        "#": "t_dirtmound",
        "%": "t_fence_barbed",
        "~": "t_floor",
        "&": "t_floor",
        "(": "t_floor",
        "<": "t_floor",
        "=": "t_floor",
        "`": "t_floor",
        "/": "t_floor",
        "{": "t_floor",
        "}": "t_floor",
        "[": "t_floor",
        "]": "t_floor",
        ">": "t_wood_stairs_up",
        ")": "t_floor",
        "_": "t_floor",
        ":": "t_floor",
        "+": "t_door_c",
        "*": "t_door_locked",
        "V": "t_door_metal_pickable",
        "-": "t_wall_wood",
        "|": "t_wall_wood",
        "a": "t_floor_noroof",
        "A": "t_dirtfloor",
        "C": "t_dirtfloor",
        "c": "t_shrub",
        "D": "t_dirtfloor",
        "f": "t_splitrail_fencegate_c",
        "F": "t_gate_metal_c",
        "g": "t_fencegate_c",
        "G": "t_splitrail_fence",
        "H": "t_splitrail_fencegate_c",
        "i": "t_metal_floor",
        "I": "t_metal_floor",
        "k": "t_floor_noroof",
        "K": "t_floor",
        "l": "t_window_domestic",
        "L": "t_fence_post",
        "m": "t_floor_noroof",
        "M": "t_metal_floor",
        "n": "t_fence_metal",
        "N": "t_metal_floor",
        "O": "t_floor",
        "p": [ [ "t_region_tree", 50 ], [ "t_region_groundcover", 50 ] ],
        "P": "t_bulk_tank",
        "q": "t_dirtfloor",
        "Q": "t_region_groundcover",
        "r": "t_fence_post",
        "t": "t_region_tree",
        "T": "t_trunk",
        "v": "t_fence",
        "S": "t_stump",
        "u": "t_metal_floor",
        "U": "t_metal_floor",
        "w": "t_curtains",
        "W": "t_metal_floor",
        "x": "t_metal_floor",
        "X": "t_floor",
        "y": "t_metal_floor",
        "z": "t_metal_floor",
        "Z": "t_floor"
      },
      "furniture": {
        "0": "f_cupboard",
        "1": "f_sofa",
        "2": "f_bookcase",
        "3": [ "f_indoor_plant_y", "f_indoor_plant" ],
        "4": "f_wardrobe",
        "5": "f_sink",
        "6": "f_fridge",
        "7": "f_oven",
        "8": "f_cupboard",
        "9": "f_cupboard",
        "@": "f_hay",
        "Δ": "f_hay",
        "&": "f_table",
        "(": "f_bench",
        ")": "f_sink",
        "_": "f_cupboard",
        "=": "f_cupboard",
        "`": "f_cupboard",
        "/": "f_cupboard",
        ":": "f_table",
        "{": "f_chair",
        "}": "f_armchair",
        "[": "f_coffee_table",
        "]": "f_coffee_table",
        "N": "f_workbench",
        "b": "f_boulder_small",
        "B": "f_boulder_large",
        "d": "f_mailbox",
        "D": "f_stool",
        "e": "f_workbench",
        "E": "f_workbench",
        "i": "f_tablesaw",
        "k": "f_bench",
        "m": "f_crate_c",
        "M": "f_bathtub",
        "O": "f_locker",
        "x": "f_utility_shelf",
        "y": "f_air_conditioner",
        "Z": "f_rack_coat"
      },
      "item": {
        "8": { "item": "rennet", "chance": 50, "repeat": 5 },
        "#": { "item": "corn", "chance": 70 },
        "!": { "item": "salt_lick", "chance": 100 },
        "&": [
          { "item": "ceramic_plate", "chance": 100 },
          { "item": "fork", "chance": 100 },
          { "item": "human_cooked", "chance": 100 }
        ],
        "?": { "item": "bottle_glass", "chance": 70, "repeat": 6 },
        "^": [ { "item": "bucket", "chance": 100 }, { "item": "mop", "chance": 100 } ],
        "A": { "item": "wheel_wood", "chance": 100 },
        "C": { "item": "bucket", "chance": 100 },
        "j": { "item": "jerrycan", "chance": 100 },
        "h": { "item": "2x4", "chance": 100, "repeat": 2 },
        "o": { "item": "straw_pile", "chance": 100, "repeat": [ 5, 10 ] },
        "q": { "item": "pitchfork", "chance": 100 },
        "U": { "item": "salt_lick", "chance": 100 },
        "W": { "item": "box_medium", "chance": 100 }
      },
      "items": {
        "0": { "item": "SUS_pantry", "chance": 70 },
        "2": { "item": "ranch_homebooks", "chance": 70 },
        "5": { "item": "SUS_kitchen_sink", "chance": 70 },
        "6": { "item": "SUS_fridge", "chance": 70 },
        "7": { "item": "SUS_oven", "chance": 70 },
        "8": [ { "item": "SUS_spice_collection", "chance": 70 }, { "item": "SUS_breakfast_cupboard", "chance": 70 } ],
        "9": { "item": "SUS_appliances_cupboard", "chance": 70 },
        "e": { "item": "tools_home", "chance": 100 },
        "m": { "item": "SUS_junk_drawer", "chance": 100 },
        ")": { "item": "SUS_bathroom_sink", "chance": 70, "repeat": 2 },
        "_": [ { "item": "SUS_toilet", "chance": 90 }, { "item": "SUS_bathroom_cabinet", "chance": 90 } ],
        "`": [ { "item": "SUS_utensils", "chance": 70 }, { "item": "SUS_dishes", "chance": 70 } ],
        "/": [ { "item": "SUS_knife_drawer", "chance": 70 }, { "item": "SUS_silverware", "chance": 70 } ],
        "]": [ { "item": "smokelounge_items", "chance": 70 }, { "item": "alcohol_bottled_canned", "chance": 70 } ],
        "O": [
          { "item": "tools_earthworking", "chance": 65 },
          { "item": "mechanics", "chance": 40 },
          { "item": "home_hw", "chance": 50 },
          { "item": "tools_common", "chance": 50 },
          { "item": "fertilizers", "chance": 60 }
        ],
        "Z": { "item": "coat_rack", "chance": 70 }
      },
      "place_item": [ { "item": "beartrap", "x": 15, "y": [ 40, 42 ], "chance": 100, "repeat": 3 } ],
      "signs": { "s": { "signage": "St. John Dairy.  555-0199 Daily Farm Tours" } },
      "traps": { "q": "tr_beartrap" },
      "monster": {
        "q": { "monster": "mon_zombie", "name": "Danny" },
        "Q": { "monster": "mon_zombie_tough", "name": "Andy" },
        "Y": { "monster": "mon_cow", "name": "Maybelle" },
        "X": { "monster": "mon_zombie_fat", "name": "Brenda" },
        "u": { "monster": "mon_zombie_brainless", "name": "Larry" }
      },
      "fields": {
        "u": { "field": "fd_blood", "intensity": 1, "age": 10 },
        "i": { "field": "fd_blood", "intensity": 1, "age": 10 },
        "I": { "field": "fd_blood", "intensity": 1, "age": 10 },
        "M": { "field": "fd_blood", "intensity": 1, "age": 10 },
        "q": { "field": "fd_blood", "intensity": 1, "age": 10 }
      },
      "place_fields": [ { "field": "fd_bile", "x": 10, "y": 35, "intensity": 2, "age": 20 } ],
      "toilets": { "<": {  } },
      "vehicles": { "J": { "vehicle": "portable_generator", "chance": 100, "fuel": 40, "status": 1 } }
    },
    "id": "c6105ca2-b396-4922-b000-fe324a8bf7e1"
  },
  {
    "type": "mapgen",
    "method": "json",
    "om_terrain": [
      [ "null", "null", "farm_dairy_twd_second_floor_3", "farm_dairy_twd_second_floor_4" ],
      [ "farm_dairy_twd_second_floor_5", "farm_dairy_twd_second_floor_6", "null", "null" ],
      [ "null", "null", "null", "farm_dairy_twd_second_floor_12" ]
    ],
    "weight": 250,
    "object": {
      "fill_ter": "t_open_air",
      "rows": [
        "................................................................................................",
        "................................................................................................",
        "................................................................................................",
        "................................................................................................",
        "................................................................................................",
        "................................................................................................",
        "................................................................................................",
        "................................................................................................",
        "................................................................................................",
        "................................................................................................",
        "...........................................................|-ll-|---|l--|--|--------|...........",
        "...........................................................|[bb[|^^_|,,,|[[|-|&%~~~(|...........",
        "...........................................................l~bb~|~~~|,,,|~~+*|~````(|...........",
        "...........................................................l~~~~|~~~|,,,|~~|-|~```~_|...........",
        "...........................................................|~~~~|&~%|<|-|~~|---+----|...........",
        "...........................................................|~~~~|-+-|<|3~~~|~~!!!~~[|...........",
        "...........................................................|~~~~~~~!|~~~~~~+~~~`~~~bl...........",
        "...........................................................|44dD~~~~+~~~~~~|DD~~~~~b|...........",
        "...........................................................|--------|~~~Y~~|--|-----|...........",
        "...........................................................lb~~~~~!!|~~~~~~!!!|&~~~_|...........",
        "..........................................LKKL.............lb~~~~~~~+~~~~~~~~~+~~~~~l...........",
        "..........................................KKKK.............|[~~~~~dd|~~~~~~~~3|%~~^^|...........",
        "..........................................LKKL.............|---ll---|--ll-----|--l--|...........",
        "................................................................................................",
        "................................................................................................",
        "................................................................................................",
        "................................................................................................",
        "................................................................................................",
        "................................................................................................",
        "................................................................................................",
        "................................................................................................",
        "................................................................................................",
        ".........''''''''''''''''''''''''''''...........................................................",
        ".........''''''''''''''''''''''''''''...........................................................",
        ".........''''''''''''''''''''''''''''...........................................................",
        ".........''''''''''''''''''''''''''''...........................................................",
        ".........''''''''''''''''''''''''''''...........................................................",
        ".........''''''''''''''''''''''''''''...........................................................",
        ".........''''''''''''''''''''''''''''...........................................................",
        ".........''''''''''''''''''''''''''''...........................................................",
        ".........''''''''''''''''''''''''''''...........................................................",
        ".........''''''''''''''''''''''''''''...........................................................",
        ".........''''''''''''''''''''''''''''...........................................................",
        ".........''''''''''''''''''''''''''''...........................................................",
        ".........''''''''''''''''''''''''''''...........................................................",
        ".........''''''''''''''''''''''''''''...........................................................",
        ".........''''''''''''''''''''''''''''...........................................................",
        "................................................................................................",
        "................................................................................................",
        "................................................................................................",
        "................................................................................................",
        "................................................................................................",
        "................................................................................................",
        "................................................................................................",
        "................................................................................................",
        "......................................................................''''''''''''''............",
        "......................................................................''''''''''''''............",
        "......................................................................''''''''''''''............",
        "......................................................................''''''''''''''............",
        "......................................................................''''''''''''''............",
        "......................................................................''''''''''''''............",
        "......................................................................''''''''''''''............",
        "......................................................................''''''''''''''............",
        "......................................................................''''''''''''''............",
        "......................................................................''''''''''''''............",
        "................................................................................................",
        "................................................................................................",
        "................................................................................................",
        "................................................................................................",
        "................................................................................................",
        "................................................................................................",
        "................................................................................................"
      ],
      "terrain": {
        "3": "t_floor",
        "4": "t_floor",
        "!": "t_floor",
        "`": "t_floor",
        "~": "t_floor",
        "_": "t_floor",
        "&": "t_floor",
        "%": "t_floor",
        "^": "t_floor",
        "(": "t_floor",
        "*": "t_floor",
        "[": "t_floor",
        "Y": "t_floor",
        "b": "t_floor",
        "d": "t_floor",
        "D": "t_floor",
        ",": "t_open_air_rooved",
        "K": "t_open_air",
        "L": "t_open_air",
        "-": "t_wall_wood",
        "|": "t_wall_wood",
        "+": "t_door_c",
        "<": "t_wood_stairs_down",
        "'": "t_shingle_flat_roof",
        "l": "t_window_domestic"
      },
      "furniture": {
        "3": [ "f_indoor_plant_y", "f_indoor_plant" ],
        "4": "f_wardrobe",
        "!": "f_bookcase",
        "%": "f_sink",
        "*": "f_locker",
        "^": "f_bathtub",
        "(": "f_bathtub",
        "b": "f_bed",
        "d": "f_dresser",
        "D": "f_dresser",
        "_": "f_cupboard",
        "[": "f_coffee_table"
      },
      "items": {
        "4": [ { "item": "SUS_wardrobe_mens", "chance": 70 }, { "item": "SUS_wardrobe_womens", "chance": 70 } ],
        "*": { "item": "SUS_junk_drawer", "chance": 100 },
        "b": { "item": "bed", "chance": 70 },
        "d": { "item": "SUS_dresser_mens", "chance": 70 },
        "D": { "item": "SUS_dresser_womens", "chance": 70 },
        "!": { "item": "ranch_homebooks", "chance": 70, "repeat": 2 },
        "%": { "item": "SUS_bathroom_sink", "chance": 70 },
        "[": { "item": "SUS_desks_bedroom_unisex", "chance": 70 },
        "_": [ { "item": "SUS_toilet", "chance": 90 }, { "item": "SUS_bathroom_cabinet", "chance": 90 } ]
      },
      "fields": { "`": { "field": "fd_blood", "intensity": 1, "age": 10 }, "(": { "field": "fd_blood", "intensity": 1, "age": 10 } },
      "monster": { "Y": { "monster": "mon_zombie_crawler", "name": "Mark" } },
      "toilets": { "&": {  } }
    },
    "id": "83f665bb-b833-4228-b68d-9d398ec6521a"
  },
  {
    "type": "mapgen",
    "method": "json",
    "om_terrain": [ [ "farm_dairy_twd_3_roof", "farm_dairy_twd_4_roof" ] ],
    "object": {
      "fill_ter": "t_shingle_flat_roof",
      "rows": [
        "                                                ",
        "                                                ",
        "                                                ",
        "                                                ",
        "                                                ",
        "                                                ",
        "                                                ",
        "                                                ",
        "                                                ",
        "                                                ",
        "           |2222222222222222222222223           ",
        "           |........................3           ",
        "           |........................3           ",
        "           |........................3           ",
        "           |........................3           ",
        "           |........................3           ",
        "           |........................3           ",
        "           |........................3           ",
        "           |........................3           ",
        "           |........................3           ",
        "           |........................3           ",
        "           |........................3           ",
        "           |------------------------3           ",
        "                                                "
      ],
      "palettes": [ "roof_palette" ],
      "terrain": { ".": "t_shingle_flat_roof" }
    },
    "id": "aeff4f28-3ab3-4c98-82c6-0e6ecebeebbd"
  }
]
