[
  {
    "type": "recipe",
    "result": "faction_base_modular_workshop_room0_wad_northeast",
    "description": "We can use a wattle and daub workshop.  Let's start by building a spot to protect the workers from the rain.",
    "category": "CC_BUILDING",
    "subcategory": "CSC_BUILDING_BASES",
    "autolearn": false,
    "never_learn": true,
    "construction_blueprint": "fbmw_room0_wad_northeast",
    "blueprint_name": "northeast wall",
    "blueprint_requires": [ { "id": "fbmw_0" } ],
    "blueprint_provides": [ { "id": "fbmw_northeast" } ],
    "blueprint_excludes": [ { "id": "fbmw_northeast" } ],
    "blueprint_needs": {
      "time": "1 d 17 h 40 m",
      "skills": [ [ "survival", 3 ], [ "fabrication", 3 ] ],
      "inline": {
        "tools": [  ],
        "qualities": [ [ { "id": "CUT" } ], [ { "id": "HAMMER", "level": 2 } ], [ { "id": "SAW_W", "level": 2 } ] ],
        "components": [
          [ [ "2x4", 300 ] ],
          [
            [ "cattail_stalk", 80 ],
            [ "dogbane", 80 ],
            [ "material_sand", 200 ],
            [ "pebble", 200 ],
            [ "pine_bough", 80 ],
            [ "straw_pile", 80 ],
            [ "withered", 80 ]
          ],
          [
            [ "clay_lump", 80 ],
            [ "material_limestone", 80 ],
            [ "material_quicklime", 80 ],
            [ "material_soil", 400 ]
          ],
          [ [ "nail", 500 ] ],
          [ [ "water", 100 ], [ "water_clean", 100 ] ],
          [ [ "wood_panel", 25 ] ]
        ]
      }
    },
    "id": "9755c2c4-ac62-47fb-a0d2-07d59f8293c5"
  },
  {
    "type": "recipe",
    "result": "faction_base_modular_workshop_room3_wad_north",
    "description": "Let's extend the north wattle and daub wall to the west and add some storage space.",
    "category": "CC_BUILDING",
    "subcategory": "CSC_BUILDING_BASES",
    "autolearn": false,
    "never_learn": true,
    "construction_blueprint": "fbmw_room3_wad_north",
    "blueprint_name": "north wall",
    "blueprint_requires": [ { "id": "fbmw_northeast", "amount": 3 } ],
    "blueprint_provides": [ { "id": "fbmw_north" } ],
    "blueprint_excludes": [ { "id": "fbmw_north" } ],
    "blueprint_needs": {
      "time": "1 d 2 h 45 m",
      "skills": [ [ "survival", 3 ], [ "fabrication", 3 ] ],
      "inline": {
        "tools": [  ],
        "qualities": [ [ { "id": "CUT" } ], [ { "id": "HAMMER", "level": 2 } ], [ { "id": "SAW_W", "level": 2 } ] ],
        "components": [
          [ [ "2x4", 185 ] ],
          [
            [ "cattail_stalk", 52 ],
            [ "dogbane", 52 ],
            [ "material_sand", 130 ],
            [ "pebble", 130 ],
            [ "pine_bough", 52 ],
            [ "straw_pile", 52 ],
            [ "withered", 52 ]
          ],
          [
            [ "clay_lump", 52 ],
            [ "material_limestone", 52 ],
            [ "material_quicklime", 52 ],
            [ "material_soil", 260 ]
          ],
          [ [ "nail", 352 ] ],
          [ [ "rope_6", 2 ], [ "rope_makeshift_6", 2 ] ],
          [ [ "water", 65 ], [ "water_clean", 65 ] ],
          [ [ "wood_panel", 22 ] ]
        ]
      }
    },
    "id": "0833a157-ddcd-4554-88e9-17edc8d5385e"
  },
  {
    "type": "recipe",
    "result": "faction_base_modular_workshop_room4_wad_east",
    "description": "Let's expand our production by adding another charcoal kiln.",
    "category": "CC_BUILDING",
    "subcategory": "CSC_BUILDING_BASES",
    "autolearn": false,
    "never_learn": true,
    "construction_blueprint": "fbmw_room4_wad_east",
    "blueprint_name": "east forage wall",
    "blueprint_requires": [ { "id": "fbmw_north" } ],
    "blueprint_provides": [ { "id": "fbmw_east" }, { "id": "blacksmith_recipes_3" } ],
    "blueprint_excludes": [ { "id": "fbmw_east" } ],
    "blueprint_needs": {
      "time": "1 d 19 h 40 m",
      "skills": [ [ "survival", 3 ], [ "fabrication", 3 ] ],
      "inline": {
        "tools": [  ],
        "qualities": [ [ { "id": "CUT" } ], [ { "id": "HAMMER", "level": 2 } ], [ { "id": "SAW_W", "level": 2 } ] ],
        "components": [
          [ [ "2x4", 315 ] ],
          [
            [ "cattail_stalk", 36 ],
            [ "dogbane", 36 ],
            [ "material_sand", 90 ],
            [ "pebble", 90 ],
            [ "pine_bough", 36 ],
            [ "straw_pile", 36 ],
            [ "withered", 36 ]
          ],
          [ [ "material_soil", 182 ] ],
          [ [ "nail", 704 ] ],
          [ [ "rock", 40 ] ],
          [ [ "rope_6", 2 ], [ "rope_makeshift_6", 2 ] ],
          [ [ "water", 45 ], [ "water_clean", 45 ] ],
          [ [ "wood_panel", 38 ] ]
        ]
      }
    },
    "id": "710e39a4-e3d1-40f8-a91a-3f11a366fe24"
  },
  {
    "type": "recipe",
    "result": "faction_base_modular_workshop_room5_wad_center",
    "description": "Let's expand work area with a wattle and daub wall, and add add a bookshelf for our reference books.",
    "category": "CC_BUILDING",
    "subcategory": "CSC_BUILDING_BASES",
    "autolearn": false,
    "never_learn": true,
    "construction_blueprint": "fbmw_room5_wad_center",
    "blueprint_name": "west forage wall",
    "blueprint_requires": [ { "id": "fbmw_east" } ],
    "blueprint_provides": [ { "id": "fbmw_center" } ],
    "blueprint_excludes": [ { "id": "fbmw_center" } ],
    "blueprint_needs": {
      "time": "23 h 55 m",
      "skills": [ [ "survival", 3 ], [ "fabrication", 3 ], [ "tailor", 3 ] ],
      "inline": {
        "tools": [  ],
        "qualities": [ [ { "id": "CUT" } ], [ { "id": "HAMMER", "level": 2 } ], [ { "id": "SAW_W", "level": 2 } ] ],
        "components": [
          [ [ "2x4", 172 ] ],
          [ [ "blanket", 1 ], [ "down_blanket", 1 ], [ "fur_blanket", 1 ] ],
          [
            [ "cattail_stalk", 40 ],
            [ "dogbane", 40 ],
            [ "material_sand", 100 ],
            [ "pebble", 100 ],
            [ "pine_bough", 40 ],
            [ "straw_pile", 40 ],
            [ "withered", 40 ]
          ],
          [
            [ "clay_lump", 40 ],
            [ "material_limestone", 40 ],
            [ "material_quicklime", 40 ],
            [ "material_soil", 200 ]
          ],
          [ [ "nail", 312 ] ],
          [ [ "water", 50 ], [ "water_clean", 50 ] ],
          [ [ "wood_panel", 19 ] ]
        ]
      }
    },
    "id": "04d9bb94-194f-4eb8-9fc3-d2eff480576e"
  },
  {
    "type": "recipe",
    "result": "faction_base_modular_workshop_room6_wad_north",
    "description": "Let's expand our production by adding a wattle and daub walled pottery kiln area.",
    "category": "CC_BUILDING",
    "subcategory": "CSC_BUILDING_BASES",
    "autolearn": false,
    "never_learn": true,
    "construction_blueprint": "fbmw_room6_wad_north",
    "blueprint_name": "north pottery wall",
    "blueprint_requires": [ { "id": "fbmw_center" } ],
    "blueprint_provides": [ { "id": "fbmw_north" }, { "id": "blacksmith_recipes_4" } ],
    "blueprint_excludes": [ { "id": "fbmw_north", "amount": 2 } ],
    "blueprint_resources": [ "tongs", "chisel", "hammer", "swage" ],
    "components": [ [ [ "tongs", 1 ] ], [ [ "chisel", 1 ] ], [ [ "hammer", 1 ] ], [ [ "swage", 1 ] ] ],
    "blueprint_needs": {
      "time": "1 d 3 h 10 m",
      "skills": [ [ "survival", 3 ], [ "fabrication", 4 ] ],
      "inline": {
        "tools": [ [ [ "fake_gridwelder", 100 ], [ "oxy_torch", 20 ], [ "toolset", 150 ], [ "welder", 100 ], [ "welder_crude", 150 ] ] ],
        "qualities": [
          [ { "id": "CUT" } ],
          [ { "id": "GLARE", "level": 2 } ],
          [ { "id": "HAMMER", "level": 2 } ],
          [ { "id": "SAW_W", "level": 2 } ]
        ],
        "components": [
          [ [ "2x4", 162 ] ],
          [
            [ "cattail_stalk", 24 ],
            [ "dogbane", 24 ],
            [ "material_sand", 60 ],
            [ "pebble", 60 ],
            [ "pine_bough", 24 ],
            [ "straw_pile", 24 ],
            [ "withered", 24 ]
          ],
          [ [ "clay_lump", 12 ], [ "material_cement", 50 ], [ "mortar_adobe", 1 ], [ "mortar_build", 1 ] ],
          [
            [ "clay_lump", 24 ],
            [ "material_limestone", 24 ],
            [ "material_quicklime", 24 ],
            [ "material_soil", 120 ]
          ],
          [ [ "nail", 380 ] ],
          [ [ "pipe", 16 ] ],
          [ [ "rock", 40 ] ],
          [ [ "sheet_metal", 4 ] ],
          [ [ "sheet_metal_small", 8 ] ],
          [ [ "water", 32 ], [ "water_clean", 32 ] ],
          [ [ "wood_panel", 23 ] ]
        ]
      }
    },
    "id": "752f2518-6acd-4c5b-9c97-28d05aad17a0"
  },
  {
    "type": "recipe",
    "result": "faction_base_modular_workshop_room7to9_wad_northwest",
    "description": "Let's enclose this pottery with wattle and daub walls and get some more storage set up.",
    "category": "CC_BUILDING",
    "subcategory": "CSC_BUILDING_BASES",
    "autolearn": false,
    "never_learn": true,
    "construction_blueprint": "fbmw_room7to9_wad_northwest",
    "blueprint_name": "northwest and south pottery wall",
    "blueprint_requires": [ { "id": "fbmw_north", "amount": 2 } ],
    "blueprint_provides": [ { "id": "fbmw_northwest" }, { "id": "blacksmith_recipes_5" } ],
    "blueprint_excludes": [ { "id": "fbmw_northwest" } ],
    "blueprint_needs": {
      "time": "1 d 15 h 40 m",
      "skills": [ [ "survival", 3 ], [ "fabrication", 3 ] ],
      "inline": {
        "tools": [  ],
        "qualities": [ [ { "id": "CUT" } ], [ { "id": "HAMMER", "level": 2 } ], [ { "id": "SAW_W", "level": 2 } ] ],
        "components": [
          [ [ "2x4", 260 ] ],
          [
            [ "cattail_stalk", 96 ],
            [ "dogbane", 96 ],
            [ "material_sand", 240 ],
            [ "pebble", 240 ],
            [ "pine_bough", 96 ],
            [ "straw_pile", 96 ],
            [ "withered", 96 ]
          ],
          [
            [ "clay_lump", 96 ],
            [ "material_limestone", 96 ],
            [ "material_quicklime", 96 ],
            [ "material_soil", 480 ]
          ],
          [ [ "nail", 454 ] ],
          [ [ "rope_6", 2 ], [ "rope_makeshift_6", 2 ] ],
          [ [ "water", 120 ], [ "water_clean", 120 ] ],
          [ [ "wood_panel", 30 ] ]
        ]
      }
    },
    "id": "00ac030d-f3ee-404e-aa58-fdf2cf4c5972"
  },
  {
    "type": "recipe",
    "result": "faction_base_modular_workshop_room11to12_wad_southeast",
    "description": "Let's expand the workspace for larger projects and add a drop hammer for productivity.",
    "category": "CC_BUILDING",
    "subcategory": "CSC_BUILDING_BASES",
    "autolearn": false,
    "never_learn": true,
    "construction_blueprint": "fbmw_room11to12_wad_southeast",
    "blueprint_name": "openair, covered work space",
    "blueprint_requires": [ { "id": "fbmw_northeast", "amount": 4 } ],
    "blueprint_provides": [ { "id": "fbmw_southeast" }, { "id": "fbmw_south" }, { "id": "blacksmith_recipes_7" } ],
    "blueprint_excludes": [ { "id": "fbmw_northsoutheast" }, { "id": "fbmw_south" } ],
    "blueprint_resources": [ "wrench", "pliers", "fake_drop_hammer" ],
    "components": [ [ [ "wrench", 1 ] ], [ [ "pliers", 1 ] ] ],
    "blueprint_needs": {
      "time": "2 d 14 h 40 m",
      "skills": [ [ "survival", 3 ], [ "fabrication", 3 ] ],
      "inline": {
        "tools": [  ],
        "qualities": [ [ { "id": "CUT" } ], [ { "id": "HAMMER", "level": 2 } ], [ { "id": "SAW_W", "level": 2 } ] ],
        "components": [
          [ [ "2x4", 452 ] ],
          [ [ "anvil", 1 ] ],
          [
            [ "cattail_stalk", 80 ],
            [ "dogbane", 80 ],
            [ "material_sand", 200 ],
            [ "pebble", 200 ],
            [ "pine_bough", 80 ],
            [ "straw_pile", 80 ],
            [ "withered", 80 ]
          ],
          [ [ "chain", 4 ] ],
          [
            [ "clay_lump", 80 ],
            [ "material_limestone", 80 ],
            [ "material_quicklime", 80 ],
            [ "material_soil", 400 ]
          ],
          [ [ "metal_tank", 2 ] ],
          [ [ "nail", 880 ] ],
          [ [ "pipe", 3 ] ],
          [ [ "water", 100 ], [ "water_clean", 100 ] ],
          [ [ "water_faucet", 2 ] ],
          [ [ "wood_panel", 44 ] ]
        ]
      }
    },
    "id": "bbaaac89-1851-473d-a5e6-abc9eb34eaee"
  }
]
