[
  {
    "//": "4x4 fancy office upstairs on West side",
    "type": "mapgen",
    "method": "json",
    "nested_mapgen_id": "lab_surface_office_W4x4",
    "object": {
      "mapgensize": [ 4, 4 ],
      "rotation": [ 0, 3 ],
      "rows": [
        "H dd",
        "H cd",
        "   d",
        " BBB"
      ],
      "items": {
        "d": [ { "item": "office", "chance": 25, "repeat": [ 1, 3 ] }, { "item": "electronics", "chance": 15 } ],
        "H": { "item": "bed", "chance": 15 },
        "B": [
          { "item": "magazines", "chance": 75, "repeat": [ 1, 5 ] },
          { "item": "lab_bookshelves", "chance": 55, "repeat": [ 1, 3 ] }
        ]
      },
      "palettes": [ "lab_surface_palette" ]
    },
    "id": "0d9ea2c6-1843-41c9-90dd-5ea894de8e6b"
  },
  {
    "//": "4x4 fancy office upstairs on West side",
    "type": "mapgen",
    "method": "json",
    "nested_mapgen_id": "lab_surface_office_W4x4",
    "object": {
      "mapgensize": [ 4, 4 ],
      "rotation": [ 0, 3 ],
      "rows": [
        "HHBB",
        "H  d",
        "  cd",
        "  ix"
      ],
      "items": {
        "d": [ { "item": "office", "chance": 25, "repeat": [ 1, 3 ] }, { "item": "electronics", "chance": 15 } ],
        "H": { "item": "bed", "chance": 15 },
        "i": { "item": "office", "chance": 95 },
        "B": [
          { "item": "magazines", "chance": 75, "repeat": [ 1, 5 ] },
          { "item": "lab_bookshelves", "chance": 55, "repeat": [ 1, 3 ] }
        ]
      },
      "furniture": { "i": "f_filing_cabinet" },
      "palettes": [ "lab_surface_palette" ]
    },
    "id": "31457085-20ec-4e79-9414-55851425d41d"
  },
  {
    "//": "4x4 fancy office upstairs on West side",
    "type": "mapgen",
    "method": "json",
    "nested_mapgen_id": "lab_surface_office_W4x4",
    "object": {
      "mapgensize": [ 4, 4 ],
      "rotation": [ 0, 3 ],
      "rows": [
        "HH i",
        "H  d",
        "  cd",
        "  dd"
      ],
      "items": {
        "d": [ { "item": "office", "chance": 25, "repeat": [ 1, 3 ] }, { "item": "electronics", "chance": 15 } ],
        "H": { "item": "bed", "chance": 15 },
        "i": { "item": "office", "chance": 95 },
        "B": [
          { "item": "magazines", "chance": 75, "repeat": [ 1, 5 ] },
          { "item": "lab_bookshelves", "chance": 55, "repeat": [ 1, 3 ] }
        ]
      },
      "furniture": { "i": "f_filing_cabinet" },
      "palettes": [ "lab_surface_palette" ]
    },
    "id": "04c38577-1679-4d9a-acf3-684ad5708895"
  },
  {
    "//": "4x4 fancy office upstairs on East side",
    "type": "mapgen",
    "method": "json",
    "nested_mapgen_id": "lab_surface_office_E4x4",
    "object": {
      "mapgensize": [ 4, 4 ],
      "rotation": [ 0, 3 ],
      "rows": [
        "dd H",
        "dc H",
        "d   ",
        "BBB "
      ],
      "items": {
        "d": [ { "item": "office", "chance": 25, "repeat": [ 1, 3 ] }, { "item": "electronics", "chance": 15 } ],
        "H": { "item": "bed", "chance": 15 },
        "B": [
          { "item": "magazines", "chance": 75, "repeat": [ 1, 5 ] },
          { "item": "lab_bookshelves", "chance": 55, "repeat": [ 1, 3 ] }
        ]
      },
      "palettes": [ "lab_surface_palette" ]
    },
    "id": "39867b10-b5ad-45d1-a896-e4d130872742"
  },
  {
    "//": "4x4 fancy office upstairs on East side",
    "type": "mapgen",
    "method": "json",
    "nested_mapgen_id": "lab_surface_office_E4x4",
    "object": {
      "mapgensize": [ 4, 4 ],
      "rotation": [ 0, 3 ],
      "rows": [
        "BBHH",
        "d  H",
        "dc  ",
        "xi  "
      ],
      "items": {
        "d": [ { "item": "office", "chance": 25, "repeat": [ 1, 3 ] }, { "item": "electronics", "chance": 15 } ],
        "H": { "item": "bed", "chance": 15 },
        "i": { "item": "office", "chance": 95 },
        "B": [
          { "item": "magazines", "chance": 75, "repeat": [ 1, 5 ] },
          { "item": "lab_bookshelves", "chance": 55, "repeat": [ 1, 3 ] }
        ]
      },
      "furniture": { "i": "f_filing_cabinet" },
      "palettes": [ "lab_surface_palette" ]
    },
    "id": "b634a174-e5f1-4291-84d0-67e5ac62ae6f"
  },
  {
    "//": "4x4 fancy office upstairs on East side",
    "type": "mapgen",
    "method": "json",
    "nested_mapgen_id": "lab_surface_office_E4x4",
    "object": {
      "mapgensize": [ 4, 4 ],
      "rotation": [ 0, 3 ],
      "rows": [
        "i HH",
        "d  H",
        "dc  ",
        "dd  "
      ],
      "items": {
        "d": [ { "item": "office", "chance": 25, "repeat": [ 1, 3 ] }, { "item": "electronics", "chance": 15 } ],
        "H": { "item": "bed", "chance": 15 },
        "i": { "item": "office", "chance": 95 },
        "B": [
          { "item": "magazines", "chance": 75, "repeat": [ 1, 5 ] },
          { "item": "lab_bookshelves", "chance": 55, "repeat": [ 1, 3 ] }
        ]
      },
      "furniture": { "i": "f_filing_cabinet" },
      "palettes": [ "lab_surface_palette" ]
    },
    "id": "e2f2a422-29b4-4cc1-9a94-cfe314f4c350"
  },
  {
    "//": "4x4 upstairs office with south wall door on west side",
    "type": "mapgen",
    "method": "json",
    "nested_mapgen_id": "lab_surface_office_SWdoor4x4",
    "object": {
      "mapgensize": [ 4, 4 ],
      "rotation": [ 0, 3 ],
      "rows": [
        "dddd",
        "i c ",
        "    ",
        " HHH"
      ],
      "items": {
        "d": [ { "item": "office", "chance": 25, "repeat": [ 1, 3 ] }, { "item": "electronics", "chance": 15 } ],
        "H": { "item": "bed", "chance": 15 },
        "i": { "item": "office", "chance": 95 },
        "B": [
          { "item": "magazines", "chance": 75, "repeat": [ 1, 5 ] },
          { "item": "lab_bookshelves", "chance": 55, "repeat": [ 1, 3 ] }
        ]
      },
      "furniture": { "i": "f_filing_cabinet" },
      "palettes": [ "lab_surface_palette" ]
    },
    "id": "4a436dc2-1cf1-4a59-9687-be511085ab47"
  },
  {
    "//": "4x4 upstairs office with south wall door on west side",
    "type": "mapgen",
    "method": "json",
    "nested_mapgen_id": "lab_surface_office_SWdoor4x4",
    "object": {
      "mapgensize": [ 4, 4 ],
      "rotation": [ 0, 3 ],
      "rows": [
        "B cd",
        "B  d",
        "i  d",
        "  cd"
      ],
      "items": {
        "d": [ { "item": "office", "chance": 25, "repeat": [ 1, 3 ] }, { "item": "electronics", "chance": 15 } ],
        "H": { "item": "bed", "chance": 15 },
        "i": { "item": "office", "chance": 95 },
        "B": [
          { "item": "magazines", "chance": 75, "repeat": [ 1, 5 ] },
          { "item": "lab_bookshelves", "chance": 55, "repeat": [ 1, 3 ] }
        ]
      },
      "furniture": { "i": "f_filing_cabinet" },
      "palettes": [ "lab_surface_palette" ]
    },
    "id": "48b620a6-32a6-4ed7-af80-1827e66c8e92"
  },
  {
    "//": "4x4 upstairs office with south wall door on west side",
    "type": "mapgen",
    "method": "json",
    "nested_mapgen_id": "lab_surface_office_SWdoor4x4",
    "object": {
      "mapgensize": [ 4, 4 ],
      "rotation": [ 0, 3 ],
      "rows": [
        "ddiB",
        "dc i",
        "  cd",
        "  dd"
      ],
      "items": {
        "d": [ { "item": "office", "chance": 25, "repeat": [ 1, 3 ] }, { "item": "electronics", "chance": 15 } ],
        "H": { "item": "bed", "chance": 15 },
        "i": { "item": "office", "chance": 95 },
        "B": [
          { "item": "magazines", "chance": 75, "repeat": [ 1, 5 ] },
          { "item": "lab_bookshelves", "chance": 55, "repeat": [ 1, 3 ] }
        ]
      },
      "furniture": { "i": "f_filing_cabinet" },
      "palettes": [ "lab_surface_palette" ]
    },
    "id": "a5df3081-fc84-40f5-bdd9-6bdd101a47f4"
  },
  {
    "//": "4x4 upstairs office with south wall door on west side",
    "type": "mapgen",
    "method": "json",
    "nested_mapgen_id": "lab_surface_office_SWdoor4x4",
    "object": {
      "mapgensize": [ 4, 4 ],
      "rotation": [ 0, 3 ],
      "rows": [
        "BBHH",
        "i   ",
        "  cd",
        " xdd"
      ],
      "items": {
        "d": [ { "item": "office", "chance": 25, "repeat": [ 1, 3 ] }, { "item": "electronics", "chance": 15 } ],
        "H": { "item": "bed", "chance": 15 },
        "i": { "item": "office", "chance": 95 },
        "B": [
          { "item": "magazines", "chance": 75, "repeat": [ 1, 5 ] },
          { "item": "lab_bookshelves", "chance": 55, "repeat": [ 1, 3 ] }
        ]
      },
      "furniture": { "i": "f_filing_cabinet" },
      "palettes": [ "lab_surface_palette" ]
    },
    "id": "00d1f392-2edc-4399-8ece-5527bb0f8844"
  },
  {
    "//": "4x4 upstairs office with south wall door on west side",
    "type": "mapgen",
    "method": "json",
    "nested_mapgen_id": "lab_surface_office_SWdoor4x4",
    "object": {
      "mapgensize": [ 4, 4 ],
      "rotation": [ 0, 3 ],
      "rows": [
        "dddd",
        "cddc",
        "    ",
        " iBB"
      ],
      "items": {
        "d": [ { "item": "office", "chance": 25, "repeat": [ 1, 3 ] }, { "item": "electronics", "chance": 15 } ],
        "H": { "item": "bed", "chance": 15 },
        "i": { "item": "office", "chance": 95 },
        "B": [
          { "item": "magazines", "chance": 75, "repeat": [ 1, 5 ] },
          { "item": "lab_bookshelves", "chance": 55, "repeat": [ 1, 3 ] }
        ]
      },
      "furniture": { "i": "f_filing_cabinet" },
      "palettes": [ "lab_surface_palette" ]
    },
    "id": "63a4d13f-9353-43ad-b50b-b38cad5a2ead"
  },
  {
    "//": "4x4 upstairs office with south wall door on east side",
    "type": "mapgen",
    "method": "json",
    "nested_mapgen_id": "lab_surface_office_SEdoor4x4",
    "object": {
      "mapgensize": [ 4, 4 ],
      "rotation": [ 0, 3 ],
      "rows": [
        "dddd",
        "ic  ",
        "B   ",
        "BBB "
      ],
      "items": {
        "d": [ { "item": "office", "chance": 25, "repeat": [ 1, 3 ] }, { "item": "electronics", "chance": 15 } ],
        "H": { "item": "bed", "chance": 15 },
        "i": { "item": "office", "chance": 95 },
        "B": [
          { "item": "magazines", "chance": 75, "repeat": [ 1, 5 ] },
          { "item": "lab_bookshelves", "chance": 55, "repeat": [ 1, 3 ] }
        ]
      },
      "furniture": { "i": "f_filing_cabinet" },
      "palettes": [ "lab_surface_palette" ]
    },
    "id": "2116c2f4-c14f-4b6c-a6eb-b762dd4a2bd1"
  },
  {
    "//": "4x4 upstairs office with south wall door on East side",
    "type": "mapgen",
    "method": "json",
    "nested_mapgen_id": "lab_surface_office_SEdoor4x4",
    "object": {
      "mapgensize": [ 4, 4 ],
      "rotation": [ 0, 3 ],
      "rows": [
        "dc B",
        "d  B",
        "d  i",
        "dc  "
      ],
      "items": {
        "d": [ { "item": "office", "chance": 25, "repeat": [ 1, 3 ] }, { "item": "electronics", "chance": 15 } ],
        "H": { "item": "bed", "chance": 15 },
        "i": { "item": "office", "chance": 95 },
        "B": [
          { "item": "magazines", "chance": 75, "repeat": [ 1, 5 ] },
          { "item": "lab_bookshelves", "chance": 55, "repeat": [ 1, 3 ] }
        ]
      },
      "furniture": { "i": "f_filing_cabinet" },
      "palettes": [ "lab_surface_palette" ]
    },
    "id": "065dbd06-b116-40d4-9ba4-1519a9f607b7"
  },
  {
    "//": "4x4 upstairs office with south wall door on East side",
    "type": "mapgen",
    "method": "json",
    "nested_mapgen_id": "lab_surface_office_SEdoor4x4",
    "object": {
      "mapgensize": [ 4, 4 ],
      "rotation": [ 0, 3 ],
      "rows": [
        "Bidd",
        "i cd",
        "dc  ",
        "dd  "
      ],
      "items": {
        "d": [ { "item": "office", "chance": 25, "repeat": [ 1, 3 ] }, { "item": "electronics", "chance": 15 } ],
        "H": { "item": "bed", "chance": 15 },
        "i": { "item": "office", "chance": 95 },
        "B": [
          { "item": "magazines", "chance": 75, "repeat": [ 1, 5 ] },
          { "item": "lab_bookshelves", "chance": 55, "repeat": [ 1, 3 ] }
        ]
      },
      "furniture": { "i": "f_filing_cabinet" },
      "palettes": [ "lab_surface_palette" ]
    },
    "id": "fc250c88-2e25-463e-b051-684966273748"
  },
  {
    "//": "4x4 upstairs office with south wall door on East side",
    "type": "mapgen",
    "method": "json",
    "nested_mapgen_id": "lab_surface_office_SEdoor4x4",
    "object": {
      "mapgensize": [ 4, 4 ],
      "rotation": [ 0, 3 ],
      "rows": [
        "HHBB",
        "   i",
        "dc  ",
        "ddx "
      ],
      "items": {
        "d": [ { "item": "office", "chance": 25, "repeat": [ 1, 3 ] }, { "item": "electronics", "chance": 15 } ],
        "H": { "item": "bed", "chance": 15 },
        "i": { "item": "office", "chance": 95 },
        "B": [
          { "item": "magazines", "chance": 75, "repeat": [ 1, 5 ] },
          { "item": "lab_bookshelves", "chance": 55, "repeat": [ 1, 3 ] }
        ]
      },
      "furniture": { "i": "f_filing_cabinet" },
      "palettes": [ "lab_surface_palette" ]
    },
    "id": "a6d97843-520c-4abd-a89f-ec61c95b780a"
  },
  {
    "//": "4x4 upstairs office with south wall door on East side",
    "type": "mapgen",
    "method": "json",
    "nested_mapgen_id": "lab_surface_office_SEdoor4x4",
    "object": {
      "mapgensize": [ 4, 4 ],
      "rotation": [ 0, 3 ],
      "rows": [
        "dddd",
        "cddc",
        "    ",
        "BBi "
      ],
      "items": {
        "d": [ { "item": "office", "chance": 25, "repeat": [ 1, 3 ] }, { "item": "electronics", "chance": 15 } ],
        "H": { "item": "bed", "chance": 15 },
        "i": { "item": "office", "chance": 95 },
        "B": [
          { "item": "magazines", "chance": 75, "repeat": [ 1, 5 ] },
          { "item": "lab_bookshelves", "chance": 55, "repeat": [ 1, 3 ] }
        ]
      },
      "furniture": { "i": "f_filing_cabinet" },
      "palettes": [ "lab_surface_palette" ]
    },
    "id": "19e7057f-019d-4de8-b04a-ec4841c89d41"
  },
  {
    "//": "5x5 offices",
    "type": "mapgen",
    "method": "json",
    "nested_mapgen_id": "lab_surface_office_5x5",
    "object": {
      "mapgensize": [ 5, 5 ],
      "rotation": [ 0, 3 ],
      "rows": [
        "dB rB",
        "dc  B",
        "Bf   ",
        "dc   ",
        "dx   "
      ],
      "terrain": { " ": "t_floor", "f": "t_floor", "r": "t_floor", "H": "t_floor", "d": "t_floor", "c": "t_floor", "B": "t_floor" },
      "items": {
        "d": [ { "item": "office", "chance": 25, "repeat": [ 1, 3 ] }, { "item": "electronics", "chance": 15 } ],
        "H": { "item": "bed", "chance": 15 },
        "i": { "item": "office", "chance": 95 },
        "r": { "item": "tools_science", "chance": 80 },
        "f": { "item": "fridgesnacks", "chance": 50, "repeat": 4 },
        "B": [
          { "item": "magazines", "chance": 75, "repeat": [ 1, 5 ] },
          { "item": "lab_bookshelves", "chance": 55, "repeat": [ 1, 3 ] }
        ]
      },
      "palettes": [ "lab_surface_palette" ]
    },
    "id": "5c906e7f-cda4-44b6-a1c6-88807ca6aa66"
  },
  {
    "//": "5x5 offices",
    "type": "mapgen",
    "method": "json",
    "nested_mapgen_id": "lab_surface_office_5x5",
    "object": {
      "mapgensize": [ 5, 5 ],
      "rotation": [ 0, 3 ],
      "rows": [
        "xddBl",
        "dc   ",
        "     ",
        "dc   ",
        "ddd  "
      ],
      "terrain": {
        " ": "t_floor",
        "f": "t_floor",
        "r": "t_floor",
        "H": "t_floor",
        "d": "t_floor",
        "c": "t_floor",
        "l": "t_floor",
        "s": "t_floor",
        "B": "t_floor"
      },
      "items": {
        "d": [ { "item": "office", "chance": 25, "repeat": [ 1, 3 ] }, { "item": "electronics", "chance": 15 } ],
        "H": { "item": "bed", "chance": 15 },
        "i": { "item": "office", "chance": 95 },
        "r": { "item": "tools_science", "chance": 80 },
        "f": { "item": "fridgesnacks", "chance": 50, "repeat": 4 },
        "B": [
          { "item": "magazines", "chance": 75, "repeat": [ 1, 5 ] },
          { "item": "lab_bookshelves", "chance": 55, "repeat": [ 1, 3 ] }
        ]
      },
      "palettes": [ "lab_surface_palette" ]
    },
    "id": "641599de-051f-4468-9836-6e97e9f26655"
  },
  {
    "//": "5x5 single office",
    "type": "mapgen",
    "method": "json",
    "nested_mapgen_id": "lab_surface_office_5x5",
    "object": {
      "mapgensize": [ 5, 5 ],
      "rotation": [ 0, 3 ],
      "rows": [
        " rHHH",
        "    H",
        "x    ",
        "dc   ",
        "ddBB "
      ],
      "terrain": { " ": "t_floor", "r": "t_floor", "H": "t_floor", "d": "t_floor", "c": "t_floor", "B": "t_floor" },
      "items": {
        "d": [ { "item": "office", "chance": 25, "repeat": [ 1, 3 ] }, { "item": "electronics", "chance": 15 } ],
        "H": { "item": "bed", "chance": 15 },
        "i": { "item": "office", "chance": 95 },
        "r": { "item": "tools_science", "chance": 80 },
        "f": { "item": "fridgesnacks", "chance": 50, "repeat": 4 },
        "B": [
          { "item": "magazines", "chance": 75, "repeat": [ 1, 5 ] },
          { "item": "lab_bookshelves", "chance": 55, "repeat": [ 1, 3 ] }
        ]
      },
      "palettes": [ "lab_surface_palette" ]
    },
    "id": "1a9a2c49-0262-4497-b191-ce0744fcff8e"
  },
  {
    "//": "5x5 single office",
    "type": "mapgen",
    "method": "json",
    "nested_mapgen_id": "lab_surface_office_5x5",
    "object": {
      "mapgensize": [ 5, 5 ],
      "rotation": [ 0, 3 ],
      "rows": [
        "dx  B",
        "dc  B",
        "f    ",
        "    c",
        "dHH  "
      ],
      "terrain": {
        " ": "t_carpet_red",
        "f": "t_carpet_red",
        "r": "t_carpet_red",
        "H": "t_carpet_red",
        "d": "t_carpet_red",
        "c": "t_carpet_red",
        "B": "t_carpet_red"
      },
      "items": {
        "d": [ { "item": "office", "chance": 25, "repeat": [ 1, 3 ] }, { "item": "electronics", "chance": 15 } ],
        "H": { "item": "bed", "chance": 15 },
        "i": { "item": "office", "chance": 95 },
        "r": { "item": "tools_science", "chance": 80 },
        "f": { "item": "fridgesnacks", "chance": 50, "repeat": 4 },
        "B": [
          { "item": "magazines", "chance": 75, "repeat": [ 1, 5 ] },
          { "item": "lab_bookshelves", "chance": 55, "repeat": [ 1, 3 ] }
        ]
      },
      "palettes": [ "lab_surface_palette" ]
    },
    "id": "760a6c5a-2077-40ed-8626-580ebfcdf6aa"
  },
  {
    "//": "5x5 three-seat office",
    "type": "mapgen",
    "method": "json",
    "nested_mapgen_id": "lab_surface_office_5x5",
    "object": {
      "mapgensize": [ 5, 5 ],
      "rotation": [ 0, 3 ],
      "rows": [
        "dxBdd",
        "ds cx",
        "B    ",
        "dc   ",
        "ddB  "
      ],
      "terrain": {
        " ": "t_linoleum_gray",
        "r": "t_linoleum_gray",
        "d": "t_linoleum_gray",
        "c": "t_linoleum_gray",
        "s": "t_linoleum_gray",
        "B": "t_linoleum_gray"
      },
      "items": {
        "d": [ { "item": "office", "chance": 25, "repeat": [ 1, 3 ] }, { "item": "electronics", "chance": 15 } ],
        "H": { "item": "bed", "chance": 15 },
        "i": { "item": "office", "chance": 95 },
        "r": { "item": "tools_science", "chance": 80 },
        "f": { "item": "fridgesnacks", "chance": 50, "repeat": 4 },
        "B": [
          { "item": "magazines", "chance": 75, "repeat": [ 1, 5 ] },
          { "item": "lab_bookshelves", "chance": 55, "repeat": [ 1, 3 ] }
        ]
      },
      "palettes": [ "lab_surface_palette" ]
    },
    "id": "89758d5b-689f-4982-bb08-a826308746c7"
  },
  {
    "//": "5x5 meeting room",
    "type": "mapgen",
    "method": "json",
    "nested_mapgen_id": "lab_surface_meeting_5x5",
    "object": {
      "mapgensize": [ 5, 5 ],
      "rotation": [ 0, 3 ],
      "rows": [
        "     ",
        " ctc ",
        " txt ",
        " ctc ",
        "     "
      ],
      "terrain": { " ": "t_floor", "c": "t_floor", "t": "t_floor" },
      "items": { "t": [ { "item": "office", "chance": 15, "repeat": 2 }, { "item": "electronics", "chance": 5 } ] },
      "palettes": [ "lab_surface_palette" ]
    },
    "id": "777283e1-965c-4752-a0cb-70c07cf138ad"
  },
  {
    "//": "5x5 three-seat office",
    "type": "mapgen",
    "method": "json",
    "nested_mapgen_id": "lab_surface_meeting_5x5",
    "object": {
      "mapgensize": [ 5, 5 ],
      "rotation": [ 0, 3 ],
      "rows": [
        " ccc ",
        "ctttc",
        "     ",
        "ctttc",
        " ccc "
      ],
      "terrain": { " ": "t_floor", "c": "t_floor", "t": "t_floor" },
      "items": { "t": [ { "item": "office", "chance": 15, "repeat": 2 }, { "item": "electronics", "chance": 5 } ] },
      "palettes": [ "lab_surface_palette" ]
    },
    "id": "19984fb4-ea13-4d4e-859a-8e1b69c4fe9b"
  },
  {
    "//": "5x5 three-seat office",
    "type": "mapgen",
    "method": "json",
    "nested_mapgen_id": "lab_surface_meeting_5x5",
    "object": {
      "mapgensize": [ 5, 5 ],
      "rotation": [ 0, 3 ],
      "rows": [
        "  c  ",
        " ctc ",
        " ctc ",
        " ctc ",
        "  c  "
      ],
      "terrain": { " ": "t_floor", "c": "t_floor", "t": "t_floor" },
      "palettes": [ "lab_surface_palette" ]
    },
    "id": "a4b88d2b-9cdf-48be-ada6-135ac3b50c19"
  },
  {
    "//": "5x5 three-seat office",
    "type": "mapgen",
    "method": "json",
    "nested_mapgen_id": "lab_surface_meeting_5x5",
    "object": {
      "mapgensize": [ 5, 5 ],
      "rotation": [ 0, 3 ],
      "rows": [
        "xx1xx",
        "cc cc",
        "     ",
        "cc cc",
        "xx1xx"
      ],
      "terrain": { "1": "t_floor", " ": "t_floor", "c": "t_floor", "t": "t_floor" },
      "palettes": [ "lab_surface_palette" ]
    },
    "id": "b05c855e-a71f-48b7-ab0c-6378bba44b3c"
  },
  {
    "//": "5x5 lab front room",
    "type": "mapgen",
    "method": "json",
    "nested_mapgen_id": "lab_surface_2partworkspace_front_5x5",
    "object": {
      "mapgensize": [ 5, 5 ],
      "rotation": [ 0, 3 ],
      "rows": [
        "bb  f",
        "Hs  f",
        "     ",
        "os   ",
        "bbbbS"
      ],
      "items": {
        "8": [
          { "item": "supplies_reagents_lab", "chance": 50, "repeat": [ 2, 5 ] },
          { "item": "supplies_samples_lab", "chance": 30, "repeat": [ 1, 3 ] }
        ],
        "b": { "item": "tools_science", "chance": 30, "repeat": [ 1, 2 ] },
        "f": { "item": "supplies_reagents_lab", "chance": 60, "repeat": [ 1, 5 ] },
        "S": { "item": "cleaning", "chance": 30, "repeat": [ 1, 2 ] }
      },
      "palettes": [ "lab_workspace_palette" ]
    },
    "id": "58641b13-9f0d-43a6-baf3-953bd44d20a9"
  },
  {
    "//": "5x5 lab front room",
    "type": "mapgen",
    "method": "json",
    "nested_mapgen_id": "lab_surface_2partworkspace_front_5x5",
    "object": {
      "mapgensize": [ 5, 5 ],
      "rotation": [ 0, 3 ],
      "rows": [
        "bb bb",
        "Hs sH",
        "     ",
        "     ",
        "f8SCh"
      ],
      "items": {
        "8": [
          { "item": "supplies_reagents_lab", "chance": 50, "repeat": [ 2, 5 ] },
          { "item": "supplies_samples_lab", "chance": 30, "repeat": [ 1, 3 ] }
        ],
        "b": { "item": "tools_science", "chance": 30, "repeat": [ 1, 2 ] },
        "f": { "item": "supplies_reagents_lab", "chance": 60, "repeat": [ 1, 5 ] },
        "S": { "item": "cleaning", "chance": 30, "repeat": [ 1, 2 ] }
      },
      "palettes": [ "lab_workspace_palette" ]
    },
    "id": "3d7eba95-2a24-40f2-8515-43d826b80c5b"
  },
  {
    "//": "5x5 lab front room",
    "type": "mapgen",
    "method": "json",
    "nested_mapgen_id": "lab_surface_2partworkspace_front_5x5",
    "object": {
      "mapgensize": [ 5, 5 ],
      "rotation": [ 0, 3 ],
      "rows": [
        "bb dd",
        "bs cx",
        "     ",
        "bs  f",
        "bbSDC"
      ],
      "items": {
        "8": [
          { "item": "supplies_reagents_lab", "chance": 50, "repeat": [ 2, 5 ] },
          { "item": "supplies_samples_lab", "chance": 30, "repeat": [ 1, 3 ] }
        ],
        "b": { "item": "tools_science", "chance": 30, "repeat": [ 1, 2 ] },
        "f": { "item": "supplies_reagents_lab", "chance": 60, "repeat": [ 1, 5 ] },
        "S": { "item": "cleaning", "chance": 30, "repeat": [ 1, 2 ] }
      },
      "palettes": [ "lab_workspace_palette" ]
    },
    "id": "330e3724-9eb3-456a-9715-208a63daecf1"
  },
  {
    "//": "5x5 lab front room",
    "type": "mapgen",
    "method": "json",
    "nested_mapgen_id": "lab_surface_2partworkspace_front_5x5",
    "object": {
      "mapgensize": [ 5, 5 ],
      "rotation": [ 0, 3 ],
      "rows": [
        "F   h",
        "s S  ",
        "  b  ",
        " sbs ",
        "fbbbf"
      ],
      "items": {
        "8": [
          { "item": "supplies_reagents_lab", "chance": 50, "repeat": [ 2, 5 ] },
          { "item": "supplies_samples_lab", "chance": 30, "repeat": [ 1, 3 ] }
        ],
        "b": { "item": "tools_science", "chance": 30, "repeat": [ 1, 2 ] },
        "f": { "item": "supplies_reagents_lab", "chance": 60, "repeat": [ 1, 5 ] },
        "F": { "item": "dissection", "chance": 60, "repeat": [ 1, 3 ] },
        "S": { "item": "cleaning", "chance": 30, "repeat": [ 1, 2 ] }
      },
      "palettes": [ "lab_workspace_palette" ]
    },
    "id": "d835d708-fd46-43de-9fb1-d63e6fd246d6"
  },
  {
    "//": "5x5 lab back room",
    "type": "mapgen",
    "method": "json",
    "nested_mapgen_id": "lab_surface_2partworkspace_back_5x5",
    "object": {
      "mapgensize": [ 5, 5 ],
      "rotation": [ 0, 3 ],
      "rows": [
        "bbSbb",
        "bs sb",
        "     ",
        " s   ",
        "Fbhf8"
      ],
      "items": {
        "8": [
          { "item": "supplies_reagents_lab", "chance": 50, "repeat": [ 2, 5 ] },
          { "item": "supplies_samples_lab", "chance": 30, "repeat": [ 1, 3 ] }
        ],
        "b": { "item": "tools_science", "chance": 30, "repeat": [ 1, 2 ] },
        "f": { "item": "supplies_reagents_lab", "chance": 60, "repeat": [ 1, 5 ] },
        "F": { "item": "dissection", "chance": 60, "repeat": [ 1, 3 ] },
        "S": { "item": "cleaning", "chance": 30, "repeat": [ 1, 2 ] }
      },
      "palettes": [ "lab_workspace_palette" ]
    },
    "id": "f0596a97-82e5-4603-a397-1ffabf6926de"
  },
  {
    "//": "5x5 lab back room",
    "type": "mapgen",
    "method": "json",
    "nested_mapgen_id": "lab_surface_2partworkspace_back_5x5",
    "object": {
      "mapgensize": [ 5, 5 ],
      "rotation": [ 0, 3 ],
      "rows": [
        "bFSFb",
        "fs sf",
        "     ",
        " sHs ",
        "bbMbb"
      ],
      "items": {
        "8": [
          { "item": "supplies_reagents_lab", "chance": 50, "repeat": [ 2, 5 ] },
          { "item": "supplies_samples_lab", "chance": 30, "repeat": [ 1, 3 ] }
        ],
        "b": { "item": "tools_science", "chance": 30, "repeat": [ 1, 2 ] },
        "f": { "item": "supplies_reagents_lab", "chance": 60, "repeat": [ 1, 5 ] },
        "F": { "item": "dissection", "chance": 60, "repeat": [ 1, 3 ] },
        "S": { "item": "cleaning", "chance": 30, "repeat": [ 1, 2 ] }
      },
      "palettes": [ "lab_workspace_palette" ]
    },
    "id": "230ab142-52db-4e19-8ec8-19c58082d67f"
  },
  {
    "//": "5x5 lab back room",
    "type": "mapgen",
    "method": "json",
    "nested_mapgen_id": "lab_surface_2partworkspace_back_5x5",
    "object": {
      "mapgensize": [ 5, 5 ],
      "rotation": [ 0, 3 ],
      "rows": [
        "bbSbb",
        "Fs sF",
        "     ",
        "#=#sb",
        "N #bb"
      ],
      "items": {
        "8": [
          { "item": "supplies_reagents_lab", "chance": 50, "repeat": [ 2, 5 ] },
          { "item": "supplies_samples_lab", "chance": 30, "repeat": [ 1, 3 ] }
        ],
        "b": { "item": "tools_science", "chance": 30, "repeat": [ 1, 2 ] },
        "f": { "item": "supplies_reagents_lab", "chance": 60, "repeat": [ 1, 5 ] },
        "F": { "item": "dissection", "chance": 60, "repeat": [ 1, 3 ] },
        "S": { "item": "cleaning", "chance": 30, "repeat": [ 1, 2 ] }
      },
      "palettes": [ "lab_workspace_palette" ]
    },
    "id": "70b1967f-ccde-4f6e-a9e1-b36c07860bb3"
  },
  {
    "//": "5x5 lab back room",
    "type": "mapgen",
    "method": "json",
    "nested_mapgen_id": "lab_surface_2partworkspace_back_5x5",
    "object": {
      "mapgensize": [ 5, 5 ],
      "rotation": [ 0, 3 ],
      "rows": [
        "dc|cd",
        "|-|-|",
        "     ",
        "|-|-|",
        "dc|cd"
      ],
      "items": {
        "d": [
          { "item": "office", "chance": 50, "repeat": [ 2, 5 ] },
          { "item": "tools_science", "chance": 30, "repeat": [ 1, 3 ] }
        ]
      },
      "palettes": [ "lab_workspace_palette" ]
    },
    "id": "79f5a4e4-9c22-4504-9ef2-82ea5b00965d"
  },
  {
    "//": "5x5 lab back room",
    "type": "mapgen",
    "method": "json",
    "nested_mapgen_id": "lab_surface_2partworkspace_back_5x5",
    "object": {
      "mapgensize": [ 5, 5 ],
      "rotation": [ 0, 3 ],
      "rows": [
        "bbMbb",
        "SsGsF",
        "     ",
        "fsHs8",
        "bbMbb"
      ],
      "items": {
        "8": [
          { "item": "supplies_reagents_lab", "chance": 50, "repeat": [ 2, 5 ] },
          { "item": "supplies_samples_lab", "chance": 30, "repeat": [ 1, 3 ] }
        ],
        "b": { "item": "tools_science", "chance": 30, "repeat": [ 1, 2 ] },
        "f": { "item": "supplies_reagents_lab", "chance": 60, "repeat": [ 1, 5 ] },
        "F": { "item": "dissection", "chance": 60, "repeat": [ 1, 3 ] },
        "S": { "item": "cleaning", "chance": 30, "repeat": [ 1, 2 ] }
      },
      "palettes": [ "lab_workspace_palette" ]
    },
    "id": "52e57db3-37fa-4cd0-a176-baa30d56c15c"
  },
  {
    "//": "8x8 lobby cafe",
    "type": "mapgen",
    "method": "json",
    "nested_mapgen_id": "lab_surface_cafe_8x8",
    "object": {
      "mapgensize": [ 8, 8 ],
      "rotation": [ 0, 3 ],
      "rows": [
        "rrf%%%%%",
        "r%%%%%%%",
        "CCCCvvv%",
        " sss    ",
        "s    s  ",
        "ts  sts ",
        "  s  s  ",
        " sts    "
      ],
      "terrain": { "r": "t_linoleum_white", "f": "t_linoleum_white" },
      "furniture": { "v": "f_glass_fridge" },
      "items": {
        "v": { "item": "coffee_shop", "chance": 90, "repeat": [ 2, 10 ] },
        "C": { "item": "coffee_shop", "chance": 80, "repeat": [ 2, 8 ] },
        "r": { "item": "magazines", "chance": 80, "repeat": [ 2, 10 ] }
      },
      "palettes": [ "lab_surface_palette" ]
    },
    "id": "ac0ee26a-6fbe-4843-9527-955669c5907a"
  },
  {
    "//": "8x8 lobby comfy seating area",
    "type": "mapgen",
    "method": "json",
    "nested_mapgen_id": "lab_surface_cafe_8x8",
    "object": {
      "mapgensize": [ 8, 8 ],
      "rotation": [ 0, 3 ],
      "rows": [
        "HHH   HH",
        "Httc ctH",
        "Httc ctH",
        " cc  ctH",
        " cc   c ",
        "Httc    ",
        "Httc    ",
        "HHc     "
      ],
      "furniture": { "c": [ "f_armchair", "f_armchair", "f_null", "f_null", "f_null", "f_null" ] },
      "items": { "t": { "item": "magazines", "chance": 20 } },
      "palettes": [ "lab_surface_palette" ]
    },
    "id": "f65d0ca0-7b6d-4925-b354-82c104c323b0"
  },
  {
    "//": "8x8 lobby comfy seating area",
    "type": "mapgen",
    "method": "json",
    "nested_mapgen_id": "lab_surface_cafe_8x8",
    "object": {
      "mapgensize": [ 8, 8 ],
      "rotation": [ 0, 3 ],
      "rows": [
        "HHBHHBHH",
        "        ",
        "HHH     ",
        "ttH  Htt",
        "     HHH",
        " c      ",
        "ctc  ctc",
        " c      "
      ],
      "furniture": { "c": "f_armchair" },
      "items": { "t": { "item": "magazines", "chance": 20 } },
      "palettes": [ "lab_surface_palette" ]
    },
    "id": "1844b030-91e3-4fe6-9565-ce0847fdd9bc"
  },
  {
    "//": "8x8 lobby juice bar",
    "type": "mapgen",
    "method": "json",
    "nested_mapgen_id": "lab_surface_cafe_8x8",
    "object": {
      "mapgensize": [ 8, 8 ],
      "rotation": [ 0, 3 ],
      "rows": [
        "tt tt tt",
        "ss ss ss",
        "        ",
        "  ssss  ",
        "  CCCC  ",
        "  %%%C  ",
        "  x%%%  ",
        "  Cffr  "
      ],
      "furniture": { "f": "f_glass_fridge" },
      "items": {
        "f": { "item": "fridgesnacks", "chance": 90, "repeat": [ 2, 15 ] },
        "C": { "item": "produce", "chance": 80, "repeat": [ 2, 8 ] },
        "r": { "item": "magazines", "chance": 80, "repeat": [ 2, 10 ] }
      },
      "palettes": [ "lab_surface_palette" ]
    },
    "id": "998972dc-351b-4d45-b3a8-bf72df377524"
  },
  {
    "//": "11x11 round meeting room",
    "type": "mapgen",
    "method": "json",
    "nested_mapgen_id": "lab_surface_room_11x11",
    "object": {
      "mapgensize": [ 11, 11 ],
      "rotation": [ 0, 3 ],
      "rows": [
        "           ",
        "   ccccc   ",
        "  ctttttc  ",
        " cttxtxttc ",
        " ctx   xtc ",
        " ctt   ttc ",
        " ctx   xtc ",
        " cttxtxttc ",
        "  ctttttc  ",
        "   ccccc   ",
        "           "
      ],
      "items": { "c": { "item": "office", "chance": 8 }, "t": { "item": "electronics", "chance": 15 } },
      "palettes": [ "lab_surface_palette" ]
    },
    "id": "364e1bb3-c031-447f-be15-c4b1bdcd3c1a"
  },
  {
    "//": "11x11 small lecture room",
    "type": "mapgen",
    "method": "json",
    "nested_mapgen_id": "lab_surface_room_11x11",
    "object": {
      "mapgensize": [ 11, 11 ],
      "rotation": [ 0, 3 ],
      "rows": [
        "           ",
        "  dc dc dc ",
        "% dc dc dc ",
        "% dc dc dc ",
        "% dc dc dc ",
        "%          ",
        "% dc dc dc ",
        "% dc dc dc ",
        "% dc dc dc ",
        "  dc dc dc ",
        "           "
      ],
      "terrain": { "%": "t_carpet_yellow" },
      "items": { "d": { "item": "office", "chance": 8 } },
      "palettes": [ "lab_surface_palette" ]
    },
    "id": "9df456e6-3a94-40c4-80e9-267892810edb"
  },
  {
    "//": "11x11 computer lab",
    "type": "mapgen",
    "method": "json",
    "nested_mapgen_id": "lab_surface_room_11x11",
    "object": {
      "mapgensize": [ 11, 11 ],
      "rotation": [ 0, 3 ],
      "rows": [
        "           ",
        " cxxc cxxc ",
        " cxxc cxxc ",
        " cxxc cxxc ",
        " cxxc cxxc ",
        "           ",
        " cxxc cxxc ",
        " cxxc cxxc ",
        " cxxc cxxc ",
        " cxxc cxxc ",
        "           "
      ],
      "terrain": { "%": "t_carpet_yellow" },
      "palettes": [ "lab_surface_palette" ]
    },
    "id": "e2dfd229-36b4-44d7-a754-1a42e1b62444"
  },
  {
    "//": "11x11 presentation room",
    "type": "mapgen",
    "method": "json",
    "nested_mapgen_id": "lab_surface_room_11x11",
    "object": {
      "mapgensize": [ 11, 11 ],
      "rotation": [ 0, 3 ],
      "rows": [
        " %%%%%s%%% ",
        "  %r%%Cx%  ",
        "           ",
        " cccc cccc ",
        " cccc cccc ",
        " cccc cccc ",
        " cccc cccc ",
        " cccc cccc ",
        " cccc cccc ",
        " cccc cccc ",
        "           "
      ],
      "terrain": { " ": "t_carpet_red", "c": "t_carpet_red", "%": "t_floor", "r": "t_floor", "s": "t_floor", "C": "t_floor" },
      "items": { "c": { "item": "office", "chance": 10 }, "C": { "item": "office", "chance": 45 } },
      "palettes": [ "lab_surface_palette" ]
    },
    "id": "fb59b594-7000-412e-94ed-8a679cfafb15"
  },
  {
    "//": "11x11 room with water and air filters",
    "type": "mapgen",
    "method": "json",
    "nested_mapgen_id": "lab_utility_room_11x11",
    "object": {
      "mapgensize": [ 11, 11 ],
      "rotation": [ 0, 3 ],
      "rows": [
        "AACtttUc   ",
        "t          ",
        "AACtttU   U",
        "t         U",
        "AACtttU   U",
        "#########m#",
        "WWW UUUU   ",
        "WWW        ",
        "PP         ",
        "SSmSSmSSm  ",
        "SSPSSPSSm  "
      ],
      "terrain": {
        " ": "t_strconc_floor",
        "A": "t_strconc_floor",
        "c": "t_strconc_floor",
        "C": "t_strconc_floor",
        "m": "t_machinery_heavy",
        "P": "t_sewage_pipe",
        "t": "t_strconc_floor",
        "S": "t_strconc_floor",
        "U": "t_strconc_floor",
        "W": "t_strconc_floor"
      },
      "furniture": {
        "A": "f_air_filter",
        "C": "f_air_compressor",
        "t": "f_standing_tank",
        "S": "f_standing_tank",
        "U": "f_utility_shelf",
        "W": "f_water_purifier"
      },
      "mapping": {
        "U": {
          "items": [
            { "item": "tools_lighting_industrial", "chance": 40, "repeat": [ 1, 2 ] },
            { "item": "hardware_plumbing", "chance": 40, "repeat": [ 1, 2 ] },
            { "item": "hardware", "chance": 60, "repeat": [ 1, 2 ] },
            { "item": "tools_common", "chance": 60, "repeat": [ 1, 3 ] }
          ]
        }
      },
      "place_liquids": [
        { "liquid": "water_clean", "repeat": [ 200, 600 ], "x": [ 0, 1 ], "y": [ 9, 10 ] },
        { "liquid": "water_clean", "repeat": [ 200, 600 ], "x": [ 3, 4 ], "y": [ 9, 10 ] },
        { "liquid": "water_clean", "repeat": [ 200, 600 ], "x": [ 6, 7 ], "y": [ 9, 10 ] }
      ],
      "palettes": [ "lab_surface_palette" ]
    },
    "id": "6027b5b0-cbf7-4c3f-af65-18cb16445924"
  },
  {
    "//": "11x11 room with furnaces and maintenance",
    "type": "mapgen",
    "method": "json",
    "nested_mapgen_id": "lab_furnace_room_11x11",
    "object": {
      "mapgensize": [ 11, 11 ],
      "rotation": [ 0, 3 ],
      "rows": [
        "FFAFFAFF   ",
        "FF FF FF   ",
        "          U",
        "###########",
        "CCBCD uuuuu",
        "C     u u u",
        "T     u u u",
        "C     u u u",
        "R          ",
        "C          ",
        "CCLCUUUUU  "
      ],
      "terrain": {
        " ": "t_strconc_floor",
        "#": "t_brick_wall",
        "A": "t_strconc_floor",
        "B": "t_strconc_floor",
        "C": "t_strconc_floor",
        "D": "t_strconc_floor",
        "F": "t_strconc_floor",
        "L": "t_strconc_floor",
        "m": "t_machinery_heavy",
        "R": "t_strconc_floor",
        "T": "t_strconc_floor",
        "u": "t_strconc_floor",
        "U": "t_strconc_floor"
      },
      "furniture": {
        "A": "f_air_filter",
        "B": "f_bandsaw",
        "C": "f_counter",
        "D": "f_drill_press",
        "F": "f_home_furnace",
        "L": "f_heavy_lathe",
        "R": "f_router",
        "T": "f_tablesaw",
        "u": "f_utility_shelf",
        "U": "f_utility_shelf"
      },
      "mapping": {
        "U": {
          "items": [
            { "item": "tools_lighting_industrial", "chance": 30, "repeat": [ 1, 2 ] },
            { "item": "tools_electronics", "chance": 20 },
            { "item": "tools_carpentry", "chance": 30, "repeat": [ 1, 3 ] },
            { "item": "tools_earthworking", "chance": 30, "repeat": [ 1, 2 ] },
            { "item": "tools_construction", "chance": 10 }
          ]
        },
        "u": {
          "items": [
            { "item": "hardware", "chance": 40, "repeat": [ 1, 2 ] },
            { "item": "electronics", "chance": 40 },
            { "item": "hardware_bulk", "chance": 70 }
          ]
        },
        "C": {
          "items": [
            { "item": "tools_carpentry", "chance": 5 },
            { "item": "tools_earthworking", "chance": 4 },
            { "item": "tools_common", "chance": 4 }
          ]
        }
      }
    },
    "id": "38cb466a-e656-41c0-ad1c-2ab7ddad972c"
  },
  {
    "//": "11x11 large lab workspace, doors left side bottom",
    "//2": "analytical lab with GC/HPLC/MS and NMR",
    "type": "mapgen",
    "method": "json",
    "nested_mapgen_id": "lab_surface_workspace_Wdoor_11x11",
    "object": {
      "mapgensize": [ 11, 11 ],
      "rotation": [ 0, 3 ],
      "rows": [
        "ff8|bNb|FFb",
        "   |   |ssb",
        "::=|::=|  S",
        "          U",
        "GM   MH   U",
        "bs  sbbs  b",
        "bs  sbbs  b",
        "bb&  So   a",
        "####      S",
        "Ull#e     C",
        "   =    &CC"
      ],
      "items": {
        "8": [
          { "item": "supplies_reagents_lab", "chance": 70, "repeat": [ 2, 5 ] },
          { "item": "supplies_samples_lab", "chance": 40, "repeat": [ 1, 3 ] }
        ],
        "b": { "item": "tools_science", "chance": 30, "repeat": [ 1, 2 ] },
        "f": { "item": "supplies_reagents_lab", "chance": 70, "repeat": [ 2, 5 ] },
        "C": { "item": "cleaning", "chance": 30, "repeat": [ 1, 2 ] },
        "U": { "item": "lab_shoes", "chance": 40, "repeat": [ 1, 8 ] },
        "l": { "item": "lab_torso", "chance": 40, "repeat": [ 1, 8 ] }
      },
      "palettes": [ "lab_workspace_palette" ]
    },
    "id": "db1e5314-3ee7-48a4-ae52-aaa362cd15dd"
  },
  {
    "//": "11x11 large lab workspace, doors left side bottom",
    "//2": "biolab with decon shower",
    "type": "mapgen",
    "method": "json",
    "nested_mapgen_id": "lab_surface_workspace_Wdoor_11x11",
    "object": {
      "mapgensize": [ 11, 11 ],
      "rotation": [ 0, 3 ],
      "rows": [
        "ff8|hhh|8ff",
        "   |   |   ",
        "::=|A=A|:=:",
        "S         S",
        "bs  Sbs  sb",
        "F   Fb    o",
        "F  sbE    F",
        "bs       sb",
        "####e#=####",
        "Ull### llll",
        "   =H=    &"
      ],
      "furniture": { "H": "f_shower" },
      "items": {
        "8": [
          { "item": "supplies_reagents_lab", "chance": 70, "repeat": [ 2, 5 ] },
          { "item": "supplies_samples_lab", "chance": 40, "repeat": [ 1, 3 ] }
        ],
        "b": { "item": "tools_science", "chance": 30, "repeat": [ 1, 2 ] },
        "f": { "item": "supplies_reagents_lab", "chance": 70, "repeat": [ 2, 5 ] },
        "F": { "item": "dissection", "chance": 70, "repeat": [ 2, 5 ] },
        "C": { "item": "cleaning", "chance": 30, "repeat": [ 1, 2 ] },
        "U": { "item": "lab_shoes", "chance": 40, "repeat": [ 1, 8 ] },
        "l": { "item": "lab_torso", "chance": 40, "repeat": [ 1, 8 ] }
      },
      "palettes": [ "lab_workspace_palette" ]
    },
    "id": "91792a94-3acb-49cf-a435-22a6a55b6630"
  },
  {
    "//": "11x11 large lab workspace, doors left side bottom",
    "//2": "biolab with imaging equipment",
    "type": "mapgen",
    "method": "json",
    "nested_mapgen_id": "lab_surface_workspace_Wdoor_11x11",
    "object": {
      "mapgensize": [ 11, 11 ],
      "rotation": [ 0, 3 ],
      "rows": [
        "ff8|c O|c 0",
        "   |  I|  I",
        "::-|-::|-::",
        "           ",
        "     xx   b",
        "S    sx  sb",
        "bs    &   b",
        "bbF&     SC",
        "####e#=####",
        "Ull### llll",
        "   =H=    &"
      ],
      "furniture": { "H": "f_shower" },
      "items": {
        "8": [
          { "item": "supplies_reagents_lab", "chance": 70, "repeat": [ 2, 5 ] },
          { "item": "supplies_samples_lab", "chance": 40, "repeat": [ 1, 3 ] }
        ],
        "b": [
          { "item": "tools_science", "chance": 15, "repeat": [ 1, 2 ] },
          { "item": "hospital_lab", "chance": 15, "repeat": [ 1, 2 ] }
        ],
        "f": { "item": "supplies_reagents_lab", "chance": 70, "repeat": [ 2, 5 ] },
        "F": { "item": "dissection", "chance": 70, "repeat": [ 2, 5 ] },
        "C": { "item": "cleaning", "chance": 30, "repeat": [ 1, 2 ] },
        "U": { "item": "lab_shoes", "chance": 40, "repeat": [ 1, 8 ] },
        "l": { "item": "lab_torso", "chance": 40, "repeat": [ 1, 8 ] }
      },
      "palettes": [ "lab_workspace_palette" ]
    },
    "id": "46d642a8-a192-4649-90e2-0eb3f511d326"
  },
  {
    "//": "11x11 large lab workspace, doors left side bottom",
    "//2": "lab with small sub-rooms",
    "type": "mapgen",
    "method": "json",
    "nested_mapgen_id": "lab_surface_workspace_Wdoor_11x11",
    "object": {
      "mapgensize": [ 11, 11 ],
      "rotation": [ 0, 3 ],
      "rows": [
        "bbFbb8bHMob",
        "bs sS s  sS",
        "f        &b",
        "#####-#####",
        "bbbS# #f bb",
        "Fs  - -  sb",
        "bbb&# #& Sb",
        "##### #####",
        "llUSC #8Hbb",
        "f   & -  sb",
        "      #f &S"
      ],
      "items": {
        "8": [
          { "item": "supplies_reagents_lab", "chance": 70, "repeat": [ 2, 5 ] },
          { "item": "supplies_samples_lab", "chance": 40, "repeat": [ 1, 3 ] }
        ],
        "b": { "item": "tools_science", "chance": 30, "repeat": [ 1, 2 ] },
        "f": { "item": "supplies_reagents_lab", "chance": 70, "repeat": [ 2, 5 ] },
        "F": { "item": "dissection", "chance": 70, "repeat": [ 2, 5 ] },
        "C": { "item": "cleaning", "chance": 30, "repeat": [ 1, 2 ] },
        "U": { "item": "lab_shoes", "chance": 40, "repeat": [ 1, 8 ] },
        "l": { "item": "lab_torso", "chance": 40, "repeat": [ 1, 8 ] }
      },
      "palettes": [ "lab_workspace_palette" ]
    },
    "id": "f2b55792-0e6a-4e64-a561-3bd8ea95e954"
  },
  {
    "//": "11x11 large lab workspace, doors right side bottom",
    "//2": "micriobio lab with EM and shakers",
    "type": "mapgen",
    "method": "json",
    "nested_mapgen_id": "lab_surface_workspace_Edoor_11x11",
    "object": {
      "mapgensize": [ 11, 11 ],
      "rotation": [ 0, 3 ],
      "rows": [
        "bbi|hhh|ff8",
        "Fs |   |   ",
        "b  |A=A|=::",
        "Fs         ",
        "b   Eb   ob",
        "b  sbbs  sb",
        "b  sbbs  sb",
        "a   So  &bb",
        "S      ####",
        "S     e#Ull",
        "CC&    =   "
      ],
      "items": {
        "8": [
          { "item": "supplies_reagents_lab", "chance": 70, "repeat": [ 2, 5 ] },
          { "item": "supplies_samples_lab", "chance": 40, "repeat": [ 1, 3 ] }
        ],
        "b": { "item": "tools_science", "chance": 30, "repeat": [ 1, 2 ] },
        "f": { "item": "supplies_reagents_lab", "chance": 70, "repeat": [ 2, 5 ] },
        "C": { "item": "cleaning", "chance": 30, "repeat": [ 1, 2 ] },
        "U": { "item": "lab_shoes", "chance": 40, "repeat": [ 1, 8 ] },
        "l": { "item": "lab_torso", "chance": 40, "repeat": [ 1, 8 ] }
      },
      "palettes": [ "lab_workspace_palette" ]
    },
    "id": "d6cf74e1-aebb-4e06-b16d-40187eddcc2c"
  },
  {
    "//": "11x11 large lab workspace, doors left side bottom",
    "//2": "lab with small sub-rooms",
    "type": "mapgen",
    "method": "json",
    "nested_mapgen_id": "lab_surface_workspace_Wdoor_11x11",
    "object": {
      "mapgensize": [ 11, 11 ],
      "rotation": [ 0, 3 ],
      "rows": [
        "bbFbb8bHMbb",
        "bs sS s  sS",
        "f        &b",
        "#####-#####",
        "bS f# #Sbbb",
        "bs  - -  sF",
        "F  &# #&obb",
        "bHSC# #####",
        "##### #& Gb",
        "llU#& -  sb",
        "   -  #S Fb"
      ],
      "items": {
        "8": [
          { "item": "supplies_reagents_lab", "chance": 70, "repeat": [ 2, 5 ] },
          { "item": "supplies_samples_lab", "chance": 40, "repeat": [ 1, 3 ] }
        ],
        "b": { "item": "tools_science", "chance": 30, "repeat": [ 1, 2 ] },
        "f": { "item": "supplies_reagents_lab", "chance": 70, "repeat": [ 2, 5 ] },
        "F": { "item": "dissection", "chance": 70, "repeat": [ 2, 5 ] },
        "C": { "item": "cleaning", "chance": 30, "repeat": [ 1, 2 ] },
        "U": { "item": "lab_shoes", "chance": 40, "repeat": [ 1, 8 ] },
        "l": { "item": "lab_torso", "chance": 40, "repeat": [ 1, 8 ] }
      },
      "palettes": [ "lab_workspace_palette" ]
    },
    "id": "d1954168-7478-4c78-9cd9-5b3d0fbae664"
  },
  {
    "//": "11x11 large lab workspace, doors right side bottom",
    "//2": "lab with small sub-rooms",
    "type": "mapgen",
    "method": "json",
    "nested_mapgen_id": "lab_surface_workspace_Edoor_11x11",
    "object": {
      "mapgensize": [ 11, 11 ],
      "rotation": [ 0, 3 ],
      "rows": [
        "bbFbb8bHMbb",
        "bs sS s  sS",
        "f        &b",
        "#####-#####",
        "bbbS# #f Sb",
        "Fs  - -  sb",
        "bbo&# #&  F",
        "##### #CSHb",
        "bG &# #####",
        "bs  - &#Ull",
        "bF S#  -   "
      ],
      "items": {
        "8": [
          { "item": "supplies_reagents_lab", "chance": 70, "repeat": [ 2, 5 ] },
          { "item": "supplies_samples_lab", "chance": 40, "repeat": [ 1, 3 ] }
        ],
        "b": { "item": "tools_science", "chance": 30, "repeat": [ 1, 2 ] },
        "f": { "item": "supplies_reagents_lab", "chance": 70, "repeat": [ 2, 5 ] },
        "F": { "item": "dissection", "chance": 70, "repeat": [ 2, 5 ] },
        "C": { "item": "cleaning", "chance": 30, "repeat": [ 1, 2 ] },
        "U": { "item": "lab_shoes", "chance": 40, "repeat": [ 1, 8 ] },
        "l": { "item": "lab_torso", "chance": 40, "repeat": [ 1, 8 ] }
      },
      "palettes": [ "lab_workspace_palette" ]
    },
    "id": "90eaed87-ab77-4946-af9f-4b5a0e9b4bc1"
  },
  {
    "//": "11x11 large lab workspace, doors right side bottom",
    "//2": "big analytical lab with most tools",
    "type": "mapgen",
    "method": "json",
    "nested_mapgen_id": "lab_surface_workspace_Edoor_11x11",
    "object": {
      "mapgensize": [ 11, 11 ],
      "rotation": [ 0, 3 ],
      "rows": [
        "bFFb|N |ff8",
        "bssb|:-|   ",
        "S      |-:|",
        "bs bMH   &b",
        "b   bs   sb",
        "b  sb     F",
        "bs bbo   sb",
        "S  &SC  Sbb",
        "b      ####",
        "bs    &#Ull",
        "bbG    -   "
      ],
      "items": {
        "8": [
          { "item": "supplies_reagents_lab", "chance": 70, "repeat": [ 2, 5 ] },
          { "item": "supplies_samples_lab", "chance": 40, "repeat": [ 1, 3 ] }
        ],
        "b": { "item": "tools_science", "chance": 30, "repeat": [ 1, 2 ] },
        "f": { "item": "supplies_reagents_lab", "chance": 70, "repeat": [ 2, 5 ] },
        "C": { "item": "cleaning", "chance": 30, "repeat": [ 1, 2 ] },
        "U": { "item": "lab_shoes", "chance": 40, "repeat": [ 1, 8 ] },
        "l": { "item": "lab_torso", "chance": 40, "repeat": [ 1, 8 ] }
      },
      "palettes": [ "lab_workspace_palette" ]
    },
    "id": "44b85447-73b7-40f0-9e86-acef3eef9d03"
  },
  {
    "//": "11x11 large lab workspace, doors right side bottom",
    "//2": "some sort of engineering lab with lots of computers and stuff",
    "type": "mapgen",
    "method": "json",
    "nested_mapgen_id": "lab_surface_workspace_Edoor_11x11",
    "object": {
      "mapgensize": [ 11, 11 ],
      "rotation": [ 0, 3 ],
      "rows": [
        "555555555dd",
        "         cx",
        ":A:A:-:A:A:",
        "           ",
        "f    E    &",
        "bx   bs  xb",
        "bs  sb   sb",
        "    xbx   b",
        "F        Ul",
        "bs         ",
        "bbb& CSC&  "
      ],
      "items": {
        "b": [
          { "item": "tools_science", "chance": 30, "repeat": [ 1, 2 ] },
          { "item": "electronics", "chance": 30, "repeat": [ 1, 2 ] }
        ],
        "f": { "item": "supplies_reagents_lab", "chance": 70, "repeat": [ 2, 5 ] },
        "F": { "item": "electronics", "chance": 70, "repeat": [ 2, 5 ] },
        "C": { "item": "cleaning", "chance": 30, "repeat": [ 1, 2 ] },
        "U": { "item": "lab_shoes", "chance": 40, "repeat": [ 1, 8 ] },
        "l": { "item": "lab_torso", "chance": 40, "repeat": [ 1, 8 ] }
      },
      "palettes": [ "lab_workspace_palette" ]
    },
    "id": "c7e6674f-6e27-4962-9b10-2f6080483f9d"
  },
  {
    "//": "12x12 lobby centerpiece",
    "type": "mapgen",
    "method": "json",
    "nested_mapgen_id": "lab_surface_centerpiece_12x12",
    "object": {
      "mapgensize": [ 12, 12 ],
      "rotation": [ 0, 3 ],
      "rows": [
        "  ]]]]]]]]  ",
        " ]]~~~~~~]] ",
        "]]~~..i.~~]]",
        "]~~.bI#B.~~]",
        "]~.i####I.~]",
        "]~.bB#|##i~]",
        "]~.b##|#I.~]",
        "]~i.I###b.~]",
        "]~~..#IBi~~]",
        "]]~~.I..~~]]",
        " ]]~~~~~~]] ",
        "  ]]]]]]]]  "
      ],
      "terrain": {
        "~": "t_water_sh",
        ".": [ "t_grass", "t_grass_long", "t_grass_tall" ],
        "#": "t_rock_wall",
        "B": "t_grass",
        "b": "t_grass",
        "I": "t_tree_maple",
        "i": "t_tree_young"
      },
      "furniture": { "B": "f_boulder_medium", "b": "f_boulder_small" },
      "palettes": [ "lab_surface_palette" ]
    },
    "id": "12ad55d0-007e-405b-a458-6eaaebfad74b"
  },
  {
    "//": "12x12 lobby centerpiece",
    "type": "mapgen",
    "method": "json",
    "nested_mapgen_id": "lab_surface_centerpiece_12x12",
    "object": {
      "mapgensize": [ 12, 12 ],
      "rotation": [ 0, 3 ],
      "rows": [
        "]]]]   bbbbb",
        "].~]   ]]]]b",
        "]iB]   ]i.]b",
        "]]]]   ]~I]b",
        "       ]]]]b",
        "b]]]]]      ",
        "b]B~~]      ",
        "b].I.]  ]]]]",
        "b]~~B]  ]~.]",
        "b]]]]]  ]BI]",
        "bbbbbb  ]]]]",
        "        bbbb"
      ],
      "terrain": {
        "~": "t_water_sh",
        ".": [ "t_grass", "t_grass_long", "t_grass_tall" ],
        "#": "t_rock_wall",
        "B": "t_grass",
        "I": "t_tree_maple",
        "i": "t_tree_young"
      },
      "furniture": { "B": "f_boulder_small" },
      "palettes": [ "lab_surface_palette" ]
    },
    "id": "9374ed04-163f-4846-bcaa-1ff279538624"
  },
  {
    "//": "12x12 lobby centerpiece",
    "type": "mapgen",
    "method": "json",
    "nested_mapgen_id": "lab_surface_centerpiece_12x12",
    "object": {
      "mapgensize": [ 12, 12 ],
      "rotation": [ 0, 3 ],
      "rows": [
        "  ]]]]]]]]  ",
        " ]]bbbbbb]] ",
        "]]........]]",
        "]b..~~~~..b]",
        "]b.~~~~~~.b]",
        "]b.~~SS~~.b]",
        "]b.~~SS~~.b]",
        "]b.~~~~~~.b]",
        "]b..~~~~..b]",
        "]]........]]",
        " ]]bbbbbb]] ",
        "  ]]]]]]]]  "
      ],
      "terrain": { "b": "t_grass", "S": "t_sidewalk", "~": "t_water_sh" },
      "furniture": { "S": "f_statue" },
      "palettes": [ "lab_surface_palette" ]
    },
    "id": "f0994c8b-7ce5-44ee-a422-cac7ee58c5d6"
  },
  {
    "//": "12x12 lobby centerpiece",
    "type": "mapgen",
    "method": "json",
    "nested_mapgen_id": "lab_surface_centerpiece_12x12",
    "object": {
      "mapgensize": [ 12, 12 ],
      "rotation": [ 0, 3 ],
      "rows": [
        "bbbb]]]]bbbb",
        "b||b %% b||b",
        "b||b %% b||b",
        "bbbb %% bbbb",
        "]   :%%:   ]",
        "]%%%%DF%%%%]",
        "]%%%%FD%%%%]",
        "]   :%%:   ]",
        "bbbb %% bbbb",
        "b||b %% b||b",
        "b||b %% b||b",
        "bbbb]]]]bbbb"
      ],
      "terrain": { "b": "t_sidewalk" },
      "furniture": { "S": "f_statue" },
      "palettes": [ "lab_surface_palette" ]
    },
    "id": "58c26984-2d9e-4b16-a2aa-981711b45faf"
  },
  {
    "type": "mapgen",
    "method": "json",
    "nested_mapgen_id": "surface_sub_f_crate",
    "object": {
      "mapgensize": [ 1, 1 ],
      "rows": [ "X" ],
      "//": "Places a crate, 25% chance of being pre-opened.",
      "terrain": { "X": "t_strconc_floor" },
      "furniture": { "X": [ [ "f_cardboard_box", 2 ], [ "f_crate_c", 3 ], "f_crate_o" ] },
      "place_items": [ { "item": "supplies_reagents_lab", "x": 0, "y": 0, "chance": 90, "repeat": [ 5, 20 ] } ]
    },
    "id": "c0dec1dc-4aef-4cfe-ac8f-c06ded9e7c4e"
  },
  {
    "type": "mapgen",
    "method": "json",
    "nested_mapgen_id": "surface_sub_f_crate",
    "object": {
      "mapgensize": [ 1, 1 ],
      "rows": [ "X" ],
      "//": "Places a crate, 25% chance of being pre-opened.",
      "terrain": { "X": "t_strconc_floor" },
      "furniture": { "X": [ [ "f_cardboard_box", 2 ], [ "f_crate_c", 3 ], "f_crate_o" ] },
      "place_items": [ { "item": "tools_science", "x": 0, "y": 0, "chance": 90, "repeat": [ 5, 10 ] } ]
    },
    "id": "12e1dafd-ffa4-4724-9da1-c6edb61532df"
  },
  {
    "type": "mapgen",
    "method": "json",
    "nested_mapgen_id": "surface_sub_f_crate",
    "object": {
      "mapgensize": [ 1, 1 ],
      "rows": [ "X" ],
      "//": "Places a crate, 25% chance of being pre-opened.",
      "terrain": { "X": "t_strconc_floor" },
      "furniture": { "X": [ [ "f_cardboard_box", 2 ], [ "f_crate_c", 3 ], "f_crate_o" ] },
      "place_items": [ { "item": "electronics", "x": 0, "y": 0, "chance": 90, "repeat": [ 1, 10 ] } ]
    },
    "id": "2583d021-3251-439c-bddf-cb476e4a16f6"
  },
  {
    "type": "mapgen",
    "method": "json",
    "nested_mapgen_id": "surface_sub_f_crate",
    "object": {
      "mapgensize": [ 1, 1 ],
      "rows": [ "X" ],
      "//": "Places a crate, 25% chance of being pre-opened.",
      "terrain": { "X": "t_strconc_floor" },
      "furniture": { "X": [ [ "f_cardboard_box", 2 ], [ "f_crate_c", 3 ], "f_crate_o" ] },
      "place_items": [ { "item": "hardware_bulk", "x": 0, "y": 0, "chance": 90, "repeat": [ 1, 5 ] } ]
    },
    "id": "62210715-ad0b-4fdd-b53a-29e96c3521f6"
  },
  {
    "type": "mapgen",
    "method": "json",
    "nested_mapgen_id": "surface_sub_f_crate",
    "object": {
      "mapgensize": [ 1, 1 ],
      "rows": [ "X" ],
      "//": "Places a crate, 25% chance of being pre-opened.",
      "terrain": { "X": "t_strconc_floor" },
      "furniture": { "X": [ [ "f_cardboard_box", 2 ], [ "f_crate_c", 3 ], "f_crate_o" ] },
      "place_items": [ { "item": "produce", "x": 0, "y": 0, "chance": 90, "repeat": [ 5, 10 ] } ]
    },
    "id": "665737ae-bae9-44e9-9982-e3252b90af8f"
  },
  {
    "type": "mapgen",
    "method": "json",
    "nested_mapgen_id": "surface_sub_f_crate",
    "object": {
      "mapgensize": [ 1, 1 ],
      "rows": [ "X" ],
      "//": "Places a crate, 25% chance of being pre-opened.",
      "terrain": { "X": "t_strconc_floor" },
      "furniture": { "X": [ [ "f_cardboard_box", 2 ], [ "f_crate_c", 3 ], "f_crate_o" ] },
      "place_items": [ { "item": "supplies_samples_lab", "x": 0, "y": 0, "chance": 90, "repeat": [ 10, 20 ] } ]
    },
    "id": "e86e296a-92c9-4c5b-9587-4497c92b998d"
  },
  {
    "type": "mapgen",
    "method": "json",
    "nested_mapgen_id": "surface_sub_f_crate",
    "object": {
      "mapgensize": [ 1, 1 ],
      "rows": [ "X" ],
      "//": "Places a crate, 25% chance of being pre-opened.",
      "terrain": { "X": "t_strconc_floor" },
      "furniture": { "X": [ [ "f_cardboard_box", 2 ], [ "f_crate_c", 3 ], "f_crate_o" ] },
      "place_items": [ { "item": "snacks", "x": 0, "y": 0, "chance": 50, "repeat": [ 5, 10 ] } ]
    },
    "id": "df17438b-5df1-44fd-bb50-1fe8b9f4dd60"
  },
  {
    "type": "mapgen",
    "method": "json",
    "nested_mapgen_id": "surface_sub_f_crate",
    "object": {
      "mapgensize": [ 1, 1 ],
      "rows": [ "X" ],
      "//": "Places a crate, 25% chance of being pre-opened.",
      "terrain": { "X": "t_strconc_floor" },
      "furniture": { "X": [ [ "f_cardboard_box", 2 ], [ "f_crate_c", 3 ], "f_crate_o" ] },
      "place_items": [ { "item": "hospital_lab", "x": 0, "y": 0, "chance": 90, "repeat": [ 5, 10 ] } ]
    },
    "id": "460f1bcf-7d79-4c60-a83f-8704bf298916"
  },
  {
    "type": "mapgen",
    "method": "json",
    "nested_mapgen_id": "surface_sub_hall_clutter",
    "object": {
      "mapgensize": [ 1, 1 ],
      "rows": [ "X" ],
      "terrain": { "X": "t_strconc_floor" },
      "furniture": { "X": "f_sample_freezer" },
      "place_items": [ { "item": "supplies_reagents_lab", "x": 0, "y": 0, "chance": 70, "repeat": [ 1, 5 ] } ]
    },
    "id": "200ab7c4-d699-49bc-a6c3-c688a56d582d"
  },
  {
    "type": "mapgen",
    "method": "json",
    "nested_mapgen_id": "surface_sub_hall_clutter",
    "object": {
      "mapgensize": [ 1, 1 ],
      "rows": [ "X" ],
      "terrain": { "X": "t_strconc_floor" },
      "furniture": { "X": "f_counter" },
      "place_items": [ { "item": "snacks", "x": 0, "y": 0, "chance": 60, "repeat": [ 1, 5 ] } ]
    },
    "id": "8896914d-095b-4053-b6de-f2952c18fc7a"
  },
  {
    "type": "mapgen",
    "method": "json",
    "nested_mapgen_id": "surface_sub_hall_clutter",
    "object": {
      "mapgensize": [ 1, 1 ],
      "rows": [ "X" ],
      "terrain": { "X": "t_strconc_floor" },
      "furniture": { "X": "f_fridge" },
      "place_items": [
        { "item": "fridge", "x": 0, "y": 0, "chance": 60, "repeat": [ 1, 5 ] },
        { "item": "fridgesnacks", "x": 0, "y": 0, "chance": 60, "repeat": [ 1, 5 ] }
      ]
    },
    "id": "f10ac79e-5963-41d7-8d14-a4a2ab05d195"
  },
  {
    "type": "mapgen",
    "method": "json",
    "nested_mapgen_id": "surface_sub_hall_clutter",
    "object": { "mapgensize": [ 1, 1 ], "rows": [ "X" ], "terrain": { "X": "t_strconc_floor" }, "furniture": { "X": "f_IV_pole" } },
    "id": "ebb390a0-5928-4d3c-9be7-e3700aa7962f"
  },
  {
    "type": "mapgen",
    "method": "json",
    "nested_mapgen_id": "surface_sub_hall_clutter",
    "object": { "mapgensize": [ 1, 1 ], "rows": [ "X" ], "terrain": { "X": "t_strconc_floor" }, "furniture": { "X": "f_autoclave" } },
    "id": "7a36b344-c869-4935-94a4-353749ae89ee"
  },
  {
    "type": "mapgen",
    "method": "json",
    "nested_mapgen_id": "surface_sub_hall_clutter",
    "object": { "mapgensize": [ 1, 1 ], "rows": [ "X" ], "terrain": { "X": "t_machinery_old" } },
    "id": "366fcab0-d102-44ad-b8a7-774bdae26dfb"
  },
  {
    "type": "mapgen",
    "method": "json",
    "nested_mapgen_id": "surface_sub_hall_clutter",
    "object": {
      "mapgensize": [ 1, 1 ],
      "rows": [ "X" ],
      "terrain": { "X": "t_strconc_floor" },
      "furniture": { "X": "f_glass_cabinet" },
      "place_items": [ { "item": "lab_bookshelves", "x": 0, "y": 0, "chance": 70, "repeat": [ 1, 5 ] } ]
    },
    "id": "837c7878-b61f-4c77-87cc-0c40e52d8377"
  }
]
