[
  {
    "result": "2byarm_guard",
    "type": "recipe",
    "category": "CC_ARMOR",
    "subcategory": "CSC_ARMOR_ARMS",
    "skill_used": "fabrication",
    "difficulty": 1,
    "time": "5 m",
    "autolearn": true,
    "using": [ [ "cordage_short", 2 ] ],
    "qualities": [ { "id": "CUT", "level": 1 } ],
    "components": [ [ [ "2x4", 1 ] ], [ [ "fabric_standard", 1, "LIST" ] ] ],
    "id": "60b46d9d-56d0-473e-b0af-a2f4672c6f9a"
  },
  {
    "result": "arm_warmers",
    "type": "recipe",
    "category": "CC_ARMOR",
    "subcategory": "CSC_ARMOR_ARMS",
    "skill_used": "tailor",
    "difficulty": 1,
    "time": "15 m",
    "autolearn": true,
    "using": [ [ "sewing_standard", 10 ] ],
    "components": [ [ [ "rag", 4 ] ] ],
    "id": "e8b46db1-dbf7-49cd-8914-eab522bd117e"
  },
  {
    "result": "armguard_chitin",
    "type": "recipe",
    "category": "CC_ARMOR",
    "subcategory": "CSC_ARMOR_ARMS",
    "skill_used": "tailor",
    "difficulty": 4,
    "time": "30 m",
    "autolearn": true,
    "book_learn": [ [ "textbook_tailor", 3 ], [ "tailor_portfolio", 3 ] ],
    "components": [ [ [ "string_36", 1 ], [ "string_6", 4 ] ], [ [ "chitin_piece", 4 ] ], [ [ "fabric_hides_proper", 4, "LIST" ] ] ],
    "id": "2c0737fd-a3a2-4c82-8a86-4b0c4835255f"
  },
  {
    "result": "armguard_acidchitin",
    "type": "recipe",
    "category": "CC_ARMOR",
    "subcategory": "CSC_ARMOR_ARMS",
    "skill_used": "fabrication",
    "difficulty": 5,
    "time": "30 m",
    "autolearn": true,
    "book_learn": [ [ "textbook_tailor", 3 ], [ "tailor_portfolio", 3 ] ],
    "qualities": [ { "id": "CUT_FINE", "level": 1 }, { "id": "SEW", "level": 1 } ],
    "components": [ [ [ "string_36", 1 ], [ "string_6", 4 ] ], [ [ "acidchitin_piece", 4 ] ], [ [ "fabric_hides_proper", 4, "LIST" ] ] ],
    "id": "4792973d-9871-400e-b7fa-786fc9d408ee"
  },
  {
    "result": "armguard_hard",
    "type": "recipe",
    "category": "CC_ARMOR",
    "subcategory": "CSC_ARMOR_ARMS",
    "skill_used": "fabrication",
    "difficulty": 4,
    "skills_required": [ [ "tailor", 2 ] ],
    "time": "20 m",
    "book_learn": [ [ "textbook_tailor", 3 ], [ "manual_tailor", 4 ], [ "tailor_portfolio", 3 ] ],
    "tools": [ [ [ "soldering_iron", 15 ], [ "welder", 15 ], [ "hotplate", 15 ], [ "toolset", 15 ] ] ],
    "components": [ [ [ "neoprene", 6 ] ], [ [ "plastic_chunk", 8 ] ] ],
    "id": "3e81bf29-438c-4bb4-a95d-456eea24fc93"
  },
  {
    "result": "armguard_larmor",
    "type": "recipe",
    "category": "CC_ARMOR",
    "subcategory": "CSC_ARMOR_ARMS",
    "skill_used": "tailor",
    "difficulty": 3,
    "time": "40 m",
    "autolearn": true,
    "using": [ [ "sewing_standard", 16 ] ],
    "components": [ [ [ "fabric_hides_proper", 12, "LIST" ] ] ],
    "id": "c1adade9-174e-4abe-8f91-46ee92e0bea3"
  },
  {
    "result": "armguard_lightplate",
    "type": "recipe",
    "category": "CC_ARMOR",
    "subcategory": "CSC_ARMOR_ARMS",
    "skill_used": "fabrication",
    "difficulty": 7,
    "skills_required": [ [ "tailor", 3 ] ],
    "time": "50 m",
    "book_learn": [ [ "textbook_armwest", 6 ] ],
    "components": [ [ [ "steel_lump", 6 ], [ "steel_chunk", 24 ] ], [ [ "fabric_hides_proper", 6, "LIST" ] ] ],
    "qualities": [ { "id": "CHISEL", "level": 3 } ],
    "tools": [ [ [ "swage", -1 ] ] ],
    "id": "2d89bc4b-146a-454a-a426-6b408af56a7a"
  },
  {
    "result": "armguard_metal",
    "type": "recipe",
    "category": "CC_ARMOR",
    "subcategory": "CSC_ARMOR_ARMS",
    "skill_used": "fabrication",
    "difficulty": 4,
    "time": "30 m",
    "autolearn": true,
    "book_learn": [ [ "recipe_melee", 3 ] ],
    "using": [ [ "cordage", 1 ] ],
    "qualities": [ { "id": "HAMMER", "level": 2 }, { "id": "SAW_M", "level": 1 } ],
    "components": [ [ [ "sheet_metal_small", 4 ] ] ],
    "id": "36ae6d7b-af85-40ff-9074-e694c9e5dfc5"
  },
  {
    "result": "armguard_paper",
    "type": "recipe",
    "category": "CC_ARMOR",
    "subcategory": "CSC_ARMOR_ARMS",
    "skill_used": "fabrication",
    "time": "30 m",
    "autolearn": true,
    "components": [ [ [ "paper", 60 ] ], [ [ "duct_tape", 10 ] ] ],
    "flags": [ "BLIND_HARD" ],
    "id": "0828ac9f-2944-4247-94b7-be9129f9fec2"
  },
  {
    "result": "armguard_scrap",
    "type": "recipe",
    "category": "CC_ARMOR",
    "subcategory": "CSC_ARMOR_ARMS",
    "skill_used": "fabrication",
    "difficulty": 3,
    "time": "30 m",
    "autolearn": true,
    "book_learn": [ [ "recipe_melee", 2 ] ],
    "using": [ [ "cordage", 1 ] ],
    "qualities": [ { "id": "HAMMER", "level": 1 }, { "id": "SAW_M", "level": 1 } ],
    "components": [ [ [ "scrap", 60 ], [ "sheet_metal_small", 12 ] ] ],
    "id": "18f4a6bf-c69a-44b5-9c66-518e2bbf4ce8"
  },
  {
    "result": "armguard_soft",
    "type": "recipe",
    "category": "CC_ARMOR",
    "subcategory": "CSC_ARMOR_ARMS",
    "skill_used": "tailor",
    "difficulty": 3,
    "time": "20 m",
    "book_learn": [ [ "textbook_tailor", 3 ], [ "manual_tailor", 4 ], [ "tailor_portfolio", 3 ] ],
    "using": [ [ "sewing_standard", 20 ] ],
    "tools": [ [ [ "soldering_iron", 10 ], [ "welder", 10 ], [ "hotplate", 10 ], [ "toolset", 10 ] ] ],
    "components": [ [ [ "neoprene", 4 ] ], [ [ "rag", 2 ] ] ],
    "id": "963ed261-295c-4cab-b8f8-00e4fd184b0e"
  },
  {
    "result": "elbow_pads",
    "type": "recipe",
    "category": "CC_ARMOR",
    "subcategory": "CSC_ARMOR_ARMS",
    "skill_used": "fabrication",
    "difficulty": 4,
    "skills_required": [ [ "tailor", 1 ] ],
    "time": "30 m",
    "autolearn": true,
    "using": [ [ "sewing_standard", 10 ] ],
    "tools": [ [ [ "mold_plastic", -1 ] ], [ [ "surface_heat", 15, "LIST" ] ] ],
    "components": [ [ [ "plastic_chunk", 4 ] ], [ [ "fabric_standard", 2, "LIST" ], [ "fabric_hides_proper", 2, "LIST" ] ] ],
    "id": "cc56f116-0c9f-4b5f-bca0-0a8506ba5fb8"
  },
  {
    "result": "stockings_tent_arms",
    "type": "recipe",
    "category": "CC_ARMOR",
    "subcategory": "CSC_ARMOR_ARMS",
    "skill_used": "tailor",
    "difficulty": 1,
    "time": "60 m",
    "autolearn": true,
    "using": [ [ "sewing_standard", 32 ] ],
    "components": [ [ [ "rag", 40 ] ] ],
    "id": "2e6035e4-c00f-4ba6-8adc-cd343e4bdb1f"
  },
  {
    "result": "stockings_tent_arms",
    "type": "recipe",
    "id_suffix": "from_stockings",
    "category": "CC_ARMOR",
    "subcategory": "CSC_ARMOR_ARMS",
    "skill_used": "tailor",
    "difficulty": 1,
    "time": "20 m",
    "autolearn": true,
    "using": [ [ "sewing_standard", 8 ] ],
    "components": [ [ [ "stockings", 4 ] ], [ [ "rag", 8 ] ] ],
    "id": "efc92c6c-2d55-4eb7-b6bd-b25df75e903c"
  },
  {
    "result": "vambrace_larmor",
    "type": "recipe",
    "category": "CC_ARMOR",
    "subcategory": "CSC_ARMOR_ARMS",
    "skill_used": "tailor",
    "difficulty": 2,
    "time": "30 m",
    "autolearn": true,
    "using": [ [ "sewing_standard", 8 ] ],
    "components": [ [ [ "fabric_hides_proper", 4, "LIST" ] ] ],
    "id": "e9dc977a-2e32-45fa-b541-91ec9e26921a"
  },
  {
    "result": "chainmail_arms",
    "type": "recipe",
    "category": "CC_ARMOR",
    "subcategory": "CSC_ARMOR_ARMS",
    "skill_used": "fabrication",
    "difficulty": 7,
    "skills_required": [ [ "tailor", 2 ] ],
    "time": "40 m",
    "book_learn": [ [ "textbook_armwest", 6 ], [ "textbook_fabrication", 6 ], [ "recipe_melee", 6 ] ],
    "using": [ [ "chainmail_standard", 3 ] ],
    "components": [ [ [ "link_sheet", 3 ] ], [ [ "chain_link", 75 ] ], [ [ "wire", 1 ] ], [ [ "fabric_hides_proper", 6, "LIST" ] ] ],
    "id": "2d6bbd02-17c0-4d13-aa17-454b6ef59e74"
  }
]
