[
  {
    "result": "balclava",
    "type": "recipe",
    "category": "CC_ARMOR",
    "subcategory": "CSC_ARMOR_HEAD",
    "skill_used": "tailor",
    "difficulty": 2,
    "time": "10 m",
    "autolearn": [ [ "tailor", 4 ] ],
    "book_learn": [ [ "textbook_tailor", 2 ], [ "manual_tailor", 2 ], [ "tailor_portfolio", 2 ] ],
    "using": [ [ "sewing_standard", 3 ] ],
    "components": [ [ [ "rag", 4 ] ] ],
    "id": "ca014328-74cd-42a1-bb78-4065ae4fe1c4"
  },
  {
    "result": "bandana",
    "type": "recipe",
    "category": "CC_ARMOR",
    "subcategory": "CSC_ARMOR_HEAD",
    "skill_used": "tailor",
    "time": "5 m",
    "reversible": true,
    "autolearn": true,
    "using": [ [ "sewing_standard", 2 ] ],
    "components": [ [ [ "rag", 2 ] ] ],
    "id": "d3616b48-2803-4078-b27e-d861be15e6ee"
  },
  {
    "result": "beret_wool",
    "type": "recipe",
    "category": "CC_ARMOR",
    "subcategory": "CSC_ARMOR_HEAD",
    "skill_used": "tailor",
    "difficulty": 2,
    "time": "1 h",
    "autolearn": true,
    "using": [ [ "sewing_standard", 20 ] ],
    "components": [ [ [ "felt_patch", 4 ] ] ],
    "id": "453b0653-f8f3-4dfe-81e5-4c8741f8ea00"
  },
  {
    "result": "blindfold",
    "type": "recipe",
    "id_suffix": "from_tape",
    "category": "CC_ARMOR",
    "subcategory": "CSC_ARMOR_HEAD",
    "skill_used": "fabrication",
    "difficulty": 1,
    "time": "3 m",
    "reversible": true,
    "autolearn": true,
    "components": [ [ [ "duct_tape", 10 ] ] ],
    "flags": [ "BLIND_EASY" ],
    "id": "dadda5c5-8d11-4383-915f-0d63d3aa87b9"
  },
  {
    "result": "blindfold",
    "type": "recipe",
    "category": "CC_ARMOR",
    "subcategory": "CSC_ARMOR_HEAD",
    "skill_used": "tailor",
    "time": "3 m",
    "reversible": true,
    "autolearn": true,
    "components": [
      [
        [ "bandana", 1 ],
        [ "scarf", 1 ],
        [ "scarf_long", 1 ],
        [ "patchwork_scarf", 1 ],
        [ "long_patchwork_scarf", 1 ],
        [ "scarf_fur", 1 ],
        [ "scarf_fur_long", 1 ],
        [ "knit_scarf", 1 ],
        [ "long_knit_scarf", 1 ],
        [ "scarf_loose", 1 ],
        [ "scarf_long_loose", 1 ],
        [ "patchwork_scarf_loose", 1 ],
        [ "long_patchwork_scarf_loose", 1 ],
        [ "scarf_fur_loose", 1 ],
        [ "scarf_fur_long_loose", 1 ],
        [ "knit_scarf_loose", 1 ],
        [ "long_knit_scarf_loose", 1 ],
        [ "bandages", 2 ]
      ]
    ],
    "flags": [ "BLIND_EASY", "NO_RESIZE" ],
    "id": "d2b23840-af0b-48e5-91a4-2986a7b63a94"
  },
  {
    "result": "cowboy_hat",
    "type": "recipe",
    "category": "CC_ARMOR",
    "subcategory": "CSC_ARMOR_HEAD",
    "skill_used": "tailor",
    "difficulty": 3,
    "time": "50 m",
    "autolearn": true,
    "using": [ [ "sewing_standard", 16 ] ],
    "components": [ [ [ "leather", 8 ] ] ],
    "id": "5df21b25-1290-49e0-b0d0-29d121cf9230"
  },
  {
    "result": "cowl_wool",
    "type": "recipe",
    "category": "CC_ARMOR",
    "subcategory": "CSC_ARMOR_HEAD",
    "skill_used": "tailor",
    "difficulty": 4,
    "time": "2 h",
    "autolearn": true,
    "using": [ [ "sewing_standard", 80 ] ],
    "components": [ [ [ "felt_patch", 8 ] ] ],
    "id": "a02a9207-bfb5-4f4a-b37a-df9a2e9bc4c6"
  },
  {
    "result": "crown_golden_survivor",
    "type": "recipe",
    "category": "CC_ARMOR",
    "subcategory": "CSC_ARMOR_HEAD",
    "skill_used": "fabrication",
    "difficulty": 6,
    "time": "10 h",
    "book_learn": [ [ "jewelry_book", 6 ] ],
    "using": [ [ "blacksmithing_advanced", 3 ] ],
    "components": [ [ [ "gold_small", 300 ] ] ],
    "id": "29220ef7-e1bf-4c68-92bc-88ec2552ba94"
  },
  {
    "type": "recipe",
    "result": "drinking_hat",
    "category": "CC_ARMOR",
    "subcategory": "CSC_ARMOR_HEAD",
    "skill_used": "fabrication",
    "difficulty": 1,
    "time": "5 m",
    "reversible": true,
    "autolearn": true,
    "using": [ [ "cordage_short", 2 ] ],
    "components": [
      [
        [ "can_drink_unsealed", 1 ],
        [ "can_food_unsealed", 1 ],
        [ "canister_empty", 1 ],
        [ "bottle_plastic_small", 1 ],
        [ "sippy_cup", 1 ],
        [ "clay_canister", 1 ],
        [ "flask_glass", 1 ],
        [ "beaker", 1 ],
        [ "flask_hip", 1 ]
      ],
      [
        [ "can_drink_unsealed", 1 ],
        [ "can_food_unsealed", 1 ],
        [ "canister_empty", 1 ],
        [ "bottle_plastic_small", 1 ],
        [ "sippy_cup", 1 ],
        [ "clay_canister", 1 ],
        [ "flask_glass", 1 ],
        [ "beaker", 1 ],
        [ "flask_hip", 1 ]
      ],
      [ [ "wire", 1 ] ],
      [ [ "hose", 1 ], [ "makeshift_hose", 1 ] ]
    ],
    "flags": [ "BLIND_HARD" ],
    "id": "b6beb725-5a3c-4474-9a07-9855c7879e32"
  },
  {
    "result": "fur_cat_ears",
    "type": "recipe",
    "category": "CC_ARMOR",
    "subcategory": "CSC_ARMOR_HEAD",
    "skill_used": "tailor",
    "difficulty": 3,
    "time": "20 m",
    "book_learn": [ [ "mag_animecon", 3 ] ],
    "using": [ [ "sewing_standard", 10 ] ],
    "tools": [ [ [ "surface_heat", 5, "LIST" ] ] ],
    "components": [ [ [ "fur", 2 ] ], [ [ "plastic_chunk", 3 ] ] ],
    "id": "af310d74-9ba5-4549-842e-7bea21f3d617"
  },
  {
    "result": "faux_fur_cat_ears",
    "type": "recipe",
    "category": "CC_ARMOR",
    "subcategory": "CSC_ARMOR_HEAD",
    "skill_used": "tailor",
    "difficulty": 3,
    "time": "20 m",
    "book_learn": [ [ "mag_animecon", 3 ] ],
    "using": [ [ "sewing_standard", 10 ] ],
    "tools": [ [ [ "surface_heat", 5, "LIST" ] ] ],
    "components": [ [ [ "faux_fur", 2 ] ], [ [ "plastic_chunk", 3 ] ] ],
    "id": "c71b4c3d-d148-4550-93dd-cee6ae83bb05"
  },
  {
    "result": "glasses_safety",
    "type": "recipe",
    "category": "CC_ARMOR",
    "subcategory": "CSC_ARMOR_HEAD",
    "skill_used": "tailor",
    "difficulty": 1,
    "time": "8 m",
    "autolearn": true,
    "qualities": [ { "id": "CUT", "level": 1 } ],
    "components": [ [ [ "cordage", 1, "LIST" ] ], [ [ "bottle_plastic", 1 ], [ "bottle_plastic_small", 2 ] ] ],
    "id": "afd3be5d-2974-418a-9898-5a7dec729c04"
  },
  {
    "result": "goggles_ir",
    "type": "recipe",
    "category": "CC_ARMOR",
    "subcategory": "CSC_ARMOR_HEAD",
    "skill_used": "electronics",
    "difficulty": 6,
    "skills_required": [ "tailor", 1 ],
    "time": "40 m",
    "reversible": true,
    "decomp_learn": 4,
    "book_learn": [ [ "textbook_fireman", 6 ], [ "advanced_electronics", 5 ], [ "textbook_electronics", 6 ] ],
    "qualities": [ { "id": "SCREW", "level": 1 } ],
    "components": [
      [ [ "goggles_ski", 1 ], [ "goggles_welding", 1 ], [ "mask_gas", 1 ] ],
      [ [ "power_supply", 1 ] ],
      [ [ "amplifier", 4 ] ],
      [ [ "e_scrap", 2 ] ],
      [ [ "scrap", 2 ] ]
    ],
    "id": "1b29fde3-8368-4e67-961a-6401c22e2536"
  },
  {
    "result": "goggles_nv",
    "type": "recipe",
    "category": "CC_ARMOR",
    "subcategory": "CSC_ARMOR_HEAD",
    "skill_used": "electronics",
    "difficulty": 5,
    "skills_required": [ "tailor", 1 ],
    "time": "40 m",
    "reversible": true,
    "decomp_learn": 4,
    "book_learn": [ [ "textbook_fireman", 7 ], [ "advanced_electronics", 4 ], [ "textbook_electronics", 4 ] ],
    "qualities": [ { "id": "SCREW", "level": 1 } ],
    "components": [
      [ [ "goggles_ski", 1 ], [ "goggles_welding", 1 ], [ "mask_gas", 1 ] ],
      [ [ "power_supply", 1 ] ],
      [ [ "amplifier", 3 ] ],
      [ [ "scrap", 5 ] ]
    ],
    "id": "037a2bc6-c79f-46f6-8bde-c114eef4b68a"
  },
  {
    "result": "goggles_swim",
    "type": "recipe",
    "category": "CC_ARMOR",
    "subcategory": "CSC_ARMOR_HEAD",
    "skill_used": "fabrication",
    "difficulty": 4,
    "time": "30 m",
    "autolearn": true,
    "components": [
      [ [ "goggles_ski", 1 ], [ "goggles_welding", 1 ], [ "glasses_safety", 1 ] ],
      [ [ "duct_tape", 120 ], [ "medical_tape", 120 ] ],
      [ [ "superglue", 1 ] ]
    ],
    "id": "deac95bd-49eb-4396-992f-d39c93a899e2"
  },
  {
    "result": "goggles_welding",
    "type": "recipe",
    "category": "CC_ARMOR",
    "subcategory": "CSC_ARMOR_HEAD",
    "skill_used": "mechanics",
    "difficulty": 2,
    "skills_required": [ "fabrication", 1 ],
    "time": "30 m",
    "autolearn": true,
    "book_learn": [ [ "textbook_fabrication", 3 ], [ "welding_book", 3 ] ],
    "components": [
      [ [ "goggles_ski", 1 ], [ "goggles_swim", 1 ], [ "glasses_safety", 1 ] ],
      [ [ "eclipse_glasses", 1 ], [ "glass_tinted", 3 ] ],
      [ [ "duct_tape", 40 ], [ "medical_tape", 40 ] ]
    ],
    "id": "5735d618-cb31-468c-9d54-285b0f6f9597"
  },
  {
    "result": "hat_boonie",
    "type": "recipe",
    "category": "CC_ARMOR",
    "subcategory": "CSC_ARMOR_HEAD",
    "skill_used": "tailor",
    "difficulty": 3,
    "time": "25 m",
    "autolearn": true,
    "using": [ [ "sewing_standard", 10 ] ],
    "components": [ [ [ "rag", 4 ] ] ],
    "id": "f020b3fb-4d84-45c1-b93b-aadc54581e3b"
  },
  {
    "result": "hat_cotton",
    "type": "recipe",
    "category": "CC_ARMOR",
    "subcategory": "CSC_ARMOR_HEAD",
    "skill_used": "tailor",
    "difficulty": 2,
    "time": "40 m",
    "autolearn": true,
    "using": [ [ "sewing_standard", 8 ] ],
    "components": [ [ [ "rag", 3 ] ] ],
    "id": "b6916384-573b-410f-bc4a-c3f92b445e6d"
  },
  {
    "result": "hat_fur",
    "type": "recipe",
    "category": "CC_ARMOR",
    "subcategory": "CSC_ARMOR_HEAD",
    "skill_used": "tailor",
    "difficulty": 2,
    "skills_required": [ "survival", 1 ],
    "time": "40 m",
    "autolearn": true,
    "using": [ [ "sewing_standard", 8 ] ],
    "components": [ [ [ "fur", 3 ] ] ],
    "id": "6c81a980-1958-4435-a25c-cf083666fef4"
  },
  {
    "result": "hat_faux_fur",
    "type": "recipe",
    "category": "CC_ARMOR",
    "subcategory": "CSC_ARMOR_HEAD",
    "skill_used": "tailor",
    "difficulty": 2,
    "time": "40 m",
    "book_learn": [ [ "textbook_tailor", 2 ], [ "recipe_fauxfur", 1 ] ],
    "using": [ [ "sewing_standard", 8 ] ],
    "components": [ [ [ "faux_fur", 3 ] ] ],
    "id": "b949986b-9842-4af6-b9ac-d1219ac4a527"
  },
  {
    "result": "hat_hard",
    "type": "recipe",
    "category": "CC_ARMOR",
    "subcategory": "CSC_ARMOR_HEAD",
    "skill_used": "fabrication",
    "difficulty": 4,
    "time": "35 m",
    "autolearn": true,
    "tools": [ [ [ "mold_plastic", -1 ] ], [ [ "surface_heat", 15, "LIST" ] ] ],
    "components": [ [ [ "plastic_chunk", 10 ] ] ],
    "id": "4b844b6a-ca40-44a3-b8f0-1788be165e3d"
  },
  {
    "result": "hat_hard_hooded",
    "type": "recipe",
    "category": "CC_ARMOR",
    "subcategory": "CSC_ARMOR_HEAD",
    "skill_used": "tailor",
    "time": "2 m",
    "reversible": true,
    "autolearn": true,
    "components": [ [ [ "rag", 2 ], [ "bandana", 1 ] ], [ [ "hat_hard", 1 ] ] ],
    "id": "61af976e-dbe2-4745-9a88-7c74271693e0"
  },
  {
    "result": "hat_hunting",
    "type": "recipe",
    "category": "CC_ARMOR",
    "subcategory": "CSC_ARMOR_HEAD",
    "skill_used": "tailor",
    "difficulty": 2,
    "time": "1 h 30 m",
    "autolearn": true,
    "using": [ [ "sewing_standard", 50 ] ],
    "components": [ [ [ "felt_patch", 10 ] ] ],
    "id": "236c14c6-12aa-471f-b607-06b934b564bd"
  },
  {
    "result": "hat_knit",
    "type": "recipe",
    "category": "CC_ARMOR",
    "subcategory": "CSC_ARMOR_HEAD",
    "skill_used": "tailor",
    "difficulty": 1,
    "time": "40 m",
    "reversible": true,
    "autolearn": true,
    "qualities": [ { "id": "KNIT", "level": 1 } ],
    "components": [ [ [ "yarn", 75 ] ] ],
    "id": "4c2ea265-9864-4d24-90dd-497c7d99d925"
  },
  {
    "result": "hat_noise_cancelling",
    "type": "recipe",
    "category": "CC_ARMOR",
    "subcategory": "CSC_ARMOR_HEAD",
    "skill_used": "tailor",
    "difficulty": 1,
    "time": "10 m",
    "reversible": true,
    "autolearn": true,
    "using": [ [ "sewing_standard", 8 ], [ "cordage", 2 ] ],
    "components": [ [ [ "rag", 4 ] ] ],
    "id": "042aebd0-00fc-49a9-b37f-534109d22c04"
  },
  {
    "result": "helmet_barbute",
    "type": "recipe",
    "category": "CC_ARMOR",
    "subcategory": "CSC_ARMOR_HEAD",
    "skill_used": "fabrication",
    "difficulty": 6,
    "time": "9 h",
    "book_learn": [ [ "textbook_armwest", 5 ] ],
    "using": [ [ "blacksmithing_intermediate", 40 ], [ "steel_standard", 10 ] ],
    "tools": [ [ [ "crucible", -1 ], [ "crucible_clay", -1 ] ] ],
    "components": [ [ [ "fabric_hides_proper", 4, "LIST" ] ] ],
    "id": "42439dd7-7b9f-4ea7-a258-c414a49c08d1"
  },
  {
    "result": "helmet_chitin",
    "type": "recipe",
    "category": "CC_ARMOR",
    "subcategory": "CSC_ARMOR_HEAD",
    "skill_used": "tailor",
    "difficulty": 4,
    "time": "1 h",
    "autolearn": true,
    "book_learn": [ [ "textbook_tailor", 3 ], [ "tailor_portfolio", 3 ] ],
    "components": [ [ [ "cordage_superior", 1, "LIST" ] ], [ [ "chitin_piece", 6 ] ], [ [ "fabric_hides_proper", 6, "LIST" ] ] ],
    "id": "e6ad7e18-7b36-4ebd-9e39-7111e9cc50cd"
  },
  {
    "result": "helmet_acidchitin",
    "type": "recipe",
    "category": "CC_ARMOR",
    "subcategory": "CSC_ARMOR_HEAD",
    "skill_used": "tailor",
    "difficulty": 5,
    "time": "2 h",
    "autolearn": true,
    "book_learn": [ [ "textbook_tailor", 3 ], [ "tailor_portfolio", 3 ] ],
    "qualities": [ { "id": "CUT_FINE", "level": 1 }, { "id": "SEW", "level": 1 } ],
    "components": [ [ [ "cordage_superior", 1, "LIST" ] ], [ [ "acidchitin_piece", 6 ] ], [ [ "fabric_hides_proper", 6, "LIST" ] ] ],
    "id": "0237751d-9c17-4e6e-a5b9-fe76303c0ced"
  },
  {
    "result": "helmet_conical",
    "type": "recipe",
    "category": "CC_ARMOR",
    "subcategory": "CSC_ARMOR_HEAD",
    "skill_used": "fabrication",
    "difficulty": 6,
    "time": "7 h 12 m",
    "book_learn": [ [ "textbook_armschina", 5 ] ],
    "using": [ [ "sewing_standard", 18 ], [ "blacksmithing_intermediate", 8 ], [ "steel_standard", 2 ] ],
    "tools": [ [ [ "crucible", -1 ], [ "crucible_clay", -1 ] ] ],
    "components": [ [ [ "fur", 6 ] ] ],
    "id": "8ced7396-2892-4386-b7c8-bd8008001c51"
  },
  {
    "result": "helmet_galea",
    "type": "recipe",
    "category": "CC_ARMOR",
    "subcategory": "CSC_ARMOR_HEAD",
    "skill_used": "fabrication",
    "difficulty": 7,
    "time": "7 h 12 m",
    "book_learn": [ [ "textbook_armwest", 5 ] ],
    "using": [ [ "blacksmithing_intermediate", 8 ], [ "steel_standard", 2 ] ],
    "tools": [ [ [ "crucible", -1 ], [ "crucible_clay", -1 ] ] ],
    "components": [ [ [ "fabric_hides_proper", 4, "LIST" ] ] ],
    "id": "527bb429-7b7a-47fc-98a5-3c2f38ef2c6a"
  },
  {
    "result": "helmet_kabuto",
    "type": "recipe",
    "category": "CC_ARMOR",
    "subcategory": "CSC_ARMOR_HEAD",
    "skill_used": "fabrication",
    "difficulty": 9,
    "time": "10 h",
    "book_learn": [ [ "textbook_armeast", 8 ] ],
    "using": [ [ "blacksmithing_intermediate", 48 ], [ "steel_standard", 12 ] ],
    "tools": [ [ [ "crucible", -1 ], [ "crucible_clay", -1 ] ] ],
    "components": [ [ [ "fabric_hides_proper", 14, "LIST" ] ], [ [ "fabric_standard", 4, "LIST" ] ] ],
    "id": "58c9dd14-5460-460d-be60-658f6c3c245a"
  },
  {
    "result": "helmet_larmor",
    "type": "recipe",
    "category": "CC_ARMOR",
    "subcategory": "CSC_ARMOR_HEAD",
    "skill_used": "tailor",
    "difficulty": 4,
    "time": "30 m",
    "autolearn": true,
    "using": [ [ "sewing_standard", 18 ] ],
    "components": [ [ [ "fabric_hides_proper", 16, "LIST" ] ] ],
    "id": "960ae99e-be21-4d4b-a65d-3bd377732423"
  },
  {
    "result": "helmet_nasal",
    "type": "recipe",
    "category": "CC_ARMOR",
    "subcategory": "CSC_ARMOR_HEAD",
    "skill_used": "fabrication",
    "difficulty": 5,
    "time": "7 h 12 m",
    "book_learn": [ [ "textbook_armwest", 4 ] ],
    "using": [ [ "blacksmithing_intermediate", 4 ], [ "steel_standard", 1 ] ],
    "tools": [ [ [ "crucible", -1 ], [ "crucible_clay", -1 ] ] ],
    "components": [ [ [ "fabric_hides_proper", 3, "LIST" ] ] ],
    "id": "289d5a91-226a-45cc-9f84-723403dd2e74"
  },
  {
    "result": "helmet_nomad",
    "type": "recipe",
    "category": "CC_ARMOR",
    "subcategory": "CSC_ARMOR_HEAD",
    "skill_used": "tailor",
    "difficulty": 5,
    "time": "40 m",
    "autolearn": true,
    "using": [ [ "sewing_standard", 65 ] ],
    "components": [ [ [ "hat_ball", 1 ], [ "hat_boonie", 1 ] ], [ [ "glasses_safety", 1 ], [ "glasses_bal", 1 ] ], [ [ "leather", 8 ] ] ],
    "id": "10b0a7fd-0807-4cc0-8cc2-3ecc27b9fb73"
  },
  {
    "result": "helmet_plate",
    "type": "recipe",
    "category": "CC_ARMOR",
    "subcategory": "CSC_ARMOR_HEAD",
    "skill_used": "fabrication",
    "difficulty": 7,
    "time": "9 h",
    "book_learn": [ [ "textbook_armwest", 6 ] ],
    "using": [ [ "blacksmithing_intermediate", 56 ], [ "steel_standard", 14 ] ],
    "tools": [ [ [ "crucible", -1 ], [ "crucible_clay", -1 ] ] ],
    "components": [ [ [ "fabric_hides_proper", 4, "LIST" ] ] ],
    "id": "46ab316d-e951-4eb6-83fb-15d4830203ef"
  },
  {
    "result": "helmet_scavenger",
    "type": "recipe",
    "category": "CC_ARMOR",
    "subcategory": "CSC_ARMOR_HEAD",
    "skill_used": "tailor",
    "difficulty": 8,
    "skills_required": [ "fabrication", 3 ],
    "time": "40 m",
    "autolearn": true,
    "using": [ [ "sewing_standard", 65 ], [ "soldering_standard", 8 ] ],
    "components": [
      [ [ "hat_ball", 1 ], [ "hat_boonie", 1 ] ],
      [ [ "mask_filter", 1 ] ],
      [ [ "glasses_bal", 1 ], [ "goggles_ski", 1 ] ],
      [ [ "kevlar_plate", 8 ] ]
    ],
    "id": "aff9ca2a-b17c-4589-ab5e-48a5a610db8e"
  },
  {
    "result": "helmet_survivor",
    "type": "recipe",
    "category": "CC_ARMOR",
    "subcategory": "CSC_ARMOR_HEAD",
    "skill_used": "tailor",
    "difficulty": 6,
    "skills_required": [ "fabrication", 4 ],
    "time": "45 m",
    "autolearn": true,
    "using": [ [ "sewing_standard", 10 ] ],
    "tools": [ [ [ "welder", 42 ], [ "welder_crude", 63 ], [ "soldering_iron", 63 ], [ "toolset", 63 ] ] ],
    "components": [
      [ [ "helmet_liner", 1 ], [ "hat_cotton", 1 ], [ "rag", 3 ] ],
      [ [ "tac_helmet", 1 ], [ "tac_fullhelmet", 1 ], [ "helmet_army", 1 ], [ "kevlar_plate", 6 ] ],
      [ [ "hood_rain", 1 ], [ "bag_plastic", 2 ] ],
      [ [ "fabric_hides_proper", 8, "LIST" ] ],
      [ [ "duct_tape", 150 ] ],
      [
        [ "helmet_riot", 1 ],
        [ "helmet_motor", 1 ],
        [ "helmet_football", 1 ],
        [ "helmet_ball", 1 ],
        [ "helmet_skid", 1 ],
        [ "helmet_bike", 1 ],
        [ "hat_hard", 1 ],
        [ "firehelmet", 1 ],
        [ "pickelhaube", 1 ],
        [ "plastic_chunk", 8 ]
      ]
    ],
    "id": "59fbb962-11b3-4909-83d0-df0a3c37f690"
  },
  {
    "result": "helmet_xlsurvivor",
    "type": "recipe",
    "category": "CC_ARMOR",
    "subcategory": "CSC_ARMOR_HEAD",
    "skill_used": "tailor",
    "difficulty": 6,
    "skills_required": [ "fabrication", 4 ],
    "time": "1 h",
    "autolearn": true,
    "using": [ [ "sewing_standard", 20 ] ],
    "tools": [ [ [ "welder", 84 ], [ "welder_crude", 126 ], [ "soldering_iron", 126 ], [ "toolset", 126 ] ] ],
    "components": [
      [ [ "scrap", 4 ] ],
      [ [ "fabric_standard", 6, "LIST" ] ],
      [ [ "fabric_hides_proper", 16, "LIST" ] ],
      [ [ "plastic_chunk", 20 ] ],
      [ [ "kevlar_plate", 14 ] ],
      [ [ "hood_rain", 2 ], [ "bag_plastic", 4 ] ],
      [ [ "duct_tape", 300 ] ]
    ],
    "id": "fc96f1c0-2235-483c-8bfb-ad91b81fe2e6"
  },
  {
    "result": "helmet_hsurvivor",
    "type": "recipe",
    "category": "CC_ARMOR",
    "subcategory": "CSC_ARMOR_HEAD",
    "skill_used": "tailor",
    "difficulty": 7,
    "skills_required": [ "fabrication", 5 ],
    "time": "45 m",
    "autolearn": true,
    "using": [ [ "sewing_standard", 10 ] ],
    "tools": [ [ [ "welder", 42 ], [ "welder_crude", 63 ], [ "soldering_iron", 63 ], [ "toolset", 63 ] ] ],
    "components": [
      [ [ "helmet_liner", 1 ], [ "hat_cotton", 1 ], [ "rag", 3 ] ],
      [ [ "helmet_army", 1 ] ],
      [ [ "hood_rain", 1 ], [ "bag_plastic", 2 ] ],
      [ [ "steel_chunk", 2 ], [ "scrap", 6 ] ],
      [ [ "duct_tape", 75 ] ],
      [
        [ "helmet_riot", 1 ],
        [ "helmet_motor", 1 ],
        [ "helmet_football", 1 ],
        [ "helmet_ball", 1 ],
        [ "helmet_skid", 1 ],
        [ "helmet_bike", 1 ],
        [ "hat_hard", 1 ],
        [ "firehelmet", 1 ],
        [ "pickelhaube", 1 ],
        [ "plastic_chunk", 8 ]
      ]
    ],
    "id": "8e2c9d55-1ab7-4eb5-8e0b-bb7bd6d639b0"
  },
  {
    "result": "helmet_sasurvivor",
    "type": "recipe",
    "category": "CC_ARMOR",
    "subcategory": "CSC_ARMOR_HEAD",
    "skill_used": "tailor",
    "difficulty": 7,
    "skills_required": [ "fabrication", 7 ],
    "time": "45 m",
    "autolearn": true,
    "using": [ [ "sewing_standard", 10 ] ],
    "tools": [ [ [ "welder", 42 ], [ "welder_crude", 63 ], [ "soldering_iron", 63 ], [ "toolset", 63 ] ] ],
    "components": [
      [ [ "helmet_liner", 1 ], [ "hat_cotton", 1 ], [ "rag", 3 ] ],
      [ [ "helmet_army", 1 ] ],
      [ [ "hood_rain", 1 ], [ "bag_plastic", 2 ] ],
      [ [ "alloy_sheet", 4 ] ],
      [ [ "duct_tape", 75 ] ],
      [
        [ "helmet_riot", 1 ],
        [ "helmet_motor", 1 ],
        [ "helmet_football", 1 ],
        [ "helmet_ball", 1 ],
        [ "helmet_skid", 1 ],
        [ "helmet_bike", 1 ],
        [ "hat_hard", 1 ],
        [ "firehelmet", 1 ],
        [ "pickelhaube", 1 ],
        [ "plastic_chunk", 8 ]
      ]
    ],
    "id": "b981c531-c498-418b-a509-736b70a82ec4"
  },
  {
    "result": "helmet_scrap",
    "type": "recipe",
    "category": "CC_ARMOR",
    "subcategory": "CSC_ARMOR_HEAD",
    "skill_used": "fabrication",
    "difficulty": 3,
    "time": "20 m",
    "autolearn": true,
    "book_learn": [ [ "recipe_melee", 2 ] ],
    "using": [ [ "cordage", 1 ] ],
    "qualities": [ { "id": "CUT", "level": 1 }, { "id": "HAMMER", "level": 1 } ],
    "components": [ [ [ "scrap", 30 ], [ "sheet_metal_small", 6 ] ] ],
    "id": "0a4cef96-4f2f-43aa-a6dc-037136b5673b"
  },
  {
    "result": "hood_fsurvivor",
    "type": "recipe",
    "category": "CC_ARMOR",
    "subcategory": "CSC_ARMOR_HEAD",
    "skill_used": "tailor",
    "difficulty": 8,
    "skills_required": [ "fabrication", 6 ],
    "time": "45 m",
    "autolearn": true,
    "book_learn": [ [ "textbook_fireman", 7 ] ],
    "using": [ [ "sewing_standard", 40 ] ],
    "tools": [ [ [ "welder", 21 ], [ "welder_crude", 32 ], [ "soldering_iron", 32 ], [ "toolset", 32 ] ] ],
    "components": [ [ [ "nomex", 8 ] ], [ [ "kevlar_plate", 4 ] ], [ [ "nomex_hood", 1 ] ], [ [ "duct_tape", 100 ] ] ],
    "id": "bbd9ca23-b96b-4cc1-af2a-e43dd7b30cf0"
  },
  {
    "result": "hood_h20survivor",
    "type": "recipe",
    "category": "CC_ARMOR",
    "subcategory": "CSC_ARMOR_HEAD",
    "skill_used": "tailor",
    "difficulty": 7,
    "skills_required": [ "fabrication", 6 ],
    "time": "45 m",
    "autolearn": true,
    "using": [ [ "sewing_standard", 40 ] ],
    "tools": [ [ [ "welder", 21 ], [ "welder_crude", 32 ], [ "soldering_iron", 32 ], [ "toolset", 32 ] ] ],
    "components": [ [ [ "plastic_chunk", 4 ] ], [ [ "kevlar_plate", 4 ] ], [ [ "wetsuit_hood", 1 ] ], [ [ "duct_tape", 100 ] ] ],
    "id": "8922ba93-da98-4d4f-97e3-c9f3e52dbec5"
  },
  {
    "result": "hood_lsurvivor",
    "type": "recipe",
    "category": "CC_ARMOR",
    "subcategory": "CSC_ARMOR_HEAD",
    "skill_used": "tailor",
    "difficulty": 5,
    "skills_required": [ "fabrication", 4 ],
    "time": "45 m",
    "autolearn": true,
    "using": [ [ "sewing_standard", 40 ] ],
    "tools": [ [ [ "welder", 21 ], [ "welder_crude", 32 ], [ "soldering_iron", 32 ], [ "toolset", 32 ] ] ],
    "components": [ [ [ "rag", 8 ] ], [ [ "kevlar_plate", 4 ] ], [ [ "hood_rain", 1 ], [ "bag_plastic", 2 ] ], [ [ "duct_tape", 100 ] ] ],
    "id": "0594901a-fb2c-40f6-9b28-17c03e6139c7"
  },
  {
    "result": "hood_rain",
    "type": "recipe",
    "category": "CC_ARMOR",
    "subcategory": "CSC_ARMOR_HEAD",
    "skill_used": "tailor",
    "difficulty": 1,
    "time": "12 m",
    "autolearn": true,
    "tools": [  ],
    "components": [ [ [ "duct_tape", 20 ] ], [ [ "bag_plastic", 2 ] ], [ [ "rag", 2 ] ] ],
    "id": "ed27a603-c8fe-4cbc-8055-3111dc1142da"
  },
  {
    "result": "hood_survivor",
    "type": "recipe",
    "category": "CC_ARMOR",
    "subcategory": "CSC_ARMOR_HEAD",
    "skill_used": "tailor",
    "difficulty": 6,
    "skills_required": [ "fabrication", 4 ],
    "time": "45 m",
    "autolearn": true,
    "using": [ [ "sewing_standard", 40 ] ],
    "tools": [ [ [ "welder", 21 ], [ "welder_crude", 32 ], [ "soldering_iron", 32 ], [ "toolset", 32 ] ] ],
    "components": [
      [ [ "fabric_hides_proper", 6, "LIST" ] ],
      [ [ "fabric_standard", 2, "LIST" ] ],
      [ [ "kevlar_plate", 4 ] ],
      [ [ "hood_rain", 1 ], [ "bag_plastic", 2 ] ],
      [ [ "duct_tape", 100 ] ]
    ],
    "id": "4324777e-a6e9-4f48-9e3a-75904154fe80"
  },
  {
    "result": "hood_wsurvivor",
    "type": "recipe",
    "category": "CC_ARMOR",
    "subcategory": "CSC_ARMOR_HEAD",
    "skill_used": "tailor",
    "difficulty": 7,
    "skills_required": [ "fabrication", 5 ],
    "time": "45 m",
    "autolearn": true,
    "using": [ [ "sewing_standard", 40 ] ],
    "tools": [ [ [ "welder", 21 ], [ "welder_crude", 32 ], [ "soldering_iron", 32 ], [ "toolset", 32 ] ] ],
    "components": [
      [ [ "fur", 8 ] ],
      [ [ "fabric_standard", 2, "LIST" ] ],
      [ [ "kevlar_plate", 4 ] ],
      [ [ "hood_rain", 1 ], [ "bag_plastic", 2 ] ],
      [ [ "duct_tape", 100 ] ]
    ],
    "id": "a3626174-480e-4365-ae4f-501df14daca8"
  },
  {
    "result": "hood_xlsurvivor",
    "type": "recipe",
    "category": "CC_ARMOR",
    "subcategory": "CSC_ARMOR_HEAD",
    "skill_used": "tailor",
    "difficulty": 6,
    "skills_required": [ "fabrication", 4 ],
    "time": "1 h",
    "autolearn": true,
    "using": [ [ "sewing_standard", 80 ] ],
    "tools": [ [ [ "welder", 42 ], [ "welder_crude", 63 ], [ "soldering_iron", 63 ], [ "toolset", 63 ] ] ],
    "components": [
      [ [ "fabric_hides_proper", 14, "LIST" ] ],
      [ [ "fabric_standard", 4, "LIST" ] ],
      [ [ "scrap", 2 ] ],
      [ [ "kevlar_plate", 6 ] ],
      [ [ "hood_rain", 2 ], [ "bag_plastic", 4 ] ],
      [ [ "duct_tape", 200 ] ]
    ],
    "id": "40f03a48-508b-480c-9a9b-3f4e7cace793"
  },
  {
    "type": "recipe",
    "result": "iggaak",
    "category": "CC_ARMOR",
    "subcategory": "CSC_ARMOR_HEAD",
    "skill_used": "fabrication",
    "skills_required": [ "survival", 1 ],
    "difficulty": 2,
    "time": "8 m",
    "autolearn": true,
    "qualities": [ { "id": "CUT", "level": 1 } ],
    "components": [
      [ [ "cordage_short", 2, "LIST" ], [ "filament", 100, "LIST" ] ],
      [ [ "2x4", 1 ], [ "stick", 1 ], [ "bone_sturdy", 1, "LIST" ] ]
    ],
    "id": "74322ece-ebc8-434f-b40f-6e4dfde04be7"
  },
  {
    "result": "keffiyeh",
    "type": "recipe",
    "category": "CC_ARMOR",
    "subcategory": "CSC_ARMOR_HEAD",
    "skill_used": "tailor",
    "time": "5 m",
    "reversible": true,
    "autolearn": true,
    "using": [ [ "cordage", 1 ] ],
    "components": [ [ [ "sheet", 1 ] ] ],
    "id": "c3c0a1a1-8a8c-496c-948d-c52c454129ba"
  },
  {
    "result": "knit_scarf",
    "type": "recipe",
    "category": "CC_ARMOR",
    "subcategory": "CSC_ARMOR_HEAD",
    "skill_used": "tailor",
    "difficulty": 1,
    "time": "40 m",
    "reversible": true,
    "autolearn": true,
    "using": [ [ "tailoring_cotton_knitting", 600 ] ],
    "id": "1692c939-aff4-4c2b-a054-2642562eafe2"
  },
  {
    "result": "leather_cat_ears",
    "type": "recipe",
    "category": "CC_ARMOR",
    "subcategory": "CSC_ARMOR_HEAD",
    "skill_used": "tailor",
    "difficulty": 3,
    "time": "20 m",
    "book_learn": [ [ "mag_animecon", 3 ] ],
    "using": [ [ "sewing_standard", 10 ] ],
    "tools": [ [ [ "surface_heat", 5, "LIST" ] ] ],
    "components": [ [ [ "leather", 2 ] ], [ [ "plastic_chunk", 3 ] ] ],
    "id": "b71079fc-3669-411e-86c5-e8bc0fec1a45"
  },
  {
    "result": "long_knit_scarf",
    "type": "recipe",
    "category": "CC_ARMOR",
    "subcategory": "CSC_ARMOR_HEAD",
    "skill_used": "tailor",
    "difficulty": 1,
    "time": "1 h",
    "reversible": true,
    "autolearn": true,
    "using": [ [ "tailoring_cotton_knitting", 900 ] ],
    "id": "85a0acd3-6d67-425f-80e3-0df59b3fea99"
  },
  {
    "result": "long_patchwork_scarf",
    "type": "recipe",
    "category": "CC_ARMOR",
    "subcategory": "CSC_ARMOR_HEAD",
    "skill_used": "tailor",
    "time": "15 m",
    "reversible": true,
    "autolearn": true,
    "using": [ [ "sewing_standard", 9 ] ],
    "components": [ [ [ "rag", 12 ] ] ],
    "id": "09c97923-655f-421e-b58c-8d118a15b02a"
  },
  {
    "result": "mask_filter",
    "type": "recipe",
    "category": "CC_ARMOR",
    "subcategory": "CSC_ARMOR_HEAD",
    "//": "Airtight takes some skills.",
    "skill_used": "tailor",
    "difficulty": 2,
    "skills_required": [ "fabrication", 1 ],
    "time": "5 m",
    "reversible": true,
    "decomp_learn": 3,
    "book_learn": [
      [ "textbook_fireman", 3 ],
      [ "atomic_survival", 3 ],
      [ "adv_chemistry", 4 ],
      [ "textbook_chemistry", 4 ],
      [ "emergency_book", 3 ],
      [ "textbook_gaswarfare", 3 ]
    ],
    "components": [
      [ [ "bag_plastic", 2 ], [ "bottle_plastic", 1 ], [ "bottle_plastic_small", 2 ] ],
      [ [ "rag", 2 ], [ "bandana", 2 ], [ "paper", 10 ] ],
      [ [ "charcoal", 10 ] ]
    ],
    "id": "5942bdfc-5479-40ba-919c-751c0e57b597"
  },
  {
    "result": "mask_fsurvivor",
    "type": "recipe",
    "category": "CC_ARMOR",
    "subcategory": "CSC_ARMOR_HEAD",
    "skill_used": "fabrication",
    "difficulty": 7,
    "skills_required": [ "tailor", 8 ],
    "time": "20 m",
    "autolearn": true,
    "book_learn": [ [ "textbook_fireman", 7 ], [ "atomic_survival", 8 ], [ "textbook_gaswarfare", 9 ] ],
    "using": [ [ "adhesive", 2 ], [ "sewing_standard", 20 ] ],
    "tools": [ [ [ "welder", 56 ], [ "welder_crude", 84 ], [ "soldering_iron", 84 ], [ "toolset", 84 ] ] ],
    "components": [ [ [ "mask_bunker", 1 ] ], [ [ "nomex", 4 ] ], [ [ "mask_bal", 1 ], [ "kevlar_plate", 4 ] ] ],
    "id": "cd6f442b-84af-4b1f-a7d9-2bfb1af2cc92"
  },
  {
    "result": "mask_fsurvivorxl",
    "type": "recipe",
    "category": "CC_ARMOR",
    "subcategory": "CSC_ARMOR_HEAD",
    "skill_used": "fabrication",
    "difficulty": 7,
    "skills_required": [ "tailor", 8 ],
    "time": "20 m",
    "autolearn": true,
    "book_learn": [ [ "textbook_fireman", 7 ], [ "atomic_survival", 8 ], [ "textbook_gaswarfare", 9 ] ],
    "using": [ [ "adhesive", 2 ], [ "sewing_standard", 20 ] ],
    "tools": [ [ [ "welder", 56 ], [ "welder_crude", 84 ], [ "soldering_iron", 84 ], [ "toolset", 84 ] ] ],
    "components": [ [ [ "mask_bunker", 1 ] ], [ [ "nomex", 8 ] ], [ [ "mask_bal", 1 ], [ "kevlar_plate", 6 ] ] ],
    "id": "74937644-8da9-45b6-9ba4-49e150ead18e"
  },
  {
    "result": "mask_gas",
    "type": "recipe",
    "category": "CC_ARMOR",
    "subcategory": "CSC_ARMOR_HEAD",
    "skill_used": "tailor",
    "difficulty": 3,
    "skills_required": [ "fabrication", 1 ],
    "time": "20 m",
    "decomp_learn": 3,
    "book_learn": [
      [ "textbook_fireman", 3 ],
      [ "atomic_survival", 3 ],
      [ "adv_chemistry", 4 ],
      [ "textbook_chemistry", 4 ],
      [ "emergency_book", 3 ],
      [ "textbook_gaswarfare", 3 ]
    ],
    "qualities": [ { "id": "WRENCH", "level": 1 } ],
    "components": [ [ [ "goggles_ski", 1 ], [ "goggles_swim", 2 ] ], [ [ "mask_filter", 3 ] ], [ [ "hose", 1 ] ], [ [ "charcoal", 20 ] ] ],
    "id": "2ebe71b8-e906-4417-a7c0-285820dda92f"
  },
  {
    "result": "mask_gas_xl",
    "type": "recipe",
    "category": "CC_ARMOR",
    "subcategory": "CSC_ARMOR_HEAD",
    "skill_used": "tailor",
    "difficulty": 4,
    "skills_required": [ "fabrication", 1 ],
    "time": "20 m",
    "book_learn": [
      [ "textbook_fireman", 3 ],
      [ "atomic_survival", 3 ],
      [ "adv_chemistry", 4 ],
      [ "textbook_chemistry", 4 ],
      [ "emergency_book", 3 ],
      [ "textbook_gaswarfare", 3 ]
    ],
    "qualities": [ { "id": "WRENCH", "level": 1 } ],
    "tools": [ [ [ "welder", 56 ], [ "welder_crude", 84 ], [ "soldering_iron", 84 ], [ "toolset", 84 ] ] ],
    "components": [
      [ [ "goggles_ski", 1 ], [ "goggles_swim", 2 ] ],
      [ [ "mask_filter", 3 ] ],
      [ [ "hose", 1 ] ],
      [ [ "plastic_chunk", 4 ] ],
      [ [ "charcoal", 20 ] ]
    ],
    "id": "387f107f-6777-47af-8d35-9bf72c9ae282"
  },
  {
    "result": "mask_gas_xl",
    "type": "recipe",
    "id_suffix": "expand-existing",
    "category": "CC_ARMOR",
    "subcategory": "CSC_ARMOR_HEAD",
    "skill_used": "tailor",
    "difficulty": 4,
    "skills_required": [ "fabrication", 1 ],
    "time": "20 m",
    "book_learn": [
      [ "textbook_fireman", 3 ],
      [ "atomic_survival", 3 ],
      [ "adv_chemistry", 4 ],
      [ "textbook_chemistry", 4 ],
      [ "emergency_book", 3 ],
      [ "textbook_gaswarfare", 3 ]
    ],
    "qualities": [ { "id": "WRENCH", "level": 1 } ],
    "tools": [ [ [ "welder", 56 ], [ "welder_crude", 84 ], [ "soldering_iron", 84 ], [ "toolset", 84 ] ] ],
    "components": [ [ [ "mask_gas", 1 ] ], [ [ "mask_filter", 1 ] ], [ [ "plastic_chunk", 3 ] ] ],
    "id": "109ada08-2133-4e94-8b94-1381d4bf3cf9"
  },
  {
    "result": "mask_h20survivor",
    "type": "recipe",
    "category": "CC_ARMOR",
    "subcategory": "CSC_ARMOR_HEAD",
    "skill_used": "fabrication",
    "difficulty": 7,
    "skills_required": [ "tailor", 7 ],
    "time": "20 m",
    "autolearn": true,
    "using": [ [ "adhesive", 2 ], [ "sewing_standard", 20 ] ],
    "tools": [ [ [ "welder", 56 ], [ "welder_crude", 84 ], [ "soldering_iron", 84 ], [ "toolset", 84 ] ] ],
    "components": [
      [ [ "rebreather", 1 ] ],
      [ [ "goggles_swim", 1 ] ],
      [ [ "plastic_chunk", 4 ] ],
      [ [ "mask_bal", 1 ], [ "kevlar_plate", 4 ] ]
    ],
    "id": "9542eefc-0fcd-4f7a-a636-2afeceb44231"
  },
  {
    "result": "mask_h20survivorxl",
    "type": "recipe",
    "category": "CC_ARMOR",
    "subcategory": "CSC_ARMOR_HEAD",
    "skill_used": "fabrication",
    "difficulty": 7,
    "skills_required": [ "tailor", 7 ],
    "time": "20 m",
    "autolearn": true,
    "using": [ [ "adhesive", 2 ], [ "sewing_standard", 20 ] ],
    "tools": [ [ [ "welder", 56 ], [ "welder_crude", 84 ], [ "soldering_iron", 84 ], [ "toolset", 84 ] ] ],
    "components": [
      [ [ "rebreather", 1 ] ],
      [ [ "goggles_swim", 1 ] ],
      [ [ "plastic_chunk", 8 ] ],
      [ [ "mask_bal", 1 ], [ "kevlar_plate", 6 ] ]
    ],
    "id": "28991fb3-9ec9-4abd-a34f-a3df2463f794"
  },
  {
    "result": "mask_hsurvivor",
    "type": "recipe",
    "category": "CC_ARMOR",
    "subcategory": "CSC_ARMOR_HEAD",
    "skill_used": "fabrication",
    "difficulty": 7,
    "skills_required": [ "tailor", 7 ],
    "time": "20 m",
    "autolearn": true,
    "using": [ [ "adhesive", 1 ] ],
    "qualities": [ { "id": "CUT", "level": 1 } ],
    "tools": [ [ [ "welder", 56 ], [ "welder_crude", 84 ], [ "soldering_iron", 84 ], [ "toolset", 84 ] ] ],
    "components": [
      [ [ "mask_filter", 2 ], [ "mask_gas", 1 ], [ "mask_bunker", 1 ] ],
      [ [ "glasses_safety", 2 ], [ "glasses_bal", 1 ] ],
      [ [ "scrap", 3 ] ],
      [ [ "mask_bal", 1 ], [ "kevlar_plate", 4 ] ]
    ],
    "id": "77c1d144-205d-49ac-82c2-9cbcbe841551"
  },
  {
    "result": "mask_sasurvivor",
    "type": "recipe",
    "category": "CC_ARMOR",
    "subcategory": "CSC_ARMOR_HEAD",
    "skill_used": "fabrication",
    "difficulty": 7,
    "skills_required": [ "tailor", 7 ],
    "time": "20 m",
    "autolearn": true,
    "using": [ [ "adhesive", 1 ] ],
    "qualities": [ { "id": "CUT", "level": 1 } ],
    "tools": [ [ [ "welder", 56 ], [ "welder_crude", 84 ], [ "soldering_iron", 84 ], [ "toolset", 84 ] ] ],
    "components": [
      [ [ "mask_filter", 2 ], [ "mask_gas", 1 ], [ "mask_bunker", 1 ] ],
      [ [ "glasses_safety", 2 ], [ "glasses_bal", 1 ] ],
      [ [ "alloy_sheet", 2 ] ],
      [ [ "mask_bal", 1 ], [ "kevlar_plate", 4 ] ]
    ],
    "id": "ed2cbbb2-0737-47d2-ab15-6cf421fd6c25"
  },
  {
    "result": "mask_lsurvivor",
    "type": "recipe",
    "category": "CC_ARMOR",
    "subcategory": "CSC_ARMOR_HEAD",
    "skill_used": "fabrication",
    "difficulty": 6,
    "skills_required": [ "tailor", 5 ],
    "time": "20 m",
    "autolearn": true,
    "using": [ [ "adhesive", 1 ], [ "sewing_standard", 10 ] ],
    "tools": [ [ [ "welder", 56 ], [ "welder_crude", 84 ], [ "soldering_iron", 84 ], [ "toolset", 84 ] ] ],
    "components": [
      [ [ "mask_filter", 2 ], [ "mask_gas", 1 ], [ "mask_bunker", 1 ] ],
      [ [ "glasses_safety", 2 ], [ "glasses_bal", 1 ] ],
      [ [ "fabric_standard", 3, "LIST" ] ],
      [ [ "mask_bal", 1 ], [ "kevlar_plate", 4 ] ]
    ],
    "id": "6baa0da6-54c5-41a1-af8c-e03b1158d4b1"
  },
  {
    "result": "mask_rioter",
    "type": "recipe",
    "category": "CC_ARMOR",
    "subcategory": "CSC_ARMOR_HEAD",
    "skill_used": "tailor",
    "time": "1 m 30 s",
    "reversible": true,
    "autolearn": true,
    "components": [ [ [ "tshirt", 1 ], [ "flag_shirt", 1 ], [ "linuxtshirt", 1 ], [ "tshirt_text", 1 ] ] ],
    "flags": [ "BLIND_HARD", "NO_RESIZE" ],
    "id": "d77aa8f4-5068-4f49-9992-7a8a5f025d6b"
  },
  {
    "result": "mask_ski",
    "type": "recipe",
    "category": "CC_ARMOR",
    "subcategory": "CSC_ARMOR_HEAD",
    "skill_used": "tailor",
    "difficulty": 3,
    "time": "30 m",
    "autolearn": [ [ "tailor", 7 ] ],
    "book_learn": [ [ "textbook_tailor", 3 ], [ "manual_tailor", 4 ], [ "tailor_portfolio", 3 ] ],
    "using": [ [ "sewing_standard", 80 ] ],
    "components": [ [ [ "felt_patch", 8 ] ] ],
    "id": "20b9ac88-14a9-4e5c-936c-7c38a6d5935c"
  },
  {
    "result": "mask_survivor",
    "type": "recipe",
    "category": "CC_ARMOR",
    "subcategory": "CSC_ARMOR_HEAD",
    "skill_used": "fabrication",
    "difficulty": 6,
    "skills_required": [ "tailor", 6 ],
    "time": "20 m",
    "autolearn": true,
    "using": [ [ "adhesive", 1 ], [ "sewing_standard", 10 ] ],
    "tools": [ [ [ "welder", 56 ], [ "welder_crude", 84 ], [ "soldering_iron", 84 ], [ "toolset", 84 ] ] ],
    "components": [
      [ [ "mask_filter", 2 ], [ "mask_gas", 1 ], [ "mask_bunker", 1 ] ],
      [ [ "glasses_safety", 2 ], [ "glasses_bal", 1 ] ],
      [ [ "fabric_hides_proper", 3, "LIST" ] ],
      [ [ "mask_bal", 1 ], [ "kevlar_plate", 4 ] ]
    ],
    "id": "86fdcf87-b239-443e-9f8b-497f590960aa"
  },
  {
    "result": "mask_survivorxl",
    "type": "recipe",
    "category": "CC_ARMOR",
    "subcategory": "CSC_ARMOR_HEAD",
    "skill_used": "fabrication",
    "difficulty": 7,
    "skills_required": [ "tailor", 5 ],
    "time": "20 m",
    "autolearn": true,
    "using": [ [ "adhesive", 2 ], [ "sewing_standard", 20 ] ],
    "tools": [ [ [ "welder", 56 ], [ "welder_crude", 84 ], [ "soldering_iron", 84 ], [ "toolset", 84 ] ] ],
    "components": [
      [ [ "mask_filter", 2 ], [ "mask_gas", 1 ], [ "mask_bunker", 1 ] ],
      [ [ "glasses_safety", 2 ], [ "glasses_bal", 1 ] ],
      [ [ "fabric_hides_proper", 6, "LIST" ] ],
      [ [ "mask_bal", 1 ], [ "kevlar_plate", 6 ] ]
    ],
    "id": "12d94ac8-bb3f-41c6-b248-b1471612c9e8"
  },
  {
    "result": "mask_wsurvivor",
    "type": "recipe",
    "category": "CC_ARMOR",
    "subcategory": "CSC_ARMOR_HEAD",
    "skill_used": "fabrication",
    "difficulty": 7,
    "skills_required": [ "tailor", 7 ],
    "time": "20 m",
    "autolearn": true,
    "using": [ [ "adhesive", 1 ], [ "sewing_standard", 10 ] ],
    "tools": [ [ [ "welder", 56 ], [ "welder_crude", 84 ], [ "soldering_iron", 84 ], [ "toolset", 84 ] ] ],
    "components": [
      [ [ "mask_filter", 2 ], [ "mask_gas", 1 ], [ "mask_bunker", 1 ] ],
      [ [ "glasses_safety", 2 ], [ "glasses_bal", 1 ] ],
      [ [ "mask_bal", 1 ], [ "kevlar_plate", 4 ] ],
      [ [ "fur", 6 ] ]
    ],
    "id": "53a118d8-b515-4528-8ac0-02a7a47c7254"
  },
  {
    "result": "mask_wsurvivorxl",
    "type": "recipe",
    "category": "CC_ARMOR",
    "subcategory": "CSC_ARMOR_HEAD",
    "skill_used": "fabrication",
    "difficulty": 7,
    "skills_required": [ "tailor", 7 ],
    "time": "20 m",
    "autolearn": true,
    "using": [ [ "adhesive", 1 ], [ "sewing_standard", 20 ] ],
    "tools": [ [ [ "welder", 56 ], [ "welder_crude", 84 ], [ "soldering_iron", 84 ], [ "toolset", 84 ] ] ],
    "components": [
      [ [ "mask_filter", 2 ], [ "mask_gas", 1 ], [ "mask_bunker", 1 ] ],
      [ [ "glasses_safety", 2 ], [ "glasses_bal", 1 ] ],
      [ [ "mask_bal", 1 ], [ "kevlar_plate", 4 ] ],
      [ [ "fur", 12 ] ]
    ],
    "id": "05115b84-718f-4fce-8983-707cdfde9981"
  },
  {
    "result": "miner_hat",
    "type": "recipe",
    "category": "CC_ARMOR",
    "subcategory": "CSC_ARMOR_HEAD",
    "skill_used": "fabrication",
    "time": "6 m",
    "autolearn": true,
    "components": [
      [ [ "hat_hard", 1 ], [ "helmet_bike", 1 ] ],
      [ [ "heavy_flashlight", 1 ] ],
      [ [ "cordage", 1, "LIST" ], [ "duct_tape", 10 ], [ "medical_tape", 20 ] ]
    ],
    "id": "1e857eca-ffff-48f9-9b4a-5a1023bc84b1"
  },
  {
    "result": "nomex_hood",
    "type": "recipe",
    "category": "CC_ARMOR",
    "subcategory": "CSC_ARMOR_HEAD",
    "skill_used": "tailor",
    "difficulty": 6,
    "time": "24 m",
    "book_learn": [ [ "textbook_fireman", 6 ], [ "textbook_tailor", 5 ], [ "tailor_portfolio", 5 ] ],
    "using": [ [ "sewing_standard", 8 ] ],
    "components": [ [ [ "nomex", 6 ] ] ],
    "id": "eca2d59c-9eda-4a50-bc19-2e5236553a32"
  },
  {
    "result": "patchwork_scarf",
    "type": "recipe",
    "category": "CC_ARMOR",
    "subcategory": "CSC_ARMOR_HEAD",
    "skill_used": "tailor",
    "time": "10 m",
    "reversible": true,
    "autolearn": true,
    "using": [ [ "sewing_standard", 3 ] ],
    "components": [ [ [ "rag", 4 ] ] ],
    "id": "2fb669fb-b17f-4549-9c13-adc16f4ea256"
  },
  {
    "result": "pot_helmet",
    "type": "recipe",
    "category": "CC_ARMOR",
    "subcategory": "CSC_ARMOR_HEAD",
    "skill_used": "fabrication",
    "time": "2 m",
    "reversible": true,
    "autolearn": true,
    "components": [ [ [ "rag", 4 ] ], [ [ "pot", 1 ] ] ],
    "flags": [ "BLIND_HARD" ],
    "id": "3ef11761-aae6-4e61-ba7a-07d9f7d8cb22"
  },
  {
    "result": "rebreather",
    "type": "recipe",
    "category": "CC_ARMOR",
    "subcategory": "CSC_ARMOR_HEAD",
    "skill_used": "electronics",
    "difficulty": 9,
    "skills_required": [ "tailor", 1 ],
    "time": "1 h 20 m",
    "book_learn": [ [ "manual_swimming", 3 ], [ "atomic_survival", 3 ], [ "adv_chemistry", 4 ], [ "textbook_chemistry", 4 ] ],
    "qualities": [ { "id": "SCREW", "level": 1 } ],
    "tools": [ [ [ "welder", 56 ], [ "welder_crude", 84 ], [ "soldering_iron", 84 ], [ "toolset", 84 ] ] ],
    "components": [
      [ [ "mask_filter", 1 ] ],
      [ [ "power_supply", 2 ] ],
      [ [ "amplifier", 2 ] ],
      [ [ "plastic_chunk", 4 ] ],
      [ [ "circuit", 2 ] ],
      [ [ "e_scrap", 8 ] ],
      [ [ "cable", 2 ] ]
    ],
    "id": "05d1902d-eab6-4018-a8c7-78bc5098aa44"
  },
  {
    "result": "rebreather_xl",
    "type": "recipe",
    "category": "CC_ARMOR",
    "subcategory": "CSC_ARMOR_HEAD",
    "skill_used": "electronics",
    "difficulty": 9,
    "skills_required": [ "tailor", 3 ],
    "time": "1 h 25 m",
    "book_learn": [ [ "manual_swimming", 3 ], [ "atomic_survival", 3 ], [ "adv_chemistry", 4 ], [ "textbook_chemistry", 4 ] ],
    "qualities": [ { "id": "SCREW", "level": 1 } ],
    "tools": [ [ [ "welder", 56 ], [ "welder_crude", 84 ], [ "soldering_iron", 84 ], [ "toolset", 84 ] ] ],
    "components": [
      [ [ "mask_filter", 2 ] ],
      [ [ "power_supply", 2 ] ],
      [ [ "amplifier", 2 ] ],
      [ [ "plastic_chunk", 2 ] ],
      [ [ "circuit", 2 ] ],
      [ [ "e_scrap", 8 ] ],
      [ [ "cable", 2 ] ]
    ],
    "id": "7462f71e-7370-4a61-aacb-34e8db6894ab"
  },
  {
    "result": "rebreather_xl",
    "type": "recipe",
    "id_suffix": "mod_existing",
    "category": "CC_ARMOR",
    "subcategory": "CSC_ARMOR_HEAD",
    "skill_used": "tailor",
    "difficulty": 3,
    "skills_required": [ "electronics", 4 ],
    "time": "20 m",
    "autolearn": true,
    "qualities": [ { "id": "SCREW", "level": 1 } ],
    "tools": [ [ [ "welder", 56 ], [ "welder_crude", 84 ], [ "soldering_iron", 84 ], [ "toolset", 84 ] ] ],
    "components": [
      [ [ "rebreather", 1 ] ],
      [ [ "mask_filter", 1 ], [ "mask_gas", 1 ] ],
      [ [ "power_supply", 1 ] ],
      [ [ "e_scrap", 4 ] ],
      [ [ "plastic_chunk", 6 ] ]
    ],
    "id": "5a9b2ca8-8f4d-47dd-b0e2-3f1831a13a0f"
  },
  {
    "result": "scarf",
    "type": "recipe",
    "category": "CC_ARMOR",
    "subcategory": "CSC_ARMOR_HEAD",
    "skill_used": "tailor",
    "difficulty": 1,
    "time": "1 h",
    "autolearn": true,
    "qualities": [ { "id": "KNIT", "level": 1 } ],
    "components": [ [ [ "yarn", 150 ] ] ],
    "id": "8f8ee7e6-51e2-4765-adf5-b3da300173f7"
  },
  {
    "result": "scarf_fur",
    "type": "recipe",
    "category": "CC_ARMOR",
    "subcategory": "CSC_ARMOR_HEAD",
    "skill_used": "tailor",
    "difficulty": 1,
    "skills_required": [ "survival", 1 ],
    "time": "5 m",
    "reversible": true,
    "autolearn": true,
    "using": [ [ "sewing_standard", 3 ] ],
    "components": [ [ [ "fur", 4 ] ] ],
    "id": "8f85388a-172e-4665-a249-27fa0771dc80"
  },
  {
    "result": "scarf_fur_long",
    "type": "recipe",
    "id_suffix": "merge_scarves",
    "category": "CC_ARMOR",
    "subcategory": "CSC_ARMOR_HEAD",
    "skill_used": "tailor",
    "difficulty": 2,
    "skills_required": [ "survival", 1 ],
    "time": "5 m",
    "reversible": true,
    "autolearn": true,
    "using": [ [ "sewing_standard", 3 ] ],
    "components": [ [ [ "scarf_fur", 3 ] ] ],
    "id": "0f3fa8e5-51e4-4aa9-9bc8-d0f5a23dea23"
  },
  {
    "result": "scarf_fur_long",
    "type": "recipe",
    "category": "CC_ARMOR",
    "subcategory": "CSC_ARMOR_HEAD",
    "//": "You try keeping 12 feet of fur sorted out!",
    "skill_used": "tailor",
    "difficulty": 2,
    "skills_required": [ "survival", 1 ],
    "time": "9 m",
    "reversible": true,
    "autolearn": true,
    "using": [ [ "sewing_standard", 9 ] ],
    "components": [ [ [ "fur", 12 ] ] ],
    "id": "8b8942f3-bf5b-4a66-abd3-28c768da3d6a"
  },
  {
    "result": "scarf_long",
    "type": "recipe",
    "category": "CC_ARMOR",
    "subcategory": "CSC_ARMOR_HEAD",
    "skill_used": "tailor",
    "difficulty": 3,
    "time": "1 h 20 m",
    "autolearn": true,
    "qualities": [ { "id": "KNIT", "level": 1 } ],
    "components": [ [ [ "yarn", 300 ] ] ],
    "id": "6d9f7469-b541-4777-a16d-26e3f283c18e"
  },
  {
    "result": "straw_fedora",
    "type": "recipe",
    "category": "CC_ARMOR",
    "subcategory": "CSC_ARMOR_HEAD",
    "skill_used": "tailor",
    "difficulty": 3,
    "time": "45 m",
    "reversible": true,
    "book_learn": [ [ "mag_tailor", 1 ], [ "manual_tailor", 1 ], [ "mag_beauty", 1 ], [ "textbook_tailor", 0 ] ],
    "components": [ [ [ "straw_pile", 7 ], [ "birchbark", 10 ] ] ],
    "id": "05a079ed-88b1-43cb-90b0-972cd665a144"
  },
  {
    "result": "straw_hat",
    "type": "recipe",
    "category": "CC_ARMOR",
    "subcategory": "CSC_ARMOR_HEAD",
    "skill_used": "tailor",
    "difficulty": 1,
    "time": "20 m",
    "reversible": true,
    "autolearn": true,
    "components": [ [ [ "straw_pile", 3 ], [ "birchbark", 5 ] ] ],
    "id": "f8b5244c-cb2c-4a1d-a8b2-1050475d9cfb"
  },
  {
    "result": "survivor_goggles",
    "type": "recipe",
    "category": "CC_ARMOR",
    "subcategory": "CSC_ARMOR_HEAD",
    "skill_used": "fabrication",
    "difficulty": 5,
    "skills_required": [ "tailor", 4 ],
    "time": "20 m",
    "autolearn": true,
    "using": [ [ "adhesive", 1 ], [ "sewing_standard", 10 ] ],
    "tools": [ [ [ "welder", 28 ], [ "welder_crude", 42 ], [ "soldering_iron", 42 ], [ "toolset", 42 ] ] ],
    "components": [
      [
        [ "goggles_ski", 1 ],
        [ "goggles_welding", 1 ],
        [ "sunglasses", 1 ],
        [ "fancy_sunglasses", 1 ],
        [ "fitover_sunglasses", 1 ]
      ],
      [ [ "glasses_safety", 2 ], [ "glasses_bal", 1 ] ],
      [ [ "leather", 3 ] ],
      [ [ "kevlar_plate", 2 ] ]
    ],
    "id": "5da2b2eb-f30c-4cac-b9fe-cc1e77b834b7"
  },
  {
    "result": "thermal_mask",
    "type": "recipe",
    "category": "CC_ARMOR",
    "subcategory": "CSC_ARMOR_HEAD",
    "skill_used": "electronics",
    "difficulty": 4,
    "skills_required": [ "tailor", 2 ],
    "time": "1 h 20 m",
    "book_learn": [ [ "textbook_fabrication", 3 ], [ "tailor_portfolio", 4 ], [ "textbook_tailor", 3 ], [ "atomic_survival", 3 ] ],
    "using": [ [ "sewing_standard", 8 ], [ "soldering_standard", 20 ] ],
    "components": [ [ [ "rag", 4 ], [ "scarf", 2 ], [ "scarf_long", 1 ], [ "balclava", 1 ] ], [ [ "element", 2 ] ], [ [ "cable", 6 ] ] ],
    "id": "44bce450-79b7-4da7-8693-d12befe72368"
  },
  {
    "result": "tinfoil_hat",
    "type": "recipe",
    "category": "CC_ARMOR",
    "subcategory": "CSC_ARMOR_HEAD",
    "skill_used": "tailor",
    "time": "30 s",
    "autolearn": true,
    "tools": [  ],
    "components": [ [ [ "aluminum_foil", 4 ] ] ],
    "id": "f7c7f8b6-55ed-4acb-8619-e7b80c4b9f2a"
  },
  {
    "result": "tricorne",
    "type": "recipe",
    "category": "CC_ARMOR",
    "subcategory": "CSC_ARMOR_HEAD",
    "skill_used": "tailor",
    "difficulty": 5,
    "time": "1 h 5 m",
    "autolearn": true,
    "using": [ [ "sewing_standard", 20 ] ],
    "components": [
      [ [ "leather", 8 ] ],
      [
        [ "any_tallow", 1, "LIST" ],
        [ "cooking_oil", 8 ],
        [ "cooking_oil2", 8 ],
        [ "lamp_oil", 200 ],
        [ "motor_oil", 200 ]
      ]
    ],
    "id": "daae41f0-d1c1-4b85-aa2e-825f09659ae2"
  },
  {
    "result": "turban",
    "type": "recipe",
    "category": "CC_ARMOR",
    "subcategory": "CSC_ARMOR_HEAD",
    "skill_used": "tailor",
    "time": "1 m",
    "reversible": true,
    "autolearn": true,
    "components": [ [ [ "rag", 8 ] ] ],
    "flags": [ "BLIND_HARD" ],
    "id": "51ae55a0-1153-46e4-bfbb-5865d7a44c62"
  },
  {
    "result": "welding_mask_crude",
    "type": "recipe",
    "category": "CC_ARMOR",
    "subcategory": "CSC_ARMOR_HEAD",
    "skill_used": "fabrication",
    "difficulty": 5,
    "time": "9 h",
    "autolearn": true,
    "using": [ [ "blacksmithing_intermediate", 16 ], [ "steel_standard", 4 ] ],
    "tools": [ [ [ "crucible", -1 ], [ "crucible_clay", -1 ] ] ],
    "components": [ [ [ "goggles_welding", 1 ] ] ],
    "id": "69acddc6-888a-4414-8570-b28347d8b175"
  },
  {
    "result": "wetsuit_hood",
    "type": "recipe",
    "category": "CC_ARMOR",
    "subcategory": "CSC_ARMOR_HEAD",
    "skill_used": "tailor",
    "difficulty": 4,
    "time": "2 h",
    "book_learn": [ [ "textbook_tailor", 4 ], [ "manual_tailor", 5 ], [ "tailor_portfolio", 4 ] ],
    "using": [ [ "sewing_standard", 10 ] ],
    "tools": [ [ [ "soldering_iron", 5 ], [ "welder", 5 ], [ "hotplate", 5 ], [ "toolset", 5 ] ] ],
    "components": [ [ [ "neoprene", 2 ] ], [ [ "rag", 2 ] ] ],
    "id": "61dcd7ef-8ea5-4b34-b2dd-665b753ad5c6"
  },
  {
    "result": "chainmail_hood",
    "type": "recipe",
    "category": "CC_ARMOR",
    "subcategory": "CSC_ARMOR_HEAD",
    "skill_used": "fabrication",
    "difficulty": 7,
    "time": "20 m",
    "book_learn": [ [ "textbook_armwest", 6 ], [ "textbook_fabrication", 6 ], [ "recipe_melee", 6 ] ],
    "using": [ [ "chainmail_standard", 2 ] ],
    "components": [ [ [ "link_sheet", 2 ] ], [ [ "chain_link", 50 ] ], [ [ "wire", 1 ] ], [ [ "rag", 4 ] ] ],
    "id": "d9da34eb-6259-43b0-bee5-55649e02b209"
  },
  {
    "result": "pot_xlhelmet",
    "type": "recipe",
    "category": "CC_ARMOR",
    "subcategory": "CSC_ARMOR_HEAD",
    "skill_used": "fabrication",
    "time": "2 m",
    "reversible": true,
    "autolearn": true,
    "components": [ [ [ "rag", 10 ] ], [ [ "pot_canning", 1 ] ] ],
    "flags": [ "BLIND_HARD" ],
    "id": "bf578f00-0892-4bbb-a8cf-d083c0f14137"
  },
  {
    "result": "helmet_corinthian",
    "type": "recipe",
    "category": "CC_ARMOR",
    "subcategory": "CSC_ARMOR_HEAD",
    "skill_used": "fabrication",
    "difficulty": 6,
    "time": "1 h 10 m",
    "book_learn": [ [ "textbook_armwest", 5 ] ],
    "using": [ [ "forging_standard", 3 ], [ "bronzesmithing_tools", 1 ] ],
    "components": [ [ [ "scrap_bronze", 7 ] ], [ [ "fabric_hides_proper", 4, "LIST" ] ] ],
    "id": "846144bc-75d4-4da0-9a42-fb3e053602e2"
  },
  {
    "result": "attached_ear_plugs_off",
    "type": "recipe",
    "category": "CC_ARMOR",
    "subcategory": "CSC_ARMOR_HEAD",
    "skill_used": "fabrication",
    "time": "10 s",
    "autolearn": true,
    "components": [ [ [ "ear_plugs", 1 ] ], [ [ "filament", 100, "LIST" ], [ "cordage_short", 2, "LIST" ] ] ],
    "id": "f57bc870-f191-4380-89b2-901fd0b6f228"
  }
]
