[
  {
    "type": "recipe",
    "result": "faction_base_modular_shelter_bedroom1",
    "description": "Let's build some living quarters so we can expand.  We will start in the southeast corner.",
    "category": "CC_BUILDING",
    "subcategory": "CSC_BUILDING_BASES",
    "autolearn": false,
    "never_learn": true,
    "construction_blueprint": "fbmc_shelter_bedroom_se",
    "blueprint_name": "build SE standard bedroom walls",
    "blueprint_requires": [ { "id": "fbmc_shelter_fire" } ],
    "blueprint_provides": [ { "id": "fbmc_shelter_bedroom1" } ],
    "blueprint_excludes": [ { "id": "fbmc_shelter_bedroom1" } ],
    "blueprint_needs": {
      "time": "1 h 30 m",
      "skills": [ [ "fabrication", 2 ] ],
      "inline": {
        "tools": [  ],
        "qualities": [ [ { "id": "HAMMER", "level": 2 } ], [ { "id": "SAW_W", "level": 2 } ] ],
        "components": [ [ [ "2x4", 14 ] ], [ [ "hinge", 2 ] ], [ [ "nail", 36 ] ], [ [ "wood_panel", 1 ] ] ]
      }
    },
    "id": "6d61b889-8d94-40e2-b407-c3b91637bf23"
  },
  {
    "type": "recipe",
    "result": "faction_base_modular_shelter_bedroom2",
    "description": "Let's build some living quarters so we can expand.  We will continue along the same wall.",
    "category": "CC_BUILDING",
    "subcategory": "CSC_BUILDING_BASES",
    "autolearn": false,
    "never_learn": true,
    "construction_blueprint": "fbmc_shelter_bedroom_e",
    "blueprint_name": "build E standard bedroom walls",
    "blueprint_requires": [ { "id": "fbmc_shelter_bedroom1" } ],
    "blueprint_provides": [ { "id": "fbmc_shelter_bedroom2" } ],
    "blueprint_excludes": [ { "id": "fbmc_shelter_bedroom2" } ],
    "blueprint_needs": {
      "time": "1 h 30 m",
      "skills": [ [ "fabrication", 2 ] ],
      "inline": {
        "tools": [  ],
        "qualities": [ [ { "id": "HAMMER", "level": 2 } ], [ { "id": "SAW_W", "level": 2 } ] ],
        "components": [ [ [ "2x4", 14 ] ], [ [ "hinge", 2 ] ], [ [ "nail", 36 ] ], [ [ "wood_panel", 1 ] ] ]
      }
    },
    "id": "20d1c97d-900c-48af-b61b-0f9aa42c75f0"
  },
  {
    "type": "recipe",
    "result": "faction_base_modular_shelter_bedroom3",
    "description": "Let's build some living quarters so we can expand.  We will continue along the other wall.",
    "category": "CC_BUILDING",
    "subcategory": "CSC_BUILDING_BASES",
    "autolearn": false,
    "never_learn": true,
    "construction_blueprint": "fbmc_shelter_bedroom_SW",
    "blueprint_name": "build SW standard bedroom walls",
    "blueprint_requires": [ { "id": "fbmc_shelter_bedroom2" } ],
    "blueprint_provides": [ { "id": "fbmc_shelter_bedroom3" } ],
    "blueprint_excludes": [ { "id": "fbmc_shelter_bedroom3" } ],
    "blueprint_needs": {
      "time": "1 h 30 m",
      "skills": [ [ "fabrication", 2 ] ],
      "inline": {
        "tools": [  ],
        "qualities": [ [ { "id": "HAMMER", "level": 2 } ], [ { "id": "SAW_W", "level": 2 } ] ],
        "components": [ [ [ "2x4", 14 ] ], [ [ "hinge", 2 ] ], [ [ "nail", 36 ] ], [ [ "wood_panel", 1 ] ] ]
      }
    },
    "id": "3681a400-a9fd-4e51-9535-6859d80cb75c"
  },
  {
    "type": "recipe",
    "result": "faction_base_modular_shelter_bedroom4",
    "description": "Let's build some living quarters so we can expand.  We will continue along the other wall.",
    "category": "CC_BUILDING",
    "subcategory": "CSC_BUILDING_BASES",
    "autolearn": false,
    "never_learn": true,
    "construction_blueprint": "fbmc_shelter_bedroom_W",
    "blueprint_name": "build W standard bedroom walls",
    "blueprint_requires": [ { "id": "fbmc_shelter_bedroom3" } ],
    "blueprint_provides": [ { "id": "fbmc_shelter_bedroom4" } ],
    "blueprint_excludes": [ { "id": "fbmc_shelter_bedroom4" } ],
    "blueprint_needs": {
      "time": "1 h 30 m",
      "skills": [ [ "fabrication", 2 ] ],
      "inline": {
        "tools": [  ],
        "qualities": [ [ { "id": "HAMMER", "level": 2 } ], [ { "id": "SAW_W", "level": 2 } ] ],
        "components": [ [ [ "2x4", 14 ] ], [ [ "hinge", 2 ] ], [ [ "nail", 36 ] ], [ [ "wood_panel", 1 ] ] ]
      }
    },
    "id": "7b66fd72-9565-4892-bb43-4127bba7a471"
  },
  {
    "type": "recipe",
    "result": "faction_base_modular_shelter_bedroom5",
    "description": "Let's build some living quarters so we can expand.  We will continue along the other wall.",
    "category": "CC_BUILDING",
    "subcategory": "CSC_BUILDING_BASES",
    "autolearn": false,
    "never_learn": true,
    "construction_blueprint": "fbmc_shelter_bedroom_NW",
    "blueprint_name": "build NW standard bedroom walls",
    "blueprint_requires": [ { "id": "fbmc_shelter_bedroom4" } ],
    "blueprint_provides": [ { "id": "fbmc_shelter_bedroom5" } ],
    "blueprint_excludes": [ { "id": "fbmc_shelter_bedroom5" } ],
    "blueprint_needs": {
      "time": "1 h 30 m",
      "skills": [ [ "fabrication", 2 ] ],
      "inline": {
        "tools": [  ],
        "qualities": [ [ { "id": "HAMMER", "level": 2 } ], [ { "id": "SAW_W", "level": 2 } ] ],
        "components": [ [ [ "2x4", 14 ] ], [ [ "hinge", 2 ] ], [ [ "nail", 36 ] ], [ [ "wood_panel", 1 ] ] ]
      }
    },
    "id": "5f04f65e-b113-4abc-9959-9bd3ea47a995"
  }
]
