[
  {
    "type": "recipe",
    "result": "acid",
    "category": "CC_CHEM",
    "subcategory": "CSC_CHEM_CHEMICALS",
    "skill_used": "cooking",
    "difficulty": 4,
    "time": "10 m",
    "autolearn": true,
    "batch_time_factors": [ 80, 5 ],
    "qualities": [ { "id": "BOIL", "level": 2 } ],
    "tools": [ [ [ "surface_heat", 3, "LIST" ] ] ],
    "components": [ [ [ "water_acid", 1 ], [ "water_acid_weak", 2 ] ] ],
    "id": "da25b607-cedb-4eb6-bf42-951a1cdc14e3"
  },
  {
    "type": "recipe",
    "result": "acid",
    "id_suffix": "from batteries",
    "category": "CC_CHEM",
    "subcategory": "CSC_CHEM_CHEMICALS",
    "skill_used": "electronics",
    "skills_required": [ "mechanics", 1 ],
    "difficulty": 2,
    "time": "5 m",
    "autolearn": true,
    "qualities": [ { "id": "SCREW", "level": 1 } ],
    "components": [
      [
        [ "light_minus_battery_cell", 20 ],
        [ "light_battery_cell", 10 ],
        [ "light_plus_battery_cell", 5 ],
        [ "medium_battery_cell", 2 ],
        [ "medium_plus_battery_cell", 2 ],
        [ "heavy_battery_cell", 1 ],
        [ "heavy_plus_battery_cell", 1 ]
      ]
    ],
    "id": "5e866733-680b-4781-842d-2fc7897b0ae4"
  },
  {
    "type": "recipe",
    "result": "water_acid",
    "category": "CC_CHEM",
    "subcategory": "CSC_CHEM_CHEMICALS",
    "skill_used": "cooking",
    "skills_required": [ "electronics", 1 ],
    "difficulty": 2,
    "time": "10 m",
    "book_learn": [ [ "adv_chemistry", 1 ], [ "textbook_chemistry", 1 ] ],
    "qualities": [ { "id": "CHEM", "level": 3 } ],
    "components": [ [ [ "salt_water", 1 ] ] ],
    "id": "c75b87f5-12ba-4bb3-b8c0-74beba72a9a8"
  },
  {
    "type": "recipe",
    "result": "fungicide",
    "category": "CC_CHEM",
    "subcategory": "CSC_CHEM_CHEMICALS",
    "skill_used": "cooking",
    "skills_required": [ "survival", 1 ],
    "difficulty": 2,
    "time": "5 m",
    "batch_time_factors": [ 80, 5 ],
    "book_learn": [
      [ "textbook_chemistry", 2 ],
      [ "adv_chemistry", 2 ],
      [ "pocket_survival", 2 ],
      [ "atomic_survival", 2 ],
      [ "textbook_survival", 1 ],
      [ "survival_book", 3 ],
      [ "recipe_labchem", 2 ]
    ],
    "qualities": [ { "id": "CHEM", "level": 2 } ],
    "tools": [ [ [ "surface_heat", 2, "LIST" ] ] ],
    "components": [ [ [ "fighter_sting", 1 ], [ "disinfectant", 20 ], [ "oxy_powder", 100 ] ], [ [ "bleach", 5 ] ] ],
    "id": "44eee136-cd8f-4b07-aa14-574bd26c9e07"
  },
  {
    "type": "recipe",
    "result": "insecticide",
    "category": "CC_CHEM",
    "subcategory": "CSC_CHEM_CHEMICALS",
    "skill_used": "cooking",
    "difficulty": 4,
    "time": "30 m",
    "batch_time_factors": [ 80, 5 ],
    "book_learn": [ [ "textbook_chemistry", 4 ], [ "adv_chemistry", 4 ], [ "recipe_labchem", 4 ] ],
    "qualities": [ { "id": "CHEM", "level": 2 } ],
    "tools": [ [ [ "surface_heat", 2, "LIST" ] ] ],
    "components": [
      [ [ "chem_sulphur", 150 ] ],
      [ [ "oxy_powder", 100 ] ],
      [ [ "ammonia", 5 ] ],
      [ [ "acid", 1 ] ],
      [ [ "chem_saltpetre", 5 ] ],
      [ [ "bleach", 5 ] ]
    ],
    "id": "3adf65b7-8f3f-44c2-bfbf-4f28cc23b2d2"
  },
  {
    "type": "recipe",
    "result": "insecticide",
    "id_suffix": "nicotine",
    "category": "CC_CHEM",
    "subcategory": "CSC_CHEM_CHEMICALS",
    "skill_used": "cooking",
    "difficulty": 4,
    "time": "30 m",
    "batch_time_factors": [ 80, 5 ],
    "book_learn": [ [ "textbook_chemistry", 4 ], [ "adv_chemistry", 4 ], [ "recipe_labchem", 4 ] ],
    "qualities": [ { "id": "CHEM", "level": 2 } ],
    "tools": [ [ [ "surface_heat", 2, "LIST" ] ] ],
    "components": [
      [
        [ "tobacco", 50 ],
        [ "cig", 50 ],
        [ "cig_butt", 100 ],
        [ "cigar", 10 ],
        [ "tobacco_raw", 50 ],
        [ "nicotine_liquid", 50 ]
      ],
      [ [ "chem_lye", 2, "LIST" ] ]
    ],
    "id": "3e131425-d9d4-4f22-bcda-a333399502ae"
  },
  {
    "type": "recipe",
    "result": "canister_goo",
    "category": "CC_CHEM",
    "subcategory": "CSC_CHEM_CHEMICALS",
    "skill_used": "fabrication",
    "difficulty": 2,
    "time": "5 m",
    "autolearn": true,
    "//": "'stick the blob globs in a can and seal it' does not seem hugely challenging",
    "qualities": [ { "id": "SCREW", "level": 1 } ],
    "components": [ [ [ "canister_empty", 1 ] ], [ [ "slime_scrap", 10 ] ] ],
    "id": "9c52b909-3df7-40f9-94bd-5b6728dd23c8"
  },
  {
    "type": "recipe",
    "result": "bleach",
    "category": "CC_CHEM",
    "subcategory": "CSC_CHEM_CHEMICALS",
    "skill_used": "cooking",
    "skills_required": [ "electronics", 2 ],
    "difficulty": 5,
    "time": "25 m",
    "batch_time_factors": [ 90, 4 ],
    "//": "another variation of chloralkali process, now used to produce bleach (sodium hypochlorite - or rather rough, technical grade hypochlorite/hydroxide/chloride mix), note we will not be heating anything and that the (mostly) electrochemical reaction easily scales in size, some hydrogen gas could be recoverable (optional byproduct)",
    "book_learn": [ [ "adv_chemistry", 3 ], [ "textbook_chemistry", 3 ], [ "recipe_labchem", 3 ] ],
    "qualities": [ { "id": "CHEM", "level": 2 } ],
    "tools": [ [ [ "electrolysis_kit", 250 ] ] ],
    "components": [ [ [ "salt_water", 2 ], [ "saline", 10 ] ] ],
    "id": "03ee96f9-16ca-4e4d-b510-187b37d2ed7b"
  },
  {
    "type": "recipe",
    "result": "ammonia",
    "category": "CC_CHEM",
    "subcategory": "CSC_CHEM_CHEMICALS",
    "skill_used": "cooking",
    "difficulty": 6,
    "time": "36 m",
    "batch_time_factors": [ 80, 5 ],
    "book_learn": [ [ "adv_chemistry", 5 ], [ "textbook_chemistry", 5 ], [ "recipe_labchem", 5 ] ],
    "qualities": [ { "id": "CHEM", "level": 2 } ],
    "tools": [ [ [ "surface_heat", 20, "LIST" ] ] ],
    "components": [
      [ [ "water_clean", 1 ], [ "water", 1 ] ],
      [ [ "scrap", 1 ] ],
      [ [ "charcoal", 5 ], [ "coal_lump", 5 ], [ "lye_powder", 20 ] ]
    ],
    "id": "af91aef8-260f-4e68-82f3-1b9e9c8315f8"
  },
  {
    "type": "recipe",
    "result": "oxy_powder",
    "byproducts": [ [ "salt_water", 2 ] ],
    "category": "CC_CHEM",
    "subcategory": "CSC_CHEM_CHEMICALS",
    "skill_used": "cooking",
    "skills_required": [ "electronics", 2 ],
    "difficulty": 7,
    "time": "45 m",
    "batch_time_factors": [ 80, 5 ],
    "//": "abstracting using chloralkali process (hot solution, unpartitioned cell) to produce sodium chlorate, then perchlorate by anodic oxidation on platinum, then ammonia perchlorate by double decomposition from sodium perchlorate and ammonium chloride; while we can't directly use bleach here but we do end up recovering some brine",
    "book_learn": [ [ "adv_chemistry", 4 ], [ "textbook_chemistry", 4 ], [ "recipe_labchem", 4 ] ],
    "qualities": [ { "id": "CHEM", "level": 2 }, { "id": "BOIL", "level": 1 } ],
    "tools": [ [ [ "electrolysis_kit", 750 ] ], [ [ "surface_heat", 25, "LIST" ] ], [ [ "platinum_small", -1 ] ] ],
    "components": [ [ [ "salt_water", 4 ], [ "saline", 20 ] ], [ [ "ammonia", 1 ] ], [ [ "chem_muriatic_acid", 1 ] ] ],
    "id": "36215319-d8e0-47cc-8604-ea7940e6759a"
  },
  {
    "type": "recipe",
    "result": "lye_powder",
    "category": "CC_CHEM",
    "subcategory": "CSC_CHEM_CHEMICALS",
    "skill_used": "cooking",
    "difficulty": 4,
    "time": "3 h",
    "batch_time_factors": [ 80, 5 ],
    "book_learn": [ [ "adv_chemistry", 5 ], [ "textbook_chemistry", 5 ], [ "recipe_labchem", 5 ] ],
    "qualities": [ { "id": "CHEM", "level": 1 } ],
    "tools": [ [ [ "surface_heat", 25, "LIST" ] ] ],
    "components": [ [ [ "charcoal", 50 ] ], [ [ "water_clean", 2 ], [ "water", 2 ] ] ],
    "id": "9d54524e-936d-4dec-b119-2c5d6de3fd2f"
  },
  {
    "type": "recipe",
    "result": "lye_powder",
    "id_suffix": "from_lye",
    "category": "CC_CHEM",
    "subcategory": "CSC_CHEM_CHEMICALS",
    "skill_used": "cooking",
    "difficulty": 3,
    "time": "15 m",
    "autolearn": true,
    "batch_time_factors": [ 80, 4 ],
    "charges": 30,
    "qualities": [ { "id": "BOIL", "level": 1 } ],
    "tools": [ [ [ "water_boiling_heat", 25, "LIST" ] ] ],
    "components": [ [ [ "lye", 1 ] ] ],
    "id": "dd696196-66b3-4d74-8e36-75d209969c8a"
  },
  {
    "type": "recipe",
    "result": "pheromone",
    "category": "CC_CHEM",
    "subcategory": "CSC_CHEM_CHEMICALS",
    "skill_used": "cooking",
    "skills_required": [ "survival", 1 ],
    "difficulty": 3,
    "time": "1 m 12 s",
    "batch_time_factors": [ 80, 5 ],
    "book_learn": [ [ "adv_chemistry", 6 ], [ "textbook_chemistry", 6 ], [ "recipe_labchem", 3 ] ],
    "tools": [ [ [ "surface_heat", 18, "LIST" ] ] ],
    "components": [ [ [ "meat_tainted", 1 ], [ "dry_meat_tainted", 1 ] ], [ [ "ammonia", 1 ] ] ],
    "id": "2a0c178b-cc11-4e56-9968-5539f59080a8"
  },
  {
    "type": "recipe",
    "result": "fertilizer_liquid",
    "id_suffix": "simple",
    "category": "CC_CHEM",
    "subcategory": "CSC_CHEM_CHEMICALS",
    "skill_used": "survival",
    "difficulty": 2,
    "time": "20 m",
    "autolearn": true,
    "batch_time_factors": [ 80, 5 ],
    "flags": [ "BLIND_HARD", "ALLOW_ROTTEN" ],
    "qualities": [ { "id": "BOIL", "level": 1 } ],
    "tools": [ [ [ "surface_heat", 10, "LIST" ] ] ],
    "components": [
      [ [ "water", 4 ], [ "water_clean", 4 ] ],
      [ [ "meal_bone", 2 ] ],
      [ [ "meal_chitin_piece", 1 ] ],
      [ [ "chem_aluminium_sulphate", 10 ] ]
    ],
    "id": "342e9119-8087-4a52-924e-837d0761343b"
  },
  {
    "type": "recipe",
    "result": "fertilizer_commercial",
    "id_suffix": "simple",
    "category": "CC_CHEM",
    "subcategory": "CSC_CHEM_CHEMICALS",
    "charges": 1,
    "time": "5 s",
    "autolearn": true,
    "components": [ [ [ "chem_ammonium_nitrate_pellets", 350 ] ] ],
    "id": "0eb75c9b-0040-4716-99c4-8da24a59600e"
  },
  {
    "type": "recipe",
    "result": "fertilizer_liquid",
    "category": "CC_CHEM",
    "subcategory": "CSC_CHEM_CHEMICALS",
    "skill_used": "cooking",
    "skills_required": [ "survival", 2 ],
    "difficulty": 3,
    "time": "20 m",
    "autolearn": true,
    "batch_time_factors": [ 80, 5 ],
    "book_learn": [ [ "adv_chemistry", 2 ], [ "textbook_chemistry", 2 ], [ "recipe_labchem", 3 ], [ "atomic_survival", 2 ] ],
    "flags": [ "ALLOW_ROTTEN" ],
    "qualities": [ { "id": "CHEM", "level": 2 } ],
    "tools": [ [ [ "surface_heat", 5, "LIST" ] ] ],
    "components": [
      [ [ "water", 4 ], [ "water_clean", 4 ] ],
      [ [ "meal_bone", 2 ] ],
      [ [ "meal_chitin_piece", 1 ] ],
      [ [ "ammonia", 1 ], [ "chem_lye", 3, "LIST" ], [ "chem_saltpetre", 50 ] ]
    ],
    "id": "276c71e1-cea3-43d9-a302-8d04d4c39aec"
  },
  {
    "type": "recipe",
    "result": "slime_scrap",
    "category": "CC_CHEM",
    "subcategory": "CSC_CHEM_CHEMICALS",
    "skill_used": "cooking",
    "difficulty": 6,
    "time": "45 m",
    "batch_time_factors": [ 80, 5 ],
    "book_learn": [ [ "recipe_creepy", 7 ], [ "recipe_serum", 7 ] ],
    "qualities": [ { "id": "CUT", "level": 1 }, { "id": "CHEM", "level": 2 } ],
    "tools": [ [ [ "surface_heat", 20, "LIST" ] ] ],
    "components": [ [ [ "meat_tainted", 1 ], [ "dry_meat_tainted", 1 ] ] ],
    "id": "fa557e9a-5fea-454f-b95c-e0f0bb828331"
  },
  {
    "type": "recipe",
    "result": "soap",
    "category": "CC_CHEM",
    "subcategory": "CSC_CHEM_CHEMICALS",
    "skill_used": "cooking",
    "difficulty": 3,
    "time": "45 m",
    "qualities": [ { "id": "CHEM", "level": 1 } ],
    "autolearn": true,
    "batch_time_factors": [ 80, 5 ],
    "tools": [ [ [ "surface_heat", 18, "LIST" ] ] ],
    "components": [
      [ [ "edible_tallow_lard", 2, "LIST" ], [ "cooking_oil", 16 ], [ "cooking_oil2", 16 ] ],
      [ [ "chem_lye", 2, "LIST" ] ],
      [ [ "water", 2 ], [ "water_clean", 2 ] ]
    ],
    "flags": [ "ALLOW_ROTTEN" ],
    "id": "c7850a90-98cd-4c57-b9b9-861021e85f02"
  },
  {
    "type": "recipe",
    "result": "soap_flakes",
    "category": "CC_CHEM",
    "subcategory": "CSC_CHEM_CHEMICALS",
    "skill_used": "cooking",
    "time": "15 m",
    "autolearn": true,
    "qualities": [ { "id": "CUT", "level": 1 } ],
    "components": [ [ [ "soap", 1 ] ] ],
    "id": "bd137ebb-c79a-4315-bf82-15cf0810f4f4"
  },
  {
    "type": "recipe",
    "result": "chem_hydrogen_peroxide_conc",
    "category": "CC_CHEM",
    "subcategory": "CSC_CHEM_CHEMICALS",
    "skill_used": "cooking",
    "difficulty": 7,
    "time": "25 m",
    "batch_time_factors": [ 80, 5 ],
    "book_learn": [ [ "recipe_labchem", 7 ], [ "textbook_chemistry", 7 ] ],
    "qualities": [ { "id": "BOIL", "level": 2 } ],
    "tools": [ [ [ "surface_heat", 25, "LIST" ] ] ],
    "components": [ [ [ "chem_hydrogen_peroxide", 50 ] ] ],
    "id": "68e8ed53-b871-4812-bf23-0aabf63c7e7f"
  },
  {
    "type": "recipe",
    "result": "chem_muriatic_acid",
    "category": "CC_CHEM",
    "subcategory": "CSC_CHEM_CHEMICALS",
    "skill_used": "cooking",
    "difficulty": 4,
    "time": "15 m",
    "batch_time_factors": [ 80, 5 ],
    "book_learn": [ [ "recipe_labchem", 3 ], [ "textbook_chemistry", 3 ] ],
    "qualities": [ { "id": "BOIL", "level": 2 }, { "id": "CHEM", "level": 2 } ],
    "tools": [ [ [ "surface_heat", 10, "LIST" ] ] ],
    "components": [ [ [ "salt", 210 ] ], [ [ "chem_sulphuric_acid", 1 ] ], [ [ "water_clean", 1 ] ] ],
    "id": "53d6aba4-9a36-4c03-8d0d-663642ed3430"
  },
  {
    "type": "recipe",
    "result": "chem_muriatic_acid",
    "id_suffix": "by_electrolysis",
    "byproducts": [ [ "lye", 2 ] ],
    "category": "CC_CHEM",
    "subcategory": "CSC_CHEM_CHEMICALS",
    "skill_used": "cooking",
    "skills_required": [ [ "electronics", 2 ], [ "mechanics", 2 ] ],
    "difficulty": 6,
    "time": "40 m",
    "batch_time_factors": [ 50, 5 ],
    "//": "abstracted chloralkali process, followed by 'burning' resulting chlorine and hydrogen with electric arc as uv source and crucible serving as reaction furnace, then dissolving resulting hydrogen chloride gas in water",
    "book_learn": [ [ "adv_chemistry", 4 ], [ "textbook_chemistry", 4 ] ],
    "qualities": [ { "id": "CHEM", "level": 2 } ],
    "tools": [
      [ [ "electrolysis_kit", 500 ] ],
      [ [ "welder", 100 ], [ "welder_crude", 150 ] ],
      [ [ "crucible", -1 ], [ "crucible_clay", -1 ] ]
    ],
    "components": [ [ [ "salt_water", 4 ] ], [ [ "water_clean", 1 ] ] ],
    "id": "8fe4fd22-b4b5-4c8f-a742-4f338682db4a"
  },
  {
    "type": "recipe",
    "result": "chem_sulphuric_acid",
    "category": "CC_CHEM",
    "subcategory": "CSC_CHEM_CHEMICALS",
    "skill_used": "cooking",
    "difficulty": 7,
    "time": "15 m",
    "autolearn": true,
    "batch_time_factors": [ 80, 5 ],
    "qualities": [ { "id": "BOIL", "level": 2 }, { "id": "CHEM", "level": 2 } ],
    "tools": [ [ [ "surface_heat", 10, "LIST" ] ] ],
    "components": [ [ [ "chem_hydrogen_peroxide_conc", 1 ] ], [ [ "chem_sulphur", 375 ] ] ],
    "id": "ca745d9b-381a-4e56-bb0c-f80cc3384e7f"
  },
  {
    "type": "recipe",
    "result": "chem_nitric_acid",
    "category": "CC_CHEM",
    "subcategory": "CSC_CHEM_CHEMICALS",
    "skill_used": "cooking",
    "difficulty": 5,
    "time": "10 m",
    "autolearn": true,
    "batch_time_factors": [ 80, 5 ],
    "qualities": [ { "id": "BOIL", "level": 2 }, { "id": "CHEM", "level": 2 } ],
    "tools": [ [ [ "surface_heat", 50, "LIST" ] ] ],
    "components": [ [ [ "chem_sulphuric_acid", 1 ] ], [ [ "chem_saltpetre", 25 ] ] ],
    "id": "1714d81c-e416-4aa7-a226-9272837cbec2"
  },
  {
    "type": "recipe",
    "result": "chem_nitric_acid",
    "id_suffix": "from ammonia",
    "category": "CC_CHEM",
    "subcategory": "CSC_CHEM_CHEMICALS",
    "skill_used": "cooking",
    "difficulty": 6,
    "time": "40 m",
    "book_learn": [ [ "adv_chemistry", 6 ], [ "textbook_chemistry", 6 ] ],
    "batch_time_factors": [ 80, 5 ],
    "qualities": [ { "id": "BOIL", "level": 2 }, { "id": "CHEM", "level": 2 }, { "id": "DISTILL", "level": 1 } ],
    "tools": [ [ [ "surface_heat", 25, "LIST" ] ], [ [ "pressure_cooker", -1 ] ], [ [ "platinum_grille", -1 ] ] ],
    "components": [ [ [ "water", 3 ], [ "water_clean", 3 ] ], [ [ "ammonia", 1 ] ] ],
    "id": "8921b196-9b90-4257-84be-a2b0aa7260a9"
  },
  {
    "type": "recipe",
    "result": "chem_nitric_acid",
    "byproducts": [ [ "chem_potassium_chloride" ] ],
    "category": "CC_CHEM",
    "subcategory": "CSC_CHEM_CHEMICALS",
    "skill_used": "cooking",
    "difficulty": 5,
    "time": "10 m",
    "autolearn": true,
    "batch_time_factors": [ 80, 5 ],
    "qualities": [ { "id": "BOIL", "level": 2 }, { "id": "CHEM", "level": 2 } ],
    "tools": [ [ [ "surface_heat", 50, "LIST" ] ] ],
    "components": [ [ [ "chem_muriatic_acid", 1 ] ], [ [ "chem_saltpetre", 25 ] ] ],
    "id": "7ea0c8eb-6de3-44a9-8839-0b906ccc804f"
  },
  {
    "type": "recipe",
    "result": "chem_aluminium_sulphate",
    "category": "CC_CHEM",
    "subcategory": "CSC_CHEM_CHEMICALS",
    "skill_used": "cooking",
    "difficulty": 5,
    "time": "2 m 30 s",
    "autolearn": true,
    "batch_time_factors": [ 80, 5 ],
    "qualities": [ { "id": "BOIL", "level": 2 }, { "id": "CHEM", "level": 2 } ],
    "tools": [ [ [ "surface_heat", 25, "LIST" ] ] ],
    "components": [ [ [ "chem_sulphuric_acid", 1 ] ], [ [ "chem_hydrogen_peroxide", 10 ] ], [ [ "chem_aluminium_powder", 25 ] ] ],
    "id": "39d1ed13-d43f-49ec-905a-a1395aedecb2"
  },
  {
    "type": "recipe",
    "result": "chem_ammonium_nitrate",
    "byproducts": [ [ "water" ] ],
    "category": "CC_CHEM",
    "subcategory": "CSC_CHEM_CHEMICALS",
    "skill_used": "cooking",
    "difficulty": 4,
    "time": "3 m",
    "autolearn": true,
    "batch_time_factors": [ 80, 5 ],
    "qualities": [ { "id": "BOIL", "level": 2 }, { "id": "CHEM", "level": 2 } ],
    "tools": [ [ [ "surface_heat", 25, "LIST" ] ] ],
    "components": [ [ [ "chem_nitric_acid", 5 ] ], [ [ "ammonia", 5 ] ] ],
    "id": "c8b1d9e7-0d2a-43a2-93dd-ea63b2542b1c"
  },
  {
    "type": "recipe",
    "result": "chem_ammonium_nitrate",
    "category": "CC_CHEM",
    "subcategory": "CSC_CHEM_CHEMICALS",
    "charges": 100,
    "time": "5 m",
    "autolearn": true,
    "tools": [ [ [ "mortar_pestle", -1 ] ] ],
    "components": [ [ [ "chem_ammonium_nitrate_pellets", 100 ] ] ],
    "id": "3b027ed4-9678-4fed-8324-0aaa30b9c0ae"
  },
  {
    "type": "recipe",
    "result": "chem_ammonium_nitrate_pellets",
    "category": "CC_CHEM",
    "subcategory": "CSC_CHEM_CHEMICALS",
    "charges": 350,
    "time": "30 s",
    "autolearn": true,
    "components": [ [ [ "fertilizer_commercial", 1 ] ] ],
    "id": "5d74e4ef-e07c-4cd3-9e21-474d9671bc49"
  },
  {
    "type": "recipe",
    "result": "chem_potassium_hydroxide",
    "byproducts": [ [ "water" ] ],
    "category": "CC_CHEM",
    "subcategory": "CSC_CHEM_CHEMICALS",
    "skill_used": "cooking",
    "difficulty": 5,
    "charges": 680,
    "time": "45 m",
    "book_learn": [ [ "textbook_chemistry", 4 ], [ "adv_chemistry", 5 ] ],
    "tools": [
      [ [ "electrolysis_kit", 100 ] ],
      [ [ "chemistry_set_basic", -1 ], [ "chemistry_set", -1 ] ],
      [ [ "platinum_small", -1 ] ],
      [ [ "silver_small", -1 ] ],
      [ [ "salt", -1 ] ]
    ],
    "components": [ [ [ "water_clean", 3 ] ], [ [ "chem_potassium_chloride", 25 ] ] ],
    "id": "b6b0fd23-1317-4525-9a97-ea20fc98c31b"
  },
  {
    "type": "recipe",
    "result": "chem_saltpetre",
    "byproducts": [ [ "ammonia", 1 ] ],
    "category": "CC_CHEM",
    "subcategory": "CSC_CHEM_CHEMICALS",
    "skill_used": "cooking",
    "difficulty": 5,
    "time": "25 m",
    "batch_time_factors": [ 80, 5 ],
    "book_learn": [ [ "textbook_anarch", 7 ], [ "recipe_labchem", 5 ], [ "textbook_chemistry", 6 ] ],
    "qualities": [ { "id": "BOIL", "level": 2 }, { "id": "CHEM", "level": 2 } ],
    "tools": [ [ [ "surface_heat", 25, "LIST" ] ] ],
    "components": [ [ [ "chem_ammonium_nitrate", 225 ] ], [ [ "lye_powder", 150 ] ] ],
    "id": "3d44e12f-c1cb-462c-a325-83ef497fb464"
  },
  {
    "type": "recipe",
    "result": "chem_saltpetre",
    "id_suffix": "niter",
    "result_mult": 5,
    "category": "CC_CHEM",
    "subcategory": "CSC_CHEM_CHEMICALS",
    "skill_used": "cooking",
    "difficulty": 4,
    "time": "40 m",
    "batch_time_factors": [ 80, 5 ],
    "autolearn": true,
    "qualities": [ { "id": "BOIL", "level": 2 }, { "id": "CONTAIN", "level": 1 } ],
    "tools": [ [ [ "surface_heat", 25, "LIST" ] ] ],
    "components": [ [ [ "material_niter", 1 ] ], [ [ "water_clean", 3 ], [ "water", 3 ] ] ],
    "id": "b6c59ef6-1afd-47ee-868c-9a23769bf83f"
  },
  {
    "type": "recipe",
    "result": "chem_anfo",
    "category": "CC_CHEM",
    "subcategory": "CSC_CHEM_CHEMICALS",
    "skill_used": "cooking",
    "difficulty": 5,
    "charges": 100,
    "time": "5 m",
    "book_learn": [ [ "textbook_anarch", 6 ], [ "recipe_labchem", 5 ], [ "textbook_chemistry", 7 ] ],
    "qualities": [ { "id": "CONTAIN", "level": 1 } ],
    "using": [ [ "fuel_liquid", 6 ] ],
    "components": [ [ [ "chem_ammonium_nitrate", 94 ], [ "chem_ammonium_nitrate_pellets", 94 ] ] ],
    "id": "cd5705a8-93ca-4212-9b0c-a376e0542cc0"
  },
  {
    "type": "recipe",
    "result": "chem_acetic_acid",
    "category": "CC_CHEM",
    "subcategory": "CSC_CHEM_CHEMICALS",
    "skill_used": "cooking",
    "difficulty": 4,
    "time": "30 m",
    "autolearn": true,
    "batch_time_factors": [ 80, 5 ],
    "qualities": [ { "id": "FINE_DISTILL", "level": 1 } ],
    "tools": [ [ [ "surface_heat", 10, "LIST" ] ] ],
    "components": [ [ [ "vinegar", 320 ] ] ],
    "id": "966c6adc-8913-4408-a35b-be228ea0994b"
  },
  {
    "type": "recipe",
    "result": "chem_hexamine",
    "category": "CC_CHEM",
    "subcategory": "CSC_CHEM_CHEMICALS",
    "skill_used": "cooking",
    "difficulty": 6,
    "time": "30 m",
    "batch_time_factors": [ 67, 5 ],
    "book_learn": [ [ "recipe_labchem", 6 ] ],
    "qualities": [ { "id": "BOIL", "level": 2 }, { "id": "CHEM", "level": 3 } ],
    "components": [ [ [ "ammonia", 4 ] ], [ [ "chem_formaldehyde", 6 ] ] ],
    "id": "e6ed075a-53ec-464f-a613-007de1bdfe61"
  },
  {
    "type": "recipe",
    "result": "chem_formaldehyde",
    "category": "CC_CHEM",
    "subcategory": "CSC_CHEM_CHEMICALS",
    "skill_used": "cooking",
    "difficulty": 5,
    "time": "15 m",
    "batch_time_factors": [ 80, 5 ],
    "book_learn": [ [ "textbook_chemistry", 5 ], [ "adv_chemistry", 5 ] ],
    "qualities": [ { "id": "BOIL", "level": 2 }, { "id": "CHEM", "level": 2 } ],
    "tools": [ [ [ "surface_heat", 50, "LIST" ] ] ],
    "components": [ [ [ "chem_methanol", 50 ] ] ],
    "id": "66639dc2-3987-4c47-a6eb-5f332ca75478"
  },
  {
    "type": "recipe",
    "result": "chem_methanol",
    "byproducts": [ [ "chem_ethanol", 2 ] ],
    "category": "CC_CHEM",
    "subcategory": "CSC_CHEM_CHEMICALS",
    "skill_used": "cooking",
    "difficulty": 3,
    "time": "10 m",
    "batch_time_factors": [ 80, 4 ],
    "autolearn": true,
    "qualities": [ { "id": "BOIL", "level": 2 }, { "id": "DISTILL", "level": 1 } ],
    "tools": [ [ [ "water_boiling_heat", 25, "LIST" ] ] ],
    "components": [ [ [ "denat_alcohol", 1000 ] ] ],
    "id": "33872be1-8a0c-4de7-9fa4-14c27bbaa3f8"
  },
  {
    "type": "recipe",
    "result": "chem_methanol",
    "id_suffix": "from wood",
    "category": "CC_CHEM",
    "subcategory": "CSC_CHEM_CHEMICALS",
    "skill_used": "cooking",
    "difficulty": 4,
    "time": "1 h",
    "batch_time_factors": [ 80, 5 ],
    "autolearn": true,
    "qualities": [ { "id": "BOIL", "level": 2 }, { "id": "DISTILL", "level": 1 } ],
    "tools": [ [ [ "surface_heat", 25, "LIST" ] ] ],
    "components": [ [ [ "splinter", 40 ], [ "wood_structural", 6, "LIST" ] ], [ [ "water", 3 ], [ "water_clean", 3 ] ] ],
    "id": "540521c4-ecee-45ae-905a-85756be9ae39"
  },
  {
    "type": "recipe",
    "result": "chem_rdx",
    "category": "CC_CHEM",
    "subcategory": "CSC_CHEM_CHEMICALS",
    "skill_used": "cooking",
    "difficulty": 7,
    "time": "1 h 15 m",
    "batch_time_factors": [ 80, 5 ],
    "book_learn": [ [ "recipe_labchem", 8 ], [ "textbook_anarch", 10 ] ],
    "qualities": [ { "id": "BOIL", "level": 2 }, { "id": "CHEM", "level": 3 } ],
    "tools": [ [ [ "surface_heat", 20, "LIST" ] ] ],
    "components": [ [ [ "chem_hexamine", 50 ] ], [ [ "chem_nitric_acid", 5 ] ], [ [ "chem_sulphuric_acid", 2 ] ] ],
    "id": "20e0fe62-1f1b-4f03-b236-dbc3bea3f615"
  },
  {
    "type": "recipe",
    "result": "chem_thermite",
    "category": "CC_CHEM",
    "subcategory": "CSC_CHEM_CHEMICALS",
    "skill_used": "cooking",
    "difficulty": 4,
    "time": "2 m",
    "autolearn": true,
    "qualities": [ { "id": "BOIL", "level": 2 } ],
    "components": [ [ [ "chem_aluminium_powder", 50 ] ], [ [ "chem_chromium_oxide", 430 ] ] ],
    "id": "1c7d11d0-8531-434d-b69e-6569576a651b"
  },
  {
    "type": "recipe",
    "result": "chem_hmtd",
    "category": "CC_CHEM",
    "subcategory": "CSC_CHEM_CHEMICALS",
    "skill_used": "cooking",
    "difficulty": 7,
    "time": "55 m",
    "book_learn": [ [ "recipe_labchem", 8 ] ],
    "qualities": [ { "id": "BOIL", "level": 2 } ],
    "components": [ [ [ "chem_hexamine", 25 ] ], [ [ "chem_hydrogen_peroxide_conc", 5 ] ], [ [ "chem_acetic_acid", 2 ] ] ],
    "id": "89d68503-8ff0-474c-9f59-501a429a0af9"
  },
  {
    "type": "recipe",
    "result": "chem_rocket_fuel",
    "category": "CC_CHEM",
    "subcategory": "CSC_CHEM_CHEMICALS",
    "skill_used": "cooking",
    "difficulty": 4,
    "time": "5 m",
    "book_learn": [ [ "textbook_anarch", 5 ], [ "recipe_labchem", 4 ], [ "textbook_chemistry", 5 ] ],
    "qualities": [ { "id": "BOIL", "level": 2 } ],
    "components": [ [ [ "zinc_metal", 500 ] ], [ [ "chem_sulphur", 750 ] ], [ [ "superglue", 2 ] ] ],
    "id": "71c3c1a9-a8a2-414c-a647-259bf6d0e4fb"
  },
  {
    "type": "recipe",
    "result": "tool_rocket_candy",
    "category": "CC_CHEM",
    "subcategory": "CSC_CHEM_CHEMICALS",
    "skill_used": "cooking",
    "difficulty": 3,
    "time": "30 m",
    "book_learn": [ [ "textbook_anarch", 4 ], [ "recipe_labchem", 3 ], [ "textbook_chemistry", 5 ] ],
    "qualities": [ { "id": "BOIL", "level": 2 } ],
    "tools": [ [ [ "hotplate", 50 ], [ "toolset", 50 ] ] ],
    "components": [ [ [ "chem_saltpetre", 50 ] ], [ [ "sugar", 50 ] ] ],
    "id": "62d351f4-583f-44cc-8939-a999d408c540"
  },
  {
    "result": "lye",
    "type": "recipe",
    "id_suffix": "by_electrolysis",
    "category": "CC_CHEM",
    "subcategory": "CSC_CHEM_CHEMICALS",
    "skill_used": "cooking",
    "skills_required": [ "electronics", 2 ],
    "difficulty": 4,
    "time": "20 m",
    "batch_time_factors": [ 80, 4 ],
    "//": "chloralkali process, same as with bleach except we wont be washing gases",
    "book_learn": [ [ "adv_chemistry", 3 ], [ "textbook_chemistry", 3 ], [ "recipe_labchem", 3 ] ],
    "qualities": [ { "id": "CHEM", "level": 2 } ],
    "tools": [ [ [ "electrolysis_kit", 250 ] ] ],
    "components": [ [ [ "salt_water", 2 ], [ "saline", 10 ] ] ],
    "id": "8af9a80d-6e2c-42cf-ac85-a31b613aca19"
  },
  {
    "result": "ether",
    "type": "recipe",
    "category": "CC_CHEM",
    "subcategory": "CSC_CHEM_CHEMICALS",
    "skill_used": "cooking",
    "difficulty": 6,
    "time": "1 h 20 m",
    "book_learn": [ [ "textbook_chemistry", 4 ], [ "adv_chemistry", 7 ] ],
    "charges": 250,
    "qualities": [ { "id": "CHEM", "level": 2 }, { "id": "CONTAIN", "level": 1 } ],
    "byproducts": [ [ "water_clean" ] ],
    "components": [
      [ [ "chem_ethanol", 250 ] ],
      [ [ "chem_acetic_acid", 1 ], [ "chem_nitric_acid", 1 ], [ "chem_sulphuric_acid", 1 ], [ "acid", 1 ] ]
    ],
    "id": "28184f91-ece2-4b58-b313-672a1f492f63"
  },
  {
    "result": "zinc_metal",
    "type": "recipe",
    "category": "CC_CHEM",
    "subcategory": "CSC_CHEM_CHEMICALS",
    "skill_used": "cooking",
    "difficulty": 3,
    "charges": 200,
    "time": "2 h",
    "autolearn": [ [ "cooking", 5 ] ],
    "byproducts": [ [ "chem_zinc" ] ],
    "book_learn": [ [ "textbook_chemistry", 2 ], [ "textbook_fabrication", 3 ] ],
    "qualities": [ { "id": "CONTAIN", "level": 1 }, { "id": "BOIL", "level": 2 } ],
    "components": [ [ [ "material_zincite", 1 ] ], [ [ "coal_lump", 1 ] ] ],
    "id": "5715cb5b-e9bc-4165-8d86-97a2428eda08"
  },
  {
    "result": "zinc_metal",
    "type": "recipe",
    "id_suffix": "chem_zinc",
    "category": "CC_CHEM",
    "subcategory": "CSC_CHEM_CHEMICALS",
    "skill_used": "cooking",
    "difficulty": 4,
    "charges": 1000,
    "time": "2 h",
    "autolearn": [ [ "cooking", 5 ] ],
    "book_learn": [ [ "textbook_chemistry", 2 ], [ "textbook_fabrication", 3 ] ],
    "qualities": [ { "id": "CONTAIN", "level": 1 }, { "id": "BOIL", "level": 2 } ],
    "components": [ [ [ "chem_zinc", 1000 ] ], [ [ "coal_lump", 25 ], [ "charcoal", 50 ] ] ],
    "id": "e592875a-dc52-4158-8fdd-19af77eb9e00"
  },
  {
    "result": "chem_manganese_dioxide",
    "type": "recipe",
    "category": "CC_CHEM",
    "subcategory": "CSC_CHEM_CHEMICALS",
    "skill_used": "fabrication",
    "difficulty": 4,
    "charges": 400,
    "//": "rhodonite has up to 42% manganese.  915g/869mg*40%=421",
    "time": "1 h",
    "autolearn": true,
    "qualities": [ { "id": "CHISEL", "level": 2 }, { "id": "HAMMER", "level": 2 } ],
    "components": [ [ [ "material_rhodonite", 1 ] ] ],
    "id": "78cb5600-3b2c-4d20-8a91-a3d77720e06f"
  }
]
