[
  {
    "type": "recipe",
    "result": "reading_light",
    "category": "CC_ELECTRONIC",
    "subcategory": "CSC_ELECTRONIC_LIGHTING",
    "skill_used": "electronics",
    "difficulty": 2,
    "time": "20 m",
    "reversible": true,
    "decomp_learn": 2,
    "book_learn": [ [ "manual_electronics", 3 ], [ "advanced_electronics", 3 ] ],
    "qualities": [ { "id": "SCREW", "level": 1 } ],
    "components": [
      [ [ "plastic_chunk", 1 ] ],
      [ [ "superglue", 1 ] ],
      [ [ "power_supply", 1 ] ],
      [ [ "cable", 1 ] ],
      [ [ "light_bulb", 1 ], [ "e_scrap", 1 ] ]
    ],
    "id": "07d79aff-48e5-4b6f-a9c8-990f8ec0fd0f"
  },
  {
    "type": "recipe",
    "result": "electric_lantern",
    "category": "CC_ELECTRONIC",
    "subcategory": "CSC_ELECTRONIC_LIGHTING",
    "skill_used": "electronics",
    "difficulty": 3,
    "time": "10 m",
    "reversible": true,
    "book_learn": [ [ "manual_electronics", 3 ], [ "mag_electronics", 4 ], [ "textbook_electronics", 2 ] ],
    "using": [ [ "soldering_standard", 7 ] ],
    "qualities": [ { "id": "SCREW", "level": 1 } ],
    "components": [ [ [ "cable", 8 ] ], [ [ "plastic_chunk", 2 ] ], [ [ "circuit", 2 ] ], [ [ "e_scrap", 2 ] ], [ [ "amplifier", 1 ] ] ],
    "id": "4b318cf4-5e7e-4431-a990-77be46f9dd2c"
  },
  {
    "type": "recipe",
    "result": "sheet_metal_lit",
    "category": "CC_ELECTRONIC",
    "subcategory": "CSC_ELECTRONIC_LIGHTING",
    "skill_used": "electronics",
    "difficulty": 1,
    "time": "15 m",
    "book_learn": [ [ "manual_electronics", 1 ], [ "mag_electronics", 1 ] ],
    "using": [ [ "soldering_standard", 5 ] ],
    "components": [
      [ [ "sheet_metal", 1 ] ],
      [ [ "lightstrip_inactive", 1 ], [ "flashlight", 1 ] ],
      [ [ "cable", 10 ] ],
      [ [ "plastic_chunk", 2 ] ]
    ],
    "id": "bcecfcee-5af5-484f-adfe-ce0cd445e2a6"
  },
  {
    "type": "recipe",
    "result": "flashlight",
    "category": "CC_ELECTRONIC",
    "subcategory": "CSC_ELECTRONIC_LIGHTING",
    "skill_used": "electronics",
    "time": "10 m",
    "reversible": true,
    "autolearn": true,
    "components": [
      [ [ "amplifier", 1 ] ],
      [
        [ "scrap", 4 ],
        [ "can_drink_unsealed", 1 ],
        [ "can_food_unsealed", 1 ],
        [ "canister_empty", 1 ],
        [ "bottle_glass", 1 ],
        [ "bottle_plastic", 1 ],
        [ "bottle_plastic_small", 1 ]
      ],
      [ [ "lightstrip_inactive", 1 ], [ "light_bulb", 1 ] ],
      [ [ "cable", 10 ] ]
    ],
    "id": "432321e0-7da1-4242-871c-1dfd01f9e938"
  },
  {
    "type": "recipe",
    "result": "floodlight",
    "category": "CC_ELECTRONIC",
    "subcategory": "CSC_ELECTRONIC_LIGHTING",
    "skill_used": "mechanics",
    "skills_required": [ "electronics", 1 ],
    "difficulty": 2,
    "time": "15 m",
    "reversible": true,
    "decomp_learn": 1,
    "book_learn": [ [ "manual_electronics", 1 ], [ "mag_electronics", 2 ] ],
    "components": [
      [ [ "amplifier", 4 ] ],
      [ [ "steel_chunk", 2 ], [ "scrap", 6 ] ],
      [ [ "lightstrip_inactive", 4 ], [ "light_bulb", 4 ] ],
      [ [ "cable", 10 ] ]
    ],
    "id": "08f46379-eb09-4f1f-a016-401eab470e32"
  },
  {
    "type": "recipe",
    "result": "directed_floodlight",
    "category": "CC_ELECTRONIC",
    "subcategory": "CSC_ELECTRONIC_LIGHTING",
    "skill_used": "mechanics",
    "skills_required": [ "electronics", 1 ],
    "difficulty": 2,
    "time": "15 m",
    "reversible": true,
    "decomp_learn": 1,
    "book_learn": [ [ "manual_electronics", 1 ], [ "mag_electronics", 2 ] ],
    "components": [
      [ [ "amplifier", 4 ] ],
      [ [ "steel_chunk", 2 ], [ "scrap", 6 ] ],
      [ [ "lightstrip_inactive", 4 ], [ "light_bulb", 4 ] ],
      [ [ "cable", 10 ] ]
    ],
    "id": "98cd641a-80bd-4443-b8d2-e781d11280b2"
  },
  {
    "type": "recipe",
    "result": "car_headlight",
    "category": "CC_ELECTRONIC",
    "subcategory": "CSC_ELECTRONIC_LIGHTING",
    "skill_used": "mechanics",
    "skills_required": [ "electronics", 1 ],
    "difficulty": 2,
    "time": "12 m",
    "reversible": true,
    "decomp_learn": 1,
    "book_learn": [ [ "manual_electronics", 1 ], [ "mag_electronics", 2 ] ],
    "components": [
      [ [ "amplifier", 2 ] ],
      [ [ "plastic_chunk", 2 ], [ "scrap", 3 ] ],
      [ [ "lightstrip_inactive", 2 ], [ "light_bulb", 2 ] ],
      [ [ "cable", 10 ] ]
    ],
    "id": "0befefc6-cb99-4da1-9c50-e032f7d1b835"
  },
  {
    "type": "recipe",
    "result": "car_wide_headlight",
    "category": "CC_ELECTRONIC",
    "subcategory": "CSC_ELECTRONIC_LIGHTING",
    "skill_used": "mechanics",
    "skills_required": [ "electronics", 1 ],
    "difficulty": 2,
    "reversible": true,
    "decomp_learn": 1,
    "book_learn": [ [ "manual_electronics", 1 ], [ "mag_electronics", 2 ] ],
    "time": "14 m",
    "components": [
      [ [ "amplifier", 3 ] ],
      [ [ "plastic_chunk", 3 ], [ "scrap", 4 ] ],
      [ [ "lightstrip_inactive", 3 ], [ "light_bulb", 3 ] ],
      [ [ "cable", 12 ] ]
    ],
    "id": "64b22fc7-ee21-4bdd-a16b-d138c134370d"
  },
  {
    "type": "recipe",
    "result": "atomic_light",
    "category": "CC_ELECTRONIC",
    "subcategory": "CSC_ELECTRONIC_LIGHTING",
    "skill_used": "electronics",
    "difficulty": 2,
    "time": "20 m",
    "reversible": true,
    "book_learn": [ [ "textbook_electronics", 3 ], [ "advanced_electronics", 3 ], [ "recipe_caseless", 2 ], [ "textbook_atomic_lab", 4 ] ],
    "qualities": [ { "id": "SCREW", "level": 1 } ],
    "components": [
      [ [ "plastic_chunk", 1 ] ],
      [ [ "adhesive", 1, "LIST" ] ],
      [ [ "power_supply", 1 ] ],
      [ [ "cable", 1 ] ],
      [ [ "lightstrip_inactive", 1 ], [ "e_scrap", 1 ] ],
      [ [ "plut_cell", 1 ] ]
    ],
    "id": "a8b54866-373b-4bf5-8d0f-e3abb48d70ff"
  },
  {
    "type": "recipe",
    "result": "atomic_lamp",
    "category": "CC_ELECTRONIC",
    "subcategory": "CSC_ELECTRONIC_LIGHTING",
    "skill_used": "electronics",
    "difficulty": 3,
    "time": "30 m",
    "reversible": true,
    "book_learn": [ [ "textbook_electronics", 4 ], [ "advanced_electronics", 4 ], [ "recipe_caseless", 3 ], [ "textbook_atomic_lab", 5 ] ],
    "qualities": [ { "id": "SCREW", "level": 1 } ],
    "components": [
      [ [ "plastic_chunk", 2 ] ],
      [ [ "adhesive", 1, "LIST" ] ],
      [ [ "power_supply", 1 ] ],
      [ [ "cable", 2 ] ],
      [ [ "lightstrip_inactive", 1 ], [ "e_scrap", 1 ] ],
      [ [ "plut_cell", 4 ] ]
    ],
    "id": "cdfc8f9e-72ae-4413-878b-2a6acd14d4ee"
  }
]
