[
  {
    "name": "GROUP_NECROPOLIS_ROBOT",
    "type": "monstergroup",
    "default": "mon_secubot",
    "monsters": [
      { "monster": "mon_hazmatbot", "freq": 100, "cost_multiplier": 1 },
      { "monster": "mon_skitterbot", "freq": 200, "cost_multiplier": 1 },
      { "monster": "mon_science_bot", "freq": 50, "cost_multiplier": 1 },
      { "monster": "mon_talon_m202a1", "freq": 50, "cost_multiplier": 1 },
      { "monster": "mon_dispatch_military", "freq": 25, "cost_multiplier": 1 }
    ],
    "id": "GROUP_NECROPOLIS_ROBOT"
  },
  {
    "name": "GROUP_NECROPOLIS_VAULT3",
    "type": "monstergroup",
    "default": "mon_irradiated_wanderer_1",
    "monsters": [
      { "monster": "mon_irradiated_wanderer_2", "freq": 250, "cost_multiplier": 1 },
      { "monster": "mon_irradiated_wanderer_3", "freq": 250, "cost_multiplier": 1 },
      { "monster": "mon_irradiated_wanderer_4", "freq": 250, "cost_multiplier": 1 },
      { "monster": "mon_charred_nightmare", "freq": 100, "cost_multiplier": 1 }
    ],
    "id": "GROUP_NECROPOLIS_VAULT3"
  },
  {
    "method": "json",
    "object": {
      "fill_ter": "t_floor",
      "rows": [
        "........................................................................",
        "........................................................................",
        "........................................................................",
        "........................................................................",
        "........................................................................",
        "........................................................................",
        "........................................................................",
        "........................................................................",
        "........................................................................",
        "........................................................................",
        "..............................|----------------|........................",
        "........................|-----|rrrrrr    rrrrrr|....|-----|-----|.......",
        "........................|P    |                |....|     |     |.......",
        "........................|     +        G       |----|  hc [     |.......",
        "........................|     |                |EEEE| c6c v     |.......",
        "........................|     |rrrrrr    rrrrrr|%EEE|     |     |.......",
        "...................|----||   ||-------++-------|-++-|-u[u-||   ||----|..",
        "...............|---|k6k  |   |                             |   |  k6k|--",
        "...............|c  v h   v   v 111 111 111     111 111 111 v   v   h v  ",
        "...............|   +  G  v   v 1 6 1 6 1 6     6 1 6 1 6 1 v   v  G  +  ",
        "...............|6  v    5|5  v 1   1   1         1   1   1 v  5|5    v  ",
        "...............|---|     =   |      G               G      |   =     |--",
        "...............|---|     =   |                             |   =     |--",
        "...............|c  v     |   v 1   1   1         1   1   1 v   |     v  ",
        "...............|   +  G  v   v 1 6 1 6 1 6     6 1 6 1 6 1 v   v  G  +  ",
        "...............|6  v h   v   v 111 111 111     111 111 111 v   v   h v  ",
        "...............|---|k6k  |   |                5            |   |  k6k|--",
        "...................|----||   |-uuu-uuu-uuu-===-uuu-uuu-uuu-|   ||----|..",
        "........................|                     5                P|.......",
        "........................|                                       |.......",
        "........................|                   G                   |.......",
        "........................|       |uXu|-+-|       |-+-|u[u|       |.......",
        "........................|u[u|-++XX.XXL L|       vc  | XXXX+-|u[u|.......",
        "........................|   |%EX.....X L|       v6  XX....X%|   |.......",
        "........................| < |EX.....|X L|       vch X......X| < |.......",
        "........................|---|-......|X L|     5 |R X....|---|---|.......",
        "....................................|---|--===--|--XX...................",
        "......................|-----------..X         5     XXX...XX------------",
        "......................|         XXXX                   XXX              ",
        "......................| G                                               ",
        "......................|    |--------------------------------------------",
        "...|-|-|-|-|-|-|-|--|.|   ||............................................",
        "...|~|~|~|~|t|t|t| t|.|   |.............................................",
        "...|       |+|+|+|+-|-|   |--------------|..............................",
        "...|                 +    |nhhhn  oooo   |..............................",
        "...|       |        |-|   vh           hh|.............X|---|---|---|---",
        "...|~|~|~|~|cScScScS|.|   vh     G     nn|-XX..........XXX S|t S|t S|t S",
        "...|-|-|-|-|--------|.|   vh           nn|Xr|...........X- -|- -|- -|- -"
      ],
      "palettes": [ "necropolis_b3" ],
      "terrain": { "1": "t_metal_floor", "2": "t_sewage_pipe", "7": "t_chainfence_h", "R": "t_metal_floor", "X": "t_grate" },
      "furniture": { "1": "f_counter", "R": "f_rack" },
      "set": [
        { "square": "radiation", "amount": [ 25, 50 ], "x": 0, "x2": 23, "y": 0, "y2": 23 },
        { "square": "radiation", "amount": [ 25, 50 ], "x": 24, "x2": 47, "y": 0, "y2": 23 },
        { "square": "radiation", "amount": [ 25, 50 ], "x": 48, "x2": 71, "y": 0, "y2": 23 },
        { "square": "radiation", "amount": [ 25, 50 ], "x": 0, "x2": 23, "y": 24, "y2": 47 },
        { "square": "radiation", "amount": [ 25, 50 ], "x": 24, "x2": 47, "y": 24, "y2": 47 },
        { "square": "radiation", "amount": [ 25, 50 ], "x": 48, "x2": 71, "y": 24, "y2": 47 }
      ],
      "items": {
        "1": { "item": "robots", "chance": 50 },
        "L": { "item": "robots", "chance": 25 },
        "R": { "item": "prison_weapons", "chance": 50, "repeat": 2 },
        "r": { "item": "tools_robotics", "chance": 25 }
      },
      "place_monster": [
        { "monster": "mon_turret_light", "x": 42, "y": 13 },
        { "monster": "mon_turret_light", "x": 44, "y": 39 },
        { "monster": "mon_turret_light", "x": 47, "y": 28 },
        { "monster": "mon_turret_light", "x": 41, "y": 28 },
        { "group": "GROUP_NECROPOLIS_ROBOT", "x": [ 25, 46 ], "y": [ 12, 22 ], "repeat": [ 1, 4 ] },
        { "group": "GROUP_NECROPOLIS_ROBOT", "x": [ 25, 46 ], "y": [ 12, 22 ], "repeat": [ 1, 4 ] },
        { "group": "GROUP_NECROPOLIS_ROBOT", "x": [ 49, 70 ], "y": [ 12, 22 ], "repeat": [ 1, 4 ] },
        { "group": "GROUP_NECROPOLIS_ROBOT", "x": [ 49, 70 ], "y": [ 12, 22 ], "repeat": [ 1, 4 ] },
        { "group": "GROUP_NECROPOLIS_VAULT3", "x": [ 1, 22 ], "y": [ 33, 46 ], "repeat": [ 1, 5 ] },
        { "group": "GROUP_NECROPOLIS_VAULT3", "x": [ 1, 22 ], "y": [ 33, 46 ], "repeat": [ 1, 5 ] },
        { "group": "GROUP_NECROPOLIS_ROBOT", "x": [ 25, 46 ], "y": [ 25, 29 ], "repeat": [ 1, 3 ] },
        { "group": "GROUP_NECROPOLIS_VAULT3", "x": [ 25, 46 ], "y": [ 42, 46 ], "repeat": [ 2, 5 ] },
        { "group": "GROUP_NECROPOLIS_ROBOT", "x": [ 49, 70 ], "y": [ 25, 29 ], "repeat": [ 1, 3 ] },
        { "group": "GROUP_NECROPOLIS_ROBOT", "x": [ 49, 70 ], "y": [ 38, 41 ], "repeat": [ 1, 3 ] }
      ]
    },
    "om_terrain": [
      [ "necropolis_d_1", "necropolis_d_2", "necropolis_d_3" ],
      [ "necropolis_d_10", "necropolis_d_11", "necropolis_d_12" ]
    ],
    "type": "mapgen",
    "weight": 250,
    "id": "62725e3a-dfc4-43c7-b137-223c74f5dec3"
  },
  {
    "method": "json",
    "object": {
      "fill_ter": "t_floor",
      "rows": [
        "........................................................................",
        ".....................................................|-----------|-----|",
        ".....................................................|          l|1 b 1|",
        ".....................................................| hnnh     c|1 b 1|",
        ".....................................................| hnnh     S|1   1|",
        ".........|--|--|--|..|--|--|--|......................|      D   c|1   1|",
        "...|--|..|L@|@@|@@|..|@@|@@|@@|..|--|..|----------|--|--uuu--[[--|--+--|",
        "...|@L|--| @| L| L|..|L |L |L |--|L@|..|          |  [                  ",
        "...|@ [  |[-|[-|[-|--|-[|-[|-[|  [ @|..| j    j j v  [                G ",
        "...|--|                          |--|..| jjj  jjj v  |------------|  |+|",
        "...|@L|                          |L@|..| j    j j v  |............|  |r|",
        "...|@ [  |--|[-|[-|[-|-[|-[|-[|  [ @|..|          |  |...|------|-|  |-|",
        "...|--|  |L@| L| L| L|L |L |L |  |--|..|          [  |...|   6  [      [",
        "...|t +  [ @|@@|@@|@@|@@|@@|@@|  + t|..| J        [  |...|  n   |------|",
        "...|--|  |--|--|--|--|--|--|--|  |--|..|      G  D|  |...|  n   VcScScc|",
        "...|t +  [ @|@@|@@|@@|@@|@@|@@|  + t|..| J        [  |...|c     [     S|",
        "...|--|  |L@| L| L| L|L |L |L |  |--|..|          [  |---|c     V     c|",
        "-|.|@ [  |--|[-|[-|[-|-[|-[|-[|  [ @|..|          |  |EEE|S    r|-|   S|",
        "c|.|@L|                          |L@|..| C  C  C  v  |%EE|r    r|r+   c|",
        " |.|--|                          |--|..|          v  |-++|--[[--|-|-[--|",
        "6|.|@ [  |--|[-|[-|  |-[|-[|-[|  [ @|..| C  C  C  v                     ",
        "-|.|@L|  [ @| L| L|  |L |L |L |  |L@|..|          |                  G  ",
        "-|.|--|  |L@|@@|@@|  |@@|@@|@@|  |--|..|----------|------|---|    |-----",
        "c|.|t +  |--|--|--|  |--|--|--|  + t|....................|cSc|    |.....",
        " |.|--|  [ @|@@|@@|  |@@|@@|@@|  |--|....................|   +    |.....",
        "6|.|t +  |L@| L| L|  |L |L |L |  + t|....................|t  |-[[-|-----",
        "-|.|--|  |--|[-|[-|  |-[|-[|-[|  |--|....................|---|P         ",
        "...|  +                          +  |....................|EEE|   c   h  ",
        "...| -|                          |- |....................|%EE|   cccc6cc",
        "...| ~|[-|[-|[-|-|    |-|[-|[-|[-|~ |....................|-++|          ",
        "...| -| L| L| L|.|    |.| L| L| L|- |....................|              ",
        "...| ~|@@|@@|@@|.|    |.|@@|@@|@@|~ |....................|b   bb     G  ",
        "...|--|--|--|--|||    |||--|--|--|--|....................|b   bb        ",
        "................|      |.................................|b             ",
        "................|     5|.................................|  bbbbb       ",
        "................|-====-|.................................|-------|u[[u[[",
        "................|     5|.........................................|      ",
        "----------------|      |-----------------------------------------|      ",
        "                                                                     G  ",
        "            G                                                           ",
        "--------|        |------------------------------------------------|     ",
        "........|        |................................................||   |",
        "........|b      b|.................................................|   |",
        "........|b      b|.................................................|   |",
        "........|b      b|.................................................|   |",
        "|---|---|b      b|---|---|---|---|---|---|.........................|   |",
        "|t S|t S|D      P|t S|t S|t S|t S|t S|t S|.........................|   |",
        "|- -|- -|        |- -|- -|- -|- -|- -|- -|.........................|   |"
      ],
      "palettes": [ "necropolis_b3" ],
      "terrain": { "1": "t_metal_floor", "2": "t_sewage_pipe", "7": "t_chainfence_h", "X": "t_grate" },
      "furniture": { "1": "f_locker" },
      "set": [
        { "square": "radiation", "amount": [ 5, 10 ], "x": 0, "x2": 23, "y": 0, "y2": 23 },
        { "square": "radiation", "amount": [ 5, 10 ], "x": 24, "x2": 47, "y": 0, "y2": 23 },
        { "square": "radiation", "amount": [ 5, 10 ], "x": 48, "x2": 71, "y": 0, "y2": 23 },
        { "square": "radiation", "amount": [ 5, 10 ], "x": 0, "x2": 23, "y": 24, "y2": 47 },
        { "square": "radiation", "amount": [ 5, 10 ], "x": 24, "x2": 47, "y": 24, "y2": 47 },
        { "square": "radiation", "amount": [ 5, 10 ], "x": 48, "x2": 71, "y": 24, "y2": 47 }
      ],
      "items": { "1": { "item": "lab_torso", "chance": 25 }, "L": { "item": "traveler", "chance": 25 } },
      "place_loot": [
        { "group": "surgery", "x": 58, "y": 18, "chance": 60 },
        { "group": "surgery", "x": 63, "y": [ 17, 18 ], "chance": 60 },
        { "group": "surgery", "x": 65, "y": 18, "chance": 40 },
        { "group": "cleaning", "x": 58, "y": 22, "chance": 40 },
        { "group": "dining", "x": [ 56, 57 ], "y": [ 3, 4 ], "chance": 40 }
      ],
      "place_vendingmachines": [ { "item_group": "vending_food", "x": 64, "y": 2 } ],
      "place_monster": [
        { "group": "GROUP_NECROPOLIS_VAULT3", "x": [ 5, 22 ], "y": [ 1, 22 ], "repeat": [ 2, 5 ] },
        { "group": "GROUP_NECROPOLIS_VAULT3", "x": [ 5, 22 ], "y": [ 1, 22 ], "repeat": [ 4, 7 ] },
        { "group": "GROUP_NECROPOLIS_VAULT3", "x": [ 25, 46 ], "y": [ 1, 22 ], "repeat": [ 2, 5 ] },
        { "group": "GROUP_NECROPOLIS_VAULT3", "x": [ 25, 46 ], "y": [ 1, 22 ], "repeat": [ 4, 7 ] },
        { "group": "GROUP_NECROPOLIS_VAULT3", "x": [ 49, 70 ], "y": [ 1, 22 ], "repeat": [ 2, 5 ] },
        { "group": "GROUP_NECROPOLIS_VAULT3", "x": [ 49, 70 ], "y": [ 1, 22 ], "repeat": [ 2, 5 ] },
        { "group": "GROUP_NECROPOLIS_VAULT3", "x": [ 1, 22 ], "y": [ 25, 46 ], "repeat": [ 4, 7 ] },
        { "group": "GROUP_NECROPOLIS_VAULT3", "x": [ 1, 22 ], "y": [ 25, 46 ], "repeat": [ 4, 7 ] },
        { "group": "GROUP_NECROPOLIS_VAULT3", "x": [ 25, 46 ], "y": [ 25, 46 ], "repeat": [ 3, 5 ] },
        { "group": "GROUP_NECROPOLIS_VAULT3", "x": [ 25, 46 ], "y": [ 25, 46 ], "repeat": [ 3, 5 ] },
        { "group": "GROUP_NECROPOLIS_VAULT3", "x": [ 49, 70 ], "y": [ 25, 46 ], "repeat": [ 3, 5 ] },
        { "group": "GROUP_NECROPOLIS_VAULT3", "x": [ 49, 70 ], "y": [ 25, 46 ], "repeat": [ 3, 5 ] }
      ]
    },
    "om_terrain": [
      [ "necropolis_d_4", "necropolis_d_5", "necropolis_d_6" ],
      [ "necropolis_d_13", "necropolis_d_14", "necropolis_d_15" ]
    ],
    "type": "mapgen",
    "weight": 250,
    "id": "70122fd1-e91a-4fdb-9c91-bae6e4a5494e"
  },
  {
    "method": "json",
    "object": {
      "fill_ter": "t_floor",
      "rows": [
        "........................................................................",
        "-----|.....................................|-----|----|--|----|-----|...",
        "1 b 1|---|.................................|d@@d |hnnh|  |hnnh| d@@d|...",
        "1 b 1|c t|.................................| @@  |    |  |    |  @@ |...",
        "1   1|S  |.................................|          +  +          |...",
        "1   1|c  |.................................|-+-|-|    |  |    |-|-+-|...",
        "--+--|-+-|---|------|......................|t S|L+   r|  |r   +L|S t|...",
        "         [   V  h6c |......................|---|-|----|  |----|-|---|...",
        "         [   [  hch |......................|d@@d |hnnh|  |hnnh| d@@d|...",
        "---------|   V      |......................| @@  |    |  |    |  @@ |...",
        "n        |   |------|......................|          +  +          |...",
        "n  C C C V   V  h6c |......................|-+-|-|    |  |    |-|-+-|...",
        "         V   [  hch |......................|t S|L+   r|  |r   +L|S t|...",
        "   C C C V   V      |......................|---|-|----|  |----|-|---|...",
        "r        V G |------|......................|d@@d |hnnh|  |hnnh| d@@d|...",
        "r  C C C V   V  h6c |......................| @@  |    |  |    |  @@ |...",
        "r        V   [  hch |......................|          +  +          |...",
        "r  C C C V   V      |......................|-+-|-|    |  |    |-|-+-|...",
        "         |   |------|......................|t S|L+   r|  |r   +L|S t|...",
        "---uuuuu-|   V  h6c |......................|---|-|----|  |----|-|---|...",
        "             [  hch |.................................|  |..............",
        "             V      |.................................|  ||.............",
        "|    |---|---|------|................................||   |.............",
        "|    |cSc|...........................................|   5|.............",
        "|    +   |...........................................|-==-|.............",
        "|-[[-|  t|...........................................|   5|.............",
        "     |---|...........................................||   |.............",
        " c   | < |............................................|  ||.............",
        "cc   |   |.|------------------------------------------|  |..............",
        "     |-+-|.|                                             |..............",
        "         |.|                                             |..............",
        "   nn   b|.|  |------------------|    |------------------|..............",
        "   nn   b|.|  |..................||  ||.................................",
        "        b|.|  |.|----|---|-|----|.|  |.|----|-|---|----|................",
        "  bbbbb  |.|  |.|d   |S t|L|hnnh|.|  |.|hnnh|L|t S|   d|................",
        "u|-------|.|  |.|@@  |-+-|+|    |-|  |-|    |+|-+-|  @@|................",
        " |.........|  |.|@@              [    [              @@|................",
        " |---------|  |.|d      oo      |-|  |-|      oo      d|................",
        "              |.|---------------|.|  |.|---------------|................",
        "              |...................|  |..................................",
        "|-------------|...................|  |..................................",
        "|...............|---------------|.|  |.|---------------|................",
        "................|d      oo      |-|  |-|      oo      d|................",
        "................|@@              [    [              @@|................",
        "................|@@  |-+-|+|    |-|  |-|    |+|-+-|  @@|................",
        "................|d   |S t|L|hnnh|.|  |.|hnnh|L|t S|   d|................",
        "................|----|---|-|----|.|  |.|----|-|---|----|................",
        "..................................|  |.................................."
      ],
      "palettes": [ "necropolis_b3" ],
      "terrain": { "1": "t_metal_floor", "2": "t_sewage_pipe", "7": "t_chainfence_h", "C": "t_metal_floor", "X": "t_grate" },
      "furniture": { "1": "f_locker", "C": "f_counter" },
      "set": [
        { "square": "radiation", "amount": [ 5, 10 ], "x": 0, "x2": 23, "y": 0, "y2": 23 },
        { "square": "radiation", "amount": [ 5, 10 ], "x": 24, "x2": 47, "y": 0, "y2": 23 },
        { "square": "radiation", "amount": [ 5, 10 ], "x": 48, "x2": 71, "y": 0, "y2": 23 },
        { "square": "radiation", "amount": [ 5, 10 ], "x": 0, "x2": 23, "y": 24, "y2": 47 },
        { "square": "radiation", "amount": [ 5, 10 ], "x": 24, "x2": 47, "y": 24, "y2": 47 },
        { "square": "radiation", "amount": [ 5, 10 ], "x": 48, "x2": 71, "y": 24, "y2": 47 }
      ],
      "items": {
        "1": { "item": "lab_torso", "chance": 25 },
        "C": { "item": "hospital_incubator", "chance": 50 },
        "L": { "item": "traveler", "chance": 25 }
      },
      "place_items": [ { "item": "hospital_incubator", "x": [ 0, 0 ], "y": [ 14, 17 ], "chance": 70 } ],
      "place_monster": [
        { "group": "GROUP_NECROPOLIS_VAULT3", "x": [ 1, 22 ], "y": [ 1, 22 ], "repeat": [ 2, 5 ] },
        { "group": "GROUP_NECROPOLIS_VAULT3", "x": [ 1, 22 ], "y": [ 1, 22 ], "repeat": [ 2, 5 ] },
        { "group": "GROUP_NECROPOLIS_VAULT3", "x": [ 25, 46 ], "y": [ 1, 22 ], "repeat": [ 1, 5 ] },
        { "group": "GROUP_NECROPOLIS_VAULT3", "x": [ 25, 46 ], "y": [ 1, 22 ], "repeat": [ 1, 5 ] },
        { "group": "GROUP_NECROPOLIS_VAULT3", "x": [ 49, 70 ], "y": [ 1, 22 ], "repeat": [ 2, 5 ] },
        { "group": "GROUP_NECROPOLIS_VAULT3", "x": [ 49, 70 ], "y": [ 1, 22 ], "repeat": [ 1, 5 ] },
        { "group": "GROUP_NECROPOLIS_VAULT3", "x": [ 1, 22 ], "y": [ 25, 46 ], "repeat": [ 2, 5 ] },
        { "group": "GROUP_NECROPOLIS_VAULT3", "x": [ 1, 22 ], "y": [ 25, 46 ], "repeat": [ 2, 5 ] },
        { "group": "GROUP_NECROPOLIS_VAULT3", "x": [ 25, 46 ], "y": [ 25, 46 ], "repeat": [ 2, 5 ] },
        { "group": "GROUP_NECROPOLIS_VAULT3", "x": [ 25, 46 ], "y": [ 25, 46 ], "repeat": [ 2, 5 ] },
        { "group": "GROUP_NECROPOLIS_VAULT3", "x": [ 49, 70 ], "y": [ 25, 46 ], "repeat": [ 1, 5 ] },
        { "group": "GROUP_NECROPOLIS_VAULT3", "x": [ 49, 70 ], "y": [ 25, 46 ], "repeat": [ 1, 5 ] }
      ]
    },
    "om_terrain": [
      [ "necropolis_d_7", "necropolis_d_8", "necropolis_d_9" ],
      [ "necropolis_d_16", "necropolis_d_17", "necropolis_d_18" ]
    ],
    "type": "mapgen",
    "weight": 250,
    "id": "b52f02e4-7961-4848-bab5-a1f89261addb"
  },
  {
    "method": "json",
    "object": {
      "fill_ter": "t_floor",
      "rows": [
        "...|~|~|~|~|cScScScS|.|   |nhhhn       hh|+-|---XX......|c @|c @|c @|c @",
        "...|       |        |-|   [              +  |  XX.......|L @|L @|L @|L @",
        "...|                 +    |              |  + XXX......||-[-|-[-|-[-|-[-",
        "...|       |+|+|+|+-|-|   v  $$$   $$$   c  | XX..|-|--|P               ",
        "...|~|~|~|~|t|t|t| t|.|   v  $$$ G $$$   c S|  XX.XX|X@|                ",
        "...|-|-|-|-|-|-|-|--|.|   v              c c|   XXXX   [                ",
        "......................|   |P  hnh   hnh  | f|     |t|cL|        |-[-|-[-",
        "|-------------------|.|   |-|------------|--|---|*|-|--|       b|L @|L @",
        "|r@@L  L@@r@@L  L@@r|.|   |.|r@@L  L@@r@@L  L@@r| |S|@@|       b|c @|c @",
        "|r        r        r|.|   |.|r        r        r| |    [       b|- -|- -",
        "|r@@L  L@@r@@L  L@@r|-|   |-|r@@L  L@@r@@L  L@@r| |t|cL|    bbbP|t S|t S",
        "|                    [     [                    | |-|--|   |--|-|---|---",
        "|                    v     v                    | |S|@@|   |@@|S|.......",
        "|                    [     [                    | |    [   [    |.......",
        "|r@@L  L@@r@@L  L@@r|-|   |-|r@@L  L@@r@@L  L@@r| |t|cL|   |Lc|t|---|---",
        "|r        r        r|.|   |.|r        r        r| |-|--|   |--|-|t S|t S",
        "|r@@L  L@@r@@L  L@@r|.|   |.|r@@L  L@@r@@L  L@@r|#|S|@@|   |@@|S|- -|- -",
        "|-------------------|.|   |.|-------------------|-|    [   [    |c @|c @",
        "......................|   ||......................|t|cL|   |Lc|t|L @|L @",
        "......................|    |----------------------|-|--|   |--|-|-[-|-[-",
        "......................|                                                 ",
        "......................|                                                 ",
        "......................|  G                                              ",
        "......................|                                                 ",
        "......................|    |----------------------|-|--|   |--|-|-[-|-[-",
        "......................|   ||......................|t|cL|   |Lc|t|L @|L @",
        "|-------------------|.|   |.|-------------------|.|    [   [    |c @|c @",
        "|r@@L  L@@r@@L  L@@r|.|   |.|r@@L  L@@r@@L  L@@r|.|S|@@|   |@@|S|- -|- -",
        "|r        r        r|.|   |.|r        r        r|.|-|--|   |--|-|t S|t S",
        "|r@@L  L@@r@@L  L@@r|-|   |-|r@@L  L@@r@@L  L@@r|.|t|cL|   |Lc|t|---|---",
        "|                    [     [                    |.|    [   [    |.......",
        "|                    v     v                    |.|S|@@|   |@@|S|.......",
        "|                    [     [                    |.|-|--|   |--|-|---|---",
        "|r@@L  L@@r@@L  L@@r|-|   |-|r@@L  L@@r@@L  L@@r|.|t|cL|    bbbP|t S|t S",
        "|r        r        r|.|   |.|r        r        r|.|    [       b|- -|- -",
        "|r@@L  L@@r@@L  L@@r|.|   |.|r@@L  L@@r@@L  L@@r|.|S|@@|       b|c @|c @",
        "|-------------------|.|   |.|-------------------|.|-|--|       b|L @|L @",
        "......................|   |.......................|t|cL|        |-[-|-[-",
        ".....................||   |------------------|....|    [                ",
        ".....................|                       |....|S|@@|                ",
        ".....................|          G            |....|-|--|P               ",
        ".....................|                       |.........||-[-|-[-|-[-|-[-",
        ".....................|------------------|   ||..........|L @|L @|L @|L @",
        "........................................|   |...........|c @|c @|c @|c @",
        "........................................|   |...........|- -|- -|- -|- -",
        ".......................................||   ||..........|t S|t S|t S|t S",
        ".......................................|     |..........|---|---|---|---",
        ".......................................|    5|.........................."
      ],
      "palettes": [ "necropolis_b3" ],
      "terrain": { "2": "t_sewage_pipe", "7": "t_chainfence_h", "$": "t_metal_floor", "X": "t_grate" },
      "furniture": { "$": "f_pool_table" },
      "set": [
        { "square": "radiation", "amount": [ 25, 50 ], "x": 0, "x2": 23, "y": 0, "y2": 23 },
        { "square": "radiation", "amount": [ 25, 50 ], "x": 24, "x2": 47, "y": 0, "y2": 23 },
        { "square": "radiation", "amount": [ 25, 50 ], "x": 48, "x2": 71, "y": 0, "y2": 23 },
        { "square": "radiation", "amount": [ 25, 50 ], "x": 0, "x2": 23, "y": 24, "y2": 47 },
        { "square": "radiation", "amount": [ 25, 50 ], "x": 24, "x2": 47, "y": 24, "y2": 47 },
        { "square": "radiation", "amount": [ 25, 50 ], "x": 48, "x2": 71, "y": 24, "y2": 47 }
      ],
      "items": {
        "$": { "item": "pool_table", "chance": 50 },
        "L": { "item": "traveler", "chance": 25 },
        "c": { "item": "bedroom", "chance": 15 },
        "f": { "item": "alcohol", "chance": 50, "repeat": 3 },
        "r": { "item": "traveler", "chance": 25 }
      },
      "place_monster": [
        { "group": "GROUP_NECROPOLIS_VAULT3", "x": [ 1, 22 ], "y": [ 1, 22 ], "repeat": [ 3, 6 ] },
        { "group": "GROUP_NECROPOLIS_VAULT3", "x": [ 1, 22 ], "y": [ 1, 22 ], "repeat": [ 3, 6 ] },
        { "group": "GROUP_NECROPOLIS_VAULT3", "x": [ 25, 46 ], "y": [ 1, 22 ], "repeat": [ 3, 6 ] },
        { "group": "GROUP_NECROPOLIS_VAULT3", "x": [ 25, 46 ], "y": [ 1, 22 ], "repeat": [ 3, 6 ] },
        { "group": "GROUP_NECROPOLIS_VAULT3", "x": [ 49, 70 ], "y": [ 1, 22 ], "repeat": [ 3, 6 ] },
        { "group": "GROUP_NECROPOLIS_VAULT3", "x": [ 49, 70 ], "y": [ 1, 22 ], "repeat": [ 3, 6 ] },
        { "group": "GROUP_NECROPOLIS_VAULT3", "x": [ 1, 22 ], "y": [ 25, 46 ], "repeat": [ 3, 5 ] },
        { "group": "GROUP_NECROPOLIS_VAULT3", "x": [ 1, 22 ], "y": [ 25, 46 ], "repeat": [ 3, 5 ] },
        { "group": "GROUP_NECROPOLIS_VAULT3", "x": [ 25, 46 ], "y": [ 25, 46 ], "repeat": [ 3, 6 ] },
        { "group": "GROUP_NECROPOLIS_VAULT3", "x": [ 25, 46 ], "y": [ 25, 46 ], "repeat": [ 3, 6 ] },
        { "group": "GROUP_NECROPOLIS_VAULT3", "x": [ 49, 70 ], "y": [ 25, 46 ], "repeat": [ 4, 7 ] },
        { "group": "GROUP_NECROPOLIS_VAULT3", "x": [ 49, 70 ], "y": [ 25, 46 ], "repeat": [ 4, 7 ] }
      ]
    },
    "om_terrain": [
      [ "necropolis_d_19", "necropolis_d_20", "necropolis_d_21" ],
      [ "necropolis_d_28", "necropolis_d_29", "necropolis_d_30" ]
    ],
    "type": "mapgen",
    "weight": 250,
    "id": "1d1b483f-7b56-46ad-baf7-49ac11908384"
  },
  {
    "method": "json",
    "object": {
      "fill_ter": "t_floor",
      "rows": [
        "|c @|c @|        |c @|c @|c @|c @|c @|c @|........................||   |",
        "|L @|L @|        |L @|L @|L @|L @|L @|L @|.................|------|     ",
        "|-[-|-[-|HH-[[-HH|-[-|-[-|-[-|-[-|-[-|-[-||................|            ",
        "                                         P|--|-|...........|            ",
        "             G                            |Lc|t|...........|  |-------| ",
        "                                          [    |...........|  |.......| ",
        "|-[-|-|--|      |--|-|-[-|-[-|-[-|        |@@|S|...........|  |.....|-|-",
        "|L @|S|@@|      |Lc|t|L @|L @|L @|b       |--|-|...........|  |.....|@  ",
        "|c @|    [      [    |c @|c @|c @|b       |Lc|t|...........|  |.....|@  ",
        "|- -|t|cL|      |@@|S|- -|- -|- -|b       [    |...........|  |.....|-| ",
        "|t S|-|--|      |--|-|t S|t S|t S|Pbbb    |@@|S|...........|  |.....|L+ ",
        "|---|S|@@|      |Lc|t|---|---|---|-|--|   |--|-|...........|  |.....|-| ",
        "....|    [      [    |...........|t|cL|   |Lc|t|..........||  ||....|L+ ",
        "....|t|cL|      |@@|S|...........|    [   [    |..........|    |....|-| ",
        "|---|-|--|      |--|-|---|---|---|S|@@|   |@@|S|..........|    |....|@  ",
        "|t S|S|@@|      |Lc|t|t S|t S|t S|-|--|   |----|..........[    |....|@  ",
        "|- -|    [      [    |- -|- -|- -|t|cL|   |Lc|t|..........|    |....|-|-",
        "|c @|t|cL|      |@@|S|c @|c @|c @|    [   [    |..........|    |......|S",
        "|L @|-|--|      |--|-|L @|L @|L @|S|@@|   |@@|S|..........|    |......|-",
        "|-[-|          G     |-[-|-[-|-[-|-|--|   |--|-|----------|    |--------",
        "            PP                                                          ",
        "           PPPP                                             G           ",
        "           PPPP                                                         ",
        "            PP                                                          ",
        "|-[-|     G          |-[-|-[-|-[-|-|--|   |--|-|-------|---|---|---|---|",
        "|L @|-|--|      |--|-|L @|L @|L @|S|@@|   |@@|S|.......|t S|t S|t S|t S|",
        "|c @|t|cL|      |@@|S|c @|c @|c @|    [   [    |.......|- -|- -|- -|- -|",
        "|- -|    [      [    |- -|- -|- -|t|cL|   |Lc|t|.......|c @|c @|c @|c @|",
        "|t S|S|@@|      |Lc|t|t S|t S|t S|-|--|   |----|.......|L @|L @|L @|L @|",
        "|---|-|--|      |--|-|---|---|---|S|@@|   |@@|S|......||-[-|-[-|-[-|-[-|",
        "....|t|cL|      |@@|S|...........|    [   [    |.|-|--|                 ",
        "....|    [      [    |...........|t|cL|   |Lc|t|.|S|@@|                 ",
        "|---|S|@@|      |Lc|t|---|---|---|-|--|   |--|-|.|    [                 ",
        "|t S|-|--|      |--|-|t S|t S|t S|Pbbb    |@@|S|.|t|cL|        |-[-|-[-|",
        "|- -|t|cL|      |@@|S|- -|- -|- -|b       [    |.|-|--|       b|L @|L @|",
        "|c @|    [      [    |c @|c @|c @|b       |Lc|t|.|S|@@|       b|c @|c @|",
        "|L @|S|@@|      |Lc|t|L @|L @|L @|b       |--|-|.|    [       b|- -|- -|",
        "|-[-|-|--|      |--|-|-[-|-[-|-[-|        |@@|S|.|t|cL|    bbbP|t S|t S|",
        "                                          [    |.|-|--|   |--|-|---|---|",
        "                                          |Lc|t|.|S|@@|   |@@|S|........",
        "                                         P|--|-|.|    [   [    |........",
        "|--|-HHH-HH-[[-HH-HHH-|--|-[-|-[-|-[-|-[-||......|t|cL|   |Lc|t|---|---|",
        "|..|Pbbb          bbbP|..|L @|L @|L @|L @|.......|-|--|   |--|-|t S|t S|",
        "|..|b                b|..|c @|c @|c @|c @|.......|S|@@|   |@@|S|- -|- -|",
        "|..|b     c    c     b|..|- -|- -|- -|- -|.......|    [   [    |c @|c @|",
        "|..|b    cc    cc    b|..|t S|t S|t S|t S|.......|t|cL|   |Lc|t|L @|L @|",
        "|--|                  |--|---|---|---|---|-------|-|--|   |--|-|-[-|-[-|",
        "|EE|        G         |EE|                                              "
      ],
      "palettes": [ "necropolis_b3" ],
      "terrain": { "2": "t_sewage_pipe", "7": "t_chainfence_h", "X": "t_grate" },
      "set": [
        { "square": "radiation", "amount": [ 5, 10 ], "x": 0, "x2": 23, "y": 0, "y2": 23 },
        { "square": "radiation", "amount": [ 5, 10 ], "x": 24, "x2": 47, "y": 0, "y2": 23 },
        { "square": "radiation", "amount": [ 5, 10 ], "x": 48, "x2": 71, "y": 0, "y2": 23 },
        { "square": "radiation", "amount": [ 5, 10 ], "x": 0, "x2": 23, "y": 24, "y2": 47 },
        { "square": "radiation", "amount": [ 5, 10 ], "x": 24, "x2": 47, "y": 24, "y2": 47 },
        { "square": "radiation", "amount": [ 5, 10 ], "x": 48, "x2": 71, "y": 24, "y2": 47 }
      ],
      "items": {
        "L": { "item": "traveler", "chance": 25 },
        "c": { "item": "bedroom", "chance": 15 },
        "r": { "item": "traveler", "chance": 25 }
      },
      "place_monster": [
        { "group": "GROUP_NECROPOLIS_VAULT3", "x": [ 1, 22 ], "y": [ 1, 22 ], "repeat": [ 3, 6 ] },
        { "group": "GROUP_NECROPOLIS_VAULT3", "x": [ 1, 22 ], "y": [ 1, 22 ], "repeat": [ 3, 6 ] },
        { "group": "GROUP_NECROPOLIS_VAULT3", "x": [ 25, 46 ], "y": [ 1, 22 ], "repeat": [ 3, 6 ] },
        { "group": "GROUP_NECROPOLIS_VAULT3", "x": [ 25, 46 ], "y": [ 1, 22 ], "repeat": [ 3, 6 ] },
        { "group": "GROUP_NECROPOLIS_VAULT3", "x": [ 49, 70 ], "y": [ 1, 22 ], "repeat": [ 3, 5 ] },
        { "group": "GROUP_NECROPOLIS_VAULT3", "x": [ 49, 70 ], "y": [ 1, 22 ], "repeat": [ 3, 5 ] },
        { "group": "GROUP_NECROPOLIS_VAULT3", "x": [ 1, 22 ], "y": [ 25, 46 ], "repeat": [ 4, 7 ] },
        { "group": "GROUP_NECROPOLIS_VAULT3", "x": [ 1, 22 ], "y": [ 25, 46 ], "repeat": [ 4, 7 ] },
        { "group": "GROUP_NECROPOLIS_VAULT3", "x": [ 25, 46 ], "y": [ 25, 46 ], "repeat": [ 4, 7 ] },
        { "group": "GROUP_NECROPOLIS_VAULT3", "x": [ 25, 46 ], "y": [ 25, 46 ], "repeat": [ 4, 7 ] },
        { "group": "GROUP_NECROPOLIS_VAULT3", "x": [ 49, 70 ], "y": [ 25, 46 ], "repeat": [ 4, 7 ] },
        { "group": "GROUP_NECROPOLIS_VAULT3", "x": [ 49, 70 ], "y": [ 25, 46 ], "repeat": [ 4, 7 ] }
      ]
    },
    "om_terrain": [
      [ "necropolis_d_22", "necropolis_d_23", "necropolis_d_24" ],
      [ "necropolis_d_31", "necropolis_d_32", "necropolis_d_33" ]
    ],
    "type": "mapgen",
    "weight": 250,
    "id": "fedd88d1-f119-499a-b56e-d5392dac99d8"
  },
  {
    "method": "json",
    "object": {
      "fill_ter": "t_floor",
      "rows": [
        "|................................||  ||...........|---|.................",
        "|--------------------------------|    |-----------|%EE|.................",
        "                                                  +EEE|.................",
        "                                    G             +EEE|.................",
        "  |-----|   |-----|   |---------|      |----------|EEE|.................",
        " 5|.....|  5|.....|  5|.........||    ||..........|---|.................",
        "=-|-|.|-|-=-|-|.|-|-=-|-|........|    |.................................",
        " 5 @|.|@   5 @|.|@   5 @|........|    |.................................",
        "   @|.|@     @|.|@     @|........|    |.....|---|---------------|-----|.",
        "  |-|.|-|   |-|.|-|   |-|........|    ||...||   |  bbb  D  bbb  |L L L|.",
        "  +L|.|L+   +L|.|L+   +L|........|     |---|   5|5              |@ @ @|.",
        "  |-|.|-|   |-|.|-|   |-|........|              =               |     |.",
        "  +L|.|L+   +L|.|L+   +L|........|              =        G            |.",
        "  |-|.|-|   |-|.|-|   |-|........|              =               |@ @ @|.",
        "   @|.|@     @|.|@     @|........|     |---|    |               |@ @ @|.",
        "   @|.|@     @|.|@     @|........|    ||...||   |  bbb          |L L L|.",
        "+-|-|.|-|-+-|-|.|-|-+-|-|........|    |.....|---|-------|     |-|-----|.",
        " t|.....|S t|.....|S t|..........|    |.........|L L L L|     |L L L L|.",
        "--|.....|---|.....|---|.........||    |.........|@ @ @ @|     |@ @ @ @|.",
        "--------------------------------|     |.........|@ @ @ @|     |@ @ @ @|.",
        "                                      |.........|                     |.",
        "                                      |.........|@ @ @ @|     |@ @ @ @|.",
        "                                      |.........|@ @ @ @|     |@ @ @ @|.",
        "                                      |.........|L L L L|     |L L L L|.",
        "---|---|        |---|---|---|---|---|-|-|.......|-------|     |-------|.",
        "t S|t S|        |t S|t S|t S|t S|t S|t S|.......|L L L L|     |L L L L|.",
        "- -|- -|        |- -|- -|- -|- -|- -|- -|.......|@ @ @ @|     |@ @ @ @|.",
        "c @|c @|        |c @|c @|c @|c @|c @|c @|.......|@ @ @ @|     |@ @ @ @|.",
        "L @|L @|        |L @|L @|L @|L @|L @|L @|.......|                     |.",
        "-[-|-[-|uu-[[-uu|-[-|-[-|-[-|-[-|-[-|-[-||......|@ @ @ @|     |@ @ @ @|.",
        "                                         |--|-|.|@ @ @ @|     |@ @ @ @|.",
        "                                         |Lc|t|.|L L L L|     |L L L L|.",
        "                                         [    |.|-----|-|     |-|-----|.",
        "-[-|-|--|      |--|-|-[-|-[-|-[-|        |@@|S|.|L L L|         |L L L|.",
        "L @|S|@@|      |Lc|t|L @|L @|L @|b       |--|-|.|@ @ @|         |@ @ @|.",
        "c @|    [      [    |c @|c @|c @|b       |Lc|t|.|@ @ @|         |@ @ @|.",
        "- -|t|cL|      |@@|S|- -|- -|- -|b       [    |.|          G          |.",
        "t S|-|--|      |--|-|t S|t S|t S|Pbbb    |@@|S|.|@ @ @|         |@ @ @|.",
        "---|S|@@|      |Lc|t|---|---|---|-|--|   |--|-|.|@ @ @|         |@ @ @|.",
        "...|    [      [    |...........|t|cL|   |Lc|t|.|L L L|      5  |L L L|.",
        "...|t|cL|      |@@|S|...........|    [   [    |.|-----||--===--||-----|.",
        "---|-|--|      |--|-|---|---|---|S|@@|   |@@|S|........|     5 |........",
        "t S|S|@@|      |Lc|t|t S|t S|t S|-|--|   |----|........|       |........",
        "- -|    [      [    |- -|- -|- -|t|cL|   |Lc|t|........|       |........",
        "c @|t|cL|      |@@|S|c @|c @|c @|    [   [    |......|-|       |........",
        "L @|-|--|      |--|-|L @|L @|L @|S|@@|   |@@|S|......|         |........",
        "-[-|     G          |-[-|-[-|-[-|-|--|   |--|-|------|         |........",
        "           PP                                             G   b|........"
      ],
      "palettes": [ "necropolis_b3" ],
      "terrain": { "2": "t_sewage_pipe", "7": "t_chainfence_h", "X": "t_grate" },
      "set": [
        { "square": "radiation", "amount": [ 5, 10 ], "x": 0, "x2": 23, "y": 0, "y2": 23 },
        { "square": "radiation", "amount": [ 5, 10 ], "x": 24, "x2": 47, "y": 0, "y2": 23 },
        { "square": "radiation", "amount": [ 5, 10 ], "x": 48, "x2": 71, "y": 0, "y2": 23 },
        { "square": "radiation", "amount": [ 5, 10 ], "x": 0, "x2": 23, "y": 24, "y2": 47 },
        { "square": "radiation", "amount": [ 5, 10 ], "x": 24, "x2": 47, "y": 24, "y2": 47 },
        { "square": "radiation", "amount": [ 5, 10 ], "x": 48, "x2": 71, "y": 24, "y2": 47 }
      ],
      "items": { "L": { "item": "traveler", "chance": 25 } },
      "place_monster": [
        { "group": "GROUP_NECROPOLIS_VAULT3", "x": [ 1, 22 ], "y": [ 1, 22 ], "repeat": [ 5, 8 ] },
        { "group": "GROUP_NECROPOLIS_VAULT3", "x": [ 1, 22 ], "y": [ 1, 22 ], "repeat": [ 5, 8 ] },
        { "group": "GROUP_NECROPOLIS_VAULT3", "x": [ 25, 46 ], "y": [ 1, 22 ], "repeat": [ 2, 5 ] },
        { "group": "GROUP_NECROPOLIS_VAULT3", "x": [ 25, 46 ], "y": [ 1, 22 ], "repeat": [ 2, 5 ] },
        { "group": "GROUP_NECROPOLIS_VAULT3", "x": [ 49, 70 ], "y": [ 1, 22 ], "repeat": [ 4, 8 ] },
        { "group": "GROUP_NECROPOLIS_VAULT3", "x": [ 49, 70 ], "y": [ 1, 22 ], "repeat": [ 4, 8 ] },
        { "group": "GROUP_NECROPOLIS_VAULT3", "x": [ 1, 22 ], "y": [ 25, 46 ], "repeat": [ 4, 7 ] },
        { "group": "GROUP_NECROPOLIS_VAULT3", "x": [ 1, 22 ], "y": [ 25, 46 ], "repeat": [ 4, 7 ] },
        { "group": "GROUP_NECROPOLIS_VAULT3", "x": [ 25, 46 ], "y": [ 25, 46 ], "repeat": [ 4, 7 ] },
        { "group": "GROUP_NECROPOLIS_VAULT3", "x": [ 25, 46 ], "y": [ 25, 46 ], "repeat": [ 4, 7 ] },
        { "group": "GROUP_NECROPOLIS_VAULT3", "x": [ 49, 70 ], "y": [ 25, 39 ], "repeat": [ 5, 9 ] },
        { "group": "GROUP_NECROPOLIS_VAULT3", "x": [ 49, 70 ], "y": [ 25, 39 ], "repeat": [ 5, 9 ] }
      ]
    },
    "om_terrain": [
      [ "necropolis_d_25", "necropolis_d_26", "necropolis_d_27" ],
      [ "necropolis_d_34", "necropolis_d_35", "necropolis_d_36" ]
    ],
    "type": "mapgen",
    "weight": 250,
    "id": "256b9d3b-4547-43c2-b49b-8af46973afcc"
  },
  {
    "method": "json",
    "object": {
      "fill_ter": "t_floor",
      "rows": [
        ".......................................|-===-|..........................",
        ".......................................|    5|..........................",
        ".............................|---------|     |---------|................",
        ".............................|            G            |................",
        "..................|----------|          5              |----------|.....",
        "..................|             |--------===--------|             |.....",
        "..................|             |///////5/////rrccrr|             |.....",
        "..................|  |---uuuu---|///////////////////|---uuuu---|  |.....",
        "..................|  |rcc//////5|5//////////////////|rcc////ccr|  |.....",
        "..................|  |c/////////=///////////////////=/////////c|  |.....",
        "..................|  v//////////=///////////////////=//////////v  |.....",
        "..................|  v////G/////=///////////////////=/////G////v  |.....",
        "..................|  v//////////=/////////G/////////=//////////v  |.....",
        "..................|  |c/////////=/////,,,,,,,,,/////=/////////c|  |.....",
        "..................|  |rcc/rr/ccr|r////,EEEEEEE,////5|5///rr/ccr|  |.....",
        "..................|  |----------|r////,EEEEEEE,/////|----------|  |.....",
        "..................|  |rcc/rr/ccr|r////,EEEEEEE,/////|rcc/rr/ccr|  |.....",
        "..................|  |c/////////=/////,EEEEEEE,/////=/////////c|  |.....",
        "..................|  v//////////=/////,EEEEEEE,/////=//////////v  |.....",
        "..................|  v////G/////=/////,EEEEEEE,/////=/////G////v  |.....",
        "..................|  v//////////=/////%EEEEEEE,/////=//////////v  |.....",
        "..................|  |c/////////=/////,,,,,,,,,/////=/////////c|  |.....",
        "..................|  |rcc//////5|5////////G////////5|5//////ccr|  |.....",
        "..................|  |---uuuu---|///////////////////|---uuuu---|  |.....",
        "..................|             ||/////////////////||             |.....",
        "..................|             |||///////////////|||             |.....",
        "..................|---------|   |.|//////////5////|.|   |---------|.....",
        "............................|   |.|-|---=====---|-|.|   |...............",
        "............................|  5|...|        5  |...|  5|...............",
        "............................|-=-|...|           |...|-=-|...............",
        "............................|  5|...|           |...|  5|...............",
        "......................|-----|   |---|     G     |---|   |---------------",
        "......................|                                                 ",
        "......................|                                                 ",
        "......................|                                                 ",
        "|-------------------|.|    |--------|   |-------------------------------",
        "|1@@L  L@@1@@L  L@@1|.|   ||........|[H[|...............................",
        "|1        1        1|.|   |.|-------|   |-------|---|...|---|---|---|---",
        "|1@@L  L@@1@@L  L@@1|-|   |.|c$cc  c     c c$cc |RRR|...|t S|t S|t S|t S",
        "|                    [    |.|ch c        c ch   +   |...|- -|- -|- -|- -",
        "|                    v    |.|c     cccc6cc     R|RRR|...|c @|c @|c @|c @",
        "|                    [    |.|         h        R|---|...|L @|L @|L @|L @",
        "|1@@L  L@@1@@L  L@@1|-|   |.|c              R|+-|......||-[-|-[-|-[-|-[-",
        "|1        1        1|.|   |.|ch c   R R R R R| t|.|-|--|                ",
        "|1@@L  L@@1@@L  L@@1|.|   |.|c$cc   R R R R R| S|.|S|@@|                ",
        "|-------------------|.|   |.|----------------|--|.|    [                ",
        "......................|   |.......................|t|cL|        |-[-|-[-",
        "|-------------------|.|   |.|-------------------|.|-|--|       b|L @|L @"
      ],
      "palettes": [ "necropolis_b3" ],
      "terrain": { "1": "t_metal_floor", "2": "t_sewage_pipe", "7": "t_chainfence_h", "R": "t_metal_floor", "X": "t_grate" },
      "furniture": { "1": "f_rack", "R": "f_rack" },
      "set": [
        { "square": "radiation", "amount": [ 5, 10 ], "x": 0, "x2": 23, "y": 0, "y2": 23 },
        { "square": "radiation", "amount": [ 5, 10 ], "x": 24, "x2": 47, "y": 0, "y2": 23 },
        { "square": "radiation", "amount": [ 5, 10 ], "x": 48, "x2": 71, "y": 0, "y2": 23 },
        { "square": "radiation", "amount": [ 5, 10 ], "x": 0, "x2": 23, "y": 24, "y2": 47 },
        { "square": "radiation", "amount": [ 5, 10 ], "x": 24, "x2": 47, "y": 24, "y2": 47 },
        { "square": "radiation", "amount": [ 5, 10 ], "x": 48, "x2": 71, "y": 24, "y2": 47 }
      ],
      "items": {
        "1": { "item": "allclothes", "chance": 25 },
        "L": { "item": "traveler", "chance": 25 },
        "R": [
          { "item": "lab_torso", "chance": 25 },
          { "item": "lab_pants", "chance": 25 },
          { "item": "tools_tailor", "chance": 25 }
        ],
        "c": { "item": "bedroom", "chance": 15 },
        "r": [
          { "item": "electronics", "chance": 25 },
          { "item": "tools_mechanic", "chance": 25 },
          { "item": "tools_lighting_industrial", "chance": 25 }
        ]
      },
      "place_monster": [
        { "group": "GROUP_NECROPOLIS_VAULT3", "x": [ 1, 22 ], "y": [ 1, 22 ], "repeat": [ 1, 5 ] },
        { "group": "GROUP_NECROPOLIS_VAULT3", "x": [ 1, 22 ], "y": [ 1, 22 ], "repeat": [ 1, 5 ] },
        { "group": "GROUP_NECROPOLIS_ROBOT", "x": [ 25, 46 ], "y": [ 12, 22 ], "repeat": [ 1, 4 ] },
        { "group": "GROUP_NECROPOLIS_ROBOT", "x": [ 36, 46 ], "y": [ 12, 22 ], "repeat": [ 1, 5 ] },
        { "group": "GROUP_NECROPOLIS_ROBOT", "x": [ 49, 60 ], "y": [ 12, 22 ], "repeat": [ 1, 4 ] },
        { "group": "GROUP_NECROPOLIS_ROBOT", "x": [ 49, 60 ], "y": [ 12, 22 ], "repeat": [ 1, 4 ] },
        { "group": "GROUP_NECROPOLIS_VAULT3", "x": [ 1, 22 ], "y": [ 25, 46 ], "repeat": [ 3, 5 ] },
        { "group": "GROUP_NECROPOLIS_VAULT3", "x": [ 1, 22 ], "y": [ 25, 46 ], "repeat": [ 3, 5 ] },
        { "group": "GROUP_NECROPOLIS_VAULT3", "x": [ 25, 46 ], "y": [ 32, 46 ], "repeat": [ 3, 5 ] },
        { "group": "GROUP_NECROPOLIS_VAULT3", "x": [ 25, 46 ], "y": [ 32, 46 ], "repeat": [ 3, 5 ] },
        { "group": "GROUP_NECROPOLIS_VAULT3", "x": [ 49, 70 ], "y": [ 25, 46 ], "repeat": [ 3, 6 ] },
        { "group": "GROUP_NECROPOLIS_VAULT3", "x": [ 49, 70 ], "y": [ 25, 46 ], "repeat": [ 3, 6 ] }
      ]
    },
    "om_terrain": [
      [ "necropolis_d_37", "necropolis_d_38", "necropolis_d_39" ],
      [ "necropolis_d_46", "necropolis_d_47", "necropolis_d_48" ]
    ],
    "type": "mapgen",
    "weight": 250,
    "id": "940cd46f-7ec4-4d18-b41d-bf88b0eaab56"
  },
  {
    "method": "json",
    "object": {
      "fill_ter": "t_floor",
      "rows": [
        "|EE+                  +EE+                                              ",
        "|EE+                  +EE+         G                                    ",
        "|E%|                  |%E|                                              ",
        "|--|P bbbD       bbb P|--|----|        |---------|-|--|   |--|-|-[-|-[-|",
        "...|------|    |------|.......|u[[uu[[u|.........|t|cL|   |Lc|t|L @|L @|",
        "..........|    |..........|---|        |.|.......XX   [   [    |c @|c @|",
        "..........|    |.|--------|            |.|X.......XX@@|   |@@|S|- -|- -|",
        "..........|    |.|PbbbbP               |.|%X.X|..|-|--|   |--|-|t S|t S|",
        "..........|    |-|                 CCCC|-|-+X-|..|t|cL|   |Lc|t|---|---|",
        "..........|     v                  C          |..|    [   [    |........",
        "..........|     [      CC CC6CCC6CCC          X..|S|@@|   |@@|S|........",
        "..........|     [      C                     XX..|-|--|   |--|-|---|---|",
        "..........|     v      C G             |-|-+XXX..Xt|cL|    bbbP|t S|t S|",
        "..........|    |-|     6   rr  rr  rr  |.|%EX.....X   [       b|- -|- -|",
        "..........|    |.|D    C   rr  rr  rr  |.|EX.....XS|@@|       b|c @|c @|",
        "..........|    |-|     C   rr  rr  rr  |.|-X.....|-|--|       b|L @|L @|",
        "..........|     v      C   rr  rr  rr  |.........|t|cL|        |-[-|-[-|",
        "..........|     [      C               |------|..|    [                 ",
        "..........|     v      6                      |..|S|@@|                 ",
        "..........|    |-|     C   rr  rr  rr  rrrrrr |..|-|--|                 ",
        "..........|    |.|CCC CC   rr  rr  rr  rrrrrr |--|....||-[-|-[-|-[-|-[-|",
        "..........|    |.|         rr  rr  rr G       | t|.....|L @|L @|L @|L @|",
        "..........|    |.| rrrrrr  rr  rr  rr  rrrrrr +  |.....|c @|c @|c @|c @|",
        "..........|    |.| rrrrrr  rr  rr  rr  rrrrrr | S|.....|- -|- -|- -|- -|",
        "..........|    |.|                            |--|.....|t S|t S|t S|t S|",
        "..........|    |.|----------------------------|........||--|---|---|---|",
        "..........|    |........................................|               ",
        ".|--------|    |--------|...............................|               ",
        ".|                      |...............................|               ",
        ".|          G           |...............................|    |-|-++-|---",
        "||       XX             ||.............................||    |.|%EEE|...",
        "|    |--X..X   |-|--|    |-----------------------------|     |.|EEEE|.|-",
        "     +EX...X   v |EE+                                        |.|----|.|R",
        "     +E.....X  [<|EE+                                        |........|R",
        "     |E.....X  v |EE|                                        |.|----|.|R",
        "-----|--..XX   |-|--|----------------------------------|     |.|EEEE|.|R",
        "..........XX   |.......................................||    |.|%EEE|.|R",
        "|---|---|-X    |-|---|---|---|---|---|---|..............|    |.|-++-|-|R",
        "|t S|t S|P      P|t S|t S|t S|t S|t S|t S|..............|    |.|    |.|R",
        "|- -|- -|b      b|- -|- -|- -|- -|- -|- -|..............|    |.|    |.|R",
        "|c @|c @|b      b|c @|c @|c @|c @|c @|c @|..............|    |-|    |-|-",
        "|L @|L @|P      P|L @|L @|L @|L @|L @|L @|..............|     |         ",
        "|-[-|-[-|HH-[[-HH|-[-|-[-|-[-|-[-|-[-|-[-||.............|    5|5       G",
        "            G                             |--|-|........|     =         ",
        "                                          |Lc|t|........|     =     RR  ",
        "                                          [    |........|     =     RR  ",
        "|-[-|-|--|      |--|-|-[-|-[-|-[-|        |@@|S|........|     |     RR  ",
        "|L @|S|@@|      |Lc|t|L @|L @|L @|b       |--|-|........|     |     cc  "
      ],
      "palettes": [ "necropolis_b3" ],
      "terrain": { "2": "t_sewage_pipe", "7": "t_chainfence_h", "C": "t_metal_floor", "R": "t_metal_floor", "X": "t_grate" },
      "furniture": { "C": "f_counter", "R": "f_rack" },
      "set": [
        { "square": "radiation", "amount": [ 25, 50 ], "x": 0, "x2": 23, "y": 0, "y2": 23 },
        { "square": "radiation", "amount": [ 25, 50 ], "x": 24, "x2": 47, "y": 0, "y2": 23 },
        { "square": "radiation", "amount": [ 25, 50 ], "x": 48, "x2": 71, "y": 0, "y2": 23 },
        { "square": "radiation", "amount": [ 25, 50 ], "x": 0, "x2": 23, "y": 24, "y2": 47 },
        { "square": "radiation", "amount": [ 25, 50 ], "x": 24, "x2": 47, "y": 24, "y2": 47 },
        { "square": "radiation", "amount": [ 25, 50 ], "x": 48, "x2": 71, "y": 24, "y2": 47 }
      ],
      "items": {
        "L": { "item": "traveler", "chance": 25 },
        "C": [ { "item": "consumer_electronics", "chance": 15 }, { "item": "allclothes", "chance": 25 } ],
        "R": [ { "item": "kitchen", "chance": 25 }, { "item": "MRE", "chance": 10 } ],
        "c": { "item": "bedroom", "chance": 15 },
        "r": [ { "item": "sports", "chance": 25 }, { "item": "camping", "chance": 15 } ]
      },
      "place_monster": [
        { "group": "GROUP_NECROPOLIS_VAULT3", "x": [ 1, 22 ], "y": [ 1, 22 ], "repeat": [ 3, 5 ] },
        { "group": "GROUP_NECROPOLIS_VAULT3", "x": [ 1, 22 ], "y": [ 1, 22 ], "repeat": [ 3, 5 ] },
        { "group": "GROUP_NECROPOLIS_VAULT3", "x": [ 25, 46 ], "y": [ 1, 22 ], "repeat": [ 3, 5 ] },
        { "group": "GROUP_NECROPOLIS_VAULT3", "x": [ 25, 46 ], "y": [ 1, 22 ], "repeat": [ 3, 5 ] },
        { "group": "GROUP_NECROPOLIS_VAULT3", "x": [ 49, 70 ], "y": [ 1, 22 ], "repeat": [ 4, 7 ] },
        { "group": "GROUP_NECROPOLIS_VAULT3", "x": [ 49, 70 ], "y": [ 1, 22 ], "repeat": [ 4, 7 ] },
        { "group": "GROUP_NECROPOLIS_VAULT3", "x": [ 1, 22 ], "y": [ 25, 46 ], "repeat": [ 4, 7 ] },
        { "group": "GROUP_NECROPOLIS_VAULT3", "x": [ 1, 22 ], "y": [ 25, 46 ], "repeat": [ 4, 7 ] },
        { "group": "GROUP_NECROPOLIS_VAULT3", "x": [ 25, 46 ], "y": [ 25, 46 ], "repeat": [ 3, 6 ] },
        { "group": "GROUP_NECROPOLIS_VAULT3", "x": [ 25, 46 ], "y": [ 25, 46 ], "repeat": [ 3, 6 ] },
        { "group": "GROUP_NECROPOLIS_VAULT3", "x": [ 49, 70 ], "y": [ 25, 46 ], "repeat": [ 3, 5 ] },
        { "group": "GROUP_NECROPOLIS_VAULT3", "x": [ 49, 70 ], "y": [ 25, 46 ], "repeat": [ 3, 5 ] }
      ]
    },
    "om_terrain": [
      [ "necropolis_d_40", "necropolis_d_41", "necropolis_d_42" ],
      [ "necropolis_d_49", "necropolis_d_50", "necropolis_d_51" ]
    ],
    "type": "mapgen",
    "weight": 250,
    "id": "189dda02-0898-4630-bd31-3491b93d2afd"
  },
  {
    "method": "json",
    "object": {
      "fill_ter": "t_floor",
      "rows": [
        "          PPPP                                                b|........",
        "          PPPP                                                b|........",
        "           PP                                              bbbP|........",
        "-[-|          G     |-+-|-+-|-+-|-|--|   |--|-|-|--|    |------|........",
        "L @|-|--|      |--|-|L @|L @|L @|S|@@|   |@@|S|S|cL|    |...............",
        "c @|t|cL|      |@@|S|c @|c @|c @|    [   [    |    [    |...............",
        "- -|    [      [    |- -|- -|- -|t|cL|   |Lc|t|t|@@|    |...............",
        "t S|S|@@|      |Lc|t|t S|t S|t S|-|--|   |----|-|--|    |...............",
        "---|-|--|      |--|-|---|---|---|S|@@|   |@@|S|S|cL|    |...............",
        "...|t|cL|      |@@|S|...........|    [   [    |    [    |...............",
        "...|    [      [    |...........|t|cL|   |Lc|t|t|@@|    |...............",
        "---|S|@@|      |Lc|t|---|---|---|-|--|   |--|-|-|--|    |...............",
        "t S|-|--|      |--|-|t S|t S|t S|Pbbb    |@@|S|S|cL|    |...............",
        "- -|t|cL|      |@@|S|- -|- -|- -|b       [    |    [    |...............",
        "c @|    [      [    |c @|c @|c @|b       |Lc|t|t|@@|    |...............",
        "L @|S|@@|      |Lc|t|L @|L @|L @|b       |--|-|-|--|    |...............",
        "-[-|-|--|      |--|-|-[-|-[-|-[-|        |@@|S|S|cL|    |...............",
        "                                         [    |    [    |...............",
        "                                         |Lc|t|t|@@|    |...............",
        "                                         |--|-|-|--|    |...............",
        "-[-|-[-|u[[uu[[u|-[-|-[-|-[-|-[-|-[-|-[-||.........|    |...............",
        "L @|L @|P      P|L @|L @|L @|L @|L @|L @|..........|    |...............",
        "c @|c @|b      b|c @|c @|c @|c @|c @|c @|..........|    |...............",
        "- -|- -|b      b|- -|- -|- -|- -|- -|- -|..........|    |...............",
        "t S|t S|P      P|t S|t S|t S|t S|t S|t S|..........|    |...............",
        "---|---|        |---|---|---|---|---|---|----------|    |...............",
        "           G                                            |...............",
        "                                G                       |...............",
        "                                                        |...............",
        "-----------------------|-++-|-|    |---------------|    |...............",
        ".......................|EEE%|.|    |...............|    |...............",
        "---------------------|.|EEEE|.|    |.|--|--|--|--|.|    |.|--|--|--|--|.",
        "rrrrrrrrrrrrrrrrrrrrr|.|----|.|    |.| ~|@@|@@|@@|.|H[[H|.|@@|@@|@@|~ |.",
        "                    r|........|    |.| -| L| L| L|.|    |.| L| L| L|- |.",
        "  rr  rr    rr  rr  r|.|----|.|    |.| ~|[-|[-|[-|-|    |-|[-|[-|[-|~ |.",
        "  rr  rr  G rr  rr  r|.|EEEE|.|    |.| -|                          |- |.",
        "  rr  rr    rr  rr  r|.|%EEE|.|    |.|  +                          +  |.",
        "  rr  rr    rr  rr  r|.|-++-|.|    |.|--|  |--|[-|[-|  |-[|-[|-[|  |--|.",
        "  rr            rr  r|.|    |.|    |.|t +  |L@| L| L|  |L |L |L |  + t|.",
        "            5       r|.|    |.|    |.|--|  [ @|@@|@@|  |@@|@@|@@|  |--|.",
        "--------====---------|-|    |-|    |.|t +  |--|--|--|  |--|--|--|  + t|.",
        " rrrrrr     5rrrrrr          |     |.|--|  |L@|@@|@@|  |@@|@@|@@|  |--|.",
        "                    G       5|5    |.|@L|  [ @| L| L|  |L |L |L |  |L@|.",
        "                             =     |.|@ [  |--|[-|[-|  |-[|-[|-[|  [ @|.",
        "                      rr     =     |.|--|                          |--|.",
        " cffffc      cccScc   rr     =     |.|@L|                          |L@|.",
        " cffffS      ccrrcc   rr     |     |.|@ [  |--|[-|[-|[-|-[|-[|-[|  [ @|.",
        "                      cc     |     |.|--|  |L@| L| L| L|L |L |L |  |--|."
      ],
      "palettes": [ "necropolis_b3" ],
      "terrain": { "2": "t_sewage_pipe", "7": "t_chainfence_h", "X": "t_grate" },
      "set": [
        { "square": "radiation", "amount": [ 5, 10 ], "x": 0, "x2": 23, "y": 0, "y2": 23 },
        { "square": "radiation", "amount": [ 5, 10 ], "x": 24, "x2": 47, "y": 0, "y2": 23 },
        { "square": "radiation", "amount": [ 5, 10 ], "x": 48, "x2": 71, "y": 0, "y2": 23 },
        { "square": "radiation", "amount": [ 5, 10 ], "x": 0, "x2": 23, "y": 24, "y2": 47 },
        { "square": "radiation", "amount": [ 5, 10 ], "x": 24, "x2": 47, "y": 24, "y2": 47 },
        { "square": "radiation", "amount": [ 5, 10 ], "x": 48, "x2": 71, "y": 24, "y2": 47 }
      ],
      "items": {
        "L": { "item": "traveler", "chance": 25 },
        "r": [ { "item": "kitchen", "chance": 25 }, { "item": "MRE", "chance": 10 } ]
      },
      "place_monster": [
        { "group": "GROUP_NECROPOLIS_VAULT3", "x": [ 1, 22 ], "y": [ 1, 22 ], "repeat": [ 4, 7 ] },
        { "group": "GROUP_NECROPOLIS_VAULT3", "x": [ 1, 22 ], "y": [ 1, 22 ], "repeat": [ 4, 7 ] },
        { "group": "GROUP_NECROPOLIS_VAULT3", "x": [ 25, 46 ], "y": [ 1, 22 ], "repeat": [ 4, 7 ] },
        { "group": "GROUP_NECROPOLIS_VAULT3", "x": [ 25, 46 ], "y": [ 1, 22 ], "repeat": [ 4, 7 ] },
        { "group": "GROUP_NECROPOLIS_VAULT3", "x": [ 49, 70 ], "y": [ 1, 22 ], "repeat": [ 2, 5 ] },
        { "group": "GROUP_NECROPOLIS_VAULT3", "x": [ 49, 70 ], "y": [ 1, 22 ], "repeat": [ 2, 5 ] },
        { "group": "GROUP_NECROPOLIS_VAULT3", "x": [ 1, 22 ], "y": [ 25, 46 ], "repeat": [ 2, 5 ] },
        { "group": "GROUP_NECROPOLIS_VAULT3", "x": [ 1, 22 ], "y": [ 25, 46 ], "repeat": [ 2, 5 ] },
        { "group": "GROUP_NECROPOLIS_VAULT3", "x": [ 25, 46 ], "y": [ 25, 46 ], "repeat": [ 3, 5 ] },
        { "group": "GROUP_NECROPOLIS_VAULT3", "x": [ 25, 46 ], "y": [ 25, 46 ], "repeat": [ 3, 5 ] },
        { "group": "GROUP_NECROPOLIS_VAULT3", "x": [ 49, 70 ], "y": [ 25, 46 ], "repeat": [ 4, 7 ] },
        { "group": "GROUP_NECROPOLIS_VAULT3", "x": [ 49, 70 ], "y": [ 25, 46 ], "repeat": [ 4, 7 ] }
      ]
    },
    "om_terrain": [
      [ "necropolis_d_43", "necropolis_d_44", "necropolis_d_45" ],
      [ "necropolis_d_52", "necropolis_d_53", "necropolis_d_54" ]
    ],
    "type": "mapgen",
    "weight": 250,
    "id": "86600184-6261-47d4-9989-8a15cac97ff7"
  },
  {
    "method": "json",
    "object": {
      "fill_ter": "t_floor",
      "rows": [
        "|r@@L  L@@r@@L  L@@r|.|   |.|r@@L  L@@r@@L  L@@r|.|S|@@|       b|c @|c @",
        "|r        r        r|.|   |.|r        r        r|.|    [       b|- -|- -",
        "|r@@L  L@@r@@L  L@@r|-|   |-|r@@L  L@@r@@L  L@@r|.|t|cL|    bbbP|t S|t S",
        "|                    [     [                    |.|-|--|   |--|-|---|---",
        "|                    v     v                    |.|S|@@|   |@@|S|.......",
        "|                    [     [                    |.|    [   [    |.......",
        "|r@@L  L@@r@@L  L@@r|-|   |-|r@@L  L@@r@@L  L@@r|.|t|cL|   |Lc|t|---|---",
        "|r        r        r|.|   |.|r        r        r|.|-|--|   |--|-|t S|t S",
        "|r@@L  L@@r@@L  L@@r|.|   |.|r@@L  L@@r@@L  L@@r|.|S|@@|   |@@|S|- -|- -",
        "|-------------------|.|   |.|-------------------|.|    [   [    |c @|c @",
        "......................|   ||......................|t|cL|   |Lc|t|L @|L @",
        "......................|    |----------------------|-|--|   |--|-|-[-|-[-",
        "......................|                                                 ",
        "......................|  G                                              ",
        "......................|                                                 ",
        "......................|                                                 ",
        "......................|    |----------------------|-|--|   |--|-|-[-|-[-",
        "......................|   ||......................|t|cL|   |Lc|t|L @|L @",
        "|-------------------|.|   |.|-------------------|.|    [   [    |c @|c @",
        "|r@@L  L@@r@@L  L@@r|.|   |.|r@@L  L@@r@@L  L@@r|.|S|@@|   |@@|S|- -|- -",
        "|r        r        r|.|   |.|r        r        r|.|-|--|   |--|-|t S|t S",
        "|r@@L  L@@r@@L  L@@r|-|   |-|r@@L  L@@r@@L  L@@r|.|t|cL|   |Lc|t|---|---",
        "|                    [     [                    |.|    [   [    |.......",
        "|                    v     v                    |.|S|@@|   |@@|S|.......",
        "|                    [     [                    |.|-|--|   |--|-|---|---",
        "|r@@L  L@@r@@L  L@@r|-|   |-|r@@L  L@@r@@L  L@@r|.|t|cL|    bbbP|t S|t S",
        "|r        r        r|.|   |.|r        r        r|.|    [       b|- -|- -",
        "|r@@L  L@@r@@L  L@@r|.|   |.|r@@L  L@@r@@L  L@@r|.|S|@@|       b|c @|c @",
        "|-------------------|.|   |.|-------------------|.|-|--|       b|L @|L @",
        "......................|   |.......................|t|cL|        |-[-|-[-",
        "|-------------------|.|   |.|-------------------|.|    [                ",
        "|r@@L  L@@r@@L  L@@r|.|   |.|r@@L  L@@r@@L  L@@r|.|S|@@|                ",
        "|r        r        r|.|   |.|r        r        r|.|-|--|                ",
        "|r@@L  L@@r@@L  L@@r|-| G |-|r@@L  L@@r@@L  L@@r|......||-[-|-[-|-[-|-[-",
        "|                    [     [                    |.......|L @|L @|L @|L @",
        "|                    v     v                    |.......|c @|c @|c @|c @",
        "|                    [     [                    |.......|- -|- -|- -|- -",
        "|r@@L  L@@r@@L  L@@r|-|   |-|r@@L  L@@r@@L  L@@r|.......|t S|t S|t S|t S",
        "|r        r        r|.|   |.|r        r        r|.......|---|---|---|---",
        "|r@@L  L@@r@@L  L@@r|.|   |.|r@@L  L@@r@@L  L@@r|.......................",
        "|-------------------|.|   |.|-------------------|.......................",
        "......................|   |.............................................",
        "|-------------------|.|   |...........................|---|.....|---|...",
        "|r@@L  L@@r@@L  L@@r|.|   |...........................|EEE|.....|EEE|...",
        "|r        r        r|.|   |...........................|%EE|-----|EE%|...",
        "|r@@L  L@@r@@L  L@@r|-|   |.........................|-|-++|     |++-|-|.",
        "|                    [    |.........................|                 |.",
        "|                    v    |.................|-------|        G        |-"
      ],
      "palettes": [ "necropolis_b3" ],
      "terrain": { "2": "t_sewage_pipe", "7": "t_chainfence_h", "X": "t_grate" },
      "set": [
        { "square": "radiation", "amount": [ 5, 10 ], "x": 0, "x2": 23, "y": 0, "y2": 23 },
        { "square": "radiation", "amount": [ 5, 10 ], "x": 24, "x2": 47, "y": 0, "y2": 23 },
        { "square": "radiation", "amount": [ 5, 10 ], "x": 48, "x2": 71, "y": 0, "y2": 23 },
        { "square": "radiation", "amount": [ 5, 10 ], "x": 0, "x2": 23, "y": 24, "y2": 47 },
        { "square": "radiation", "amount": [ 5, 10 ], "x": 24, "x2": 47, "y": 24, "y2": 47 },
        { "square": "radiation", "amount": [ 5, 10 ], "x": 48, "x2": 71, "y": 24, "y2": 47 }
      ],
      "items": {
        "L": { "item": "traveler", "chance": 25 },
        "c": { "item": "bedroom", "chance": 15 },
        "r": { "item": "allclothes", "chance": 25 }
      },
      "place_monster": [
        { "group": "GROUP_NECROPOLIS_VAULT3", "x": [ 1, 22 ], "y": [ 1, 22 ], "repeat": [ 3, 6 ] },
        { "group": "GROUP_NECROPOLIS_VAULT3", "x": [ 1, 22 ], "y": [ 1, 22 ], "repeat": [ 3, 6 ] },
        { "group": "GROUP_NECROPOLIS_VAULT3", "x": [ 25, 46 ], "y": [ 1, 22 ], "repeat": [ 3, 6 ] },
        { "group": "GROUP_NECROPOLIS_VAULT3", "x": [ 25, 46 ], "y": [ 1, 22 ], "repeat": [ 3, 6 ] },
        { "group": "GROUP_NECROPOLIS_VAULT3", "x": [ 49, 70 ], "y": [ 1, 22 ], "repeat": [ 4, 7 ] },
        { "group": "GROUP_NECROPOLIS_VAULT3", "x": [ 49, 70 ], "y": [ 1, 22 ], "repeat": [ 4, 7 ] },
        { "group": "GROUP_NECROPOLIS_VAULT3", "x": [ 1, 22 ], "y": [ 25, 46 ], "repeat": [ 4, 7 ] },
        { "group": "GROUP_NECROPOLIS_VAULT3", "x": [ 1, 22 ], "y": [ 25, 46 ], "repeat": [ 4, 7 ] },
        { "group": "GROUP_NECROPOLIS_VAULT3", "x": [ 25, 46 ], "y": [ 25, 46 ], "repeat": [ 3, 6 ] },
        { "group": "GROUP_NECROPOLIS_VAULT3", "x": [ 25, 46 ], "y": [ 25, 46 ], "repeat": [ 3, 6 ] },
        { "group": "GROUP_NECROPOLIS_VAULT3", "x": [ 49, 70 ], "y": [ 25, 46 ], "repeat": [ 4, 7 ] },
        { "group": "GROUP_NECROPOLIS_VAULT3", "x": [ 49, 70 ], "y": [ 25, 46 ], "repeat": [ 4, 7 ] }
      ]
    },
    "om_terrain": [
      [ "necropolis_d_55", "necropolis_d_56", "necropolis_d_57" ],
      [ "necropolis_d_64", "necropolis_d_65", "necropolis_d_66" ]
    ],
    "type": "mapgen",
    "weight": 250,
    "id": "e2bb36b3-a1e3-4a75-b177-f2d428a5e7a5"
  },
  {
    "method": "json",
    "object": {
      "fill_ter": "t_floor",
      "rows": [
        "|c @|    [      [    |c @|c @|c @|b       |Lc|t|........|    |-|    cc  ",
        "|- -|t|cL|      |@@|S|- -|- -|- -|b       [    |........|    |.|c   cc  ",
        "|t S|-|--|      |--|-|t S|t S|t S|Pbbb    |@@|S|........|    |.|c   cc  ",
        "|---|S|@@|      |Lc|t|---|---|---|-|--|   |--|-|........|    |.|S   cc  ",
        "....|    [      [    |...........|t|cL|   |Lc|t|........|    |.|c      G",
        "....|t|cL|      |@@|S|...........|    [   [    |........|    |.|c       ",
        "|---|-|--|      |--|-|---|---|---|S|@@|   |@@|S|........|    |.|c       ",
        "|t S|S|@@|      |Lc|t|t S|t S|t S|-|--|   |----|........|    |.|ccRcOOOc",
        "|- -|    [      [    |- -|- -|- -|t|cL|   |Lc|t|........|    |.|--------",
        "|c @|t|cL|      |@@|S|c @|c @|c @|    [   [    |........|    |..........",
        "|L @|-|--|      |--|-|L @|L @|L @|S|@@|   |@@|S|.......||    |...|------",
        "|-[-|          G     |-[-|-[-|-[-|-|--|   |--|-|-------|     |.|-|      ",
        "            PP                                               |-|  G     ",
        "           PPPP                                          G    +        h",
        "           PPPP                                               +       hn",
        "            PP                                               |-|     hnn",
        "|-[-|     G          |-[-|-[-|-[-|-|--|   |--|-|-------|     |.|    hnn ",
        "|L @|-|--|      |--|-|L @|L @|L @|S|@@|   |@@|S|.......||    |.|    hnn ",
        "|c @|t|cL|      |@@|S|c @|c @|c @|    [   [    |........|    |.|    hnn ",
        "|- -|    [      [    |- -|- -|- -|t|cL|   |Lc|t|........|    |.|    hnn ",
        "|t S|S|@@|      |Lc|t|t S|t S|t S|-|--|   |----|........|    |.|    hnn ",
        "|---|-|--|      |--|-|---|---|---|S|@@|   |@@|S|........|    |.|    hnn ",
        "....|t|cL|      |@@|S|...........|    [   [    |........|    |.|    hnn ",
        "....|    [      [    |...........|t|cL|   |Lc|t|........|    |.|    hnn ",
        "|---|S|@@|      |Lc|t|---|---|---|-|--|   |--|-|........|    |.|     hnn",
        "|t S|-|--|      |--|-|t S|t S|t S|Pbbb    |@@|S|........|    |.|      hn",
        "|- -|t|cL|      |@@|S|- -|- -|- -|b       [    |........|    |.||      h",
        "|c @|    [      [    |c @|c @|c @|b       |Lc|t|........|    |..|| G    ",
        "|L @|S|@@|      |Lc|t|L @|L @|L @|b       |--|-|........|    |...||     ",
        "|-[-|-|--|      |--|-|-[-|-[-|-[-|        |@@|S|........|    |....||    ",
        "                                          [    |........|    |.....|----",
        "                                          |Lc|t|........|    |..........",
        "             G                            |--|-|........|    |----------",
        "|-[-|-[-|HH-[[-HH|-[-|-[-|-[-|-[-|-[-|-[-||.............|               ",
        "|L @|L @|        |L @|L @|L @|L @|L @|L @|..............|               ",
        "|c @|c @|        |c @|c @|c @|c @|c @|c @|..............|               ",
        "|- -|- -|        |- -|- -|- -|- -|- -|- -|..............|-----|     5 |-",
        "|t S|t S|        |t S|t S|t S|t S|t S|t S|....................|--===--|.",
        "|---|---|-|    |-|---|---|---|---|---|---|.|------------------|     5 |-",
        "..........|    |...........................|//__////___$$00$$/,       V6",
        "..........|    |..............|------|.....|//__////___6$//$$/,       Vk",
        "|---------|    |..............|rrrrrr|.....|///6//////////////,       [ ",
        "|              |..............|      |-----|,,,,,,,,,,,,,,,,,,,       V ",
        "|       G      |..............|r     =       G                    G   |-",
        "|              |..............|r     =                                V ",
        "|   |----------|..............|     5|5  |-|779778,,,,,,,,,,,,,       [ ",
        "|   |.........................|rrrrrr|   |.|/////8/////////$$/,       Vk",
        "|   |-|.......................|------|   |.|rrrrr8///__6///$$/,       Vk"
      ],
      "palettes": [ "necropolis_b3" ],
      "terrain": { "2": "t_sewage_pipe", "7": "t_chainfence_h", "R": "t_metal_floor", "X": "t_grate" },
      "furniture": { "R": "f_rack" },
      "set": [
        { "square": "radiation", "amount": [ 5, 10 ], "x": 0, "x2": 23, "y": 0, "y2": 23 },
        { "square": "radiation", "amount": [ 5, 10 ], "x": 24, "x2": 47, "y": 0, "y2": 23 },
        { "square": "radiation", "amount": [ 5, 10 ], "x": 48, "x2": 71, "y": 0, "y2": 23 },
        { "square": "radiation", "amount": [ 5, 10 ], "x": 0, "x2": 23, "y": 24, "y2": 47 },
        { "square": "radiation", "amount": [ 5, 10 ], "x": 24, "x2": 47, "y": 24, "y2": 47 },
        { "square": "radiation", "amount": [ 5, 10 ], "x": 48, "x2": 71, "y": 24, "y2": 47 }
      ],
      "items": {
        "R": [ { "item": "kitchen", "chance": 25 }, { "item": "MRE", "chance": 10 } ],
        "n": { "item": "office", "chance": 10 },
        "r": [ { "item": "tools_construction", "chance": 25 }, { "item": "acetylene_production", "chance": 10 } ]
      },
      "place_monster": [
        { "group": "GROUP_NECROPOLIS_VAULT3", "x": [ 1, 22 ], "y": [ 1, 22 ], "repeat": [ 4, 8 ] },
        { "group": "GROUP_NECROPOLIS_VAULT3", "x": [ 1, 22 ], "y": [ 1, 22 ], "repeat": [ 4, 8 ] },
        { "group": "GROUP_NECROPOLIS_VAULT3", "x": [ 25, 46 ], "y": [ 1, 22 ], "repeat": [ 4, 7 ] },
        { "group": "GROUP_NECROPOLIS_VAULT3", "x": [ 25, 46 ], "y": [ 1, 22 ], "repeat": [ 4, 7 ] },
        { "group": "GROUP_NECROPOLIS_VAULT3", "x": [ 49, 70 ], "y": [ 1, 22 ], "repeat": [ 3, 5 ] },
        { "group": "GROUP_NECROPOLIS_VAULT3", "x": [ 49, 70 ], "y": [ 1, 22 ], "repeat": [ 3, 5 ] },
        { "group": "GROUP_NECROPOLIS_VAULT3", "x": [ 1, 22 ], "y": [ 25, 46 ], "repeat": [ 4, 7 ] },
        { "group": "GROUP_NECROPOLIS_VAULT3", "x": [ 1, 22 ], "y": [ 25, 46 ], "repeat": [ 4, 7 ] },
        { "group": "GROUP_NECROPOLIS_VAULT3", "x": [ 25, 46 ], "y": [ 25, 46 ], "repeat": [ 4, 7 ] },
        { "group": "GROUP_NECROPOLIS_VAULT3", "x": [ 25, 46 ], "y": [ 25, 46 ], "repeat": [ 4, 7 ] },
        { "group": "GROUP_NECROPOLIS_VAULT3", "x": [ 49, 70 ], "y": [ 25, 46 ], "repeat": [ 3, 5 ] },
        { "group": "GROUP_NECROPOLIS_VAULT3", "x": [ 49, 70 ], "y": [ 25, 46 ], "repeat": [ 3, 5 ] }
      ]
    },
    "om_terrain": [
      [ "necropolis_d_58", "necropolis_d_59", "necropolis_d_60" ],
      [ "necropolis_d_67", "necropolis_d_68", "necropolis_d_69" ]
    ],
    "type": "mapgen",
    "weight": 250,
    "id": "a04d088c-cec1-47d6-bafa-aa75ba42426c"
  },
  {
    "method": "json",
    "object": {
      "fill_ter": "t_floor",
      "rows": [
        "                      CC    |-|    |.|t +  [ @|@@|@@|@@|@@|@@|@@|  + t|.",
        " ccSccc      cffffS   OO   C|.|    |.|--|  |--|--|--|--|--|--|--|  |--|.",
        " crrccc      cffffc   OO   C|.|    |.|t +  [ @|@@|@@|@@|@@|@@|@@|  + t|.",
        "                      CC   S|.|    |.|--|  |L@| L| L| L|L |L |L |  |--|.",
        "                    G      C|.|    |.|@ [  |--|[-|[-|[-|-[|-[|-[|  [ @|.",
        "                           C|.|    |.|@L|                          |L@|.",
        "                           C|.|    |.|--|                          |--|.",
        "CCOOOCCCOOOCCCrrrr      CrCC|.|    |.|@ [  |--|[-|[-|  |-[|-[|-[|  [ @|.",
        "-------------------|  |-----|.|    |.|@L|  [ @| L| L|  |L |L |L |  |L@|.",
        "...................|++|.......|    |.|--|  |L@|@@|@@|  |@@|@@|@@|  |--|.",
        "-------------------|  |---|...|    |.|t +  |--|--|--|  |--|--|--|  + t|.",
        "                          |-|.|    |.|--|  [ @|@@|@@|  |@@|@@|@@|  |--|.",
        "                         G  |-|    |.|t +  |L@| L| L|  |L |L |L |  + t|.",
        "nn    hhhhhhhh    nnh        +     |.|--|  |--|[-|[-|  |-[|-[|-[|  |--|.",
        "n    hnnnnnnnnh    nnh       +     |.|  +                          +  |.",
        "    hnnnnnnnnnnh    nnh     |-|    |.| -|                          |- |.",
        "   hnnn      nnnh    nnh    |.|    |.| ~|[-|[-|[-|-|    |-|[-|[-|[-|~ |.",
        "   hnn    G   nnh    nnh    |.|    |.| -| L| L| L|.|    |.| L| L| L|- |.",
        "   hnn        nnh    nnh    |.|    |.| ~|@@|@@|@@|.|H[[H|.|@@|@@|@@|~ |.",
        "   hnn   66   nnh    nnh    |.|    |.|--|--|--|--|.|    |.|--|--|--|--|.",
        "   hnn   66   nnh    nnh    |.|    ||..............|    |...............",
        "   hnn        nnh    nnh    |.|     |--------------|    |...............",
        "   hnn   G    nnh    nnh    |.|                         |...............",
        "   hnnn      nnnh    nnh    |.|                         |...............",
        "    hnnn    nnnh    nnh     |.|                         |...............",
        "n    hnn    nnh    nnh      |.|     |--|-vvv-[[-vvv-|---|...............",
        "nn                nnh      ||.|    ||..|c          c|...................",
        "hnn              nnh    G ||..|    |...|S h      h S|...................",
        "                         ||...|    |...|c          c|...................",
        "                        ||....|    |...|c          c|...................",
        "-----|      5 |---------|.....|    |...|S h      h S|...................",
        ".....|--====--|..............||    ||..|c          c|...................",
        "-----|      5 |--------------|      |--|-vvv-[[-vvv-|--------------|....",
        "                                                                   |--|.",
        "          G                     G                                  v  |.",
        "                                       Pbbbbb  bbbbbP              [ <|.",
        "-------|    |-----------|     5 |-------------------------------|  v  |.",
        ".......|    |...........|--===--|...............................|  |--|.",
        "--|....|    |.|---------|     5 |---------|....|-|-|-|-|-|-|....|  |....",
        "k |....|    |.|                           |....|t|t|t|t|t|t|....|  |....",
        "h |....|    |.|                           |....| | | | | | |....|  |....",
        "  |.|--|    |.|             G             |----|+|+|+|+|+|+|----|  |....",
        " o|.|E%|    |.|   ,,,,,,,,,,,,,,,,,,,,,   |CSCS|           |SCSC|  X....",
        "--|.|EE=    |.|b  ,    ,  , 7 ,  ,    ,  b|                     |  XX-|.",
        " o|.|EE=    |.|b  ,    ,  ,   ,  ,    ,  b|                     |   XX|.",
        "  |.|--|    |.|b  ,    ,  ,,,,,  ,    ,  b|  |-|1          |-|  |   X...",
        "h |.|EE=    |.|b  ,    ,         ,    ,  b|  |.|1 b 1|1 b 1|.|  |   XX..",
        "6 |.|EE=    |.|b  ,    ,         ,    ,  b|  |.|1 b 1|1 b 1|.|  |  X..|."
      ],
      "palettes": [ "necropolis_b3" ],
      "terrain": { "1": "t_metal_floor", "2": "t_sewage_pipe", "7": "t_chainfence_h", "C": "t_metal_floor", "X": "t_grate" },
      "furniture": { "1": "f_locker", "C": "f_counter" },
      "set": [
        { "square": "radiation", "amount": [ 25, 50 ], "x": 0, "x2": 23, "y": 0, "y2": 23 },
        { "square": "radiation", "amount": [ 25, 50 ], "x": 24, "x2": 47, "y": 0, "y2": 23 },
        { "square": "radiation", "amount": [ 25, 50 ], "x": 48, "x2": 71, "y": 0, "y2": 23 },
        { "square": "radiation", "amount": [ 25, 50 ], "x": 0, "x2": 23, "y": 24, "y2": 47 },
        { "square": "radiation", "amount": [ 25, 50 ], "x": 24, "x2": 47, "y": 24, "y2": 47 },
        { "square": "radiation", "amount": [ 25, 50 ], "x": 48, "x2": 71, "y": 24, "y2": 47 }
      ],
      "items": {
        "1": { "item": "sports", "chance": 50 },
        "L": { "item": "traveler", "chance": 25 },
        "c": { "item": "beauty", "chance": 25 },
        "n": { "item": "office", "chance": 10 }
      },
      "place_monster": [
        { "group": "GROUP_NECROPOLIS_VAULT3", "x": [ 1, 22 ], "y": [ 1, 22 ], "repeat": [ 2, 5 ] },
        { "group": "GROUP_NECROPOLIS_VAULT3", "x": [ 1, 22 ], "y": [ 1, 22 ], "repeat": [ 2, 5 ] },
        { "group": "GROUP_NECROPOLIS_VAULT3", "x": [ 25, 46 ], "y": [ 1, 22 ], "repeat": [ 3, 5 ] },
        { "group": "GROUP_NECROPOLIS_VAULT3", "x": [ 25, 46 ], "y": [ 1, 22 ], "repeat": [ 3, 5 ] },
        { "group": "GROUP_NECROPOLIS_VAULT3", "x": [ 49, 70 ], "y": [ 1, 22 ], "repeat": [ 4, 7 ] },
        { "group": "GROUP_NECROPOLIS_VAULT3", "x": [ 49, 70 ], "y": [ 1, 22 ], "repeat": [ 4, 7 ] },
        { "group": "GROUP_NECROPOLIS_VAULT3", "x": [ 1, 22 ], "y": [ 25, 46 ], "repeat": [ 2, 5 ] },
        { "group": "GROUP_NECROPOLIS_VAULT3", "x": [ 1, 22 ], "y": [ 25, 46 ], "repeat": [ 2, 5 ] },
        { "group": "GROUP_NECROPOLIS_VAULT3", "x": [ 25, 46 ], "y": [ 25, 46 ], "repeat": [ 2, 5 ] },
        { "group": "GROUP_NECROPOLIS_VAULT3", "x": [ 25, 46 ], "y": [ 25, 46 ], "repeat": [ 2, 5 ] },
        { "group": "GROUP_NECROPOLIS_VAULT3", "x": [ 49, 70 ], "y": [ 25, 46 ], "repeat": [ 2, 5 ] },
        { "group": "GROUP_NECROPOLIS_VAULT3", "x": [ 49, 70 ], "y": [ 25, 46 ], "repeat": [ 2, 5 ] }
      ]
    },
    "om_terrain": [
      [ "necropolis_d_61", "necropolis_d_62", "necropolis_d_63" ],
      [ "necropolis_d_70", "necropolis_d_71", "necropolis_d_72" ]
    ],
    "type": "mapgen",
    "weight": 250,
    "id": "1d16c22a-63e7-4880-9ad4-03fb78ee4d54"
  },
  {
    "method": "json",
    "object": {
      "fill_ter": "t_floor",
      "rows": [
        "|                    [    |..............|--|                           ",
        "|r@@L  L@@r@@L  L@@r|-|   |..............|EE+                           ",
        "|r        r        r|.|   |..............|EE+                           ",
        "|r@@L  L@@r@@L  L@@r|.|   |......|--|--|.|E%|     |-HHH-HH-|   |-HH-HHH-",
        "|-------------------|.|   |------|  |  |-|--|     |P       |[-[|       P",
        "......................|             =             V                     ",
        "......................|  G          =          G  V  o   o   G   o   o  ",
        "......................|             =             V  ooooo   6   ooooo  ",
        "......................|-+-|-+-|--| 5|5 |--|uu|    |  o   o   c   o   o  ",
        "......................|   |   |..|--|--|..|  v    V          c          ",
        "......................|   |   |...........|< [    V          6          ",
        ".............|-|-|-|-||   |   ||-|-|-|-|..|  v    V  o   o   c   o   o  ",
        ".............|t|t|t|t|D  S|S  D|t|t|t|t|..|--|    |  ooooo   c   ooooo  ",
        ".............|+|+|+|+|   S|S   |+|+|+|+|.....|-[[-|  o   o   6   o   o  ",
        ".............|           S|S           |.|---|                          ",
        ".............|           S|S           |.|                   G          ",
        ".............|+|+|+|+|D  S|S  D|+|+|+|+|.| ooo    ooo   ooo     ooo   oo",
        ".............|t|t|t|t|----|----|t|t|t|t|.|  o      o     o       o     o",
        ".............|-|-|-|-|.........|-|-|-|-|.|  o      o     o       o     o",
        ".........................................| ooo    ooo   ooo     ooo   oo",
        ".........................................|                              ",
        ".........................................|---|oooo   ooo   ooooo   ooo  ",
        ".............................................|--------------------------",
        "........................................................................"
      ],
      "palettes": [ "necropolis_b3" ],
      "terrain": { "2": "t_sewage_pipe", "7": "t_chainfence_h", "X": "t_grate" },
      "set": [
        { "square": "radiation", "amount": [ 5, 10 ], "x": 0, "x2": 23, "y": 0, "y2": 23 },
        { "square": "radiation", "amount": [ 5, 10 ], "x": 24, "x2": 47, "y": 0, "y2": 23 },
        { "square": "radiation", "amount": [ 5, 10 ], "x": 48, "x2": 71, "y": 0, "y2": 23 }
      ],
      "items": {
        "L": { "item": "traveler", "chance": 25 },
        "o": [ { "item": "textbooks", "chance": 25 }, { "item": "manuals", "chance": 25 } ],
        "r": { "item": "allclothes", "chance": 25 }
      },
      "place_monster": [
        { "group": "GROUP_NECROPOLIS_VAULT3", "x": [ 1, 22 ], "y": [ 1, 22 ], "repeat": [ 1, 5 ] },
        { "group": "GROUP_NECROPOLIS_VAULT3", "x": [ 1, 22 ], "y": [ 1, 22 ], "repeat": [ 1, 5 ] },
        { "group": "GROUP_NECROPOLIS_VAULT3", "x": [ 25, 46 ], "y": [ 1, 22 ], "repeat": [ 2, 5 ] },
        { "group": "GROUP_NECROPOLIS_VAULT3", "x": [ 25, 46 ], "y": [ 1, 22 ], "repeat": [ 2, 5 ] },
        { "group": "GROUP_NECROPOLIS_VAULT3", "x": [ 49, 70 ], "y": [ 1, 22 ], "repeat": [ 2, 5 ] },
        { "group": "GROUP_NECROPOLIS_VAULT3", "x": [ 49, 70 ], "y": [ 1, 22 ], "repeat": [ 2, 5 ] }
      ]
    },
    "om_terrain": [ [ "necropolis_d_73", "necropolis_d_74", "necropolis_d_75" ] ],
    "type": "mapgen",
    "weight": 250,
    "id": "808130ca-8faf-4850-a676-2724c41f570b"
  },
  {
    "method": "json",
    "object": {
      "fill_ter": "t_floor",
      "rows": [
        "      |--|...........................|  5|.|--------------------------|-",
        "      +EE|...........................|-=-|..............................",
        "      +EE|...........................|  6|..............................",
        "|     |%E|.|--|--|...................|   |..............................",
        "|     |--|-|  |  |-------------------|   |------------------------------",
        "V             =                                                         ",
        "v  G          =  G                                                      ",
        "V             =                                                         ",
        "|    |uu|--| 5|  |------------------|     5 |--------------------|     5",
        "V    v  |..|--|--|..................|--===--|....................|--===-",
        "V    [ <|......................|----|       |----|..........|----|     5",
        "V    v  |......................|////,   G   ,////|----------|////,   G  ",
        "|    |--|...................|--|78//,,,,,,,,,//////,6,///////////,,,,,,,",
        "|-[[-|......................|rrrr8/////////////////,,,//////////////////",
        "     |---|..................|////9//,,,,//,,,,////////,,,,,,,,,,////////",
        "         |..................|r///8//,63,//,63,////////,33//$6$_,//,,,,//",
        "o    ooo |..................|////9//,22,//,22,////////,3300$___,//,$6,//",
        "      o  |..................|rrrr8//,11,//,11,////////,,,,,,,,,,//,$$,//",
        "      o  |..................|--|78//,33,//,33,////////////////////,$$,//",
        "o    ooo |.....................|////,,,,//,,,,///|----------|/////,,,,//",
        "         |.....................|----|///////|----|..........|----|//////",
        " oooo|---|..........................|-------|....................|------",
        "-----|..................................................................",
        "........................................................................"
      ],
      "palettes": [ "necropolis_b3" ],
      "terrain": { "2": "t_sewage_pipe", "3": "t_machinery_heavy", "7": "t_chainfence_h", "X": "t_grate" },
      "set": [
        { "square": "radiation", "amount": [ 5, 10 ], "x": 0, "x2": 23, "y": 0, "y2": 23 },
        { "square": "radiation", "amount": [ 5, 10 ], "x": 24, "x2": 47, "y": 0, "y2": 23 },
        { "square": "radiation", "amount": [ 5, 10 ], "x": 48, "x2": 71, "y": 0, "y2": 23 }
      ],
      "items": {
        "o": [ { "item": "textbooks", "chance": 25 }, { "item": "manuals", "chance": 25 } ],
        "r": { "item": "tools_common", "chance": 25, "repeat": 2 }
      },
      "place_monster": [
        { "group": "GROUP_NECROPOLIS_VAULT3", "x": [ 1, 22 ], "y": [ 1, 22 ], "repeat": [ 2, 5 ] },
        { "group": "GROUP_NECROPOLIS_VAULT3", "x": [ 1, 22 ], "y": [ 1, 22 ], "repeat": [ 2, 5 ] },
        { "group": "GROUP_NECROPOLIS_VAULT3", "x": [ 25, 46 ], "y": [ 1, 22 ], "repeat": [ 2, 5 ] },
        { "group": "GROUP_NECROPOLIS_VAULT3", "x": [ 25, 46 ], "y": [ 1, 22 ], "repeat": [ 2, 5 ] },
        { "group": "GROUP_NECROPOLIS_VAULT3", "x": [ 49, 70 ], "y": [ 1, 22 ], "repeat": [ 2, 5 ] },
        { "group": "GROUP_NECROPOLIS_VAULT3", "x": [ 49, 70 ], "y": [ 1, 22 ], "repeat": [ 2, 5 ] }
      ]
    },
    "om_terrain": [ [ "necropolis_d_76", "necropolis_d_77", "necropolis_d_78" ] ],
    "type": "mapgen",
    "weight": 250,
    "id": "08351ed9-1923-473e-8b73-ed7a3829e515"
  },
  {
    "method": "json",
    "object": {
      "fill_ter": "t_floor",
      "rows": [
        "--|.|E%|    |.|   ,    ,         ,    ,   [  |.|L b L|L b L|.|  [ XX....",
        "....|--|    |.|   ,    ,         ,    ,   [  |.|L b L|L b L|.|  [ X|....",
        ".......|    |.|b  ,     ,       ,     ,  b|--|.|L         L|.|--|  ||...",
        "......||    |.|b  ,      ,     ,      ,  b|....|-----------|....|  l|...",
        "------|     |.|b  ,,,,,,,,,,,,,,,,,,,,,  b|.....................|  D|...",
        "            |.|b  ,      ,     ,      ,  b|....|-----------|....|  l|...",
        "            |.|b  ,     ,       ,     ,  b|--|.|L         L|.|--|  ||...",
        "            |.|   ,    ,         ,    ,   [  |.|L b L|L b L|.|  [  |....",
        " |----------|.|   ,    ,         ,    ,   [  |.|L b L|L b L|.|  [  |....",
        "-|............|b  ,    ,         ,    ,  b|  |.|L b L|L b L|.|  |--|....",
        " |----|.......|b  ,    ,         ,    ,  b|  |.|L b L|L b L|.|  |.......",
        " ,////|.......|b  ,    ,         ,    ,  b|  |-|L         L|-|  |.......",
        ",,//87|--|....|b  ,    ,  ,,,,,  ,    ,  b|                     |.......",
        "////8rrrr|....|b  ,    ,  , 7 ,  ,    ,  b|                     |.......",
        "////9////|....|   ,,,,,,,,,,,,,,,,,,,,,   |cScS|           |ScSc|.......",
        "////8///r|....|             G             |----|+|+|+|+|+|+|----|.......",
        "////9////|....|                           |....| | | | | | |............",
        "////8rrrr|....|                           |....|t|t|t|t|t|t|............",
        "////87|--|....|---------------------------|....|-|-|-|-|-|-|............",
        "//////|.................................................................",
        "/|----|.................................................................",
        "-|......................................................................",
        "........................................................................",
        "........................................................................"
      ],
      "palettes": [ "necropolis_b3" ],
      "terrain": { "2": "t_sewage_pipe", "7": "t_chainfence_h", "X": "t_grate" },
      "set": [
        { "square": "radiation", "amount": [ 5, 10 ], "x": 0, "x2": 23, "y": 0, "y2": 23 },
        { "square": "radiation", "amount": [ 5, 10 ], "x": 24, "x2": 47, "y": 0, "y2": 23 },
        { "square": "radiation", "amount": [ 5, 10 ], "x": 48, "x2": 71, "y": 0, "y2": 23 }
      ],
      "items": { "L": { "item": "sports", "chance": 50 }, "r": { "item": "tools_common", "chance": 25, "repeat": 2 } },
      "place_vendingmachines": [ { "item_group": "vending_food", "x": 3, "y": 67 }, { "item_group": "vending_drink", "x": 5, "y": 67 } ],
      "place_monster": [
        { "group": "GROUP_NECROPOLIS_VAULT3", "x": [ 1, 22 ], "y": [ 1, 22 ], "repeat": [ 2, 5 ] },
        { "group": "GROUP_NECROPOLIS_VAULT3", "x": [ 1, 22 ], "y": [ 1, 22 ], "repeat": [ 2, 5 ] },
        { "group": "GROUP_NECROPOLIS_VAULT3", "x": [ 25, 46 ], "y": [ 1, 22 ], "repeat": [ 2, 5 ] },
        { "group": "GROUP_NECROPOLIS_VAULT3", "x": [ 25, 46 ], "y": [ 1, 22 ], "repeat": [ 2, 5 ] },
        { "group": "GROUP_NECROPOLIS_VAULT3", "x": [ 49, 70 ], "y": [ 1, 22 ], "repeat": [ 1, 5 ] },
        { "group": "GROUP_NECROPOLIS_VAULT3", "x": [ 49, 70 ], "y": [ 1, 22 ], "repeat": [ 1, 5 ] }
      ]
    },
    "om_terrain": [ [ "necropolis_d_79", "necropolis_d_80", "necropolis_d_81" ] ],
    "type": "mapgen",
    "weight": 250,
    "id": "cd038668-a7f4-4967-9446-23fdb1751426"
  }
]
