[
  {
    "type": "palette",
    "id": "fbmk_wad_palette",
    "terrain": {
      "d": "t_door_makeshift_c",
      "B": "t_grass",
      "o": "t_wall_wattle_half",
      "w": "t_wall_wattle",
      ".": "t_dirtfloor",
      ",": "t_dirtfloor",
      "S": "t_dirtfloor",
      "a": "t_dirtfloor",
      "U": "t_rootcellar"
    },
    "furniture": {
      "b": "f_bench",
      "t": "f_table",
      "K": "f_kiln_empty",
      "a": "f_stool",
      "r": "f_rack_wood",
      "R": "f_rack",
      "h": "f_chair",
      "S": "f_smoking_rack",
      "V": "f_fvat_empty",
      "B": "f_birdbath",
      "H": "f_butcher_rack",
      "c": "f_counter",
      "p": "f_planter"
    }
  },
  {
    "type": "mapgen",
    "method": "json",
    "nested_mapgen_id": "fbmk_kitchen_room_wad",
    "object": {
      "mapgensize": [ 7, 7 ],
      "rows": [
        "wowdwow",
        "w.....w",
        "......o",
        "       ",
        "       ",
        "       ",
        "       "
      ],
      "palettes": [ "fbmk_wad_palette" ]
    },
    "id": "bef02e40-a652-45fe-8687-f3b914d3563a"
  },
  {
    "type": "mapgen",
    "update_mapgen_id": "faction_base_canteen_wad",
    "method": "json",
    "object": { "place_nested": [ { "chunks": [ "fbmk_kitchen_room_wad" ], "x": 9, "y": 7 } ] },
    "id": "97317cd8-5da1-4b97-94b2-d41605d17c79"
  },
  {
    "type": "mapgen",
    "method": "json",
    "nested_mapgen_id": "fbmk_kitchen_room2_wad",
    "object": {
      "mapgensize": [ 7, 7 ],
      "rows": [
        "       ",
        "       ",
        "       ",
        "w.....d",
        "......o",
        "w.....w",
        "wwwdwww"
      ],
      "palettes": [ "fbmk_wad_palette" ]
    },
    "id": "21c64a35-d6b0-4059-9854-61320eb42f62"
  },
  {
    "type": "mapgen",
    "update_mapgen_id": "faction_base_canteen2_wad",
    "method": "json",
    "object": { "place_nested": [ { "chunks": [ "fbmk_kitchen_room2_wad" ], "x": 9, "y": 7 } ] },
    "id": "66cc4aab-fd26-4b85-97fa-11aae823dc95"
  },
  {
    "type": "mapgen",
    "method": "json",
    "nested_mapgen_id": "fbmk_canteen_smoking_area_wad",
    "object": {
      "mapgensize": [ 7, 7 ],
      "rows": [
        ",w,w   ",
        ",,,,   ",
        ",,,,   ",
        ",,aw   ",
        ",,,,   ",
        ",,,,   ",
        "ww,w   "
      ],
      "palettes": [ "fbmk_wad_palette" ]
    },
    "id": "a3ac14b4-bb88-4840-bf3d-95d0ba4c68ee"
  },
  {
    "type": "mapgen",
    "update_mapgen_id": "faction_base_smoking_area_wad",
    "method": "json",
    "object": { "place_nested": [ { "chunks": [ "fbmk_canteen_smoking_area_wad" ], "x": 16, "y": 7 } ] },
    "id": "3f3f7180-b7b7-4942-9af3-135778998527"
  },
  {
    "type": "mapgen",
    "method": "json",
    "nested_mapgen_id": "fbmk_canteen_pantry_wad",
    "object": {
      "mapgensize": [ 7, 7 ],
      "rows": [
        "wwwwww ",
        "w..... ",
        "o..... ",
        "w..... ",
        "o..... ",
        "w..... ",
        "wwwwww "
      ],
      "palettes": [ "fbmk_wad_palette" ]
    },
    "id": "3a23ce78-c28e-418c-9bfa-e0d287c2b363"
  },
  {
    "type": "mapgen",
    "update_mapgen_id": "fbmk_canteen_pantry_wad",
    "method": "json",
    "object": { "place_nested": [ { "chunks": [ "fbmk_canteen_pantry_wad" ], "x": 3, "y": 7 } ] },
    "id": "91a3ecfd-dace-40d8-ac1e-8db8d3203a55"
  },
  {
    "type": "mapgen",
    "method": "json",
    "nested_mapgen_id": "fbmk_canteen_dining_west_wad",
    "object": {
      "mapgensize": [ 7, 7 ],
      "rows": [
        " bbbw..",
        "    w..",
        "  B o..",
        "    d..",
        "    o..",
        "    ww.",
        "     ww"
      ],
      "palettes": [ "fbmk_wad_palette" ]
    },
    "id": "b466a1c3-8586-406a-90e2-371edddb085f"
  },
  {
    "type": "mapgen",
    "update_mapgen_id": "fbmk_canteen_dining_west_wad",
    "method": "json",
    "object": { "place_nested": [ { "chunks": [ "fbmk_canteen_dining_west_wad" ], "x": 3, "y": 14 } ] },
    "id": "2649b7c7-236e-43e8-91c9-ea20d51b6903"
  },
  {
    "type": "mapgen",
    "method": "json",
    "nested_mapgen_id": "fbmk_canteen_dining_east_wad",
    "object": {
      "mapgensize": [ 7, 7 ],
      "rows": [
        "...w   ",
        "...w   ",
        "...ob  ",
        "...wb  ",
        "...ob  ",
        "..ww   ",
        "oww    "
      ],
      "palettes": [ "fbmk_wad_palette" ]
    },
    "id": "ee56ddb5-b539-47a4-a13c-c8abd8234180"
  },
  {
    "type": "mapgen",
    "update_mapgen_id": "fbmk_canteen_dining_east_wad",
    "method": "json",
    "object": { "place_nested": [ { "chunks": [ "fbmk_canteen_dining_east_wad" ], "x": 14, "y": 14 } ] },
    "id": "5fc81906-3e4e-41ee-8741-caf9568e68e5"
  },
  {
    "type": "mapgen",
    "method": "json",
    "nested_mapgen_id": "fbmk_canteen_dining_center_wad",
    "object": {
      "mapgensize": [ 7, 7 ],
      "rows": [
        "  .... ",
        "  .... ",
        "  .... ",
        "  .... ",
        "  .... ",
        "  .... ",
        "  owdw "
      ],
      "palettes": [ "fbmk_wad_palette" ]
    },
    "id": "958f9bc5-9ec0-485c-9128-16cb82f2f96d"
  },
  {
    "type": "mapgen",
    "update_mapgen_id": "fbmk_canteen_dining_center_wad",
    "method": "json",
    "object": { "place_nested": [ { "chunks": [ "fbmk_canteen_dining_center_wad" ], "x": 8, "y": 14 } ] },
    "id": "efdc7689-fa62-4fb1-b3ac-e7a018072fb5"
  }
]
