[
  {
    "type": "mapgen",
    "method": "json",
    "nested_mapgen_id": "fbmk_kitchen_room_wood",
    "object": {
      "mapgensize": [ 7, 7 ],
      "rows": [
        "wowdwow",
        "w.....w",
        "......o",
        "       ",
        "       ",
        "       ",
        "       "
      ],
      "palettes": [ "fbmk_common_palette" ]
    },
    "id": "8e116f21-f2ce-4947-ba8d-95648ec3d7e5"
  },
  {
    "type": "mapgen",
    "update_mapgen_id": "faction_base_canteen_wood",
    "method": "json",
    "object": { "place_nested": [ { "chunks": [ "fbmk_kitchen_room_wood" ], "x": 9, "y": 7 } ] },
    "id": "7a3e8d25-2209-4b9d-bbb0-4397f00eaf0e"
  },
  {
    "type": "mapgen",
    "method": "json",
    "nested_mapgen_id": "fbmk_kitchen_room2_wood",
    "object": {
      "mapgensize": [ 7, 7 ],
      "rows": [
        "       ",
        "       ",
        "       ",
        "w.....d",
        "......o",
        "w.....w",
        "wwwdwww"
      ],
      "palettes": [ "fbmk_common_palette" ]
    },
    "id": "4aa3d058-07d2-4d51-999d-b4b8d753dea7"
  },
  {
    "type": "mapgen",
    "update_mapgen_id": "faction_base_canteen2_wood",
    "method": "json",
    "object": { "place_nested": [ { "chunks": [ "fbmk_kitchen_room2_wood" ], "x": 9, "y": 7 } ] },
    "id": "0b7a07e2-5745-4785-98b0-cabbcea823da"
  },
  {
    "type": "mapgen",
    "method": "json",
    "nested_mapgen_id": "fbmk_canteen_smoking_area_wood",
    "object": {
      "mapgensize": [ 7, 7 ],
      "rows": [
        ",w,w   ",
        ",,,,   ",
        ",,,,   ",
        ",,aw   ",
        ",,,,   ",
        ",,,,   ",
        "ww,w   "
      ],
      "palettes": [ "fbmk_common_palette" ]
    },
    "id": "802e46b9-6131-46a2-9a00-da81ee14dee8"
  },
  {
    "type": "mapgen",
    "update_mapgen_id": "faction_base_smoking_area_wood",
    "method": "json",
    "object": { "place_nested": [ { "chunks": [ "fbmk_canteen_smoking_area_wood" ], "x": 16, "y": 7 } ] },
    "id": "2de612ba-242f-482d-8ec2-5047c5759a1b"
  },
  {
    "type": "mapgen",
    "method": "json",
    "nested_mapgen_id": "fbmk_canteen_pantry_wood",
    "object": {
      "mapgensize": [ 7, 7 ],
      "rows": [
        "wwwwww ",
        "w..... ",
        "o..... ",
        "w..... ",
        "o..... ",
        "w..... ",
        "wwwwww "
      ],
      "palettes": [ "fbmk_common_palette" ]
    },
    "id": "9dcdfd14-91e0-40cb-a089-e317cc084fac"
  },
  {
    "type": "mapgen",
    "update_mapgen_id": "fbmk_canteen_pantry_wood",
    "method": "json",
    "object": { "place_nested": [ { "chunks": [ "fbmk_canteen_pantry_wood" ], "x": 3, "y": 7 } ] },
    "id": "cdc3d687-46c2-47b8-81db-05576a64ec59"
  },
  {
    "type": "mapgen",
    "method": "json",
    "nested_mapgen_id": "fbmk_canteen_dining_west_wood",
    "object": {
      "mapgensize": [ 7, 7 ],
      "rows": [
        " bbbw..",
        "    w..",
        "  B o..",
        "    d..",
        "    o..",
        "    ww.",
        "     ww"
      ],
      "palettes": [ "fbmk_common_palette" ]
    },
    "id": "c74715fe-fe61-434f-9ab0-a549653df0c8"
  },
  {
    "type": "mapgen",
    "update_mapgen_id": "fbmk_canteen_dining_west_wood",
    "method": "json",
    "object": { "place_nested": [ { "chunks": [ "fbmk_canteen_dining_west_wood" ], "x": 3, "y": 14 } ] },
    "id": "8f8019f3-8eb2-4782-9c24-c4254d28acdd"
  },
  {
    "type": "mapgen",
    "method": "json",
    "nested_mapgen_id": "fbmk_canteen_dining_east_wood",
    "object": {
      "mapgensize": [ 7, 7 ],
      "rows": [
        "...w   ",
        "...w   ",
        "...ob  ",
        "...wb  ",
        "...ob  ",
        "..ww   ",
        "oww    "
      ],
      "palettes": [ "fbmk_common_palette" ]
    },
    "id": "ba272dc5-76b3-4d63-ae94-4c4833096185"
  },
  {
    "type": "mapgen",
    "update_mapgen_id": "fbmk_canteen_dining_east_wood",
    "method": "json",
    "object": { "place_nested": [ { "chunks": [ "fbmk_canteen_dining_east_wood" ], "x": 14, "y": 14 } ] },
    "id": "7d307636-610a-45ba-b828-e9e27df1d76f"
  },
  {
    "type": "mapgen",
    "method": "json",
    "nested_mapgen_id": "fbmk_canteen_dining_center_wood",
    "object": {
      "mapgensize": [ 7, 7 ],
      "rows": [
        "  .... ",
        "  .... ",
        "  .... ",
        "  .... ",
        "  .... ",
        "  .... ",
        "  owdw "
      ],
      "palettes": [ "fbmk_common_palette" ]
    },
    "id": "3873da28-534d-4fe3-a385-3f50e4e3703a"
  },
  {
    "type": "mapgen",
    "update_mapgen_id": "fbmk_canteen_dining_center_wood",
    "method": "json",
    "object": { "place_nested": [ { "chunks": [ "fbmk_canteen_dining_center_wood" ], "x": 8, "y": 14 } ] },
    "id": "93bd21bc-97e0-4f8d-ab20-68acc87f0bbc"
  }
]
