[
  {
    "type": "palette",
    "id": "fbmc_shelter_2_palette_rock",
    "terrain": { "w": "t_rock_wall", "d": "t_door_c" },
    "furniture": {
      "h": "f_chair",
      "t": "f_table",
      "x": "f_coffee_table",
      "c": "f_workbench",
      "r": "f_rack",
      "b": "f_bed",
      "m": "f_straw_bed",
      "n": "f_makeshift_bed",
      "L": "f_locker",
      "s": "f_sofa",
      "C": "f_armchair",
      "B": "f_bookcase"
    }
  },
  {
    "type": "mapgen",
    "method": "json",
    "nested_mapgen_id": "fbmc_shelter_2_bedroom_NW_rock",
    "object": {
      "mapgensize": [ 3, 3 ],
      "rows": [
        "  w",
        "  d",
        "www"
      ],
      "palettes": [ "fbmc_shelter_2_palette_rock" ]
    },
    "id": "fe4178dc-3c55-4c6a-b5d1-46a40e4b64b8"
  },
  {
    "type": "mapgen",
    "update_mapgen_id": "fbmc_shelter_2_bedroom_NW_rock",
    "method": "json",
    "object": { "place_nested": [ { "chunks": [ "fbmc_shelter_2_bedroom_NW_rock" ], "x": 3, "y": 11 } ] },
    "id": "776e18b7-c16d-4703-9b96-1d5a6ab263bd"
  },
  {
    "type": "mapgen",
    "method": "json",
    "nested_mapgen_id": "fbmc_shelter_2_bedroom_W1_rock",
    "object": {
      "mapgensize": [ 3, 3 ],
      "rows": [
        "  w",
        "  d",
        "www"
      ],
      "palettes": [ "fbmc_shelter_2_palette_rock" ]
    },
    "id": "a034785f-855e-49f3-b26f-9942a1ad176c"
  },
  {
    "type": "mapgen",
    "update_mapgen_id": "fbmc_shelter_2_bedroom_W1_rock",
    "method": "json",
    "object": { "place_nested": [ { "chunks": [ "fbmc_shelter_2_bedroom_W1_rock" ], "x": 3, "y": 14 } ] },
    "id": "55530d9b-f0eb-4512-bfa7-40b18754ee0b"
  },
  {
    "type": "mapgen",
    "method": "json",
    "nested_mapgen_id": "fbmc_shelter_2_bedroom_W2_rock",
    "object": {
      "mapgensize": [ 4, 4 ],
      "rows": [
        "  w ",
        "  d ",
        "  w ",
        "  w "
      ],
      "palettes": [ "fbmc_shelter_2_palette_rock" ]
    },
    "id": "b79d5d3a-43cf-4305-90fc-23e4dfcc7910"
  },
  {
    "type": "mapgen",
    "update_mapgen_id": "fbmc_shelter_2_bedroom_W2_rock",
    "method": "json",
    "object": { "place_nested": [ { "chunks": [ "fbmc_shelter_2_bedroom_W2_rock" ], "x": 3, "y": 17 } ] },
    "id": "0e9439ca-bc13-4754-8db9-a37db2257b46"
  },
  {
    "type": "mapgen",
    "method": "json",
    "nested_mapgen_id": "fbmc_shelter_2_bedroom_W3_rock",
    "object": {
      "mapgensize": [ 4, 4 ],
      "rows": [
        "www ",
        "d  w",
        "w  w",
        "www "
      ],
      "palettes": [ "fbmc_shelter_2_palette_rock" ]
    },
    "id": "bcab15cc-a79f-49cf-8ce1-89d07cbbb3e4"
  },
  {
    "type": "mapgen",
    "update_mapgen_id": "fbmc_shelter_2_bedroom_W3_rock",
    "method": "json",
    "object": { "place_nested": [ { "chunks": [ "fbmc_shelter_2_bedroom_W3_rock" ], "x": 7, "y": 14 } ] },
    "id": "eb608dc1-0f78-46d5-86e2-d21d0da17c42"
  },
  {
    "type": "mapgen",
    "method": "json",
    "nested_mapgen_id": "fbmc_shelter_2_bedroom_SW_rock",
    "object": {
      "mapgensize": [ 4, 4 ],
      "rows": [
        "wdww",
        "   w",
        "   w",
        "    "
      ],
      "palettes": [ "fbmc_shelter_2_palette_rock" ]
    },
    "id": "6a950ed4-f9ad-4d36-afda-70e1a1a41fce"
  },
  {
    "type": "mapgen",
    "update_mapgen_id": "fbmc_shelter_2_bedroom_SW_rock",
    "method": "json",
    "object": { "place_nested": [ { "chunks": [ "fbmc_shelter_2_bedroom_SW_rock" ], "x": 6, "y": 19 } ] },
    "id": "93f1d3b5-fa6e-4806-811a-a382e558f7e7"
  },
  {
    "type": "mapgen",
    "method": "json",
    "nested_mapgen_id": "fbmc_shelter_2_bedroom_S1_rock",
    "object": {
      "mapgensize": [ 3, 3 ],
      "rows": [
        "wdw",
        "  w",
        "  w"
      ],
      "palettes": [ "fbmc_shelter_2_palette_rock" ]
    },
    "id": "9a80f3c9-4eca-4ea1-acc1-b2c64b792332"
  },
  {
    "type": "mapgen",
    "method": "json",
    "nested_mapgen_id": "fbmc_shelter_2_bedroom_S2_rock",
    "object": {
      "mapgensize": [ 3, 3 ],
      "rows": [
        "www",
        "  d",
        "  w"
      ],
      "palettes": [ "fbmc_shelter_2_palette_rock" ]
    },
    "id": "4a1d5494-9705-47aa-a5e5-bf990f80ec2b"
  },
  {
    "type": "mapgen",
    "update_mapgen_id": "fbmc_shelter_2_bedroom_S_rock",
    "method": "json",
    "object": {
      "place_nested": [
        { "chunks": [ "fbmc_shelter_2_bedroom_S1_rock" ], "x": 10, "y": 19 },
        { "chunks": [ "fbmc_shelter_2_bedroom_S2_rock" ], "x": 13, "y": 20 }
      ]
    },
    "id": "5a06b1ae-4702-4ca9-9209-d5bc32fb42bd"
  },
  {
    "type": "mapgen",
    "method": "json",
    "nested_mapgen_id": "fbmc_shelter_2_bedroom_east1_rock",
    "object": {
      "mapgensize": [ 4, 4 ],
      "rows": [
        " www",
        "w  w",
        "w  w",
        " dww"
      ],
      "palettes": [ "fbmc_shelter_2_palette_rock" ]
    },
    "id": "cae0fa5e-0ecf-4d50-aef3-ad9a486dac08"
  },
  {
    "type": "mapgen",
    "update_mapgen_id": "fbmc_shelter_2_bedroom_E1_rock",
    "method": "json",
    "object": {
      "set": [
        { "point": "terrain", "id": "t_door_c", "x": 12, "y": 14 },
        { "point": "terrain", "id": "t_door_c", "x": 12, "y": 17 }
      ],
      "place_nested": [ { "chunks": [ "fbmc_shelter_2_bedroom_east1_rock" ], "x": 13, "y": 14 } ]
    },
    "id": "20fca459-6c63-4408-9918-098ce22385da"
  },
  {
    "type": "mapgen",
    "method": "json",
    "nested_mapgen_id": "fbmc_shelter_2_bedroom_east2_rock",
    "object": {
      "mapgensize": [ 4, 4 ],
      "rows": [
        "w   ",
        "w   ",
        "d   ",
        "www "
      ],
      "palettes": [ "fbmc_shelter_2_palette_rock" ]
    },
    "id": "7ceeb23c-aaba-4e1c-98fe-4d030e7525e5"
  },
  {
    "type": "mapgen",
    "update_mapgen_id": "fbmc_shelter_2_bedroom_E2_rock",
    "method": "json",
    "object": { "place_nested": [ { "chunks": [ "fbmc_shelter_2_bedroom_east2_rock" ], "x": 18, "y": 10 } ] },
    "id": "56c3b7d7-fb3d-4ec9-bd4a-f373f617f98c"
  },
  {
    "type": "mapgen",
    "method": "json",
    "nested_mapgen_id": "fbmc_shelter_2_bedroom_east3_rock",
    "object": {
      "mapgensize": [ 3, 3 ],
      "rows": [
        "w  ",
        "d  ",
        "www"
      ],
      "palettes": [ "fbmc_shelter_2_palette_rock" ]
    },
    "id": "aa37809e-5a55-4b53-b514-2596f9ea650a"
  },
  {
    "type": "mapgen",
    "update_mapgen_id": "fbmc_shelter_2_bedroom_E3_rock",
    "method": "json",
    "object": { "place_nested": [ { "chunks": [ "fbmc_shelter_2_bedroom_east3_rock" ], "x": 18, "y": 14 } ] },
    "id": "4ae59325-4472-4b63-9189-825b166ef7be"
  },
  {
    "type": "mapgen",
    "method": "json",
    "nested_mapgen_id": "fbmc_shelter_2_bedroom_east4_rock",
    "object": {
      "mapgensize": [ 4, 4 ],
      "rows": [
        "w   ",
        "d   ",
        "w   ",
        "w   "
      ],
      "palettes": [ "fbmc_shelter_2_palette_rock" ]
    },
    "id": "b6423588-947d-4f1f-8464-31e02a8c38dd"
  },
  {
    "type": "mapgen",
    "update_mapgen_id": "fbmc_shelter_2_bedroom_E4_rock",
    "method": "json",
    "object": { "place_nested": [ { "chunks": [ "fbmc_shelter_2_bedroom_east4_rock" ], "x": 18, "y": 17 } ] },
    "id": "11521273-b8b4-44e3-9f0e-e4a3ebce7c7d"
  }
]
