[
  {
    "type": "recipe",
    "result": "faction_base_modular_shelter_2_bedroom1_rock",
    "description": "Let's build some living quarters so we can expand.  We will start in the northwest corner.",
    "category": "CC_BUILDING",
    "subcategory": "CSC_BUILDING_BASES",
    "autolearn": false,
    "never_learn": true,
    "construction_blueprint": "fbmc_shelter_2_bedroom_NW_rock",
    "blueprint_name": "build NW rock bedroom walls",
    "blueprint_requires": [ { "id": "fbmc_shelter_2_fire" } ],
    "blueprint_provides": [ { "id": "fbmc_shelter_2_bedroom1" } ],
    "blueprint_excludes": [ { "id": "fbmc_shelter_2_bedroom1" } ],
    "blueprint_needs": {
      "time": "1 d 1 h 30 m",
      "skills": [ [ "fabrication", 6 ] ],
      "inline": {
        "tools": [  ],
        "qualities": [ [ { "id": "DIG", "level": 2 } ], [ { "id": "HAMMER", "level": 2 } ], [ { "id": "SAW_W", "level": 2 } ] ],
        "components": [
          [ [ "2x4", 14 ] ],
          [ [ "hinge", 2 ] ],
          [ [ "mortar_adobe", 8 ], [ "mortar_build", 8 ] ],
          [ [ "nail", 36 ] ],
          [ [ "pebble", 200 ] ],
          [ [ "rock", 96 ] ],
          [ [ "wood_panel", 1 ] ]
        ]
      }
    },
    "id": "cd847bb0-f68b-45e3-87ab-4b72480c6916"
  },
  {
    "type": "recipe",
    "result": "faction_base_modular_shelter_2_bedroom2_rock",
    "description": "Let's build some living quarters so we can expand.  We will continue along the west wall.",
    "category": "CC_BUILDING",
    "subcategory": "CSC_BUILDING_BASES",
    "autolearn": false,
    "never_learn": true,
    "construction_blueprint": "fbmc_shelter_2_bedroom_W1_rock",
    "blueprint_name": "build W rock bedroom walls",
    "blueprint_requires": [ { "id": "fbmc_shelter_2_bedroom1" } ],
    "blueprint_provides": [ { "id": "fbmc_shelter_2_bedroom2" } ],
    "blueprint_excludes": [ { "id": "fbmc_shelter_2_bedroom2" } ],
    "blueprint_needs": {
      "time": "1 d 1 h 30 m",
      "skills": [ [ "fabrication", 6 ] ],
      "inline": {
        "tools": [  ],
        "qualities": [ [ { "id": "DIG", "level": 2 } ], [ { "id": "HAMMER", "level": 2 } ], [ { "id": "SAW_W", "level": 2 } ] ],
        "components": [
          [ [ "2x4", 14 ] ],
          [ [ "hinge", 2 ] ],
          [ [ "mortar_adobe", 8 ], [ "mortar_build", 8 ] ],
          [ [ "nail", 36 ] ],
          [ [ "pebble", 200 ] ],
          [ [ "rock", 96 ] ],
          [ [ "wood_panel", 1 ] ]
        ]
      }
    },
    "id": "294425a8-b246-4b40-abaf-dd496fafaf47"
  },
  {
    "type": "recipe",
    "result": "faction_base_modular_shelter_2_bedroom3_rock",
    "description": "Let's build some living quarters so we can expand.  We will continue along the same wall.",
    "category": "CC_BUILDING",
    "subcategory": "CSC_BUILDING_BASES",
    "autolearn": false,
    "never_learn": true,
    "construction_blueprint": "fbmc_shelter_2_bedroom_W2_rock",
    "blueprint_name": "build W rock bedroom walls",
    "blueprint_requires": [ { "id": "fbmc_shelter_2_bedroom2" } ],
    "blueprint_provides": [ { "id": "fbmc_shelter_2_bedroom3" } ],
    "blueprint_excludes": [ { "id": "fbmc_shelter_2_bedroom3" } ],
    "blueprint_needs": {
      "time": "19 h 30 m",
      "skills": [ [ "fabrication", 6 ] ],
      "inline": {
        "tools": [  ],
        "qualities": [ [ { "id": "DIG", "level": 2 } ], [ { "id": "HAMMER", "level": 2 } ], [ { "id": "SAW_W", "level": 2 } ] ],
        "components": [
          [ [ "2x4", 14 ] ],
          [ [ "hinge", 2 ] ],
          [ [ "mortar_adobe", 6 ], [ "mortar_build", 6 ] ],
          [ [ "nail", 36 ] ],
          [ [ "pebble", 150 ] ],
          [ [ "rock", 72 ] ],
          [ [ "wood_panel", 1 ] ]
        ]
      }
    },
    "id": "ca81f79b-1787-404d-ae65-411afe351076"
  },
  {
    "type": "recipe",
    "result": "faction_base_modular_shelter_2_bedroom4_rock",
    "description": "Let's build some living quarters so we can expand.  We will enclose the west side of the stairs.",
    "category": "CC_BUILDING",
    "subcategory": "CSC_BUILDING_BASES",
    "autolearn": false,
    "never_learn": true,
    "construction_blueprint": "fbmc_shelter_2_bedroom_W3_rock",
    "blueprint_name": "build W rock bedroom walls",
    "blueprint_requires": [ { "id": "fbmc_shelter_2_bedroom3" } ],
    "blueprint_provides": [ { "id": "fbmc_shelter_2_bedroom4" } ],
    "blueprint_excludes": [ { "id": "fbmc_shelter_2_bedroom4" } ],
    "blueprint_needs": {
      "time": "2 d 7 h 30 m",
      "skills": [ [ "fabrication", 6 ] ],
      "inline": {
        "tools": [  ],
        "qualities": [ [ { "id": "DIG", "level": 2 } ], [ { "id": "HAMMER", "level": 2 } ], [ { "id": "SAW_W", "level": 2 } ] ],
        "components": [
          [ [ "2x4", 14 ] ],
          [ [ "hinge", 2 ] ],
          [ [ "mortar_adobe", 18 ], [ "mortar_build", 18 ] ],
          [ [ "nail", 36 ] ],
          [ [ "pebble", 450 ] ],
          [ [ "rock", 216 ] ],
          [ [ "wood_panel", 1 ] ]
        ]
      }
    },
    "id": "181ad3b2-173b-4d65-9384-27217b324100"
  },
  {
    "type": "recipe",
    "result": "faction_base_modular_shelter_2_bedroom5_rock",
    "description": "Let's build some living quarters so we can expand.  We will continue along the southwest corner.",
    "category": "CC_BUILDING",
    "subcategory": "CSC_BUILDING_BASES",
    "autolearn": false,
    "never_learn": true,
    "construction_blueprint": "fbmc_shelter_2_bedroom_SW_rock",
    "blueprint_name": "build SW rock bedroom walls",
    "blueprint_requires": [ { "id": "fbmc_shelter_2_bedroom4" } ],
    "blueprint_provides": [ { "id": "fbmc_shelter_2_bedroom5" } ],
    "blueprint_excludes": [ { "id": "fbmc_shelter_2_bedroom5" } ],
    "blueprint_needs": {
      "time": "1 d 7 h 30 m",
      "skills": [ [ "fabrication", 6 ] ],
      "inline": {
        "tools": [  ],
        "qualities": [ [ { "id": "DIG", "level": 2 } ], [ { "id": "HAMMER", "level": 2 } ], [ { "id": "SAW_W", "level": 2 } ] ],
        "components": [
          [ [ "2x4", 14 ] ],
          [ [ "hinge", 2 ] ],
          [ [ "mortar_adobe", 10 ], [ "mortar_build", 10 ] ],
          [ [ "nail", 36 ] ],
          [ [ "pebble", 250 ] ],
          [ [ "rock", 120 ] ],
          [ [ "wood_panel", 1 ] ]
        ]
      }
    },
    "id": "9fad5c77-c8a5-45d5-8d46-a0cd2b8a17f6"
  },
  {
    "type": "recipe",
    "result": "faction_base_modular_shelter_2_bedroom6_rock",
    "description": "Let's build two living quarters so we can expand.  We will continue along the south wall.",
    "category": "CC_BUILDING",
    "subcategory": "CSC_BUILDING_BASES",
    "autolearn": false,
    "never_learn": true,
    "construction_blueprint": "fbmc_shelter_2_bedroom_S_rock",
    "blueprint_name": "build S rock bedroom walls",
    "blueprint_requires": [ { "id": "fbmc_shelter_2_bedroom5" } ],
    "blueprint_provides": [ { "id": "fbmc_shelter_2_bedroom6" } ],
    "blueprint_excludes": [ { "id": "fbmc_shelter_2_bedroom6" } ],
    "blueprint_needs": {
      "time": "2 d 3 h",
      "skills": [ [ "fabrication", 6 ] ],
      "inline": {
        "tools": [  ],
        "qualities": [ [ { "id": "DIG", "level": 2 } ], [ { "id": "HAMMER", "level": 2 } ], [ { "id": "SAW_W", "level": 2 } ] ],
        "components": [
          [ [ "2x4", 28 ] ],
          [ [ "hinge", 4 ] ],
          [ [ "mortar_adobe", 16 ], [ "mortar_build", 16 ] ],
          [ [ "nail", 72 ] ],
          [ [ "pebble", 400 ] ],
          [ [ "rock", 192 ] ],
          [ [ "wood_panel", 2 ] ]
        ]
      }
    },
    "id": "1ea9f66b-bbad-4628-87e9-a6f9543ded22"
  },
  {
    "type": "recipe",
    "result": "faction_base_modular_shelter_2_bedroom7_rock",
    "description": "Let's build another bedroom so we can expand.  We will continue to enclose the stairwell and add new doors.",
    "category": "CC_BUILDING",
    "subcategory": "CSC_BUILDING_BASES",
    "autolearn": false,
    "never_learn": true,
    "construction_blueprint": "fbmc_shelter_2_bedroom_E1_rock",
    "blueprint_name": "build central E bedroom rock walls",
    "blueprint_requires": [ { "id": "fbmc_shelter_2_bedroom6" } ],
    "blueprint_provides": [ { "id": "fbmc_shelter_2_bedroom7" } ],
    "blueprint_excludes": [ { "id": "fbmc_shelter_2_bedroom7" } ],
    "blueprint_needs": {
      "time": "2 d 10 h 30 m",
      "skills": [ [ "fabrication", 6 ] ],
      "inline": {
        "tools": [  ],
        "qualities": [ [ { "id": "DIG", "level": 2 } ], [ { "id": "HAMMER", "level": 2 } ], [ { "id": "SAW_W", "level": 2 } ] ],
        "components": [
          [ [ "2x4", 42 ] ],
          [ [ "hinge", 6 ] ],
          [ [ "mortar_adobe", 18 ], [ "mortar_build", 18 ] ],
          [ [ "nail", 108 ] ],
          [ [ "pebble", 450 ] ],
          [ [ "rock", 216 ] ],
          [ [ "wood_panel", 3 ] ]
        ]
      }
    },
    "id": "d1995d44-5744-463d-abe6-3e1979758a5a"
  },
  {
    "type": "recipe",
    "result": "faction_base_modular_shelter_2_bedroom8_rock",
    "description": "Let's build another bedroom on the east wall.",
    "category": "CC_BUILDING",
    "subcategory": "CSC_BUILDING_BASES",
    "autolearn": false,
    "never_learn": true,
    "construction_blueprint": "fbmc_shelter_2_bedroom_E2_rock",
    "blueprint_name": "build E bedroom rock walls",
    "blueprint_requires": [ { "id": "fbmc_shelter_2_bedroom7" } ],
    "blueprint_provides": [ { "id": "fbmc_shelter_2_bedroom8" } ],
    "blueprint_excludes": [ { "id": "fbmc_shelter_2_bedroom8" } ],
    "blueprint_needs": {
      "time": "1 d 7 h 30 m",
      "skills": [ [ "fabrication", 6 ] ],
      "inline": {
        "tools": [  ],
        "qualities": [ [ { "id": "DIG", "level": 2 } ], [ { "id": "HAMMER", "level": 2 } ], [ { "id": "SAW_W", "level": 2 } ] ],
        "components": [
          [ [ "2x4", 14 ] ],
          [ [ "hinge", 2 ] ],
          [ [ "mortar_adobe", 10 ], [ "mortar_build", 10 ] ],
          [ [ "nail", 36 ] ],
          [ [ "pebble", 250 ] ],
          [ [ "rock", 120 ] ],
          [ [ "wood_panel", 1 ] ]
        ]
      }
    },
    "id": "2f5c533e-41ea-4a5e-a3ac-28a64b2d0d45"
  },
  {
    "type": "recipe",
    "result": "faction_base_modular_shelter_2_bedroom9_rock",
    "description": "Let's build another bedroom on the east wall.",
    "category": "CC_BUILDING",
    "subcategory": "CSC_BUILDING_BASES",
    "autolearn": false,
    "never_learn": true,
    "construction_blueprint": "fbmc_shelter_2_bedroom_E3_rock",
    "blueprint_name": "build E bedroom rock walls",
    "blueprint_requires": [ { "id": "fbmc_shelter_2_bedroom8" } ],
    "blueprint_provides": [ { "id": "fbmc_shelter_2_bedroom9" } ],
    "blueprint_excludes": [ { "id": "fbmc_shelter_2_bedroom9" } ],
    "blueprint_needs": {
      "time": "1 d 1 h 30 m",
      "skills": [ [ "fabrication", 6 ] ],
      "inline": {
        "tools": [  ],
        "qualities": [ [ { "id": "DIG", "level": 2 } ], [ { "id": "HAMMER", "level": 2 } ], [ { "id": "SAW_W", "level": 2 } ] ],
        "components": [
          [ [ "2x4", 14 ] ],
          [ [ "hinge", 2 ] ],
          [ [ "mortar_adobe", 8 ], [ "mortar_build", 8 ] ],
          [ [ "nail", 36 ] ],
          [ [ "pebble", 200 ] ],
          [ [ "rock", 96 ] ],
          [ [ "wood_panel", 1 ] ]
        ]
      }
    },
    "id": "76c8971c-0f2f-4489-85e7-58e3cb1b3f8f"
  },
  {
    "type": "recipe",
    "result": "faction_base_modular_shelter_2_bedroom10_rock",
    "description": "Let's build another bedroom on the east wall.",
    "category": "CC_BUILDING",
    "subcategory": "CSC_BUILDING_BASES",
    "autolearn": false,
    "never_learn": true,
    "construction_blueprint": "fbmc_shelter_2_bedroom_E4_rock",
    "blueprint_name": "build E bedroom rock walls",
    "blueprint_requires": [ { "id": "fbmc_shelter_2_bedroom9" } ],
    "blueprint_provides": [ { "id": "fbmc_shelter_2_bedroom10" } ],
    "blueprint_excludes": [ { "id": "fbmc_shelter_2_bedroom10" } ],
    "blueprint_needs": {
      "time": "19 h 30 m",
      "skills": [ [ "fabrication", 6 ] ],
      "inline": {
        "tools": [  ],
        "qualities": [ [ { "id": "DIG", "level": 2 } ], [ { "id": "HAMMER", "level": 2 } ], [ { "id": "SAW_W", "level": 2 } ] ],
        "components": [
          [ [ "2x4", 14 ] ],
          [ [ "hinge", 2 ] ],
          [ [ "mortar_adobe", 6 ], [ "mortar_build", 6 ] ],
          [ [ "nail", 36 ] ],
          [ [ "pebble", 150 ] ],
          [ [ "rock", 72 ] ],
          [ [ "wood_panel", 1 ] ]
        ]
      }
    },
    "id": "70a2be76-72d1-42d8-8e75-9677aebf80ee"
  }
]
