[
  {
    "type": "palette",
    "id": "cave_palette",
    "terrain": { ".": "t_rock", " ": "t_rock_floor" },
    "monster": { " ": { "monster": "mon_sewer_rat", "chance": 20 } }
  },
  {
    "type": "mapgen",
    "method": "json",
    "nested_mapgen_id": "cave_nw",
    "object": {
      "mapgensize": [ 11, 11 ],
      "rows": [
        "...........",
        "     ...  .",
        "     ...  .",
        "...   ..  .",
        "....      .",
        ".....    ..",
        ".....     .",
        ".....     .",
        ".....     .",
        ".....      ",
        ".....      "
      ],
      "palettes": [ "cave_palette" ]
    },
    "id": "20a954d7-e51c-4543-bffb-2be243a96b0c"
  },
  {
    "type": "mapgen",
    "method": "json",
    "nested_mapgen_id": "cave_nw",
    "object": {
      "mapgensize": [ 11, 11 ],
      "rows": [
        "...........",
        "..   ......",
        "..   ......",
        "....   ....",
        "....      .",
        "....      .",
        "....   ....",
        "....   ....",
        ".        ..",
        ".        ..",
        ".          "
      ],
      "palettes": [ "cave_palette" ]
    },
    "id": "47004dd5-5040-42e6-9768-e277986087b7"
  },
  {
    "type": "mapgen",
    "method": "json",
    "nested_mapgen_id": "cave_nw",
    "object": {
      "mapgensize": [ 11, 11 ],
      "rows": [
        "...........",
        "  .........",
        "     ......",
        ".    ......",
        ".      ....",
        "...      ..",
        ".....    ..",
        ".......  ..",
        "........ ..",
        "........  .",
        "........   "
      ],
      "palettes": [ "cave_palette" ]
    },
    "id": "830fffe9-a852-492d-9133-8e55c83c1b6e"
  },
  {
    "type": "mapgen",
    "method": "json",
    "nested_mapgen_id": "cave_nw",
    "object": {
      "mapgensize": [ 11, 11 ],
      "rows": [
        "...........",
        "...........",
        "...........",
        "...........",
        "...........",
        "...........",
        "...........",
        "...........",
        "...........",
        ".......... ",
        "......     "
      ],
      "palettes": [ "cave_palette" ]
    },
    "id": "183e8b97-d124-44af-8ebd-7d647c307012"
  },
  {
    "type": "mapgen",
    "method": "json",
    "nested_mapgen_id": "cave_ne",
    "object": {
      "mapgensize": [ 12, 12 ],
      "rows": [
        "............",
        "..      ....",
        "..         .",
        ".......    .",
        "........   .",
        "........   .",
        ".....      .",
        ".....      .",
        ".....      .",
        "        ....",
        "        ....",
        "        ...."
      ],
      "palettes": [ "cave_palette" ]
    },
    "id": "1d41d2b4-5b52-48be-9128-2fdaafc5fe05"
  },
  {
    "type": "mapgen",
    "method": "json",
    "nested_mapgen_id": "cave_ne",
    "object": {
      "mapgensize": [ 12, 12 ],
      "rows": [
        "............",
        "............",
        "............",
        "............",
        "............",
        "............",
        "............",
        "............",
        "............",
        "............",
        "............",
        "        ...."
      ],
      "palettes": [ "cave_palette" ]
    },
    "id": "5e509d17-f4b9-42a5-b178-081cdf1ab4c5"
  },
  {
    "type": "mapgen",
    "method": "json",
    "nested_mapgen_id": "cave_ne",
    "object": {
      "mapgensize": [ 12, 12 ],
      "rows": [
        "............",
        "....    ....",
        "....       .",
        "..   ...   .",
        "..   ....  .",
        "....   ..  .",
        "....   .....",
        "..   .......",
        "..    ......",
        ".....     ..",
        ".....     ..",
        "        ...."
      ],
      "palettes": [ "cave_palette" ]
    },
    "id": "c150f556-de0d-474a-b18a-19074335189a"
  },
  {
    "type": "mapgen",
    "method": "json",
    "nested_mapgen_id": "cave_ne",
    "object": {
      "mapgensize": [ 12, 12 ],
      "rows": [
        "............",
        "..        ..",
        ".. .....  ..",
        ".. ...... ..",
        ".. ...... ..",
        ".. ...... ..",
        "..    ... ..",
        "..        ..",
        "..    ......",
        ".. .........",
        ".. .........",
        "        ...."
      ],
      "palettes": [ "cave_palette" ]
    },
    "id": "dc069cf2-be9e-49ca-88d0-aecf58414822"
  },
  {
    "type": "mapgen",
    "method": "json",
    "nested_mapgen_id": "cave_se",
    "object": {
      "mapgensize": [ 11, 11 ],
      "rows": [
        "           ",
        "           ",
        ".   ..     ",
        ".   ..     ",
        ".   ..     ",
        ".   ..     ",
        ".   .......",
        ".   .......",
        ".         .",
        "...       .",
        "...        "
      ],
      "palettes": [ "cave_palette" ]
    },
    "id": "7c901f5a-69ae-4e39-80d4-d8f17b9097aa"
  },
  {
    "type": "mapgen",
    "method": "json",
    "nested_mapgen_id": "cave_se",
    "object": {
      "mapgensize": [ 11, 11 ],
      "rows": [
        "     ......",
        "..   .... .",
        "..   .... .",
        "...  .... .",
        "...  .... .",
        "...        ",
        "...        ",
        "...       .",
        "...   ..  .",
        "...  ....  ",
        ".........  "
      ],
      "palettes": [ "cave_palette" ]
    },
    "id": "049d6248-1a8c-4e37-bcd3-5a176a84c0df"
  },
  {
    "type": "mapgen",
    "method": "json",
    "nested_mapgen_id": "cave_se",
    "object": {
      "mapgensize": [ 11, 11 ],
      "rows": [
        "           ",
        "....       ",
        "....       ",
        "....       ",
        "....       ",
        "......     ",
        "......     ",
        "......     ",
        "......     ",
        ".......    ",
        ".......    "
      ],
      "palettes": [ "cave_palette" ]
    },
    "id": "234cb6c8-f429-48a5-9ff1-64debaf19fa7"
  },
  {
    "type": "mapgen",
    "method": "json",
    "nested_mapgen_id": "cave_se",
    "object": {
      "mapgensize": [ 11, 11 ],
      "rows": [
        "           ",
        ".....      ",
        "......     ",
        ".......    ",
        ".......    ",
        "......     ",
        ".......    ",
        ".......    ",
        "........   ",
        ".........  ",
        ".........  "
      ],
      "palettes": [ "cave_palette" ]
    },
    "id": "12d83d6f-5a19-4ce7-9c98-16358ae410be"
  },
  {
    "type": "mapgen",
    "method": "json",
    "nested_mapgen_id": "cave_sw",
    "object": {
      "mapgensize": [ 12, 12 ],
      "rows": [
        "...         ",
        "..        ..",
        "..        ..",
        ".       ....",
        ".        ...",
        "...   ..  ..",
        "...  ...  ..",
        "...  ....  .",
        "...  ....  .",
        "...  ..... .",
        "............",
        "............"
      ],
      "palettes": [ "cave_palette" ]
    },
    "id": "89dea144-78d4-41f4-9a63-a4ef313e366e"
  },
  {
    "type": "mapgen",
    "method": "json",
    "nested_mapgen_id": "cave_sw",
    "object": {
      "mapgensize": [ 12, 12 ],
      "rows": [
        "...         ",
        "...       ..",
        "....     ...",
        "...       ..",
        "....     ...",
        ".....    ...",
        "..         .",
        "...      ...",
        "....     ...",
        ".....   ....",
        "...       ..",
        "............"
      ],
      "palettes": [ "cave_palette" ]
    },
    "id": "b15156d3-f965-4383-afd0-2032081c9487"
  },
  {
    "type": "mapgen",
    "method": "json",
    "nested_mapgen_id": "cave_sw",
    "object": {
      "mapgensize": [ 12, 12 ],
      "rows": [
        "...         ",
        "............",
        "............",
        "............",
        "............",
        "............",
        "............",
        "............",
        "............",
        "............",
        "............",
        "............"
      ],
      "palettes": [ "cave_palette" ]
    },
    "id": "647617b6-3231-4849-90d9-be7054b16083"
  },
  {
    "type": "mapgen",
    "method": "json",
    "nested_mapgen_id": "cave_sw",
    "object": {
      "mapgensize": [ 12, 12 ],
      "rows": [
        "...         ",
        "...    .....",
        "...    .. ..",
        ".....  . ...",
        ".....   ....",
        "..     .....",
        ".....   ....",
        ".... .  ....",
        "... ...  ...",
        ".. ....  ...",
        "............",
        "............"
      ],
      "palettes": [ "cave_palette" ]
    },
    "id": "2bfc6ebb-5fcb-4d90-8801-01a414e7da61"
  }
]
