[
  {
    "type": "mapgen",
    "method": "json",
    "nested_mapgen_id": "2x2_haybale",
    "object": {
      "mapgensize": [ 2, 2 ],
      "rotation": [ 0, 3 ],
      "rows": [
        "@@",
        "@@"
      ],
      "palettes": [ "farm_lots" ]
    },
    "id": "c3030a2e-5c16-4a8d-8360-6bd41fa1406d"
  },
  {
    "type": "mapgen",
    "method": "json",
    "nested_mapgen_id": "24x24_fence1",
    "object": {
      "mapgensize": [ 24, 24 ],
      "rotation": [ 3, 3 ],
      "rows": [
        "%%%%%%%%%%%%%%%%////////",
        "%///////////////////////",
        "%///////////////////////",
        "%///////////////////////",
        "%///////////////////////",
        "%///////////////////////",
        "%///////////////////////",
        "%///////////////////////",
        "%///////////////////////",
        "%///////////////////////",
        "%///////////////////////",
        "%///////////////////////",
        "%///////////////////////",
        "%///////////////////////",
        "%///////////////////////",
        "%///////////////////////",
        "%///////////////////////",
        "%///////////////////////",
        "%///////////////////////",
        "%///////////////////////",
        "%///////////////////////",
        "%///////////////////////",
        "%%%%%%%%%%%%%%%%////////",
        "////////////////////////"
      ],
      "palettes": [ "farm_house" ]
    },
    "id": "01640c7b-bbb9-4764-9a47-7fef5a10b4c1"
  },
  {
    "type": "mapgen",
    "method": "json",
    "nested_mapgen_id": "24x24_fence2",
    "object": {
      "mapgensize": [ 24, 24 ],
      "rotation": [ 3, 3 ],
      "rows": [
        "%%%%%%%%%%%%%%%%%%%%%%//",
        "%////////////////////%//",
        "%////////////////////H//",
        "%///////////////////////",
        "%///////////////////////",
        "%///////////////////////",
        "%///////////////////////",
        "%///////////////////////",
        "%///////////////////////",
        "%///////////////////////",
        "%///////////////////////",
        "%///////////////////////",
        "%///////////////////////",
        "%///////////////////////",
        "%///////////////////////",
        "%///////////////////////",
        "%///////////////////////",
        "%///////////////////////",
        "%///////////////////////",
        "%///////////////////////",
        "%////////////////////%//",
        "%////////////////////%//",
        "%%%%%%%%%%%%%%%%%%%%%%//",
        "////////////////////////"
      ],
      "palettes": [ "farm_house" ]
    },
    "id": "0148e47f-ed22-4e61-9568-a13818135eb2"
  },
  {
    "type": "mapgen",
    "method": "json",
    "nested_mapgen_id": "24x24_fence3",
    "object": {
      "mapgensize": [ 24, 24 ],
      "rotation": [ 3, 3 ],
      "rows": [
        "PPPPPP%%%%%%%%%%%%%%%%%%",
        "P//////////////////////%",
        "P//////////////////////%",
        "P//////////////////////%",
        "P//////////////////////%",
        "P///////////////////////",
        "P///////////////////////",
        "P///////////////////////",
        "P///////////////////////",
        "P///////////////////////",
        "P///////////////////////",
        "P///////////////////////",
        "P///////////////////////",
        "P///////////////////////",
        "P///////////////////////",
        "P///////////////////////",
        "P///////////////////////",
        "P///////////////////////",
        "P///////////////////////",
        "P//////////////////////%",
        "P//////////////////////%",
        "P//////////////////////%",
        "P//////////////////////%",
        "PPPPP%%%%%%%%%%%%%%%%%%%"
      ],
      "palettes": [ "farm_house" ]
    },
    "id": "2170a278-5ee6-4b34-ad3d-2d898a3e9091"
  },
  {
    "type": "mapgen",
    "method": "json",
    "nested_mapgen_id": "24x24_fence4",
    "object": {
      "mapgensize": [ 24, 24 ],
      "rotation": [ 3, 3 ],
      "rows": [
        "PPPPPPP/////////////////",
        "P///////////////////////",
        "P///////////////////////",
        "P///////////////////////",
        "%///////////////////////",
        "%///////////////////////",
        "%///////////////////////",
        "%///////////////////////",
        "P///////////////////////",
        "P///////////////////////",
        "P///////////////////////",
        "P///////////////////////",
        "P///////////////////////",
        "P///////////////////////",
        "P///////////////////////",
        "P///////////////////////",
        "%///////////////////////",
        "%///////////////////////",
        "%///////////////////////",
        "%///////////////////////",
        "P///////////////////////",
        "P///////////////////////",
        "P///////////////////////",
        "PPPPPPP/////////////////"
      ],
      "palettes": [ "farm_house" ]
    },
    "id": "77caa8e1-98a7-4cf4-abd1-87c727a8b020"
  },
  {
    "type": "mapgen",
    "method": "json",
    "nested_mapgen_id": "24x24_fence5",
    "object": {
      "mapgensize": [ 24, 24 ],
      "rotation": [ 3, 3 ],
      "rows": [
        "PPPPPPPPPPPPPPPPPPPPPPPP",
        "P//////////////////////P",
        "P//////////////////////P",
        "P//////////////////////P",
        "P//////////////////////P",
        "P//////////////////////P",
        "P//////////////////////%",
        "P//////////////////////%",
        "P//////////////////////%",
        "P///////////////////////",
        "P///////////////////////",
        "P///////////////////////",
        "P///////////////////////",
        "P///////////////////////",
        "P///////////////////////",
        "P//////////////////////%",
        "P//////////////////////%",
        "P//////////////////////%",
        "P//////////////////////P",
        "P//////////////////////P",
        "P//////////////////////P",
        "P//////////////////////P",
        "P//////////////////////P",
        "PPPPPPPPPPPPPPPPPPPPPPPP"
      ],
      "palettes": [ "farm_house" ]
    },
    "id": "943a1c59-3b4f-40ce-a7c8-f1d7c3d28714"
  },
  {
    "type": "mapgen",
    "method": "json",
    "nested_mapgen_id": "NC_FARMER_spawn",
    "object": { "mapgensize": [ 1, 1 ], "place_npcs": [ { "class": "farmer", "x": 0, "y": 0 } ] },
    "id": "40bba77f-4b73-4535-b6d5-9799591e3112"
  },
  {
    "type": "mapgen",
    "method": "json",
    "nested_mapgen_id": "24x24_fence6",
    "object": {
      "mapgensize": [ 24, 24 ],
      "rotation": [ 3, 3 ],
      "rows": [
        "%%%%%%%%////////////////",
        "%///////////////////////",
        "%///////////////////////",
        "%///////////////////////",
        "%///////////////////////",
        "%///////////////////////",
        "%///////////////////////",
        "%///////////////////////",
        "%///////////////////////",
        "%///////////////////////",
        "%///////////////////////",
        "////////////////////////",
        "////////////////////////",
        "%///////////////////////",
        "%///////////////////////",
        "%///////////////////////",
        "%///////////////////////",
        "%///////////////////////",
        "%///////////////////////",
        "%///////////////////////",
        "%///////////////////////",
        "%///////////////////////",
        "%///////////////////////",
        "%%%%%%%%////////////////"
      ],
      "palettes": [ "farm_house" ]
    },
    "id": "a8def419-1511-4620-8ce7-21dedb3e1c1e"
  }
]
