[
  {
    "result": "hollow_cane",
    "type": "recipe",
    "category": "CC_WEAPON",
    "subcategory": "CSC_WEAPON_BASHING",
    "skill_used": "fabrication",
    "difficulty": 4,
    "time": "40 m",
    "autolearn": true,
    "using": [ [ "adhesive", 1 ] ],
    "qualities": [ { "id": "HAMMER", "level": 1 }, { "id": "CUT", "level": 1 } ],
    "components": [ [ [ "2x4", 1 ] ], [ [ "nail", 5 ] ] ],
    "id": "6ca4eb19-285a-4677-bcba-67001ecf96ed"
  },
  {
    "type": "recipe",
    "result": "shillelagh",
    "category": "CC_WEAPON",
    "subcategory": "CSC_WEAPON_BASHING",
    "skill_used": "fabrication",
    "skills_required": [ "survival", 2 ],
    "difficulty": 3,
    "time": "360 m",
    "autolearn": true,
    "qualities": [ { "id": "SAW_W", "level": 1 }, { "id": "CUT", "level": 1 } ],
    "tools": [ [ [ "char_smoker", 100 ] ] ],
    "components": [ [ [ "log", 1 ] ], [ [ "butter", 30 ], [ "edible_lard", 4, "LIST" ] ] ],
    "id": "1b226e3f-43b7-4e28-a145-521c34230b32"
  },
  {
    "type": "recipe",
    "result": "shillelagh_weighted",
    "category": "CC_WEAPON",
    "subcategory": "CSC_WEAPON_BASHING",
    "skill_used": "fabrication",
    "difficulty": 4,
    "time": "30 m",
    "autolearn": true,
    "qualities": [ { "id": "DRILL", "level": 1 } ],
    "tools": [
      [ [ "brick_kiln", 100 ], [ "kiln", 100 ], [ "surface_heat", 100, "LIST" ] ],
      [ [ "crucible", -1 ], [ "crucible_clay", -1 ] ]
    ],
    "components": [ [ [ "shillelagh", 1 ], [ "log", 1 ], [ "2x4", 2 ], [ "stick", 4 ] ], [ [ "weights", 15, "LIST" ] ] ],
    "id": "c32e38b3-c370-4a3f-827b-9c2fcc0c5d68"
  },
  {
    "type": "recipe",
    "result": "blackjack",
    "category": "CC_WEAPON",
    "subcategory": "CSC_WEAPON_BASHING",
    "skill_used": "fabrication",
    "difficulty": 2,
    "skills_required": [ "survival", 1 ],
    "time": "60 m",
    "autolearn": true,
    "qualities": [ { "id": "HAMMER", "level": 1 } ],
    "using": [ [ "sewing_standard", 10 ] ],
    "components": [ [ [ "leather", 5 ] ], [ [ "spring", 1 ] ], [ [ "weights", 10, "LIST" ] ] ],
    "id": "3779fee8-9ab2-487d-bcfe-c4cd5ffc0b69"
  },
  {
    "type": "recipe",
    "result": "makeshift_sap",
    "category": "CC_WEAPON",
    "subcategory": "CSC_WEAPON_BASHING",
    "skill_used": "survival",
    "time": "10 m",
    "autolearn": true,
    "qualities": [ { "id": "HAMMER", "level": 1 } ],
    "using": [ [ "sewing_standard", 10 ] ],
    "components": [ [ [ "leather", 2 ] ], [ [ "steel_tiny", 1, "LIST" ], [ "weights", 8, "LIST" ] ] ],
    "id": "dd0ec3d6-bad9-42af-8a7b-75083a3f28e6"
  },
  {
    "type": "recipe",
    "result": "cudgel",
    "category": "CC_WEAPON",
    "subcategory": "CSC_WEAPON_BASHING",
    "skill_used": "fabrication",
    "time": "1 m",
    "autolearn": true,
    "qualities": [ { "id": "CUT", "level": 1 } ],
    "components": [ [ [ "stick", 1 ], [ "2x4", 1 ], [ "pool_cue", 1 ] ] ],
    "id": "04841311-6839-45af-aa23-07261497a737"
  },
  {
    "type": "recipe",
    "result": "nailboard",
    "category": "CC_WEAPON",
    "subcategory": "CSC_WEAPON_BASHING",
    "skill_used": "fabrication",
    "time": "1 m",
    "autolearn": true,
    "qualities": [ { "id": "HAMMER", "level": 1 } ],
    "components": [ [ [ "2x4", 1 ], [ "stick", 1 ] ], [ [ "nail", 6 ] ] ],
    "id": "f6e9e3b2-0dce-4489-a162-062f6add18fc"
  },
  {
    "type": "recipe",
    "result": "homewrecker",
    "category": "CC_WEAPON",
    "subcategory": "CSC_WEAPON_BASHING",
    "skill_used": "fabrication",
    "time": "5 m",
    "reversible": true,
    "autolearn": true,
    "using": [ [ "cordage", 8 ] ],
    "components": [ [ [ "steel_chunk", 4 ] ], [ [ "stick", 1 ], [ "2x4", 1 ] ] ],
    "id": "a56e7d06-3f47-4afa-8f37-2254cba7f48b"
  },
  {
    "type": "recipe",
    "result": "nailbat",
    "category": "CC_WEAPON",
    "subcategory": "CSC_WEAPON_BASHING",
    "skill_used": "fabrication",
    "time": "1 m",
    "autolearn": true,
    "qualities": [ { "id": "HAMMER", "level": 1 } ],
    "components": [ [ [ "bat", 1 ] ], [ [ "nail", 6 ] ] ],
    "id": "c5768c67-944f-4df7-94a5-5672959cb65a"
  },
  {
    "type": "recipe",
    "result": "bwirebat",
    "category": "CC_WEAPON",
    "subcategory": "CSC_WEAPON_BASHING",
    "skill_used": "fabrication",
    "time": "5 m",
    "reversible": true,
    "autolearn": true,
    "components": [ [ [ "bat", 1 ] ], [ [ "wire_barbed", 1 ] ] ],
    "id": "877a591c-b73b-47d5-859d-dd3fa780602f"
  },
  {
    "type": "recipe",
    "result": "sword_wood",
    "category": "CC_WEAPON",
    "subcategory": "CSC_WEAPON_BASHING",
    "skill_used": "fabrication",
    "time": "25 m",
    "autolearn": true,
    "qualities": [ { "id": "CUT", "level": 1 } ],
    "components": [ [ [ "2x4", 2 ], [ "stick", 4 ] ] ],
    "id": "f6e972a2-aec4-4459-a040-83847f0aa31b"
  },
  {
    "type": "recipe",
    "result": "sword_nail",
    "category": "CC_WEAPON",
    "subcategory": "CSC_WEAPON_BASHING",
    "skill_used": "fabrication",
    "difficulty": 2,
    "time": "5 m",
    "autolearn": true,
    "qualities": [ { "id": "HAMMER", "level": 1 } ],
    "components": [ [ [ "sword_wood", 1 ] ], [ [ "nail", 12 ] ] ],
    "id": "33c0274d-6710-42ec-a911-1ea4a081adcc"
  },
  {
    "type": "recipe",
    "result": "knuckle_steel",
    "category": "CC_WEAPON",
    "subcategory": "CSC_WEAPON_BASHING",
    "skill_used": "fabrication",
    "skills_required": [ "bashing", 1 ],
    "difficulty": 2,
    "time": "20 m",
    "autolearn": true,
    "qualities": [ { "id": "HAMMER", "level": 1 }, { "id": "SAW_M", "level": 1 } ],
    "components": [ [ [ "fabric_standard", 4, "LIST" ] ], [ [ "scrap", 4 ] ] ],
    "id": "834aa7b3-b491-4f7c-819a-c4250b703dfb"
  },
  {
    "type": "recipe",
    "result": "knuckle_nail",
    "category": "CC_WEAPON",
    "subcategory": "CSC_WEAPON_BASHING",
    "skill_used": "fabrication",
    "time": "5 m",
    "reversible": true,
    "autolearn": true,
    "using": [ [ "cordage", 4 ] ],
    "qualities": [ { "id": "HAMMER", "level": 1 } ],
    "components": [ [ [ "nail", 16 ] ], [ [ "stick", 1 ], [ "2x4", 1 ] ] ],
    "id": "053b2947-188f-48a9-847c-aa1976063e9c"
  },
  {
    "type": "recipe",
    "result": "cestus",
    "category": "CC_WEAPON",
    "subcategory": "CSC_WEAPON_BASHING",
    "skill_used": "fabrication",
    "skills_required": [ "bashing", 1 ],
    "difficulty": 2,
    "time": "20 m",
    "autolearn": true,
    "book_learn": [ [ "recipe_melee", 1 ], [ "textbook_weapeast", 7 ] ],
    "qualities": [ { "id": "HAMMER", "level": 1 }, { "id": "SAW_M", "level": 1 } ],
    "components": [ [ [ "leather", 4 ] ], [ [ "scrap", 8 ] ] ],
    "id": "493e0a9c-bbac-4153-8016-d93b75771998"
  },
  {
    "type": "recipe",
    "result": "rock_sock",
    "category": "CC_WEAPON",
    "subcategory": "CSC_WEAPON_BASHING",
    "skill_used": "fabrication",
    "time": "1 m",
    "reversible": true,
    "autolearn": true,
    "flags": [ "BLIND_EASY" ],
    "components": [ [ [ "rock", 1 ] ], [ [ "socks", 1 ], [ "socks_wool", 1 ] ] ],
    "id": "39397ba4-791f-4bfe-876a-64da1e268720"
  },
  {
    "type": "recipe",
    "result": "tonfa",
    "category": "CC_WEAPON",
    "subcategory": "CSC_WEAPON_BASHING",
    "skill_used": "fabrication",
    "skills_required": [ "melee", 1 ],
    "difficulty": 6,
    "time": "30 m",
    "book_learn": [ [ "recipe_melee", 4 ] ],
    "tools": [ [ [ "mold_plastic", -1 ] ], [ [ "surface_heat", 10, "LIST" ] ] ],
    "components": [ [ [ "plastic_chunk", 10 ] ] ],
    "id": "2ce38a1b-65cc-4f91-9e94-f09ed7f56b44"
  },
  {
    "type": "recipe",
    "result": "tonfa_wood",
    "category": "CC_WEAPON",
    "subcategory": "CSC_WEAPON_BASHING",
    "skill_used": "fabrication",
    "skills_required": [ "bashing", 3 ],
    "difficulty": 4,
    "time": "30 m",
    "book_learn": [ [ "recipe_melee", 3 ] ],
    "qualities": [ { "id": "CUT", "level": 1 } ],
    "components": [ [ [ "2x4", 1 ], [ "stick", 2 ] ] ],
    "id": "baedc669-b243-46e7-ab18-d94971be6800"
  },
  {
    "type": "recipe",
    "result": "shocktonfa_off",
    "category": "CC_WEAPON",
    "subcategory": "CSC_WEAPON_BASHING",
    "skill_used": "fabrication",
    "skills_required": [ "electronics", 3 ],
    "difficulty": 6,
    "time": "45 m",
    "book_learn": [ [ "recipe_melee", 5 ] ],
    "using": [ [ "soldering_standard", 10 ], [ "surface_heat", 10 ] ],
    "qualities": [ { "id": "SCREW", "level": 1 } ],
    "tools": [ [ [ "mold_plastic", -1 ] ] ],
    "components": [
      [ [ "plastic_chunk", 10 ] ],
      [ [ "amplifier", 2 ] ],
      [ [ "power_supply", 1 ] ],
      [ [ "scrap", 2 ] ],
      [ [ "cable", 10 ] ]
    ],
    "id": "e19a9982-3b72-4b95-849e-a233acc0c7a6"
  },
  {
    "type": "recipe",
    "result": "warhammer",
    "category": "CC_WEAPON",
    "subcategory": "CSC_WEAPON_BASHING",
    "skill_used": "fabrication",
    "difficulty": 7,
    "time": "8 h",
    "book_learn": [ [ "textbook_weapwest", 8 ], [ "recipe_melee", 6 ] ],
    "using": [ [ "blacksmithing_advanced", 8 ], [ "steel_standard", 2 ] ],
    "components": [ [ [ "scrap", 24 ] ], [ [ "2x4", 1 ], [ "stick", 2 ] ] ],
    "id": "d89b9f31-645b-4755-95ac-f539f51f4014"
  },
  {
    "type": "recipe",
    "result": "bokken",
    "byproducts": [ [ "splinter", 30 ] ],
    "category": "CC_WEAPON",
    "subcategory": "CSC_WEAPON_BASHING",
    "skill_used": "fabrication",
    "difficulty": 7,
    "time": "5 h 40 m",
    "book_learn": [ [ "textbook_weapeast", 6 ] ],
    "qualities": [ { "id": "SAW_W", "level": 1 }, { "id": "CUT", "level": 1 } ],
    "//": "Bokken is a single piece of wood, and the heavy stick just isn't large enough.",
    "components": [
      [ [ "log", 1 ] ],
      [
        [ "any_tallow", 2, "LIST" ],
        [ "cooking_oil", 16 ],
        [ "cooking_oil2", 16 ],
        [ "lamp_oil", 250 ],
        [ "motor_oil", 250 ]
      ],
      [ [ "fabric_hides_any", 2, "LIST" ] ],
      [ [ "duct_tape", 20 ], [ "filament", 20, "LIST" ] ]
    ],
    "id": "274ad7f7-c4a1-44f9-aa75-ce08d3c5d2ef"
  },
  {
    "type": "recipe",
    "result": "mace",
    "category": "CC_WEAPON",
    "subcategory": "CSC_WEAPON_BASHING",
    "skill_used": "fabrication",
    "difficulty": 4,
    "time": "3 h",
    "book_learn": [ [ "textbook_weapwest", 3 ], [ "recipe_melee", 4 ] ],
    "using": [ [ "blacksmithing_intermediate", 12 ], [ "steel_standard", 3 ] ],
    "components": [ [ [ "2x4", 3 ], [ "stick", 6 ] ], [ [ "fabric_hides_any", 3, "LIST" ] ] ],
    "id": "74d0b9d0-231b-468b-8157-71f3eeeb2c22"
  },
  {
    "type": "recipe",
    "result": "morningstar",
    "category": "CC_WEAPON",
    "subcategory": "CSC_WEAPON_BASHING",
    "skill_used": "fabrication",
    "difficulty": 6,
    "time": "4 h",
    "book_learn": [ [ "textbook_weapwest", 5 ] ],
    "using": [ [ "blacksmithing_advanced", 16 ], [ "steel_standard", 4 ] ],
    "components": [ [ [ "2x4", 3 ], [ "stick", 6 ] ], [ [ "fabric_hides_any", 3, "LIST" ] ] ],
    "id": "53bed06b-a25c-4463-90bc-dab49f4fac76"
  },
  {
    "type": "recipe",
    "result": "q_staff",
    "category": "CC_WEAPON",
    "subcategory": "CSC_WEAPON_BASHING",
    "skill_used": "fabrication",
    "difficulty": 2,
    "time": "18 m",
    "autolearn": true,
    "qualities": [ { "id": "CUT", "level": 1 } ],
    "components": [ [ [ "stick_long", 1 ] ], [ [ "fabric_hides_any", 2, "LIST" ] ] ],
    "id": "82145d55-b433-4f80-869c-bb0560024309"
  },
  {
    "type": "recipe",
    "result": "i_staff",
    "category": "CC_WEAPON",
    "subcategory": "CSC_WEAPON_BASHING",
    "skill_used": "fabrication",
    "difficulty": 3,
    "time": "24 m",
    "autolearn": true,
    "book_learn": [ [ "textbook_weapwest", 1 ] ],
    "using": [ [ "blacksmithing_standard", 2 ], [ "steel_tiny", 2 ] ],
    "components": [ [ [ "q_staff", 1 ] ] ],
    "id": "4415989a-ef95-4460-a89a-07d82591870e"
  },
  {
    "type": "recipe",
    "result": "lucern_hammer",
    "category": "CC_WEAPON",
    "subcategory": "CSC_WEAPON_BASHING",
    "skill_used": "fabrication",
    "difficulty": 7,
    "time": "6 h",
    "book_learn": [ [ "textbook_weapwest", 6 ] ],
    "using": [ [ "blacksmithing_advanced", 12 ], [ "steel_standard", 3 ] ],
    "components": [ [ [ "stick_long", 1 ] ], [ [ "fabric_hides_any", 2, "LIST" ] ] ],
    "id": "46d123b4-fb5b-4171-90be-f5e644790170"
  },
  {
    "type": "recipe",
    "result": "long_pole",
    "byproducts": [ [ "splinter", 30 ] ],
    "category": "CC_WEAPON",
    "subcategory": "CSC_WEAPON_BASHING",
    "skill_used": "fabrication",
    "difficulty": 5,
    "time": "5 h 40 m",
    "book_learn": [ [ "textbook_weapeast", 4 ] ],
    "autolearn": true,
    "qualities": [ { "id": "SAW_W", "level": 1 }, { "id": "CUT", "level": 1 } ],
    "//": "a long pole is a single piece of wood, and the heavy stick just isn't large enough.",
    "components": [
      [ [ "wood_beam", 1 ] ],
      [
        [ "any_tallow", 4, "LIST" ],
        [ "cooking_oil", 32 ],
        [ "cooking_oil2", 32 ],
        [ "lamp_oil", 500 ],
        [ "motor_oil", 500 ]
      ]
    ],
    "id": "f24b3ce8-c698-47fd-bdd9-dde262eb6ec3"
  },
  {
    "type": "recipe",
    "result": "2h_flail_steel",
    "category": "CC_WEAPON",
    "subcategory": "CSC_WEAPON_BASHING",
    "skill_used": "fabrication",
    "difficulty": 7,
    "time": "7 h",
    "book_learn": [ [ "textbook_weapwest", 6 ] ],
    "using": [ [ "blacksmithing_advanced", 12 ], [ "steel_standard", 3 ] ],
    "components": [ [ [ "stick_long", 1 ] ], [ [ "fabric_hides_any", 2, "LIST" ] ] ],
    "id": "5f5e9f01-d165-4eae-a399-f379929116b9"
  },
  {
    "type": "recipe",
    "result": "2h_flail_wood",
    "category": "CC_WEAPON",
    "subcategory": "CSC_WEAPON_BASHING",
    "skill_used": "fabrication",
    "skills_required": [ "bashing", 2 ],
    "difficulty": 3,
    "time": "32 m",
    "autolearn": true,
    "qualities": [ { "id": "CUT", "level": 1 } ],
    "components": [ [ [ "2x4", 1 ], [ "stick_long", 1 ] ], [ [ "fabric_hides_any", 5, "LIST" ] ] ],
    "id": "4c3f1fc6-a3e0-4d47-9b8c-22a4a02c2866"
  },
  {
    "type": "recipe",
    "result": "shock_staff",
    "category": "CC_WEAPON",
    "subcategory": "CSC_WEAPON_BASHING",
    "skill_used": "fabrication",
    "skills_required": [ "electronics", 3 ],
    "difficulty": 3,
    "time": "15 m",
    "reversible": true,
    "book_learn": [ [ "textbook_electronics", 3 ], [ "advanced_electronics", 3 ], [ "recipe_melee", 4 ] ],
    "using": [ [ "soldering_standard", 10 ] ],
    "qualities": [ { "id": "SCREW", "level": 1 } ],
    "components": [ [ [ "i_staff", 1 ] ], [ [ "tazer", 1 ] ], [ [ "cable", 10 ] ] ],
    "id": "bfe365b9-89ab-403f-ba5d-6f6fea0bde93"
  },
  {
    "result": "spiked_boxing",
    "type": "recipe",
    "category": "CC_WEAPON",
    "subcategory": "CSC_WEAPON_BASHING",
    "skill_used": "tailor",
    "difficulty": 4,
    "skills_required": [ "unarmed", 1 ],
    "time": "20 m",
    "autolearn": true,
    "qualities": [ { "id": "SEW", "level": 1 }, { "id": "CUT", "level": 1 } ],
    "components": [ [ [ "rag", 8 ] ], [ [ "filament", 12, "LIST" ] ], [ [ "nail", 8 ] ] ],
    "id": "40aa5b89-ef3d-4041-847d-ed307c396577"
  }
]
