[
  {
    "type": "monstergroup",
    "name": "GROUP_MAYBE_MIL",
    "//": "50% chance military zombie or robot",
    "default": "mon_null",
    "monsters": [
      { "monster": "mon_zombie_soldier", "freq": 35, "cost_multiplier": 1 },
      { "monster": "mon_haulerbot", "freq": 5, "cost_multiplier": 0 },
      { "monster": "mon_dispatch", "freq": 10, "cost_multiplier": 50 },
      { "monster": "mon_dispatch_military", "freq": 5, "cost_multiplier": 80 },
      { "monster": "mon_talon_m202a1", "freq": 15, "cost_multiplier": 50 },
      { "monster": "mon_zombie_flamer", "freq": 10, "cost_multiplier": 50 },
      { "monster": "mon_zombie_military_pilot", "freq": 0, "cost_multiplier": 1 }
    ],
    "id": "GROUP_MAYBE_MIL"
  },
  {
    "name": "GROUP_MIL_WEAK",
    "type": "monstergroup",
    "default": "mon_zombie_soldier",
    "monsters": [
      { "monster": "mon_zombie_soldier", "freq": 150, "cost_multiplier": 2, "pack_size": [ 1, 4 ] },
      { "monster": "mon_zombie_flamer", "freq": 200, "cost_multiplier": 30 },
      { "monster": "mon_zombie_military_pilot", "freq": 5, "cost_multiplier": 1 },
      { "monster": "mon_feral_soldier", "starts": 250, "freq": 10, "cost_multiplier": 1 }
    ],
    "id": "GROUP_MIL_WEAK"
  },
  {
    "name": "GROUP_MIL_STRONG",
    "type": "monstergroup",
    "default": "mon_zombie_soldier",
    "monsters": [
      { "monster": "mon_zombie_soldier", "freq": 100, "cost_multiplier": 2, "pack_size": [ 1, 4 ] },
      { "monster": "mon_zombie_soldier", "freq": 150, "cost_multiplier": 2, "pack_size": [ 2, 6 ] },
      { "monster": "mon_zombie_flamer", "freq": 100, "cost_multiplier": 30 },
      { "monster": "mon_zombie_military_pilot", "freq": 5, "cost_multiplier": 1 },
      { "monster": "mon_zombie_bio_op", "freq": 50, "cost_multiplier": 5 },
      { "monster": "mon_zombie_bio_op2", "freq": 25, "cost_multiplier": 5, "starts": 1440 },
      { "monster": "mon_zombie_armored", "freq": 10, "cost_multiplier": 5 },
      { "monster": "mon_feral_soldier", "freq": 25, "cost_multiplier": 1 }
    ],
    "id": "GROUP_MIL_STRONG"
  },
  {
    "name": "GROUP_MIL_BASE",
    "type": "monstergroup",
    "default": "mon_zombie_soldier",
    "monsters": [
      { "monster": "mon_zombie_soldier", "freq": 100, "cost_multiplier": 2 },
      { "monster": "mon_zombie_soldier_acid_1", "freq": 15, "cost_multiplier": 5 },
      { "monster": "mon_zombie_kevlar_1", "freq": 50, "cost_multiplier": 10 },
      { "monster": "mon_zombie_flamer", "freq": 50, "cost_multiplier": 5 },
      { "monster": "mon_zombie_military_pilot", "freq": 5, "cost_multiplier": 1 },
      { "monster": "mon_zombie_bio_op", "freq": 30, "cost_multiplier": 5 },
      { "monster": "mon_zombie_soldier_blackops_1", "freq": 15, "cost_multiplier": 10 },
      { "monster": "mon_zombie_armored", "freq": 5, "cost_multiplier": 5 },
      { "monster": "mon_zombie_scorched", "freq": 25, "cost_multiplier": 1 },
      { "monster": "mon_zombie_hazmat", "freq": 25, "cost_multiplier": 1 },
      { "monster": "mon_zombie", "freq": 50, "cost_multiplier": 1 },
      { "monster": "mon_feral_soldier", "starts": 250, "freq": 25, "cost_multiplier": 1 }
    ],
    "id": "GROUP_MIL_BASE"
  },
  {
    "type": "monstergroup",
    "name": "GROUP_MIL_BASE_CIVILIAN",
    "//": "Civilians with soldiers and burned ones.",
    "default": "mon_zombie",
    "monsters": [
      { "monster": "mon_zombie_fat", "freq": 100, "cost_multiplier": 2 },
      { "monster": "mon_zombie_child", "freq": 40, "cost_multiplier": 1 },
      { "monster": "mon_zombie_tough", "freq": 40, "cost_multiplier": 3 },
      { "monster": "mon_zombie_rot", "freq": 20, "cost_multiplier": 2 },
      { "monster": "mon_zombie_crawler", "freq": 10, "cost_multiplier": 2 },
      { "monster": "mon_zombie_runner", "freq": 40, "cost_multiplier": 5, "pack_size": [ 1, 4 ] },
      { "monster": "mon_zombie_brainless", "freq": 20, "cost_multiplier": 1 },
      { "monster": "mon_zombie_cop", "freq": 20, "cost_multiplier": 2 },
      { "monster": "mon_zombie_hazmat", "freq": 10, "cost_multiplier": 2 },
      { "monster": "mon_zombie_fireman", "freq": 5, "cost_multiplier": 2 },
      { "monster": "mon_dog_zombie_cop", "freq": 2, "cost_multiplier": 2 },
      { "monster": "mon_zombie_dog", "freq": 5, "cost_multiplier": 2 },
      { "monster": "mon_dog_zombie_rot", "freq": 5, "cost_multiplier": 2 },
      { "monster": "mon_zombie_swimmer", "freq": 5, "cost_multiplier": 2 },
      { "monster": "mon_zombie_static", "freq": 30, "cost_multiplier": 5 },
      { "monster": "mon_zombie_survivor", "freq": 1, "cost_multiplier": 25 },
      { "monster": "mon_zombie_survivor_elite", "freq": 1, "cost_multiplier": 25, "starts": 1440 },
      { "monster": "mon_zombie_scorched", "freq": 25, "cost_multiplier": 2 },
      { "monster": "mon_zombie_soldier", "freq": 200, "cost_multiplier": 2 },
      { "monster": "mon_zombie_military_pilot", "freq": 5, "cost_multiplier": 1 },
      { "monster": "mon_zombie_flamer", "freq": 1, "cost_multiplier": 30 }
    ],
    "id": "GROUP_MIL_BASE_CIVILIAN"
  },
  {
    "type": "monstergroup",
    "name": "GROUP_MIL_BASE_HOSPITAL",
    "//": "Civilians with soldiers, doctors and burned ones. More hazmat.",
    "default": "mon_zombie_soldier",
    "monsters": [
      { "monster": "mon_zombie", "freq": 100, "cost_multiplier": 2 },
      { "monster": "mon_zombie_fat", "freq": 60, "cost_multiplier": 2 },
      { "monster": "mon_zombie_child", "freq": 40, "cost_multiplier": 1 },
      { "monster": "mon_zombie_tough", "freq": 40, "cost_multiplier": 3 },
      { "monster": "mon_zombie_rot", "freq": 20, "cost_multiplier": 2 },
      { "monster": "mon_zombie_crawler", "freq": 10, "cost_multiplier": 2 },
      { "monster": "mon_zombie_runner", "freq": 40, "cost_multiplier": 5, "pack_size": [ 1, 4 ] },
      { "monster": "mon_zombie_brainless", "freq": 20, "cost_multiplier": 1 },
      { "monster": "mon_zombie_cop", "freq": 20, "cost_multiplier": 2 },
      { "monster": "mon_zombie_hazmat", "freq": 100, "cost_multiplier": 2 },
      { "monster": "mon_zombie_fireman", "freq": 20, "cost_multiplier": 2 },
      { "monster": "mon_dog_zombie_cop", "freq": 5, "cost_multiplier": 2 },
      { "monster": "mon_zombie_dog", "freq": 10, "cost_multiplier": 2 },
      { "monster": "mon_dog_zombie_rot", "freq": 5, "cost_multiplier": 2 },
      { "monster": "mon_zombie_swimmer", "freq": 10, "cost_multiplier": 2 },
      { "monster": "mon_zombie_static", "freq": 30, "cost_multiplier": 5 },
      { "monster": "mon_zombie_survivor", "freq": 1, "cost_multiplier": 25 },
      { "monster": "mon_zombie_survivor_elite", "freq": 1, "cost_multiplier": 25, "starts": 1440 },
      { "monster": "mon_zombie_scorched", "freq": 25, "cost_multiplier": 1 },
      { "monster": "mon_zombie_soldier", "freq": 200, "cost_multiplier": 2 },
      { "monster": "mon_zombie_military_pilot", "freq": 20, "cost_multiplier": 1 },
      { "monster": "mon_zombie_flamer", "freq": 1, "cost_multiplier": 30 },
      { "monster": "mon_zombie_scientist", "freq": 100, "cost_multiplier": 1 }
    ],
    "id": "GROUP_MIL_BASE_HOSPITAL"
  }
]
