[
  {
    "result": "308",
    "type": "uncraft",
    "skill_used": "gun",
    "difficulty": 5,
    "time": "5 s",
    "qualities": [ { "id": "PULL", "level": 2 } ],
    "components": [ [ [ "lead", 6 ] ], [ [ "308_casing", 1 ] ], [ [ "lgrifle_primer", 1 ] ], [ [ "gunpowder", 8 ] ], [ [ "copper", 3 ] ] ],
    "charges": 1,
    "id": "575079dd-7921-4f7e-89a4-e0204afcec4d"
  }
]
