[
  {
    "result": "40x46mm_m1006",
    "type": "uncraft",
    "skill_used": "fabrication",
    "difficulty": 4,
    "time": "3 m",
    "qualities": [ { "id": "SCREW", "level": 1 }, { "id": "SAW_M", "level": 1 }, { "id": "PULL", "level": 1 } ],
    "components": [ [ [ "smpistol_primer", 1 ] ], [ [ "gunpowder", 35 ] ], [ [ "40x46mm_m212_casing", 1 ] ] ],
    "charges": 1,
    "id": "dc8d1780-3167-4780-8c75-c0d59345b39e"
  },
  {
    "result": "40x46mm_m433",
    "type": "uncraft",
    "skill_used": "fabrication",
    "difficulty": 4,
    "time": "3 m",
    "qualities": [ { "id": "SCREW", "level": 1 }, { "id": "SAW_M", "level": 1 }, { "id": "PULL", "level": 1 } ],
    "components": [ [ [ "smpistol_primer", 1 ] ], [ [ "combatnail", 70 ] ], [ [ "gunpowder", 35 ] ], [ [ "impact_fuze", 1 ] ] ],
    "charges": 1,
    "id": "aa48d221-717f-4486-9d5b-34cb7c1736e1"
  },
  {
    "result": "40x46mm_m576",
    "type": "uncraft",
    "skill_used": "fabrication",
    "difficulty": 4,
    "time": "3 m",
    "qualities": [ { "id": "SCREW", "level": 1 }, { "id": "SAW_M", "level": 1 }, { "id": "PULL", "level": 1 } ],
    "components": [ [ [ "lgpistol_primer", 1 ] ], [ [ "chem_compositionb", 32 ] ], [ [ "gunpowder", 35 ] ], [ [ "impact_fuze", 1 ] ] ],
    "charges": 1,
    "id": "06b98f1b-b5c9-48d3-b6a5-2276bc97c3b9"
  },
  {
    "result": "40x46mm_m651",
    "type": "uncraft",
    "skill_used": "fabrication",
    "difficulty": 4,
    "time": "3 m",
    "qualities": [ { "id": "SCREW", "level": 1 }, { "id": "SAW_M", "level": 1 }, { "id": "PULL", "level": 1 } ],
    "components": [ [ [ "smpistol_primer", 1 ] ], [ [ "gunpowder", 35 ] ] ],
    "charges": 1,
    "id": "0d5cb037-0522-46cc-b0da-7e16ebd9f7ea"
  }
]
