[
  {
    "result": "460_fmj",
    "type": "uncraft",
    "skill_used": "gun",
    "difficulty": 5,
    "time": "5 s",
    "qualities": [ { "id": "PULL", "level": 1 } ],
    "components": [
      [ [ "lead", 3 ] ],
      [ [ "460_casing", 1 ] ],
      [ [ "lgpistol_primer", 1 ] ],
      [ [ "gunpowder", 6 ] ],
      [ [ "copper", 2 ] ]
    ],
    "charges": 1,
    "id": "f6e783ad-fd94-4e87-88df-2a4429f4bdba"
  },
  {
    "result": "460_rowland",
    "type": "uncraft",
    "skill_used": "gun",
    "difficulty": 5,
    "time": "5 s",
    "qualities": [ { "id": "PULL", "level": 1 } ],
    "components": [ [ [ "lead", 3 ] ], [ [ "460_casing", 1 ] ], [ [ "lgpistol_primer", 1 ] ], [ [ "gunpowder", 6 ] ] ],
    "charges": 1,
    "id": "99633d29-4dc6-4652-a819-abbe1127f925"
  }
]
