[
  {
    "result": "m235tpa",
    "type": "uncraft",
    "skill_used": "fabrication",
    "difficulty": 6,
    "time": "10 m",
    "qualities": [ { "id": "SCREW", "level": 1 }, { "id": "SAW_M", "level": 1 } ],
    "components": [ [ [ "incendiary", 295 ] ], [ [ "impact_fuze", 1 ] ], [ [ "scrap", 1 ] ] ],
    "charges": 1,
    "id": "0ce47196-6d74-4139-9dc0-259da86e3742"
  },
  {
    "result": "66mm_HEAT",
    "type": "uncraft",
    "skill_used": "fabrication",
    "difficulty": 6,
    "time": "10 m",
    "qualities": [ { "id": "SCREW", "level": 1 }, { "id": "SAW_M", "level": 1 } ],
    "components": [ [ [ "copper", 50 ] ], [ [ "chem_compositionb", 300 ] ], [ [ "impact_fuze", 1 ] ], [ [ "scrap", 1 ] ] ],
    "charges": 1,
    "id": "c970fe87-0c3a-4929-9250-cfdd5d071d81"
  }
]
