[
  {
    "result": "762_54R",
    "type": "uncraft",
    "skill_used": "gun",
    "difficulty": 5,
    "time": "5 s",
    "qualities": [ { "id": "PULL", "level": 2 } ],
    "components": [
      [ [ "lead", 7 ] ],
      [ [ "762R_casing", 1 ] ],
      [ [ "lgrifle_primer", 1 ] ],
      [ [ "gunpowder", 10 ] ],
      [ [ "copper", 3 ] ]
    ],
    "charges": 1,
    "id": "d9e28f14-dc61-45df-ad24-529142559382"
  }
]
