[
  {
    "type": "snippet",
    "category": "<music_description>",
    "text": [ "some <musicgenre>.", "some <musicgenre>. The <musicdesc_part> is <musicdesc_evaluation>." ],
    "id": "7dcc98b8-4e8c-450c-bc21-d741bd4b0176"
  },
  {
    "type": "snippet",
    "category": "<musicgenre>",
    "text": [
      "<musicgenre_adj> <musicgenre_prefix><musicgenre_noun>",
      "<musicgenre_prefix><musicgenre_noun>",
      "<musicgenre_adj> <musicgenre_noun><musicgenre_postfix>",
      "<musicgenre_noun><musicgenre_postfix>",
      "<musicgenre_adj> <musicgenre_noun>"
    ],
    "id": "b35507f4-751a-494b-bc1f-c89a2698cd49"
  },
  {
    "type": "snippet",
    "category": "<musicdesc_evaluation>",
    "text": [
      "amazing",
      "funky",
      { "text": { "ctxt": "<musicdesc_evaluation>", "str": "okay" } },
      "pretty good",
      "sweet",
      "sick",
      "totally danceable",
      "bangin'",
      "grating",
      "ear-splitting",
      "too slow for your taste",
      "frenetic",
      "gnarly",
      "chaotic",
      "not bad",
      "not bad, not bad at all",
      "honestly kinda mediocre"
    ],
    "id": "3af88b7c-66cf-4c0d-90fd-240713112c44"
  },
  {
    "type": "snippet",
    "category": "<musicdesc_part>",
    "text": [ "bassline", "melody", "chorus", "guitar part", "drum part", "violin part", "horn section", "intro" ],
    "id": "dd571f7b-bb07-4e38-8bb9-fc7861331dc9"
  },
  {
    "type": "snippet",
    "category": "<musicgenre_adj>",
    "text": [
      "popular",
      "top-forty",
      "corporate",
      "commercial",
      "alternative",
      "college",
      "arthouse",
      "underground",
      "experimental",
      "traditional",
      "historical",
      "classic",
      "modern",
      "adult",
      "contemporary",
      "Christian",
      "Pagan",
      "British",
      "Continental",
      "tropical",
      "island",
      "New York",
      "Hollywood",
      "Trans-Pacific",
      "Latin",
      "instrumental",
      "fusion",
      "visual",
      "liquid",
      "digital",
      "procedurally generated",
      "melodic",
      "harmonious",
      "discordant",
      "contextual",
      "conceptual",
      "collaborative",
      "forgotten",
      "rhythmic"
    ],
    "id": "65e7009f-e706-46af-9237-d5e202c35b1f"
  },
  {
    "type": "snippet",
    "category": "<musicgenre_prefix>",
    "text": [
      "neo",
      "retro",
      "post",
      "anti",
      "hard ",
      "soft ",
      "speed ",
      "slow ",
      "hi-fi ",
      "lo-fi ",
      "mid-fi ",
      "ambient ",
      "dance ",
      "chill ",
      "psycho",
      "turbo",
      "prog ",
      "glam ",
      "outsider ",
      "indie ",
      "dark ",
      "death ",
      "electro",
      "acid ",
      "space ",
      "ghetto ",
      "street ",
      "urban ",
      "world ",
      "Euro",
      "Afro",
      "grunge ",
      "brass ",
      "splatter ",
      "swamp ",
      "ghost ",
      "shadow ",
      "neuro ",
      "hyper",
      "carnival",
      "meta",
      "techno",
      "synth",
      "robo",
      "skate ",
      "freak ",
      "surf ",
      "mutant ",
      "Jurassic ",
      "free ",
      "garage ",
      "garbage ",
      "break ",
      "laser ",
      "porno ",
      "hypno",
      "lunar ",
      "thunder ",
      "clown ",
      "murder ",
      "narco ",
      "gangster "
    ],
    "id": "b9d355ac-f252-4816-8422-cfe93602bd20"
  },
  {
    "type": "snippet",
    "category": "<musicgenre_noun>",
    "text": [
      "folk",
      "country",
      "jazz",
      "blues",
      "soul",
      "R&B",
      "hip-hop",
      "swing",
      "rock",
      "funk",
      "disco",
      "polka",
      "tango",
      "salsa",
      "mambo",
      "electronic",
      "house",
      "metal",
      "reggae",
      "ska",
      "punk",
      "thrash",
      "goth",
      "industrial",
      "psychedelic",
      "noise",
      "sound",
      "revival",
      "gospel",
      "opera",
      "shanties"
    ],
    "id": "8c289bc7-9bc2-4200-a70d-37ccba4c56e3"
  },
  {
    "type": "snippet",
    "category": "<musicgenre_postfix>",
    "text": [ "-tune", "-core", "-wave", "-beat", "-step", "-pop", "-hop", "-drums", "-style", "-chant" ],
    "id": "831746b9-36d2-49f9-9b37-336511b794ab"
  }
]
