[
  {
    "type": "mapgen",
    "update_mapgen_id": "empty",
    "method": "json",
    "object": {  },
    "id": "ef08dee7-23ed-4c43-974d-034741606384"
  },
  {
    "type": "mapgen",
    "update_mapgen_id": "empty_but_shouldnt_be",
    "method": "json",
    "object": {  },
    "id": "c8521dc2-25ac-461b-a6dc-1df8764c323e"
  }
]
