[
  {
    "abstract": "vehicle_alternator",
    "type": "GENERIC",
    "name": { "str": "vehicle alternator" },
    "category": "veh_parts",
    "material": [ "steel", "copper" ],
    "symbol": ",",
    "color": "light_cyan",
    "id": "vehicle_alternator"
  },
  {
    "id": "alternator_car",
    "copy-from": "vehicle_alternator",
    "type": "GENERIC",
    "name": { "str": "car alternator" },
    "description": "A standard alternator used to power vehicle electrical systems.",
    "weight": "4000 g",
    "volume": "2500 ml",
    "price": 9000,
    "price_postapoc": 500
  },
  {
    "id": "alternator_motorbike",
    "copy-from": "vehicle_alternator",
    "type": "GENERIC",
    "name": { "str": "motorbike alternator" },
    "description": "A compact lightweight alternator used to power small vehicle electrical systems.",
    "weight": "1100 g",
    "volume": "1 L",
    "price": 8000,
    "price_postapoc": 300
  },
  {
    "id": "alternator_bicycle",
    "copy-from": "vehicle_alternator",
    "type": "GENERIC",
    "name": { "str": "bicycle alternator" },
    "description": "A very lightweight alternator used to power a bicycle's headlights.",
    "weight": "1100 g",
    "volume": "1 L",
    "price": 8000,
    "price_postapoc": 250
  },
  {
    "id": "alternator_truck",
    "copy-from": "vehicle_alternator",
    "type": "GENERIC",
    "name": { "str": "truck alternator" },
    "description": "A larger and more powerful alternator used to power vehicle electrical systems.",
    "weight": "5800 g",
    "volume": "3 L",
    "price": 12000,
    "price_postapoc": 1000
  },
  {
    "id": "generator_7500w",
    "copy-from": "vehicle_alternator",
    "type": "GENERIC",
    "name": { "str": "7.5kW generator" },
    "description": "A bulky but efficient electrical generator designed to be attached to an engine.",
    "weight": "48000 g",
    "volume": "7500 ml",
    "price": 30000,
    "price_postapoc": 4500
  }
]
