[
  {
    "abstract": "engine_combustion",
    "type": "ENGINE",
    "category": "veh_parts",
    "name": { "str": "internal combustion engine" },
    "material": "iron",
    "symbol": ":",
    "color": "light_cyan",
    "id": "engine_combustion"
  },
  {
    "abstract": "engine_diesel",
    "copy-from": "engine_combustion",
    "type": "ENGINE",
    "name": { "str": "base diesel engine" },
    "faults": [
      "fault_engine_belt_drive",
      "fault_engine_filter_air",
      "fault_engine_filter_fuel",
      "fault_engine_glow_plug",
      "fault_engine_immobiliser",
      "fault_engine_pump_diesel",
      "fault_engine_pump_water",
      "fault_engine_starter"
    ],
    "id": "engine_diesel"
  },
  {
    "abstract": "engine_gasoline",
    "copy-from": "engine_combustion",
    "type": "ENGINE",
    "name": { "str": "base gasoline engine" },
    "faults": [
      "fault_engine_belt_drive",
      "fault_engine_filter_air",
      "fault_engine_filter_fuel",
      "fault_engine_immobiliser",
      "fault_engine_pump_fuel",
      "fault_engine_pump_water",
      "fault_engine_starter"
    ],
    "id": "engine_gasoline"
  },
  {
    "abstract": "engine_steam",
    "copy-from": "engine_combustion",
    "type": "ENGINE",
    "name": { "str": "base steam engine" },
    "looks_like": "v12_diesel",
    "faults": [ "fault_engine_belt_drive", "fault_engine_filter_air", "fault_engine_pump_water", "fault_engine_starter" ],
    "id": "engine_steam"
  },
  {
    "id": "1cyl_combustion",
    "copy-from": "engine_gasoline",
    "type": "ENGINE",
    "name": { "str": "1-cylinder engine" },
    "description": "A single-cylinder 4-stroke combustion engine.",
    "weight": "15000 g",
    "volume": "1100 ml",
    "price": 10000,
    "price_postapoc": 1000,
    "displacement": 30,
    "faults": [ "fault_engine_starter" ]
  },
  {
    "id": "1cyl_combustion_large",
    "copy-from": "engine_gasoline",
    "type": "ENGINE",
    "name": { "str": "large 1-cylinder engine" },
    "description": "A powerful high-compression single-cylinder 4-stroke combustion engine.",
    "weight": "40000 g",
    "volume": "2 L",
    "price": 10000,
    "price_postapoc": 1250,
    "displacement": 55,
    "faults": [ "fault_engine_starter" ]
  },
  {
    "id": "i4_combustion",
    "copy-from": "engine_gasoline",
    "type": "ENGINE",
    "name": { "str": "Inline-4 engine" },
    "description": "A small, yet powerful 4-cylinder combustion engine.",
    "weight": "130000 g",
    "volume": "3500 ml",
    "price": 15000,
    "price_postapoc": 1250,
    "displacement": 160
  },
  {
    "id": "i6_diesel",
    "copy-from": "engine_diesel",
    "type": "ENGINE",
    "name": { "str": "I6 diesel engine" },
    "description": "A powerful straight-6 diesel engine.",
    "weight": "185000 g",
    "volume": "7 L",
    "price": 27000,
    "price_postapoc": 1500,
    "displacement": 600
  },
  {
    "id": "v2_combustion",
    "copy-from": "engine_gasoline",
    "type": "ENGINE",
    "name": { "str": "V-twin engine" },
    "description": "A 2-cylinder 4-stroke combustion engine.",
    "weight": "45000 g",
    "volume": "2 L",
    "price": 10000,
    "price_postapoc": 1000,
    "displacement": 100
  },
  {
    "id": "v6_combustion",
    "copy-from": "engine_gasoline",
    "type": "ENGINE",
    "name": { "str": "V6 engine" },
    "description": "A powerful 6-cylinder combustion engine.",
    "weight": "180000 g",
    "volume": "4750 ml",
    "price": 18000,
    "price_postapoc": 1500,
    "displacement": 280
  },
  {
    "id": "v6_diesel",
    "copy-from": "engine_diesel",
    "type": "ENGINE",
    "name": { "str": "V6 diesel engine" },
    "description": "A powerful 6-cylinder diesel engine.",
    "weight": "190000 g",
    "volume": "5 L",
    "price": 20000,
    "price_postapoc": 1500,
    "displacement": 280
  },
  {
    "id": "v8_combustion",
    "copy-from": "engine_gasoline",
    "type": "ENGINE",
    "name": { "str": "V8 engine" },
    "description": "A large and very powerful 8-cylinder combustion engine.",
    "weight": "250000 g",
    "volume": "7500 ml",
    "price": 25000,
    "price_postapoc": 1750,
    "displacement": 450
  },
  {
    "id": "v8_diesel",
    "copy-from": "engine_diesel",
    "type": "ENGINE",
    "name": { "str": "V8 diesel engine" },
    "description": "A powerful 8-cylinder diesel engine.",
    "weight": "255000 g",
    "volume": "8 L",
    "price": 26500,
    "price_postapoc": 1750,
    "displacement": 450
  },
  {
    "id": "v12_combustion",
    "copy-from": "engine_gasoline",
    "type": "ENGINE",
    "name": { "str": "V12 engine" },
    "description": "A massive and extremely powerful V12 engine, usually built into high end sports cars.",
    "weight": "300000 g",
    "volume": "14500 ml",
    "price": 36000,
    "price_postapoc": 2250,
    "displacement": 700
  },
  {
    "id": "v12_diesel",
    "copy-from": "engine_diesel",
    "type": "ENGINE",
    "name": { "str": "V12 diesel engine" },
    "description": "A massive and extremely powerful V12 engine, usually built into heavy trucks.",
    "weight": "310000 g",
    "volume": "15 L",
    "price": 32000,
    "price_postapoc": 2250,
    "displacement": 700
  },
  {
    "id": "steam_watts_small",
    "copy-from": "engine_steam",
    "type": "ENGINE",
    "name": { "str": "makeshift steam engine" },
    "description": "A small, primitive, steam engine.  An integrated boiler burns coal to heat water into steam, driving a reciprocating shaft.  A condenser recaptures the water, making this a closed cycle system.",
    "weight": "225000 g",
    "volume": "62500 ml",
    "price": 225000,
    "price_postapoc": 5000
  },
  {
    "id": "steam_triple_small",
    "copy-from": "engine_steam",
    "type": "ENGINE",
    "name": { "str": "small steam engine" },
    "description": "A small steam engine.  An integrated boiler burns coal to heat water into steam, driving a reciprocating shaft.  A condenser recaptures the water, making this a closed cycle system.",
    "weight": "180000 g",
    "volume": "37500 ml",
    "price": 555000,
    "price_postapoc": 8000
  },
  {
    "id": "steam_triple_medium",
    "copy-from": "engine_steam",
    "type": "ENGINE",
    "name": { "str": "medium steam engine" },
    "description": "A medium-sized steam engine.  An integrated boiler burns coal to heat water into steam, driving a reciprocating shaft.  A condenser recaptures the water, making this a closed cycle system.",
    "weight": "280000 g",
    "volume": "57500 ml",
    "price": 870000,
    "price_postapoc": 10000
  },
  {
    "id": "steam_turbine",
    "copy-from": "engine_steam",
    "looks_like": "large_turbine_engine",
    "type": "ENGINE",
    "name": { "str": "750 hp steam turbine engine" },
    "description": "A powerful steam engine for power plants, burning coal to heat water into steam and driving a turbine.  A condenser recaptures the water, making this a closed cycle system.  Known for its high rate of fuel consumption, but installing multiple turbines will not affect vehicle power.",
    "weight": "1400 kg",
    "volume": "230 L",
    "price": "32000 USD",
    "price_postapoc": "110 USD"
  },
  {
    "id": "engine_block_massive",
    "copy-from": "spare_part",
    "type": "GENERIC",
    "name": { "str": "massive engine block" },
    "description": "The beginnings of a massive gas or diesel engine.  It's not good for much of anything on its own.",
    "material": "iron",
    "weight": "280000 g",
    "volume": "6250 ml",
    "price": 30000,
    "price_postapoc": 500
  },
  {
    "id": "engine_block_large",
    "copy-from": "spare_part",
    "type": "GENERIC",
    "name": { "str": "large engine block" },
    "description": "The beginnings of a large gas or diesel engine.  It's not good for much of anything on its own.",
    "material": "iron",
    "weight": "190000 g",
    "volume": "5 L",
    "price": 20000,
    "price_postapoc": 500
  },
  {
    "id": "engine_block_medium",
    "copy-from": "spare_part",
    "type": "GENERIC",
    "name": { "str": "medium engine block" },
    "description": "The beginnings of a medium gas or diesel engine.  It's not good for much of anything on its own.",
    "material": "iron",
    "weight": "90000 g",
    "volume": "2500 ml",
    "price": 10000,
    "price_postapoc": 250
  },
  {
    "id": "engine_block_small",
    "copy-from": "spare_part",
    "type": "GENERIC",
    "name": { "str": "small engine block" },
    "description": "The beginnings of a small gas or diesel engine.  It's not good for much of anything on its own.",
    "material": "iron",
    "weight": "40000 g",
    "volume": "1250 ml",
    "price": 5000,
    "price_postapoc": 250
  },
  {
    "id": "engine_block_tiny",
    "copy-from": "spare_part",
    "type": "GENERIC",
    "name": { "str": "tiny engine block" },
    "description": "The beginnings of a tiny gas or diesel engine.  It's not good for much of anything on its own.",
    "material": "iron",
    "weight": "8000 g",
    "volume": "500 ml",
    "price": 3500,
    "price_postapoc": 100
  },
  {
    "id": "small_turbine_engine",
    "copy-from": "engine_gasoline",
    "type": "ENGINE",
    "name": { "str": "1350 hp gas turbine engine" },
    "description": "A gas turbine engine, usually used for military vehicles.  Known for its high rate of fuel consumption, but installing multiple turbines will not affect vehicle power.",
    "weight": "1130000 g",
    "volume": "45 L",
    "price": 96000,
    "price_postapoc": 2500,
    "displacement": 2700
  },
  {
    "id": "medium_turbine_engine",
    "copy-from": "engine_gasoline",
    "type": "ENGINE",
    "name": { "str": "1900 hp gas turbine engine" },
    "description": "A large gas turbine engine, usually used for military helicopters.  Known for its high rate of fuel consumption, but installing multiple turbines will not affect vehicle power.",
    "weight": "1582000 g",
    "volume": "63 L",
    "price": 192000,
    "price_postapoc": 5000,
    "displacement": 3800
  },
  {
    "id": "large_turbine_engine",
    "copy-from": "engine_gasoline",
    "type": "ENGINE",
    "name": { "str": "6000 hp gas turbine engine" },
    "description": "A massive gas turbine engine, used to power the V-22 Osprey.  Known for its high rate of fuel consumption, but installing multiple turbines will not affect vehicle power.",
    "weight": "3164000 g",
    "volume": "95 L",
    "price": 960000,
    "price_postapoc": 7500,
    "displacement": 11995
  }
]
