[
  {
    "type": "palette",
    "id": "fbmc_shelter_1_palette_wad",
    "terrain": { "w": "t_wall_wattle", "d": "t_door_makeshift_c" },
    "furniture": {
      "h": "f_chair",
      "t": "f_table",
      "x": "f_coffee_table",
      "c": "f_workbench",
      "r": "f_rack",
      "b": "f_bed",
      "m": "f_straw_bed",
      "n": "f_makeshift_bed",
      "L": "f_locker",
      "s": "f_sofa",
      "C": "f_armchair",
      "B": "f_bookcase"
    }
  },
  {
    "type": "mapgen",
    "method": "json",
    "nested_mapgen_id": "fbmc_shelter_1_bedroom_NW_wad",
    "object": {
      "mapgensize": [ 3, 3 ],
      "rows": [
        "  w",
        "  w",
        "wdw"
      ],
      "palettes": [ "fbmc_shelter_1_palette_wad" ]
    },
    "id": "bbcc5dc8-d53d-4f16-aa3e-5c4a7b213ef2"
  },
  {
    "type": "mapgen",
    "update_mapgen_id": "fbmc_shelter_1_bedroom_NW_wad",
    "method": "json",
    "object": { "place_nested": [ { "chunks": [ "fbmc_shelter_1_bedroom_NW_wad" ], "x": 8, "y": 8 } ] },
    "id": "59b86d61-1d44-4993-a7c1-2105eef5bc9a"
  },
  {
    "type": "mapgen",
    "method": "json",
    "nested_mapgen_id": "fbmc_shelter_1_bedroom_W1_wad",
    "object": {
      "mapgensize": [ 3, 3 ],
      "rows": [
        "  w",
        "  d",
        "www"
      ],
      "palettes": [ "fbmc_shelter_1_palette_wad" ]
    },
    "id": "a8da1fda-33e3-4886-895e-5b0036a369c6"
  },
  {
    "type": "mapgen",
    "update_mapgen_id": "fbmc_shelter_1_bedroom_W1_wad",
    "method": "json",
    "object": { "place_nested": [ { "chunks": [ "fbmc_shelter_1_bedroom_W1_wad" ], "x": 5, "y": 10 } ] },
    "id": "bba42345-45e0-4225-a012-27f71f4b31f4"
  },
  {
    "type": "mapgen",
    "method": "json",
    "nested_mapgen_id": "fbmc_shelter_1_bedroom_W2_wad",
    "object": {
      "mapgensize": [ 3, 3 ],
      "rows": [
        "  w",
        "  d",
        "www"
      ],
      "palettes": [ "fbmc_shelter_1_palette_wad" ]
    },
    "id": "8ead3a73-77d0-43dc-bc6d-bd41514dc9f0"
  },
  {
    "type": "mapgen",
    "update_mapgen_id": "fbmc_shelter_1_bedroom_W2",
    "method": "json",
    "object": { "place_nested": [ { "chunks": [ "fbmc_shelter_1_bedroom_W2_wad" ], "x": 5, "y": 13 } ] },
    "id": "d052a098-6fab-4a61-b942-9ee4803589d5"
  },
  {
    "type": "mapgen",
    "method": "json",
    "nested_mapgen_id": "fbmc_shelter_1_bedroom_W3_wad",
    "object": {
      "mapgensize": [ 3, 3 ],
      "rows": [
        "  w",
        " X ",
        "  d"
      ],
      "palettes": [ "fbmc_shelter_1_palette_wad" ],
      "terrain": { "X": "t_floor" }
    },
    "id": "ce3a7f32-b944-432a-87a8-8a77e6043a80"
  },
  {
    "type": "mapgen",
    "method": "json",
    "nested_mapgen_id": "fbmc_shelter_1_bedroom_SW_wad",
    "object": {
      "mapgensize": [ 4, 4 ],
      "rows": [
        "  ww",
        "  w ",
        "  w ",
        "  w "
      ],
      "palettes": [ "fbmc_shelter_1_palette_wad" ]
    },
    "id": "647c6fae-26cd-413d-b311-fb7a7d760dd1"
  },
  {
    "type": "mapgen",
    "update_mapgen_id": "fbmc_shelter_1_bedroom_SW_wad",
    "method": "json",
    "object": {
      "place_nested": [
        { "chunks": [ "fbmc_shelter_1_bedroom_SW_wad" ], "x": 5, "y": 19 },
        { "chunks": [ "fbmc_shelter_1_bedroom_W3_wad" ], "x": 5, "y": 16 }
      ]
    },
    "id": "3b3b0759-dee6-416a-a362-b4b540d1cb15"
  },
  {
    "type": "mapgen",
    "method": "json",
    "nested_mapgen_id": "fbmc_shelter_1_bedroom_S1_wad",
    "object": {
      "mapgensize": [ 4, 4 ],
      "rows": [
        " dww",
        "   w",
        "   w",
        "   w"
      ],
      "palettes": [ "fbmc_shelter_1_palette_wad" ]
    },
    "id": "9e388eec-e6c0-4ec7-a67f-3a169e0aeb26"
  },
  {
    "type": "mapgen",
    "method": "json",
    "nested_mapgen_id": "fbmc_shelter_1_bedroom_S2_wad",
    "object": { "mapgensize": [ 2, 2 ], "rows": [
        "dw",
        "  "
      ], "palettes": [ "fbmc_shelter_1_palette_wad" ] },
    "id": "c69e7b0c-5c3e-4861-ac71-c933e98c2ce6"
  },
  {
    "type": "mapgen",
    "update_mapgen_id": "fbmc_shelter_1_bedroom_S_wad",
    "method": "json",
    "object": {
      "place_nested": [
        { "chunks": [ "fbmc_shelter_1_bedroom_S1_wad" ], "x": 8, "y": 19 },
        { "chunks": [ "fbmc_shelter_1_bedroom_S2_wad" ], "x": 12, "y": 19 }
      ]
    },
    "id": "88607380-4588-4592-bf04-a55b883da608"
  }
]
