[
  {
    "type": "recipe",
    "result": "faction_base_modular_shelter_1_bedroom1_log",
    "description": "Let's build some living quarters so we can expand.  We will start in the northwest corner.",
    "category": "CC_BUILDING",
    "subcategory": "CSC_BUILDING_BASES",
    "autolearn": false,
    "never_learn": true,
    "construction_blueprint": "fbmc_shelter_1_bedroom_NW_log",
    "blueprint_name": "build NW log bedroom walls",
    "blueprint_requires": [ { "id": "fbmc_shelter_1_fire" } ],
    "blueprint_provides": [ { "id": "fbmc_shelter_1_bedroom1" } ],
    "blueprint_excludes": [ { "id": "fbmc_shelter_1_bedroom1" } ],
    "blueprint_needs": {
      "time": "11 h 30 m",
      "skills": [ [ "fabrication", 3 ] ],
      "inline": {
        "tools": [  ],
        "qualities": [ [ { "id": "DIG", "level": 2 } ], [ { "id": "HAMMER", "level": 2 } ], [ { "id": "SAW_W", "level": 2 } ] ],
        "components": [ [ [ "2x4", 38 ] ], [ [ "hinge", 2 ] ], [ [ "log", 16 ] ], [ [ "nail", 36 ] ], [ [ "wood_panel", 1 ] ] ]
      }
    },
    "id": "6cdfea1b-4a4c-4da8-83a6-beb106738660"
  },
  {
    "type": "recipe",
    "result": "faction_base_modular_shelter_1_bedroom2_log",
    "description": "Let's build some living quarters so we can expand.  We will continue along the west wall.",
    "category": "CC_BUILDING",
    "subcategory": "CSC_BUILDING_BASES",
    "autolearn": false,
    "never_learn": true,
    "construction_blueprint": "fbmc_shelter_1_bedroom_W1_log",
    "blueprint_name": "build W log bedroom walls",
    "blueprint_requires": [ { "id": "fbmc_shelter_1_bedroom1" } ],
    "blueprint_provides": [ { "id": "fbmc_shelter_1_bedroom2" } ],
    "blueprint_excludes": [ { "id": "fbmc_shelter_1_bedroom2" } ],
    "blueprint_needs": {
      "time": "11 h 30 m",
      "skills": [ [ "fabrication", 3 ] ],
      "inline": {
        "tools": [  ],
        "qualities": [ [ { "id": "DIG", "level": 2 } ], [ { "id": "HAMMER", "level": 2 } ], [ { "id": "SAW_W", "level": 2 } ] ],
        "components": [ [ [ "2x4", 38 ] ], [ [ "hinge", 2 ] ], [ [ "log", 16 ] ], [ [ "nail", 36 ] ], [ [ "wood_panel", 1 ] ] ]
      }
    },
    "id": "34c93a03-ae91-4d7e-b7cf-e5bb182970f1"
  },
  {
    "type": "recipe",
    "result": "faction_base_modular_shelter_1_bedroom3_log",
    "description": "Let's build some living quarters so we can expand.  We will continue along the same wall.",
    "category": "CC_BUILDING",
    "subcategory": "CSC_BUILDING_BASES",
    "autolearn": false,
    "never_learn": true,
    "construction_blueprint": "fbmc_shelter_1_bedroom_W2",
    "blueprint_name": "build W log bedroom walls",
    "blueprint_requires": [ { "id": "fbmc_shelter_1_bedroom2" } ],
    "blueprint_provides": [ { "id": "fbmc_shelter_1_bedroom3" } ],
    "blueprint_excludes": [ { "id": "fbmc_shelter_1_bedroom3" } ],
    "blueprint_needs": {
      "time": "11 h 30 m",
      "skills": [ [ "fabrication", 3 ] ],
      "inline": {
        "tools": [  ],
        "qualities": [ [ { "id": "DIG", "level": 2 } ], [ { "id": "HAMMER", "level": 2 } ], [ { "id": "SAW_W", "level": 2 } ] ],
        "components": [ [ [ "2x4", 38 ] ], [ [ "hinge", 2 ] ], [ [ "log", 16 ] ], [ [ "nail", 36 ] ], [ [ "wood_panel", 1 ] ] ]
      }
    },
    "id": "6d676f32-aaed-4601-b30b-7996cb129b9a"
  },
  {
    "type": "recipe",
    "result": "faction_base_modular_shelter_1_bedroom5_log",
    "description": "Let's build some living quarters so we can expand.  We will continue along the southwest corner.",
    "category": "CC_BUILDING",
    "subcategory": "CSC_BUILDING_BASES",
    "autolearn": false,
    "never_learn": true,
    "construction_blueprint": "fbmc_shelter_1_bedroom_SW_log",
    "blueprint_name": "build SW log bedroom walls",
    "blueprint_requires": [ { "id": "fbmc_shelter_1_bedroom3" } ],
    "blueprint_provides": [ { "id": "fbmc_shelter_1_bedroom5" } ],
    "blueprint_excludes": [ { "id": "fbmc_shelter_1_bedroom5" } ],
    "blueprint_needs": {
      "time": "16 h 40 m",
      "skills": [ [ "fabrication", 3 ] ],
      "inline": {
        "tools": [  ],
        "qualities": [ [ { "id": "DIG", "level": 2 } ], [ { "id": "HAMMER", "level": 2 } ], [ { "id": "SAW_W", "level": 2 } ] ],
        "components": [ [ [ "2x4", 50 ] ], [ [ "hinge", 2 ] ], [ [ "log", 24 ] ], [ [ "nail", 36 ] ], [ [ "wood_panel", 1 ] ] ]
      }
    },
    "id": "c8f84518-ca46-4246-b8f7-881174422f99"
  },
  {
    "type": "recipe",
    "result": "faction_base_modular_shelter_1_bedroom6_log",
    "description": "Let's build some living quarters so we can expand.  We will continue along the south wall.",
    "category": "CC_BUILDING",
    "subcategory": "CSC_BUILDING_BASES",
    "autolearn": false,
    "never_learn": true,
    "construction_blueprint": "fbmc_shelter_1_bedroom_S_log",
    "blueprint_name": "build S log bedroom walls",
    "blueprint_requires": [ { "id": "fbmc_shelter_1_bedroom5" } ],
    "blueprint_provides": [ { "id": "fbmc_shelter_1_bedroom6" } ],
    "blueprint_excludes": [ { "id": "fbmc_shelter_1_bedroom6" } ],
    "blueprint_needs": {
      "time": "18 h",
      "skills": [ [ "fabrication", 3 ] ],
      "inline": {
        "tools": [  ],
        "qualities": [ [ { "id": "DIG", "level": 2 } ], [ { "id": "HAMMER", "level": 2 } ], [ { "id": "SAW_W", "level": 2 } ] ],
        "components": [ [ [ "2x4", 64 ] ], [ [ "hinge", 4 ] ], [ [ "log", 24 ] ], [ [ "nail", 72 ] ], [ [ "wood_panel", 2 ] ] ]
      }
    },
    "id": "a0327896-41a2-4312-838f-2da7f2bbff7d"
  }
]
