[
  {
    "type": "recipe",
    "result": "faction_base_modular_hub_room0_rammed_earth_northeast",
    "description": "We need some shelter, so build half of a rammed earth shack with a sod roof on the northeast side of the camp",
    "category": "CC_BUILDING",
    "subcategory": "CSC_BUILDING_BASES",
    "autolearn": false,
    "never_learn": true,
    "construction_blueprint": "fbmh_room0_rammed_earth_northeast",
    "blueprint_name": "northeast shack",
    "blueprint_requires": [ { "id": "fbmh_0" } ],
    "blueprint_provides": [ { "id": "fbmh_northeast" } ],
    "blueprint_excludes": [ { "id": "fbmh_northeast" } ],
    "blueprint_needs": {
      "time": "1 d 1 h",
      "skills": [ [ "fabrication", 4 ] ],
      "inline": {
        "tools": [ [ [ "log", -1 ] ] ],
        "qualities": [ [ { "id": "DIG", "level": 2 } ], [ { "id": "HAMMER", "level": 2 } ], [ { "id": "SMOOTH" } ] ],
        "components": [
          [ [ "2x4", 16 ], [ "stick", 16 ], [ "stick_long", 8 ] ],
          [ [ "birchbark", 48 ], [ "pine_bough", 48 ] ],
          [ [ "concrete", 4 ], [ "material_quicklime", 80 ], [ "material_sand", 80 ] ],
          [ [ "log", 8 ] ],
          [ [ "material_soil", 560 ] ],
          [ [ "pointy_stick", 8 ], [ "spear_wood", 8 ] ],
          [ [ "water", 200 ], [ "water_clean", 200 ] ]
        ]
      }
    },
    "id": "29659c7a-3ed3-4639-a192-1387643fc290"
  },
  {
    "type": "recipe",
    "result": "faction_base_modular_hub_room1_rammed_earth_northeast",
    "description": "We should use rammed earth to expand the shelter so we have space for another bed.",
    "category": "CC_BUILDING",
    "subcategory": "CSC_BUILDING_BASES",
    "autolearn": false,
    "never_learn": true,
    "construction_blueprint": "fbmh_room1_rammed_earth_northeast",
    "blueprint_name": "expand northeast shack",
    "blueprint_requires": [ { "id": "fbmh_northeast" } ],
    "blueprint_provides": [ { "id": "fbmh_northeast" } ],
    "blueprint_excludes": [ { "id": "fbmh_northeast", "amount": 2 }, { "id": "fbmh_tent_northeast" } ],
    "blueprint_needs": {
      "time": "1 d",
      "skills": [ [ "fabrication", 4 ] ],
      "inline": {
        "tools": [ [ [ "log", -1 ] ] ],
        "qualities": [ [ { "id": "DIG", "level": 2 } ], [ { "id": "HAMMER", "level": 2 } ], [ { "id": "SMOOTH" } ] ],
        "components": [
          [ [ "log", 12 ] ],
          [ [ "2x4", 20 ], [ "stick", 20 ], [ "stick_long", 10 ] ],
          [ [ "birchbark", 60 ], [ "pine_bough", 60 ] ],
          [ [ "concrete", 3 ], [ "material_quicklime", 60 ], [ "material_sand", 60 ] ],
          [ [ "material_soil", 500 ] ],
          [ [ "nail", 30 ] ],
          [ [ "pointy_stick", 6 ], [ "spear_wood", 6 ] ],
          [ [ "water", 150 ], [ "water_clean", 150 ] ]
        ]
      }
    },
    "id": "f6e44a4c-2a99-40dd-8a5c-7580875a59ea"
  },
  {
    "type": "recipe",
    "result": "faction_base_modular_hub_room2_rammed_earth_northeast",
    "description": "We should use rammed earth to finish the northeast shack.",
    "category": "CC_BUILDING",
    "subcategory": "CSC_BUILDING_BASES",
    "skill_used": "fabrication",
    "autolearn": false,
    "never_learn": true,
    "construction_blueprint": "fbmh_room2_rammed_earth_northeast",
    "blueprint_name": "finish northeast shack",
    "blueprint_requires": [ { "id": "fbmh_northeast", "amount": 2 } ],
    "blueprint_provides": [ { "id": "fbmh_northeast", "amount": 2 } ],
    "blueprint_excludes": [ { "id": "fbmh_northeast", "amount": 4 }, { "id": "fbmh_tent_northeast" } ],
    "blueprint_needs": {
      "time": "1 d 7 h 15 m",
      "skills": [ [ "fabrication", 2 ] ],
      "inline": {
        "tools": [ [ [ "log", -1 ] ] ],
        "qualities": [ [ { "id": "CUT" } ], [ { "id": "DIG", "level": 2 } ], [ { "id": "HAMMER", "level": 2 } ], [ { "id": "SMOOTH" } ] ],
        "components": [
          [ [ "2x4", 18 ] ],
          [ [ "concrete", 7 ], [ "material_quicklime", 140 ], [ "material_sand", 140 ] ],
          [ [ "material_soil", 700 ] ],
          [ [ "nail", 24 ] ],
          [ [ "pointy_stick", 14 ], [ "spear_wood", 14 ] ],
          [ [ "rope_6", 2 ], [ "rope_makeshift_6", 2 ] ],
          [ [ "water", 350 ], [ "water_clean", 350 ] ]
        ]
      }
    },
    "id": "e42218b6-0652-428c-811f-6872a987a2a5"
  },
  {
    "type": "recipe",
    "result": "faction_base_modular_hub_shack4_rammed_earth_east",
    "description": "We should expand our housing by putting up a rammed earth building on the east side, which we can also use as part of the central building.",
    "category": "CC_BUILDING",
    "subcategory": "CSC_BUILDING_BASES",
    "autolearn": false,
    "never_learn": true,
    "construction_blueprint": "fbmh_shack4_rammed_earth_east",
    "blueprint_name": "east shack",
    "blueprint_requires": [ { "id": "fbmh_tent_northeast" }, { "id": "fbmh_fire_northeast" }, { "id": "fbmh_bed2_northeast" } ],
    "blueprint_provides": [ { "id": "fbmh_east", "amount": 4 } ],
    "blueprint_excludes": [ { "id": "fbmh_east" } ],
    "blueprint_needs": {
      "time": "4 d 12 h 30 m",
      "skills": [ [ "fabrication", 4 ] ],
      "inline": {
        "tools": [ [ [ "log", -1 ] ] ],
        "qualities": [ [ { "id": "CUT" } ], [ { "id": "DIG", "level": 2 } ], [ { "id": "HAMMER", "level": 2 } ], [ { "id": "SMOOTH" } ] ],
        "components": [
          [ [ "2x4", 115 ] ],
          [ [ "birchbark", 192 ], [ "pine_bough", 192 ] ],
          [ [ "concrete", 17 ], [ "material_quicklime", 340 ], [ "material_sand", 340 ] ],
          [ [ "log", 32 ] ],
          [ [ "material_soil", 2340 ] ],
          [ [ "nail", 78 ] ],
          [ [ "pointy_stick", 34 ], [ "spear_wood", 34 ] ],
          [ [ "rope_6", 4 ], [ "rope_makeshift_6", 4 ] ],
          [ [ "water", 850 ], [ "water_clean", 850 ] ]
        ]
      }
    },
    "id": "2bbe2eae-386a-47e9-9fe0-3a57a6f220ce"
  },
  {
    "type": "recipe",
    "result": "faction_base_modular_hub_room4_rammed_earth_east",
    "description": "We should expand our housing by adding a rammed earth room on the east side, which we can also use as part of the central building.",
    "category": "CC_BUILDING",
    "subcategory": "CSC_BUILDING_BASES",
    "skill_used": "fabrication",
    "autolearn": false,
    "never_learn": true,
    "construction_blueprint": "fbmh_room4_rammed_earth_east",
    "blueprint_name": "east room",
    "blueprint_requires": [ { "id": "fbmh_northeast", "amount": 4 }, { "id": "fbmh_fire_northeast" }, { "id": "fbmh_bed2_northeast" } ],
    "blueprint_provides": [ { "id": "fbmh_east", "amount": 4 } ],
    "blueprint_excludes": [ { "id": "fbmh_east" }, { "id": "fbmh_tent_northeast" } ],
    "blueprint_needs": {
      "time": "4 d 7 h 45 m",
      "skills": [ [ "fabrication", 4 ] ],
      "inline": {
        "tools": [ [ [ "log", -1 ] ] ],
        "qualities": [ [ { "id": "CUT" } ], [ { "id": "DIG", "level": 2 } ], [ { "id": "HAMMER", "level": 2 } ], [ { "id": "SMOOTH" } ] ],
        "components": [
          [ [ "2x4", 131 ] ],
          [ [ "birchbark", 240 ], [ "pine_bough", 240 ] ],
          [ [ "concrete", 14 ], [ "material_quicklime", 280 ], [ "material_sand", 280 ] ],
          [ [ "log", 40 ] ],
          [ [ "material_soil", 2200 ] ],
          [ [ "nail", 78 ] ],
          [ [ "pointy_stick", 28 ], [ "spear_wood", 28 ] ],
          [ [ "rope_6", 4 ], [ "rope_makeshift_6", 4 ] ],
          [ [ "water", 700 ], [ "water_clean", 700 ] ]
        ]
      }
    },
    "id": "ad0e6515-2091-4af3-8278-f61a6a4c71d7"
  },
  {
    "type": "recipe",
    "result": "faction_base_modular_hub_shack4_rammed_earth_southeast",
    "description": "We should expand our housing by putting up a rammed earth building on the southeast side, which we can also use as part of the central building.",
    "category": "CC_BUILDING",
    "subcategory": "CSC_BUILDING_BASES",
    "autolearn": false,
    "never_learn": true,
    "construction_blueprint": "fbmh_shack4_rammed_earth_southeast",
    "blueprint_name": "southeast shack",
    "blueprint_requires": [ { "id": "fbmh_tent_east" } ],
    "blueprint_provides": [ { "id": "fbmh_southeast", "amount": 4 } ],
    "blueprint_excludes": [ { "id": "fbmh_southeast" } ],
    "blueprint_needs": {
      "time": "4 d 12 h 30 m",
      "skills": [ [ "fabrication", 4 ] ],
      "inline": {
        "tools": [ [ [ "log", -1 ] ] ],
        "qualities": [ [ { "id": "CUT" } ], [ { "id": "DIG", "level": 2 } ], [ { "id": "HAMMER", "level": 2 } ], [ { "id": "SMOOTH" } ] ],
        "components": [
          [ [ "2x4", 115 ] ],
          [ [ "birchbark", 192 ], [ "pine_bough", 192 ] ],
          [ [ "concrete", 17 ], [ "material_quicklime", 340 ], [ "material_sand", 340 ] ],
          [ [ "log", 32 ] ],
          [ [ "material_soil", 2340 ] ],
          [ [ "nail", 78 ] ],
          [ [ "pointy_stick", 34 ], [ "spear_wood", 34 ] ],
          [ [ "rope_6", 4 ], [ "rope_makeshift_6", 4 ] ],
          [ [ "water", 850 ], [ "water_clean", 850 ] ]
        ]
      }
    },
    "id": "c558fa7c-532c-4def-bdbc-04024e30aacd"
  },
  {
    "type": "recipe",
    "result": "faction_base_modular_hub_room4_rammed_earth_southeast",
    "description": "We should expand our housing by adding a rammed earth room on the southeast side, which we can also use as part of the central building.",
    "category": "CC_BUILDING",
    "subcategory": "CSC_BUILDING_BASES",
    "skills_required": [ [ "survival", 3 ], [ "tailor", 1 ] ],
    "autolearn": false,
    "never_learn": true,
    "construction_blueprint": "fbmh_room4_rammed_earth_southeast",
    "blueprint_name": "southeast room",
    "blueprint_requires": [ { "id": "fbmh_east", "amount": 4 } ],
    "blueprint_provides": [ { "id": "fbmh_southeast", "amount": 4 } ],
    "blueprint_excludes": [ { "id": "fbmh_southeast" }, { "id": "fbmh_tent_east" } ],
    "blueprint_needs": {
      "time": "4 d 3 h 30 m",
      "skills": [ [ "fabrication", 4 ] ],
      "inline": {
        "tools": [ [ [ "log", -1 ] ] ],
        "qualities": [ [ { "id": "CUT" } ], [ { "id": "DIG", "level": 2 } ], [ { "id": "HAMMER", "level": 2 } ], [ { "id": "SMOOTH" } ] ],
        "components": [
          [ [ "2x4", 131 ] ],
          [ [ "birchbark", 240 ], [ "pine_bough", 240 ] ],
          [ [ "concrete", 13 ], [ "material_quicklime", 260 ], [ "material_sand", 260 ] ],
          [ [ "log", 40 ] ],
          [ [ "material_soil", 2100 ] ],
          [ [ "nail", 78 ] ],
          [ [ "pointy_stick", 26 ], [ "spear_wood", 26 ] ],
          [ [ "rope_6", 4 ], [ "rope_makeshift_6", 4 ] ],
          [ [ "water", 650 ], [ "water_clean", 650 ] ]
        ]
      }
    },
    "id": "255147aa-34bb-4c4b-892c-280b052994e9"
  },
  {
    "type": "recipe",
    "result": "faction_base_modular_hub_room4_rammed_earth_northwest",
    "description": "We should expand our housing by putting up a rammed earth building on the northwest side, which we can also use as part of the central building.",
    "category": "CC_BUILDING",
    "subcategory": "CSC_BUILDING_BASES",
    "autolearn": false,
    "never_learn": true,
    "construction_blueprint": "fbmh_room4_rammed_earth_northwest",
    "blueprint_name": "northwest shack",
    "blueprint_requires": [ { "id": "fbmh_northeast", "amount": 4 }, { "id": "fbmh_fire_northeast" }, { "id": "fbmh_bed2_northeast" } ],
    "blueprint_provides": [ { "id": "fbmh_northwest", "amount": 4 } ],
    "blueprint_excludes": [ { "id": "fbmh_northwest" } ],
    "blueprint_needs": {
      "time": "3 d 8 h 15 m",
      "skills": [ [ "fabrication", 4 ] ],
      "inline": {
        "tools": [ [ [ "log", -1 ] ] ],
        "qualities": [ [ { "id": "CUT" } ], [ { "id": "DIG", "level": 2 } ], [ { "id": "HAMMER", "level": 2 } ], [ { "id": "SMOOTH" } ] ],
        "components": [
          [ [ "2x4", 69 ] ],
          [ [ "birchbark", 108 ], [ "pine_bough", 108 ] ],
          [ [ "concrete", 14 ], [ "material_quicklime", 280 ], [ "material_sand", 280 ] ],
          [ [ "log", 18 ] ],
          [ [ "material_soil", 1760 ] ],
          [ [ "nail", 54 ] ],
          [ [ "pointy_stick", 28 ], [ "spear_wood", 28 ] ],
          [ [ "rope_6", 2 ], [ "rope_makeshift_6", 2 ] ],
          [ [ "water", 700 ], [ "water_clean", 700 ] ]
        ]
      }
    },
    "id": "3e3ff42e-ec86-480c-a7c4-2244cc2e0335"
  },
  {
    "type": "recipe",
    "result": "faction_base_modular_hub_shack4_rammed_earth_west",
    "description": "We should expand our housing by putting up a rammed earth building on the west side, which we can also use as part of the central building.",
    "category": "CC_BUILDING",
    "subcategory": "CSC_BUILDING_BASES",
    "autolearn": false,
    "never_learn": true,
    "construction_blueprint": "fbmh_shack4_rammed_earth_west",
    "blueprint_name": "west shack",
    "blueprint_requires": [ { "id": "fbmh_tent_northwest" } ],
    "blueprint_provides": [ { "id": "fbmh_west", "amount": 4 } ],
    "blueprint_excludes": [ { "id": "fbmh_west" } ],
    "blueprint_needs": {
      "time": "4 d 12 h 30 m",
      "skills": [ [ "fabrication", 4 ] ],
      "inline": {
        "tools": [ [ [ "log", -1 ] ] ],
        "qualities": [ [ { "id": "CUT" } ], [ { "id": "DIG", "level": 2 } ], [ { "id": "HAMMER", "level": 2 } ], [ { "id": "SMOOTH" } ] ],
        "components": [
          [ [ "2x4", 115 ] ],
          [ [ "birchbark", 192 ], [ "pine_bough", 192 ] ],
          [ [ "concrete", 17 ], [ "material_quicklime", 340 ], [ "material_sand", 340 ] ],
          [ [ "log", 32 ] ],
          [ [ "material_soil", 2340 ] ],
          [ [ "nail", 78 ] ],
          [ [ "pointy_stick", 34 ], [ "spear_wood", 34 ] ],
          [ [ "rope_6", 4 ], [ "rope_makeshift_6", 4 ] ],
          [ [ "water", 850 ], [ "water_clean", 850 ] ]
        ]
      }
    },
    "id": "fc132d2f-972c-4872-8fc9-7b83e725172e"
  },
  {
    "type": "recipe",
    "result": "faction_base_modular_hub_room4_rammed_earth_west",
    "description": "We should expand our housing by adding a rammed earth room on the west side, which we can also use as part of the central building.",
    "category": "CC_BUILDING",
    "subcategory": "CSC_BUILDING_BASES",
    "autolearn": false,
    "never_learn": true,
    "construction_blueprint": "fbmh_room4_rammed_earth_west",
    "blueprint_name": "west room",
    "blueprint_requires": [ { "id": "fbmh_northwest", "amount": 4 } ],
    "blueprint_provides": [ { "id": "fbmh_west", "amount": 4 } ],
    "blueprint_excludes": [ { "id": "fbmh_west" }, { "id": "fbmh_tent_northwest" } ],
    "blueprint_needs": {
      "time": "4 d 7 h 45 m",
      "skills": [ [ "fabrication", 4 ] ],
      "inline": {
        "tools": [ [ [ "log", -1 ] ] ],
        "qualities": [ [ { "id": "CUT" } ], [ { "id": "DIG", "level": 2 } ], [ { "id": "HAMMER", "level": 2 } ], [ { "id": "SMOOTH" } ] ],
        "components": [
          [ [ "2x4", 131 ] ],
          [ [ "birchbark", 240 ], [ "pine_bough", 240 ] ],
          [ [ "concrete", 14 ], [ "material_quicklime", 280 ], [ "material_sand", 280 ] ],
          [ [ "log", 40 ] ],
          [ [ "material_soil", 2200 ] ],
          [ [ "nail", 78 ] ],
          [ [ "pointy_stick", 28 ], [ "spear_wood", 28 ] ],
          [ [ "rope_6", 4 ], [ "rope_makeshift_6", 4 ] ],
          [ [ "water", 700 ], [ "water_clean", 700 ] ]
        ]
      }
    },
    "id": "bad0bdc2-c10e-4b2d-b691-79ceb6e797a6"
  },
  {
    "type": "recipe",
    "result": "faction_base_modular_hub_shack4_rammed_earth_southwest",
    "description": "We should expand our housing by putting up a rammed earth building on the southwest side, which we can also use as part of the central building.",
    "category": "CC_BUILDING",
    "subcategory": "CSC_BUILDING_BASES",
    "autolearn": false,
    "never_learn": true,
    "construction_blueprint": "fbmh_shack4_rammed_earth_southwest",
    "blueprint_name": "southwest shack",
    "blueprint_requires": [ { "id": "fbmh_tent_west" } ],
    "blueprint_provides": [ { "id": "fbmh_southwest", "amount": 4 } ],
    "blueprint_excludes": [ { "id": "fbmh_southwest" } ],
    "blueprint_needs": {
      "time": "4 d 12 h 30 m",
      "skills": [ [ "fabrication", 4 ] ],
      "inline": {
        "tools": [ [ [ "log", -1 ] ] ],
        "qualities": [ [ { "id": "CUT" } ], [ { "id": "DIG", "level": 2 } ], [ { "id": "HAMMER", "level": 2 } ], [ { "id": "SMOOTH" } ] ],
        "components": [
          [ [ "2x4", 115 ] ],
          [ [ "birchbark", 192 ], [ "pine_bough", 192 ] ],
          [ [ "concrete", 17 ], [ "material_quicklime", 340 ], [ "material_sand", 340 ] ],
          [ [ "log", 32 ] ],
          [ [ "material_soil", 2340 ] ],
          [ [ "nail", 78 ] ],
          [ [ "pointy_stick", 34 ], [ "spear_wood", 34 ] ],
          [ [ "rope_6", 4 ], [ "rope_makeshift_6", 4 ] ],
          [ [ "water", 850 ], [ "water_clean", 850 ] ]
        ]
      }
    },
    "id": "8ba2b1f9-1a79-48fa-8ed8-e7689493c13d"
  },
  {
    "type": "recipe",
    "result": "faction_base_modular_hub_room4_rammed_earth_southwest",
    "description": "We should expand our housing by adding a rammed earth room on the southwest side, which we can also use as part of the central building.",
    "category": "CC_BUILDING",
    "subcategory": "CSC_BUILDING_BASES",
    "autolearn": false,
    "never_learn": true,
    "construction_blueprint": "fbmh_room4_rammed_earth_southwest",
    "blueprint_name": "southwest room",
    "blueprint_requires": [ { "id": "fbmh_west", "amount": 4 } ],
    "blueprint_provides": [ { "id": "fbmh_southwest", "amount": 4 } ],
    "blueprint_excludes": [ { "id": "fbmh_southwest" }, { "id": "fbmh_tent_west" } ],
    "blueprint_needs": {
      "time": "4 d 3 h 30 m",
      "skills": [ [ "fabrication", 4 ] ],
      "inline": {
        "tools": [ [ [ "log", -1 ] ] ],
        "qualities": [ [ { "id": "CUT" } ], [ { "id": "DIG", "level": 2 } ], [ { "id": "HAMMER", "level": 2 } ], [ { "id": "SMOOTH" } ] ],
        "components": [
          [ [ "2x4", 131 ] ],
          [ [ "birchbark", 240 ], [ "pine_bough", 240 ] ],
          [ [ "concrete", 13 ], [ "material_quicklime", 260 ], [ "material_sand", 260 ] ],
          [ [ "log", 40 ] ],
          [ [ "material_soil", 2100 ] ],
          [ [ "nail", 78 ] ],
          [ [ "pointy_stick", 26 ], [ "spear_wood", 26 ] ],
          [ [ "rope_6", 4 ], [ "rope_makeshift_6", 4 ] ],
          [ [ "water", 650 ], [ "water_clean", 650 ] ]
        ]
      }
    },
    "id": "47650bbb-54a1-4f31-b45c-7e3ee72b2dd3"
  },
  {
    "type": "recipe",
    "result": "faction_base_modular_hub_core_shack_ne_rammed_earth_center",
    "description": "A central building can act as a kitchen and dining hall.  We should build the northeast quarter of one from rammed earth.",
    "category": "CC_BUILDING",
    "subcategory": "CSC_BUILDING_BASES",
    "autolearn": false,
    "never_learn": true,
    "construction_blueprint": "fbmh_core_shack_ne_rammed_earth_center",
    "blueprint_name": "central building NE corner",
    "blueprint_requires": [ { "id": "fbmh_tent_east" } ],
    "blueprint_provides": [ { "id": "fbmh_center", "amount": 2 }, { "id": "fbmh_ne_center" } ],
    "blueprint_excludes": [ { "id": "fbmh_ne_center" } ],
    "blueprint_needs": {
      "time": "2 d 3 h 15 m",
      "skills": [ [ "fabrication", 4 ] ],
      "inline": {
        "tools": [ [ [ "log", -1 ] ] ],
        "qualities": [ [ { "id": "CUT" } ], [ { "id": "DIG", "level": 2 } ], [ { "id": "HAMMER", "level": 2 } ], [ { "id": "SMOOTH" } ] ],
        "components": [
          [ [ "2x4", 58 ] ],
          [ [ "birchbark", 120 ], [ "pine_bough", 120 ] ],
          [ [ "concrete", 7 ], [ "material_quicklime", 140 ], [ "material_sand", 140 ] ],
          [ [ "log", 20 ] ],
          [ [ "material_soil", 1100 ] ],
          [ [ "nail", 24 ] ],
          [ [ "pointy_stick", 14 ], [ "spear_wood", 14 ] ],
          [ [ "rope_6", 2 ], [ "rope_makeshift_6", 2 ] ],
          [ [ "water", 350 ], [ "water_clean", 350 ] ]
        ]
      }
    },
    "id": "47826e22-11f6-4c8c-a21a-6f3934223c29"
  },
  {
    "type": "recipe",
    "result": "faction_base_modular_hub_core_ne_rammed_earth_center",
    "description": "A central building can act as a core and dining hall.  We should build out from the east room with rammed earth.",
    "category": "CC_BUILDING",
    "subcategory": "CSC_BUILDING_BASES",
    "autolearn": false,
    "never_learn": true,
    "construction_blueprint": "fbmh_core_ne_rammed_earth_center",
    "blueprint_name": "central building NE corner",
    "blueprint_requires": [ { "id": "fbmh_east", "amount": 4 } ],
    "blueprint_provides": [ { "id": "fbmh_center", "amount": 2 }, { "id": "fbmh_ne_center" } ],
    "blueprint_excludes": [ { "id": "fbmh_ne_center" }, { "id": "fbmh_tent_east" } ],
    "blueprint_needs": {
      "time": "1 d 18 h 45 m",
      "skills": [ [ "fabrication", 4 ] ],
      "inline": {
        "tools": [ [ [ "log", -1 ] ] ],
        "qualities": [ [ { "id": "DIG", "level": 2 } ], [ { "id": "HAMMER", "level": 2 } ], [ { "id": "SMOOTH" } ] ],
        "components": [
          [ [ "2x4", 60 ], [ "stick", 60 ], [ "stick_long", 30 ] ],
          [ [ "birchbark", 180 ], [ "pine_bough", 180 ] ],
          [ [ "concrete", 3 ], [ "material_quicklime", 60 ], [ "material_sand", 60 ] ],
          [ [ "log", 30 ] ],
          [ [ "material_soil", 900 ] ],
          [ [ "pointy_stick", 6 ], [ "spear_wood", 6 ] ],
          [ [ "water", 150 ], [ "water_clean", 150 ] ]
        ]
      }
    },
    "id": "084a1e92-0e80-43d6-8aec-46525574c9f0"
  },
  {
    "type": "recipe",
    "result": "faction_base_modular_hub_core_shack_nw_rammed_earth_center",
    "description": "A central building can act as a core and dining hall.  We should build the northwest quarter of one from rammed earth.",
    "category": "CC_BUILDING",
    "subcategory": "CSC_BUILDING_BASES",
    "autolearn": false,
    "never_learn": true,
    "construction_blueprint": "fbmh_core_shack_nw_rammed_earth_center",
    "blueprint_name": "central building NW corner",
    "blueprint_requires": [ { "id": "fbmh_tent_west" } ],
    "blueprint_provides": [ { "id": "fbmh_center", "amount": 2 }, { "id": "fbmh_nw_center" } ],
    "blueprint_excludes": [ { "id": "fbmh_nw_center" } ],
    "blueprint_needs": {
      "time": "2 d 30 m",
      "skills": [ [ "fabrication", 4 ] ],
      "inline": {
        "tools": [ [ [ "log", -1 ] ] ],
        "qualities": [ [ { "id": "CUT" } ], [ { "id": "DIG", "level": 2 } ], [ { "id": "HAMMER", "level": 2 } ], [ { "id": "SMOOTH" } ] ],
        "components": [
          [ [ "2x4", 76 ] ],
          [ [ "birchbark", 120 ], [ "pine_bough", 120 ] ],
          [ [ "concrete", 6 ], [ "material_quicklime", 120 ], [ "material_sand", 120 ] ],
          [ [ "log", 20 ] ],
          [ [ "material_soil", 1000 ] ],
          [ [ "nail", 48 ] ],
          [ [ "pointy_stick", 12 ], [ "spear_wood", 12 ] ],
          [ [ "rope_6", 4 ], [ "rope_makeshift_6", 4 ] ],
          [ [ "water", 300 ], [ "water_clean", 300 ] ]
        ]
      }
    },
    "id": "f3c0d6cc-a512-4bda-adbd-9b638c7df017"
  },
  {
    "type": "recipe",
    "result": "faction_base_modular_hub_core_nw_rammed_earth_center",
    "description": "A central building can act as a core and dining hall.  We should build out from the west room with rammed earth.",
    "category": "CC_BUILDING",
    "subcategory": "CSC_BUILDING_BASES",
    "autolearn": false,
    "never_learn": true,
    "construction_blueprint": "fbmh_core_nw_rammed_earth_center",
    "blueprint_name": "central building NW corner",
    "blueprint_requires": [ { "id": "fbmh_west", "amount": 4 } ],
    "blueprint_provides": [ { "id": "fbmh_center", "amount": 2 }, { "id": "fbmh_nw_center" } ],
    "blueprint_excludes": [ { "id": "fbmh_nw_center" }, { "id": "fbmh_tent_west" } ],
    "blueprint_needs": {
      "time": "1 d 16 h",
      "skills": [ [ "fabrication", 4 ] ],
      "inline": {
        "tools": [ [ [ "log", -1 ] ] ],
        "qualities": [ [ { "id": "CUT" } ], [ { "id": "DIG", "level": 2 } ], [ { "id": "HAMMER", "level": 2 } ], [ { "id": "SMOOTH" } ] ],
        "components": [
          [ [ "2x4", 78 ] ],
          [ [ "birchbark", 180 ], [ "pine_bough", 180 ] ],
          [ [ "concrete", 2 ], [ "material_quicklime", 40 ], [ "material_sand", 40 ] ],
          [ [ "log", 30 ] ],
          [ [ "material_soil", 800 ] ],
          [ [ "nail", 24 ] ],
          [ [ "pointy_stick", 4 ], [ "spear_wood", 4 ] ],
          [ [ "rope_6", 2 ], [ "rope_makeshift_6", 2 ] ],
          [ [ "water", 100 ], [ "water_clean", 100 ] ]
        ]
      }
    },
    "id": "6be09991-b78d-48d7-af08-bb922e73823d"
  },
  {
    "type": "recipe",
    "result": "faction_base_modular_hub_core_rammed_earth_center",
    "description": "A central building can act as a core and dining hall.  We should build between the east and west rooms with rammed earth.",
    "category": "CC_BUILDING",
    "subcategory": "CSC_BUILDING_BASES",
    "autolearn": false,
    "never_learn": true,
    "construction_blueprint": "fbmh_core_rammed_earth_center",
    "blueprint_name": "central building north half",
    "blueprint_requires": [ { "id": "fbmh_east", "amount": 4 }, { "id": "fbmh_west", "amount": 4 } ],
    "blueprint_provides": [ { "id": "fbmh_center", "amount": 4 }, { "id": "fbmh_ne_center" }, { "id": "fbmh_nw_center" } ],
    "blueprint_excludes": [ { "id": "fbmh_ne_center" }, { "id": "fbmh_nw_center" }, { "id": "fbmh_tent_east" }, { "id": "fbmh_tent_west" } ],
    "blueprint_needs": {
      "time": "3 d 10 h 45 m",
      "skills": [ [ "fabrication", 4 ] ],
      "inline": {
        "tools": [ [ [ "log", -1 ] ] ],
        "qualities": [ [ { "id": "CUT" } ], [ { "id": "DIG", "level": 2 } ], [ { "id": "HAMMER", "level": 2 } ], [ { "id": "SMOOTH" } ] ],
        "components": [
          [ [ "2x4", 138 ] ],
          [ [ "birchbark", 360 ], [ "pine_bough", 360 ] ],
          [ [ "concrete", 5 ], [ "material_quicklime", 100 ], [ "material_sand", 100 ] ],
          [ [ "log", 60 ] ],
          [ [ "material_soil", 1700 ] ],
          [ [ "nail", 24 ] ],
          [ [ "pointy_stick", 10 ], [ "spear_wood", 10 ] ],
          [ [ "rope_6", 2 ], [ "rope_makeshift_6", 2 ] ],
          [ [ "water", 250 ], [ "water_clean", 250 ] ]
        ]
      }
    },
    "id": "facd7fb5-ea53-4421-8a7f-034258c5d58f"
  },
  {
    "type": "recipe",
    "result": "faction_base_modular_hub_core_shack_se_rammed_earth_south",
    "description": "A central building can act as a core and dining hall.  We should build the southeast quarter of one from rammed earth.",
    "category": "CC_BUILDING",
    "subcategory": "CSC_BUILDING_BASES",
    "autolearn": false,
    "never_learn": true,
    "construction_blueprint": "fbmh_core_shack_se_rammed_earth_south",
    "blueprint_name": "central building SE corner",
    "blueprint_requires": [ { "id": "fbmh_tent_southeast" } ],
    "blueprint_provides": [ { "id": "fbmh_south", "amount": 2 }, { "id": "fbmh_se_south" } ],
    "blueprint_excludes": [ { "id": "fbmh_se_south" } ],
    "blueprint_needs": {
      "time": "2 d 30 m",
      "skills": [ [ "fabrication", 4 ] ],
      "inline": {
        "tools": [ [ [ "log", -1 ] ] ],
        "qualities": [ [ { "id": "CUT" } ], [ { "id": "DIG", "level": 2 } ], [ { "id": "HAMMER", "level": 2 } ], [ { "id": "SMOOTH" } ] ],
        "components": [
          [ [ "2x4", 76 ] ],
          [ [ "birchbark", 120 ], [ "pine_bough", 120 ] ],
          [ [ "concrete", 6 ], [ "material_quicklime", 120 ], [ "material_sand", 120 ] ],
          [ [ "log", 20 ] ],
          [ [ "material_soil", 1000 ] ],
          [ [ "nail", 48 ] ],
          [ [ "pointy_stick", 12 ], [ "spear_wood", 12 ] ],
          [ [ "rope_6", 4 ], [ "rope_makeshift_6", 4 ] ],
          [ [ "water", 300 ], [ "water_clean", 300 ] ]
        ]
      }
    },
    "id": "e655bf67-2bb0-44fb-b2bc-0b825596f14a"
  },
  {
    "type": "recipe",
    "result": "faction_base_modular_hub_core_se_rammed_earth_south",
    "description": "A central building can act as a core and dining hall.  We should build out from the southeast room with rammed earth.",
    "category": "CC_BUILDING",
    "subcategory": "CSC_BUILDING_BASES",
    "skill_used": "fabrication",
    "autolearn": false,
    "never_learn": true,
    "construction_blueprint": "fbmh_core_se_rammed_earth_south",
    "blueprint_name": "central building SE corner",
    "blueprint_requires": [ { "id": "fbmh_southeast", "amount": 4 } ],
    "blueprint_provides": [ { "id": "fbmh_south", "amount": 2 }, { "id": "fbmh_se_south" } ],
    "blueprint_excludes": [ { "id": "fbmh_se_south" }, { "id": "fbmh_tent_southeast" } ],
    "blueprint_needs": {
      "time": "1 d 16 h",
      "skills": [ [ "fabrication", 4 ] ],
      "inline": {
        "tools": [ [ [ "log", -1 ] ] ],
        "qualities": [ [ { "id": "CUT" } ], [ { "id": "DIG", "level": 2 } ], [ { "id": "HAMMER", "level": 2 } ], [ { "id": "SMOOTH" } ] ],
        "components": [
          [ [ "2x4", 78 ] ],
          [ [ "birchbark", 180 ], [ "pine_bough", 180 ] ],
          [ [ "concrete", 2 ], [ "material_quicklime", 40 ], [ "material_sand", 40 ] ],
          [ [ "log", 30 ] ],
          [ [ "material_soil", 800 ] ],
          [ [ "nail", 24 ] ],
          [ [ "pointy_stick", 4 ], [ "spear_wood", 4 ] ],
          [ [ "rope_6", 2 ], [ "rope_makeshift_6", 2 ] ],
          [ [ "water", 100 ], [ "water_clean", 100 ] ]
        ]
      }
    },
    "id": "ec2e5356-73f9-4bfd-8521-ae283dc15a9f"
  },
  {
    "type": "recipe",
    "result": "faction_base_modular_hub_core_shack_sw_rammed_earth_south",
    "description": "A central building can act as a core and dining hall.  We should build the southwest quarter of one from rammed earth.",
    "category": "CC_BUILDING",
    "subcategory": "CSC_BUILDING_BASES",
    "autolearn": false,
    "never_learn": true,
    "construction_blueprint": "fbmh_core_shack_sw_rammed_earth_south",
    "blueprint_name": "central building SW corner",
    "blueprint_requires": [ { "id": "fbmh_tent_southwest" } ],
    "blueprint_provides": [ { "id": "fbmh_south", "amount": 2 }, { "id": "fbmh_sw_south" } ],
    "blueprint_excludes": [ { "id": "fbmh_sw_south" } ],
    "blueprint_needs": {
      "time": "2 d 3 h 15 m",
      "skills": [ [ "fabrication", 4 ] ],
      "inline": {
        "tools": [ [ [ "log", -1 ] ] ],
        "qualities": [ [ { "id": "CUT" } ], [ { "id": "DIG", "level": 2 } ], [ { "id": "HAMMER", "level": 2 } ], [ { "id": "SMOOTH" } ] ],
        "components": [
          [ [ "2x4", 58 ] ],
          [ [ "birchbark", 120 ], [ "pine_bough", 120 ] ],
          [ [ "concrete", 7 ], [ "material_quicklime", 140 ], [ "material_sand", 140 ] ],
          [ [ "log", 20 ] ],
          [ [ "material_soil", 1100 ] ],
          [ [ "nail", 24 ] ],
          [ [ "pointy_stick", 14 ], [ "spear_wood", 14 ] ],
          [ [ "rope_6", 2 ], [ "rope_makeshift_6", 2 ] ],
          [ [ "water", 350 ], [ "water_clean", 350 ] ]
        ]
      }
    },
    "id": "651f89ca-2546-4870-bb73-286a1cca6573"
  },
  {
    "type": "recipe",
    "result": "faction_base_modular_hub_core_sw_rammed_earth_south",
    "description": "A central building can act as a core and dining hall.  We should build out from the southwest room with rammed earth.",
    "category": "CC_BUILDING",
    "subcategory": "CSC_BUILDING_BASES",
    "autolearn": false,
    "never_learn": true,
    "construction_blueprint": "fbmh_core_sw_rammed_earth_south",
    "blueprint_name": "central building SW corner",
    "blueprint_requires": [ { "id": "fbmh_southwest", "amount": 4 } ],
    "blueprint_provides": [ { "id": "fbmh_south", "amount": 2 }, { "id": "fbmh_sw_south" } ],
    "blueprint_excludes": [ { "id": "fbmh_sw_south" }, { "id": "fbmh_tent_southwest" } ],
    "blueprint_needs": {
      "time": "1 d 18 h 45 m",
      "skills": [ [ "fabrication", 4 ] ],
      "inline": {
        "tools": [ [ [ "log", -1 ] ] ],
        "qualities": [ [ { "id": "DIG", "level": 2 } ], [ { "id": "HAMMER", "level": 2 } ], [ { "id": "SMOOTH" } ] ],
        "components": [
          [ [ "2x4", 60 ], [ "stick", 60 ], [ "stick_long", 30 ] ],
          [ [ "birchbark", 180 ], [ "pine_bough", 180 ] ],
          [ [ "concrete", 3 ], [ "material_quicklime", 60 ], [ "material_sand", 60 ] ],
          [ [ "log", 30 ] ],
          [ [ "material_soil", 900 ] ],
          [ [ "pointy_stick", 6 ], [ "spear_wood", 6 ] ],
          [ [ "water", 150 ], [ "water_clean", 150 ] ]
        ]
      }
    },
    "id": "258a4030-febb-49d3-90a9-632d15f9770e"
  },
  {
    "type": "recipe",
    "result": "faction_base_modular_hub_core_rammed_earth_south",
    "description": "A central building can act as a core and dining hall.  We should build between the southeast and southwest rooms with rammed earth.",
    "category": "CC_BUILDING",
    "subcategory": "CSC_BUILDING_BASES",
    "autolearn": false,
    "never_learn": true,
    "construction_blueprint": "fbmh_core_rammed_earth_south",
    "blueprint_name": "central building south half",
    "blueprint_requires": [ { "id": "fbmh_southeast", "amount": 4 }, { "id": "fbmh_southwest", "amount": 4 } ],
    "blueprint_provides": [ { "id": "fbmh_south", "amount": 4 }, { "id": "fbmh_se_south" }, { "id": "fbmh_sw_south" } ],
    "blueprint_excludes": [
      { "id": "fbmh_se_south" },
      { "id": "fbmh_sw_south" },
      { "id": "fbmh_tent_southeast" },
      { "id": "fbmh_tent_southwest" }
    ],
    "blueprint_needs": {
      "time": "3 d 10 h 45 m",
      "skills": [ [ "fabrication", 4 ] ],
      "inline": {
        "tools": [ [ [ "log", -1 ] ] ],
        "qualities": [ [ { "id": "CUT" } ], [ { "id": "DIG", "level": 2 } ], [ { "id": "HAMMER", "level": 2 } ], [ { "id": "SMOOTH" } ] ],
        "components": [
          [ [ "2x4", 138 ] ],
          [ [ "birchbark", 360 ], [ "pine_bough", 360 ] ],
          [ [ "concrete", 5 ], [ "material_quicklime", 100 ], [ "material_sand", 100 ] ],
          [ [ "log", 60 ] ],
          [ [ "material_soil", 1700 ] ],
          [ [ "nail", 24 ] ],
          [ [ "pointy_stick", 10 ], [ "spear_wood", 10 ] ],
          [ [ "rope_6", 2 ], [ "rope_makeshift_6", 2 ] ],
          [ [ "water", 250 ], [ "water_clean", 250 ] ]
        ]
      }
    },
    "id": "36ba41d3-08b4-4f3f-90a1-7261fd9b7f30"
  }
]
