[
  {
    "type": "mapgen",
    "method": "json",
    "om_terrain": [ [ "refctr_NE1a", "refctr_NE2a", "refctr_NE3a", "refctr_NE4a", "refctr_NE5a" ] ],
    "weight": 100,
    "object": {
      "fill_ter": "t_grass",
      "rows": [
        "........................................................................................................................",
        "|||||||||||||||||||||||||||||||||||||||||||||||||||||||||||||||||||||||||||||||||||||||||||||||||||||||||||||||||||||||.",
        "......................................................................................................................|.",
        "......................................................................................................................|.",
        "......................................................................................................................|.",
        "......................................................................................................................|.",
        "......................................................................................................................|.",
        "......................................................................................................................|.",
        "......................................................................................................................|.",
        "......................................................................................................................|.",
        "......................................................................................................................|.",
        "......................................................................................................................|.",
        "......................................................................................................................|.",
        "......................................................................................................................|.",
        "......................................................................................................................|.",
        "......................................................................................................................|.",
        "......................................................................................................................|.",
        "......................................................................................................................|.",
        "......................................................................................................................|.",
        "......................................................................................................................|.",
        "......................................................................................................................|.",
        "......................................................................................................................|.",
        "......................................................................................................................|.",
        "......................................................................................................................|."
      ],
      "palettes": [ "rc_grounds" ]
    },
    "id": "73ba9059-0696-4158-b4e9-611af0b4c052"
  },
  {
    "type": "mapgen",
    "method": "json",
    "om_terrain": [ [ "refctr_NE1b", "refctr_NE2b", "refctr_NE3b", "refctr_NE4b", "refctr_NE5b" ] ],
    "weight": 100,
    "object": {
      "fill_ter": "t_grass",
      "rows": [
        "......................................................................................................................|.",
        "......................................................................................................................|.",
        "......................................................................................................................|.",
        "......................................................................................................................|.",
        "......................................................................................................................|.",
        "......................................................................................................................|.",
        "......................................................................................................................|.",
        "......................................................................................................................|.",
        "......................................................................................................................|.",
        "......................................................................................................................|.",
        "......................................................................................................................|.",
        "......................................................................................................................|.",
        "......................................................................................................................|.",
        "......................................................................................................................|.",
        "......................................................................................................................|.",
        "......................................................................................................................|.",
        "......................................................................................................................|.",
        "......................................................................................................................|.",
        "......................................................................................................................|.",
        "......................................................................................................................|.",
        "......................................................................................................................|.",
        "......................................................................................................................|.",
        "......................................................................................................................|.",
        "......................................................................................................................|."
      ],
      "palettes": [ "rc_grounds" ]
    },
    "id": "7b59484f-de8c-4085-b397-be915a242414"
  },
  {
    "type": "mapgen",
    "method": "json",
    "om_terrain": [ [ "refctr_NE1c", "refctr_NE2c", "refctr_NE3c", "refctr_NE4c", "refctr_NE5c" ] ],
    "weight": 100,
    "object": {
      "fill_ter": "t_grass",
      "rows": [
        "......................................................................................................................|.",
        "......................................................................................................................|.",
        "......................................................................................................................|.",
        "......................................................................................................................|.",
        "......................................................................................................................|.",
        "......................................................................................................................|.",
        "......................................................................................................................|.",
        "......................................................................................................................|.",
        "......................................................................................................................|.",
        "......................................................................................................................|.",
        "......................................................................................................................|.",
        "......................................................................................................................|.",
        "......................................................................................................................|.",
        "......................................................................................................................|.",
        "......................................................................................................................|.",
        "......................................................................................................................|.",
        "......................................................................................................................|.",
        "......................................................................................................................|.",
        "......................................................................................................................|.",
        "......................................................................................................................|.",
        "......................................................................................................................|.",
        "......................................................................................................................|.",
        "......................................................................................................................|.",
        "......................................................................................................................|."
      ],
      "palettes": [ "rc_grounds" ]
    },
    "id": "de2f348f-9fb8-4d1b-b34d-179bd938df36"
  },
  {
    "type": "mapgen",
    "method": "json",
    "om_terrain": [ [ "refctr_NE1d", "refctr_NE2d", "refctr_NE3d", "refctr_NE4d", "refctr_NE5d" ] ],
    "weight": 100,
    "object": {
      "fill_ter": "t_grass",
      "rows": [
        "......................................................................................................................|.",
        "......................................................................................................................|.",
        "......................................................................................................................|.",
        "......................................................................................................................|.",
        "......................................................................................................................|.",
        "......................................................................................................................|.",
        "......................................................................................................................|.",
        "......................................................................................................................|.",
        "......................................................................................................................|.",
        "......................................................................................................................|.",
        "......................................................................................................................|.",
        "......................................................................................................................|.",
        "......................................................................................................................|.",
        "......................................................................................................................|.",
        "......................................................................................................................|.",
        "......................................................................................................................|.",
        "......................................................................................................................|.",
        "......................................................................................................................|.",
        "......................................................................................................................|.",
        "......................................................................................................................|.",
        "......................................................................................................................|.",
        "......................................................................................................................|.",
        "......................................................................................................................|.",
        "......................................................................................................................|."
      ],
      "palettes": [ "rc_grounds" ]
    },
    "id": "2e51df3d-1887-468d-aea8-ff581536038c"
  },
  {
    "type": "mapgen",
    "method": "json",
    "om_terrain": [ [ "refctr_NE1e", "refctr_NE2e", "refctr_NE3e", "refctr_NE4e", "refctr_NE5e" ] ],
    "weight": 100,
    "object": {
      "fill_ter": "t_grass",
      "rows": [
        "......................................................................................................................|.",
        "......................................................................................................................|.",
        "......................................................................................................................|.",
        "......................................................................................................................|.",
        "......................................................................................................................|.",
        "......................................................................................................................|.",
        "......................................................................................................................|.",
        "......................................................................................................................|.",
        "......................................................................................................................|.",
        "......................................................................................................................|.",
        "......................................................................................................................|.",
        "......................................................................................................................|.",
        "......................................................................................................................|.",
        "......................................................................................................................|.",
        "......................................................................................................................|.",
        "......................................................................................................................|.",
        "......................................................................................................................|.",
        "......................................................................................................................|.",
        "......................................................................................................................|.",
        "......................................................................................................................|.",
        "......................................................................................................................|.",
        "......................................................................................................................|.",
        "......................................................................................................................|.",
        "......................................................................................................................|."
      ],
      "palettes": [ "rc_grounds" ]
    },
    "id": "ab0db215-4ac8-46e5-bc84-654ce1d0ecbf"
  },
  {
    "type": "mapgen",
    "method": "json",
    "om_terrain": [
      [ "refctr_NE1a_z2", "refctr_NE2a_z2", "refctr_NE3a_z2", "refctr_NE4a_z2", "refctr_NE5a_z2" ],
      [ "refctr_NE1b_z2", "refctr_NE2b_z2", "refctr_NE3b_z2", "refctr_NE4b_z2", "refctr_NE5b_z2" ],
      [ "refctr_NE1c_z2", "refctr_NE2c_z2", "refctr_NE3c_z2", "refctr_NE4c_z2", "refctr_NE5c_z2" ],
      [ "refctr_NE1d_z2", "refctr_NE2d_z2", "refctr_NE3d_z2", "refctr_NE4d_z2", "refctr_NE5d_z2" ],
      [ "refctr_NE1e_z2", "refctr_NE2e_z2", "refctr_NE3e_z2", "refctr_NE4e_z2", "refctr_NE5e_z2" ]
    ],
    "weight": 100,
    "object": { "fill_ter": "t_open_air" },
    "id": "1d112a26-f74e-4fa0-b504-967fd1ef63e2"
  },
  {
    "type": "mapgen",
    "method": "json",
    "om_terrain": [
      [ "refctr_NE1a_z1", "refctr_NE2a_z1", "refctr_NE3a_z1", "refctr_NE4a_z1", "refctr_NE5a_z1" ],
      [ "refctr_NE1b_z1", "refctr_NE2b_z1", "refctr_NE3b_z1", "refctr_NE4b_z1", "refctr_NE5b_z1" ],
      [ "refctr_NE1c_z1", "refctr_NE2c_z1", "refctr_NE3c_z1", "refctr_NE4c_z1", "refctr_NE5c_z1" ],
      [ "refctr_NE1d_z1", "refctr_NE2d_z1", "refctr_NE3d_z1", "refctr_NE4d_z1", "refctr_NE5d_z1" ],
      [ "refctr_NE1e_z1", "refctr_NE2e_z1", "refctr_NE3e_z1", "refctr_NE4e_z1", "refctr_NE5e_z1" ]
    ],
    "weight": 100,
    "object": { "fill_ter": "t_open_air" },
    "id": "c857d6c9-9111-41fd-838b-26d2035bdcbe"
  },
  {
    "type": "mapgen",
    "method": "json",
    "om_terrain": [
      [ "refctr_NE1a_z-1", "refctr_NE2a_z-1", "refctr_NE3a_z-1", "refctr_NE4a_z-1", "refctr_NE5a_z-1" ],
      [ "refctr_NE1b_z-1", "refctr_NE2b_z-1", "refctr_NE3b_z-1", "refctr_NE4b_z-1", "refctr_NE5b_z-1" ],
      [ "refctr_NE1c_z-1", "refctr_NE2c_z-1", "refctr_NE3c_z-1", "refctr_NE4c_z-1", "refctr_NE5c_z-1" ],
      [ "refctr_NE1d_z-1", "refctr_NE2d_z-1", "refctr_NE3d_z-1", "refctr_NE4d_z-1", "refctr_NE5d_z-1" ],
      [ "refctr_NE1e_z-1", "refctr_NE2e_z-1", "refctr_NE3e_z-1", "refctr_NE4e_z-1", "refctr_NE5e_z-1" ]
    ],
    "weight": 100,
    "object": { "fill_ter": "t_rock" },
    "id": "04370b8f-9c05-4764-996f-05200a55825d"
  },
  {
    "type": "mapgen",
    "method": "json",
    "om_terrain": [
      [ "refctr_NE1a_z-2", "refctr_NE2a_z-2", "refctr_NE3a_z-2", "refctr_NE4a_z-2", "refctr_NE5a_z-2" ],
      [ "refctr_NE1b_z-2", "refctr_NE2b_z-2", "refctr_NE3b_z-2", "refctr_NE4b_z-2", "refctr_NE5b_z-2" ],
      [ "refctr_NE1c_z-2", "refctr_NE2c_z-2", "refctr_NE3c_z-2", "refctr_NE4c_z-2", "refctr_NE5c_z-2" ],
      [ "refctr_NE1d_z-2", "refctr_NE2d_z-2", "refctr_NE3d_z-2", "refctr_NE4d_z-2", "refctr_NE5d_z-2" ],
      [ "refctr_NE1e_z-2", "refctr_NE2e_z-2", "refctr_NE3e_z-2", "refctr_NE4e_z-2", "refctr_NE5e_z-2" ]
    ],
    "weight": 100,
    "object": { "fill_ter": "t_rock" },
    "id": "9819c091-b7b3-4133-a30a-cf47343e5c35"
  },
  {
    "type": "mapgen",
    "method": "json",
    "om_terrain": [
      [ "refctr_NE1a_z-3", "refctr_NE2a_z-3", "refctr_NE3a_z-3", "refctr_NE4a_z-3", "refctr_NE5a_z-3" ],
      [ "refctr_NE1b_z-3", "refctr_NE2b_z-3", "refctr_NE3b_z-3", "refctr_NE4b_z-3", "refctr_NE5b_z-3" ],
      [ "refctr_NE1c_z-3", "refctr_NE2c_z-3", "refctr_NE3c_z-3", "refctr_NE4c_z-3", "refctr_NE5c_z-3" ],
      [ "refctr_NE1d_z-3", "refctr_NE2d_z-3", "refctr_NE3d_z-3", "refctr_NE4d_z-3", "refctr_NE5d_z-3" ],
      [ "refctr_NE1e_z-3", "refctr_NE2e_z-3", "refctr_NE3e_z-3", "refctr_NE4e_z-3", "refctr_NE5e_z-3" ]
    ],
    "weight": 100,
    "object": { "fill_ter": "t_rock" },
    "id": "d6894e1f-01e9-4336-808f-8ee4afe63696"
  },
  {
    "type": "mapgen",
    "method": "json",
    "om_terrain": [
      [ "refctr_NE1a_z-4", "refctr_NE2a_z-4", "refctr_NE3a_z-4", "refctr_NE4a_z-4", "refctr_NE5a_z-4" ],
      [ "refctr_NE1b_z-4", "refctr_NE2b_z-4", "refctr_NE3b_z-4", "refctr_NE4b_z-4", "refctr_NE5b_z-4" ],
      [ "refctr_NE1c_z-4", "refctr_NE2c_z-4", "refctr_NE3c_z-4", "refctr_NE4c_z-4", "refctr_NE5c_z-4" ],
      [ "refctr_NE1d_z-4", "refctr_NE2d_z-4", "refctr_NE3d_z-4", "refctr_NE4d_z-4", "refctr_NE5d_z-4" ],
      [ "refctr_NE1e_z-4", "refctr_NE2e_z-4", "refctr_NE3e_z-4", "refctr_NE4e_z-4", "refctr_NE5e_z-4" ]
    ],
    "weight": 100,
    "object": { "fill_ter": "t_rock" },
    "id": "66739674-6146-404f-8446-30409c293613"
  }
]
