[
  {
    "type": "mapgen",
    "method": "json",
    "om_terrain": [ [ "refctr_S1a", "refctr_S2a", "refctr_S3a", "refctr_S4a", "refctr_S5a" ] ],
    "weight": 100,
    "object": {
      "fill_ter": "t_grass",
      "rows": [
        "................................................''''________________''''................................................",
        "................................................''''_______,,_______''''................................................",
        "................................................''''_______,,_______''''................................................",
        "................................................''''_______,,_______''''................................................",
        "................................................''''________________''''................................................",
        "................................................''''_______,,_______''''................................................",
        "................................................''''_______,,_______''''................................................",
        "................................................''''_______,,_______''''................................................",
        "................................................''''________________''''................................................",
        "................................................''''_______,,_______''''................................................",
        "................................................''''_______,,_______''''................................................",
        "................................................''''_______,,_______''''................................................",
        "................................................''''________________''''................................................",
        "................................................''''_______,,_______''''................................................",
        "................................................''''_______,,_______''''................................................",
        "................................................''''_______,,_______''''................................................",
        "................................................''''________________''''................................................",
        "................................................''''_______,,_______''''................................................",
        "................................................''''_______,,_______''''................................................",
        "................................................''''_______,,_______''''................................................",
        "................................................''''________________''''................................................",
        "................................................''''_______,,_______''''................................................",
        "................................................''''_______,,_______''''................................................",
        "................................................''''_______,,_______''''................................................"
      ],
      "palettes": [ "rc_grounds" ]
    },
    "id": "8b68eb44-2e81-4b51-835e-71b5284230d7"
  },
  {
    "type": "mapgen",
    "method": "json",
    "om_terrain": [ [ "refctr_S1b", "refctr_S2b", "refctr_S3b", "refctr_S4b", "refctr_S5b" ] ],
    "weight": 100,
    "object": {
      "fill_ter": "t_grass",
      "rows": [
        "................................................''''________________''''................................................",
        "................................................''''_______,,_______''''................................................",
        "................................................''''_______,,_______''''................................................",
        "................................................''''_______,,_______''''................................................",
        "................................................''''________________''''................................................",
        "................................................''''_______,,_______''''................................................",
        "................................................''''_______,,_______''''................................................",
        "................................................''''_______,,_______''''................................................",
        "................................................''''________________''''................................................",
        "................................................''''_______,,_______''''................................................",
        "................................................''''_______,,_______''''................................................",
        "................................................''''_______,,_______''''................................................",
        "................................................''''________________''''................................................",
        "................................................''''_______,,_______''''................................................",
        "................................................''''_______,,_______''''................................................",
        "................................................''''_______,,_______''''................................................",
        "................................................''''________________''''................................................",
        "................................................''''_______,,_______''''................................................",
        "................................................''''_______,,_______''''................................................",
        "................................................''''_______,,_______''''................................................",
        "................................................''''________________''''................................................",
        "................................................''''_______,,_______''''................................................",
        "................................................''''_______,,_______''''................................................",
        "................................................''''_______,,_______''''................................................"
      ],
      "palettes": [ "rc_grounds" ]
    },
    "id": "14d2ccd6-3550-4b44-8d83-2b0a75be58c4"
  },
  {
    "type": "mapgen",
    "method": "json",
    "om_terrain": [ [ "refctr_S1c", "refctr_S2c", "refctr_S3c", "refctr_S4c", "refctr_S5c" ] ],
    "weight": 100,
    "object": {
      "fill_ter": "t_grass",
      "rows": [
        "................................................''''________________''''................................................",
        "................................................''''_______,,_______''''................................................",
        "................................................''''_______,,_______''''................................................",
        "................................................''''_______,,_______''''................................................",
        "................................................''''________________''''................................................",
        "................................................''''_______,,_______''''................................................",
        "................................................''''_______,,_______''''................................................",
        "................................................''''_______,,_______''''................................................",
        "................................................''''________________''''................................................",
        "................................................''''_______,,_______''''................................................",
        "................................................''''_______,,_______''''................................................",
        "................................................''''_______,,_______''''................................................",
        "................................................''''________________''''................................................",
        "................................................''''_______,,_______''''................................................",
        "................................................''''_______,,_______''''................................................",
        "................................................''''_______,,_______''''................................................",
        "................................................''''________________''''................................................",
        "................................................''''_______,,_______''''................................................",
        "................................................''''_______,,_______''''................................................",
        "................................................''''_______,,_______''''................................................",
        "................................................''''________________''''................................................",
        "................................................''''_______,,_______''''................................................",
        "................................................''''_______,,_______''''................................................",
        "................................................''''_______,,_______''''................................................"
      ],
      "palettes": [ "rc_grounds" ]
    },
    "id": "fa315cad-505b-411e-ab12-53d0520e3764"
  },
  {
    "type": "mapgen",
    "method": "json",
    "om_terrain": [ [ "refctr_S1d", "refctr_S2d", "refctr_S3d", "refctr_S4d", "refctr_S5d" ] ],
    "weight": 100,
    "object": {
      "fill_ter": "t_grass",
      "rows": [
        "................................................''''________________''''................................................",
        "................................................''''_______,,_______''''................................................",
        "................................................''''_______,,_______''''................................................",
        "................................................''''_______,,_______''''................................................",
        "................................................''''________________''''................................................",
        "................................................''''_______,,_______''''................................................",
        "................................................''''_______,,_______''''................................................",
        "................................................''''_______,,_______''''................................................",
        "................................................''''________________''''................................................",
        "................................................''''_______,,_______''''................................................",
        "................................................''''_______,,_______''''................................................",
        "................................................''''_______,,_______''''................................................",
        "................................................''''________________''''................................................",
        "................................................''''_______,,_______''''................................................",
        "................................................''''_______,,_______''''................................................",
        "................................................''''_______,,_______''''................................................",
        "................................................''''________________''''................................................",
        "................................................''''_______,,_______''''................................................",
        "................................................''''_______,,_______''''................................................",
        "................................................''''_______,,_______''''................................................",
        "................................................''''________________''''................................................",
        "................................................''''_______,,_______''''................................................",
        "................................................''''_______,,_______''''................................................",
        "................................................''''_______,,_______''''................................................"
      ],
      "palettes": [ "rc_grounds" ]
    },
    "id": "f532e365-1e2a-4e2c-a0c4-7b9a6574afb3"
  },
  {
    "type": "mapgen",
    "method": "json",
    "om_terrain": [ [ "refctr_S1e", "refctr_S2e", "refctr_S3e", "refctr_S4e", "refctr_S5e" ] ],
    "weight": 100,
    "object": {
      "fill_ter": "t_grass",
      "rows": [
        "................................................''''________________''''................................................",
        "................................................''''_______,,_______''''................................................",
        "................................................''''_______,,_______''''................................................",
        "................................................''''_______,,_______''''................................................",
        "................................................''''________________''''................................................",
        "................................................''''_______,,_______''''................................................",
        "................................................''''_______,,_______''''................................................",
        "................................................''''_______,,_______''''................................................",
        "................................................''''________________''''................................................",
        "................................................''''_______,,_______''''................................................",
        "................................................''''_______,,_______''''................................................",
        "................................................''''_______,,_______''''................................................",
        "................................................''''________________''''................................................",
        "................................................''''_______,,_______''''................................................",
        "................................................''''_______,,_______''''................................................",
        "................................................''''_______,,_______''''................................................",
        "................................................''''________________''''................................................",
        "||||||||||||||||||||||||||||||||||||............''''_______,,_______''''............||||||||||||||||||||||||||||||||||||",
        "................................................''''_______,,_______''''................................................",
        "................................................''''_______,,_______''''................................................",
        "................................................''''________________''''................................................",
        "................................................''''_______,,_______''''................................................",
        "................................................''''_______,,_______''''................................................",
        "................................................''''_______,,_______''''................................................"
      ],
      "palettes": [ "rc_grounds" ]
    },
    "id": "3e00f81a-22a3-4dcc-b251-a32359843c3c"
  },
  {
    "type": "mapgen",
    "method": "json",
    "om_terrain": [
      [ "refctr_S1a_z2", "refctr_S2a_z2", "refctr_S3a_z2", "refctr_S4a_z2", "refctr_S5a_z2" ],
      [ "refctr_S1b_z2", "refctr_S2b_z2", "refctr_S3b_z2", "refctr_S4b_z2", "refctr_S5b_z2" ],
      [ "refctr_S1c_z2", "refctr_S2c_z2", "refctr_S3c_z2", "refctr_S4c_z2", "refctr_S5c_z2" ],
      [ "refctr_S1d_z2", "refctr_S2d_z2", "refctr_S3d_z2", "refctr_S4d_z2", "refctr_S5d_z2" ],
      [ "refctr_S1e_z2", "refctr_S2e_z2", "refctr_S3e_z2", "refctr_S4e_z2", "refctr_S5e_z2" ]
    ],
    "weight": 100,
    "object": { "fill_ter": "t_open_air" },
    "id": "5ba21399-cd0f-4424-97bd-bba6ab96f948"
  },
  {
    "type": "mapgen",
    "method": "json",
    "om_terrain": [
      [ "refctr_S1a_z1", "refctr_S2a_z1", "refctr_S3a_z1", "refctr_S4a_z1", "refctr_S5a_z1" ],
      [ "refctr_S1b_z1", "refctr_S2b_z1", "refctr_S3b_z1", "refctr_S4b_z1", "refctr_S5b_z1" ],
      [ "refctr_S1c_z1", "refctr_S2c_z1", "refctr_S3c_z1", "refctr_S4c_z1", "refctr_S5c_z1" ],
      [ "refctr_S1d_z1", "refctr_S2d_z1", "refctr_S3d_z1", "refctr_S4d_z1", "refctr_S5d_z1" ],
      [ "refctr_S1e_z1", "refctr_S2e_z1", "refctr_S3e_z1", "refctr_S4e_z1", "refctr_S5e_z1" ]
    ],
    "weight": 100,
    "object": { "fill_ter": "t_open_air" },
    "id": "b469a744-6b29-4c70-8912-830acfb067c7"
  },
  {
    "type": "mapgen",
    "method": "json",
    "om_terrain": [
      [ "refctr_S1a_z-1", "refctr_S2a_z-1", "refctr_S3a_z-1", "refctr_S4a_z-1", "refctr_S5a_z-1" ],
      [ "refctr_S1b_z-1", "refctr_S2b_z-1", "refctr_S3b_z-1", "refctr_S4b_z-1", "refctr_S5b_z-1" ],
      [ "refctr_S1c_z-1", "refctr_S2c_z-1", "refctr_S3c_z-1", "refctr_S4c_z-1", "refctr_S5c_z-1" ],
      [ "refctr_S1d_z-1", "refctr_S2d_z-1", "refctr_S3d_z-1", "refctr_S4d_z-1", "refctr_S5d_z-1" ],
      [ "refctr_S1e_z-1", "refctr_S2e_z-1", "refctr_S3e_z-1", "refctr_S4e_z-1", "refctr_S5e_z-1" ]
    ],
    "weight": 100,
    "object": { "fill_ter": "t_rock" },
    "id": "16accf09-f52c-4a65-b3f9-b7812ebaebc9"
  },
  {
    "type": "mapgen",
    "method": "json",
    "om_terrain": [
      [ "refctr_S1a_z-2", "refctr_S2a_z-2", "refctr_S3a_z-2", "refctr_S4a_z-2", "refctr_S5a_z-2" ],
      [ "refctr_S1b_z-2", "refctr_S2b_z-2", "refctr_S3b_z-2", "refctr_S4b_z-2", "refctr_S5b_z-2" ],
      [ "refctr_S1c_z-2", "refctr_S2c_z-2", "refctr_S3c_z-2", "refctr_S4c_z-2", "refctr_S5c_z-2" ],
      [ "refctr_S1d_z-2", "refctr_S2d_z-2", "refctr_S3d_z-2", "refctr_S4d_z-2", "refctr_S5d_z-2" ],
      [ "refctr_S1e_z-2", "refctr_S2e_z-2", "refctr_S3e_z-2", "refctr_S4e_z-2", "refctr_S5e_z-2" ]
    ],
    "weight": 100,
    "object": { "fill_ter": "t_rock" },
    "id": "7f897a36-4cb3-47a9-aafd-44f4e233b07c"
  },
  {
    "type": "mapgen",
    "method": "json",
    "om_terrain": [
      [ "refctr_S1a_z-3", "refctr_S2a_z-3", "refctr_S3a_z-3", "refctr_S4a_z-3", "refctr_S5a_z-3" ],
      [ "refctr_S1b_z-3", "refctr_S2b_z-3", "refctr_S3b_z-3", "refctr_S4b_z-3", "refctr_S5b_z-3" ],
      [ "refctr_S1c_z-3", "refctr_S2c_z-3", "refctr_S3c_z-3", "refctr_S4c_z-3", "refctr_S5c_z-3" ],
      [ "refctr_S1d_z-3", "refctr_S2d_z-3", "refctr_S3d_z-3", "refctr_S4d_z-3", "refctr_S5d_z-3" ],
      [ "refctr_S1e_z-3", "refctr_S2e_z-3", "refctr_S3e_z-3", "refctr_S4e_z-3", "refctr_S5e_z-3" ]
    ],
    "weight": 100,
    "object": { "fill_ter": "t_rock" },
    "id": "0d8340ad-b0e2-4d8d-84fc-c5eae8c59fb9"
  },
  {
    "type": "mapgen",
    "method": "json",
    "om_terrain": [
      [ "refctr_S1a_z-4", "refctr_S2a_z-4", "refctr_S3a_z-4", "refctr_S4a_z-4", "refctr_S5a_z-4" ],
      [ "refctr_S1b_z-4", "refctr_S2b_z-4", "refctr_S3b_z-4", "refctr_S4b_z-4", "refctr_S5b_z-4" ],
      [ "refctr_S1c_z-4", "refctr_S2c_z-4", "refctr_S3c_z-4", "refctr_S4c_z-4", "refctr_S5c_z-4" ],
      [ "refctr_S1d_z-4", "refctr_S2d_z-4", "refctr_S3d_z-4", "refctr_S4d_z-4", "refctr_S5d_z-4" ],
      [ "refctr_S1e_z-4", "refctr_S2e_z-4", "refctr_S3e_z-4", "refctr_S4e_z-4", "refctr_S5e_z-4" ]
    ],
    "weight": 100,
    "object": { "fill_ter": "t_rock" },
    "id": "2d606ff1-1d80-48a2-9f6f-f7c01562b873"
  }
]
