[
  {
    "type": "recipe",
    "result": "faction_base_modular_storehouse_migo_resin_east",
    "description": "We could use a large mi-go resin central storage building.  Begin by building the east wing.",
    "category": "CC_BUILDING",
    "subcategory": "CSC_BUILDING_BASES",
    "autolearn": false,
    "never_learn": true,
    "construction_blueprint": "fbms_room0_migo_resin_east",
    "blueprint_name": "east storage wing",
    "blueprint_requires": [ { "id": "fbms_0" } ],
    "blueprint_provides": [ { "id": "fbms_east" } ],
    "blueprint_excludes": [ { "id": "fbms_east" } ],
    "blueprint_needs": {
      "time": "1 d",
      "skills": [ [ "fabrication", 2 ] ],
      "inline": { "tools": [  ], "qualities": [ [ { "id": "SMOOTH" } ] ], "components": [ [ [ "alien_pod_resin", 48 ] ] ] }
    },
    "id": "ca433d5b-4e8e-470b-849d-16103c3fe3aa"
  },
  {
    "type": "recipe",
    "result": "faction_base_modular_storehouse_migo_resin_west",
    "description": "We could use a large mi-go resin central storage building.  Continue by building the west wing.",
    "category": "CC_BUILDING",
    "subcategory": "CSC_BUILDING_BASES",
    "autolearn": false,
    "never_learn": true,
    "construction_blueprint": "fbms_room1_migo_resin_west",
    "blueprint_name": "east storage wing",
    "blueprint_requires": [ { "id": "fbms_0" } ],
    "blueprint_provides": [ { "id": "fbms_west" } ],
    "blueprint_excludes": [ { "id": "fbms_west" } ],
    "blueprint_needs": {
      "time": "1 d",
      "skills": [ [ "fabrication", 2 ] ],
      "inline": { "tools": [  ], "qualities": [ [ { "id": "SMOOTH" } ] ], "components": [ [ [ "alien_pod_resin", 48 ] ] ] }
    },
    "id": "9580f43e-11f5-43bc-b7bf-221a4fd2a212"
  },
  {
    "type": "recipe",
    "result": "faction_base_modular_storehouse_migo_resin_northwest",
    "description": "We could use a large mi-go resin central storage building.  Continue by building the northwest corner.",
    "category": "CC_BUILDING",
    "subcategory": "CSC_BUILDING_BASES",
    "autolearn": false,
    "never_learn": true,
    "construction_blueprint": "fbms_room2_migo_resin_northwest",
    "blueprint_name": "northwest storeroom corner",
    "blueprint_requires": [ { "id": "fbms_west" } ],
    "blueprint_provides": [ { "id": "fbms_northwest" } ],
    "blueprint_excludes": [ { "id": "fbms_northwest" } ],
    "blueprint_needs": {
      "time": "10 h",
      "skills": [ [ "fabrication", 2 ] ],
      "inline": { "tools": [  ], "qualities": [ [ { "id": "SMOOTH" } ] ], "components": [ [ [ "alien_pod_resin", 17 ] ] ] }
    },
    "id": "1c460724-0d4a-4fd1-abc0-8f874306d662"
  },
  {
    "type": "recipe",
    "result": "faction_base_modular_storehouse_migo_resin_southwest",
    "description": "We could use a large mi-go resin central storage building.  Continue by building the southwest corner.",
    "category": "CC_BUILDING",
    "subcategory": "CSC_BUILDING_BASES",
    "autolearn": false,
    "never_learn": true,
    "construction_blueprint": "fbms_room3_migo_resin_southwest",
    "blueprint_name": "southwest storeroom corner",
    "blueprint_requires": [ { "id": "fbms_west" } ],
    "blueprint_provides": [ { "id": "fbms_southwest" } ],
    "blueprint_excludes": [ { "id": "fbms_southwest" } ],
    "blueprint_needs": {
      "time": "10 h",
      "skills": [ [ "fabrication", 2 ] ],
      "inline": { "tools": [  ], "qualities": [ [ { "id": "SMOOTH" } ] ], "components": [ [ [ "alien_pod_resin", 17 ] ] ] }
    },
    "id": "d4c79d0e-defd-4792-99e9-1fdfa0bfba98"
  },
  {
    "type": "recipe",
    "result": "faction_base_modular_storehouse_migo_resin_northeast",
    "description": "We could use a large mi-go resin central storage building.  Continue by building the northeast corner.",
    "category": "CC_BUILDING",
    "subcategory": "CSC_BUILDING_BASES",
    "autolearn": false,
    "never_learn": true,
    "construction_blueprint": "fbms_room4_migo_resin_northeast",
    "blueprint_name": "northeast storeroom corner",
    "blueprint_requires": [ { "id": "fbms_east" } ],
    "blueprint_provides": [ { "id": "fbms_northeast" } ],
    "blueprint_excludes": [ { "id": "fbms_northeast" } ],
    "blueprint_needs": {
      "time": "10 h",
      "skills": [ [ "fabrication", 2 ] ],
      "inline": { "tools": [  ], "qualities": [ [ { "id": "SMOOTH" } ] ], "components": [ [ [ "alien_pod_resin", 17 ] ] ] }
    },
    "id": "191d6f83-f39c-42ef-b414-7db87860b8ba"
  },
  {
    "type": "recipe",
    "result": "faction_base_modular_storehouse_migo_resin_southeast",
    "description": "We could use a large mi-go resin central storage building.  Continue by building the southeast corner.",
    "category": "CC_BUILDING",
    "subcategory": "CSC_BUILDING_BASES",
    "autolearn": false,
    "never_learn": true,
    "construction_blueprint": "fbms_room5_migo_resin_southeast",
    "blueprint_name": "southeast storeroom corner",
    "blueprint_requires": [ { "id": "fbms_east" } ],
    "blueprint_provides": [ { "id": "fbms_southeast" } ],
    "blueprint_excludes": [ { "id": "fbms_southeast" } ],
    "blueprint_needs": {
      "time": "10 h",
      "skills": [ [ "fabrication", 2 ] ],
      "inline": { "tools": [  ], "qualities": [ [ { "id": "SMOOTH" } ] ], "components": [ [ [ "alien_pod_resin", 17 ] ] ] }
    },
    "id": "26117438-e58d-45e0-a55d-f1465447ef96"
  },
  {
    "type": "recipe",
    "result": "faction_base_modular_storehouse_migo_resin_south",
    "description": "We could use a large mi-go resin central storage building.  Continue by building the southern entrance.",
    "category": "CC_BUILDING",
    "subcategory": "CSC_BUILDING_BASES",
    "autolearn": false,
    "never_learn": true,
    "construction_blueprint": "fbms_room6_migo_resin_south",
    "blueprint_name": "south storeroom entrance",
    "blueprint_requires": [ { "id": "fbms_southeast" }, { "id": "fbms_southwest" } ],
    "blueprint_provides": [ { "id": "fbms_south" } ],
    "blueprint_excludes": [ { "id": "fbms_south" } ],
    "blueprint_needs": {
      "time": "1 d 22 h",
      "skills": [ [ "fabrication", 2 ] ],
      "inline": { "tools": [  ], "qualities": [ [ { "id": "SMOOTH" } ] ], "components": [ [ [ "alien_pod_resin", 62 ] ] ] }
    },
    "id": "06851a7b-e572-4fea-a996-fa327bdedcb7"
  },
  {
    "type": "recipe",
    "result": "faction_base_modular_storehouse_migo_resin_north",
    "description": "We could use a large mi-go resin central storage building.  Continue by building the northern entrance.",
    "category": "CC_BUILDING",
    "subcategory": "CSC_BUILDING_BASES",
    "autolearn": false,
    "never_learn": true,
    "construction_blueprint": "fbms_room7_migo_resin_north",
    "blueprint_name": "north storeroom entrance",
    "blueprint_requires": [ { "id": "fbms_northeast" }, { "id": "fbms_northwest" } ],
    "blueprint_provides": [ { "id": "fbms_north" } ],
    "blueprint_excludes": [ { "id": "fbms_north" } ],
    "blueprint_needs": {
      "time": "1 d 22 h",
      "skills": [ [ "fabrication", 2 ] ],
      "inline": { "tools": [  ], "qualities": [ [ { "id": "SMOOTH" } ] ], "components": [ [ [ "alien_pod_resin", 62 ] ] ] }
    },
    "id": "f04e66e8-19fc-4310-8371-201f9a4fc99c"
  },
  {
    "type": "recipe",
    "result": "faction_base_modular_storehouse_migo_resin_center",
    "description": "We could use a large mi-go resin central storage building.  Continue by filling in the floor.",
    "category": "CC_BUILDING",
    "subcategory": "CSC_BUILDING_BASES",
    "autolearn": false,
    "never_learn": true,
    "construction_blueprint": "fbms_room8_migo_resin_center",
    "blueprint_name": "north storeroom entrance",
    "blueprint_requires": [ { "id": "fbms_north" }, { "id": "fbms_south" } ],
    "blueprint_provides": [ { "id": "fbms_center" } ],
    "blueprint_excludes": [ { "id": "fbms_center" } ],
    "blueprint_needs": {
      "time": "3 d 18 h",
      "skills": [ [ "fabrication", 2 ] ],
      "inline": { "tools": [  ], "qualities": [ [ { "id": "SMOOTH" } ] ], "components": [ [ [ "alien_pod_resin", 120 ] ] ] }
    },
    "id": "395f0130-eb54-44d2-90d3-7093d16040ac"
  }
]
