[
  {
    "type": "recipe",
    "result": "faction_base_modular_storehouse_rock_east",
    "description": "We could use a large stone central storage building.  Begin by building the east wing.",
    "category": "CC_BUILDING",
    "subcategory": "CSC_BUILDING_BASES",
    "autolearn": false,
    "never_learn": true,
    "construction_blueprint": "fbms_room0_rock_east",
    "blueprint_name": "east storage wing",
    "blueprint_requires": [ { "id": "fbms_0" } ],
    "blueprint_provides": [ { "id": "fbms_east" } ],
    "blueprint_excludes": [ { "id": "fbms_east" } ],
    "blueprint_needs": {
      "time": "3 d 2 h",
      "skills": [ [ "fabrication", 6 ] ],
      "inline": {
        "tools": [  ],
        "qualities": [ [ { "id": "DIG", "level": 2 } ], [ { "id": "HAMMER", "level": 2 } ] ],
        "components": [ [ [ "mortar_adobe", 24 ], [ "mortar_build", 24 ] ], [ [ "pebble", 600 ] ], [ [ "rock", 288 ] ] ]
      }
    },
    "id": "eb1a0e1f-abdc-4b72-bfb4-8e401fb695da"
  },
  {
    "type": "recipe",
    "result": "faction_base_modular_storehouse_rock_west",
    "description": "We could use a large stone central storage building.  Continue by building the west wing.",
    "category": "CC_BUILDING",
    "subcategory": "CSC_BUILDING_BASES",
    "autolearn": false,
    "never_learn": true,
    "construction_blueprint": "fbms_room1_rock_west",
    "blueprint_name": "east storage wing",
    "blueprint_requires": [ { "id": "fbms_0" } ],
    "blueprint_provides": [ { "id": "fbms_west" } ],
    "blueprint_excludes": [ { "id": "fbms_west" } ],
    "blueprint_needs": {
      "time": "3 d 2 h",
      "skills": [ [ "fabrication", 6 ] ],
      "inline": {
        "tools": [  ],
        "qualities": [ [ { "id": "DIG", "level": 2 } ], [ { "id": "HAMMER", "level": 2 } ] ],
        "components": [ [ [ "mortar_adobe", 24 ], [ "mortar_build", 24 ] ], [ [ "pebble", 600 ] ], [ [ "rock", 288 ] ] ]
      }
    },
    "id": "b0dbf16b-c8d7-472f-b22d-6b3ad1684b04"
  },
  {
    "type": "recipe",
    "result": "faction_base_modular_storehouse_rock_northwest",
    "description": "We could use a large stone central storage building.  Continue by building the northwest corner.",
    "category": "CC_BUILDING",
    "subcategory": "CSC_BUILDING_BASES",
    "autolearn": false,
    "never_learn": true,
    "construction_blueprint": "fbms_room2_rock_northwest",
    "blueprint_name": "northwest storeroom corner",
    "blueprint_requires": [ { "id": "fbms_west" } ],
    "blueprint_provides": [ { "id": "fbms_northwest" } ],
    "blueprint_excludes": [ { "id": "fbms_northwest" } ],
    "blueprint_needs": {
      "time": "1 d 2 h 25 m",
      "skills": [ [ "fabrication", 6 ] ],
      "inline": {
        "tools": [  ],
        "qualities": [ [ { "id": "DIG", "level": 2 } ], [ { "id": "HAMMER", "level": 2 } ] ],
        "components": [
          [ [ "2x4", 15 ], [ "log", 2 ] ],
          [ [ "glass_sheet", 1 ] ],
          [ [ "mortar_adobe", 8 ], [ "mortar_build", 8 ] ],
          [ [ "nail", 30 ] ],
          [ [ "pebble", 200 ] ],
          [ [ "rock", 96 ] ]
        ]
      }
    },
    "id": "03fbee11-db69-473d-a563-e52048b2f4d3"
  },
  {
    "type": "recipe",
    "result": "faction_base_modular_storehouse_rock_southwest",
    "description": "We could use a large stone central storage building.  Continue by building the southwest corner.",
    "category": "CC_BUILDING",
    "subcategory": "CSC_BUILDING_BASES",
    "autolearn": false,
    "never_learn": true,
    "construction_blueprint": "fbms_room3_rock_southwest",
    "blueprint_name": "southwest storeroom corner",
    "blueprint_requires": [ { "id": "fbms_west" } ],
    "blueprint_provides": [ { "id": "fbms_southwest" } ],
    "blueprint_excludes": [ { "id": "fbms_southwest" } ],
    "blueprint_needs": {
      "time": "1 d 2 h 25 m",
      "skills": [ [ "fabrication", 6 ] ],
      "inline": {
        "tools": [  ],
        "qualities": [ [ { "id": "DIG", "level": 2 } ], [ { "id": "HAMMER", "level": 2 } ] ],
        "components": [
          [ [ "2x4", 15 ], [ "log", 2 ] ],
          [ [ "glass_sheet", 1 ] ],
          [ [ "mortar_adobe", 8 ], [ "mortar_build", 8 ] ],
          [ [ "nail", 30 ] ],
          [ [ "pebble", 200 ] ],
          [ [ "rock", 96 ] ]
        ]
      }
    },
    "id": "1ae39e6e-814b-4650-a326-c823b03d4627"
  },
  {
    "type": "recipe",
    "result": "faction_base_modular_storehouse_rock_northeast",
    "description": "We could use a large stone central storage building.  Continue by building the northeast corner.",
    "category": "CC_BUILDING",
    "subcategory": "CSC_BUILDING_BASES",
    "autolearn": false,
    "never_learn": true,
    "construction_blueprint": "fbms_room4_rock_northeast",
    "blueprint_name": "northeast storeroom corner",
    "blueprint_requires": [ { "id": "fbms_east" } ],
    "blueprint_provides": [ { "id": "fbms_northeast" } ],
    "blueprint_excludes": [ { "id": "fbms_northeast" } ],
    "blueprint_needs": {
      "time": "1 d 2 h 25 m",
      "skills": [ [ "fabrication", 6 ] ],
      "inline": {
        "tools": [  ],
        "qualities": [ [ { "id": "DIG", "level": 2 } ], [ { "id": "HAMMER", "level": 2 } ] ],
        "components": [
          [ [ "2x4", 15 ], [ "log", 2 ] ],
          [ [ "glass_sheet", 1 ] ],
          [ [ "mortar_adobe", 8 ], [ "mortar_build", 8 ] ],
          [ [ "nail", 30 ] ],
          [ [ "pebble", 200 ] ],
          [ [ "rock", 96 ] ]
        ]
      }
    },
    "id": "912b7dfe-32d5-4265-964e-c35e791f02bf"
  },
  {
    "type": "recipe",
    "result": "faction_base_modular_storehouse_rock_southeast",
    "description": "We could use a large stone central storage building.  Continue by building the southeast corner.",
    "category": "CC_BUILDING",
    "subcategory": "CSC_BUILDING_BASES",
    "autolearn": false,
    "never_learn": true,
    "construction_blueprint": "fbms_room5_rock_southeast",
    "blueprint_name": "southeast storeroom corner",
    "blueprint_requires": [ { "id": "fbms_east" } ],
    "blueprint_provides": [ { "id": "fbms_southeast" } ],
    "blueprint_excludes": [ { "id": "fbms_southeast" } ],
    "blueprint_needs": {
      "time": "1 d 2 h 25 m",
      "skills": [ [ "fabrication", 6 ] ],
      "inline": {
        "tools": [  ],
        "qualities": [ [ { "id": "DIG", "level": 2 } ], [ { "id": "HAMMER", "level": 2 } ] ],
        "components": [
          [ [ "2x4", 15 ], [ "log", 2 ] ],
          [ [ "glass_sheet", 1 ] ],
          [ [ "mortar_adobe", 8 ], [ "mortar_build", 8 ] ],
          [ [ "nail", 30 ] ],
          [ [ "pebble", 200 ] ],
          [ [ "rock", 96 ] ]
        ]
      }
    },
    "id": "9adfee8d-b30d-4a6b-8f57-d6d0bbc0f920"
  },
  {
    "type": "recipe",
    "result": "faction_base_modular_storehouse_rock_south",
    "description": "We could use a large stone central storage building.  Continue by building the southern entrance.",
    "category": "CC_BUILDING",
    "subcategory": "CSC_BUILDING_BASES",
    "autolearn": false,
    "never_learn": true,
    "construction_blueprint": "fbms_room6_rock_south",
    "blueprint_name": "south storeroom entrance",
    "blueprint_requires": [ { "id": "fbms_southeast" }, { "id": "fbms_southwest" } ],
    "blueprint_provides": [ { "id": "fbms_south" } ],
    "blueprint_excludes": [ { "id": "fbms_south" } ],
    "blueprint_needs": {
      "time": "1 d 10 h 30 m",
      "skills": [ [ "fabrication", 6 ] ],
      "inline": {
        "tools": [  ],
        "qualities": [ [ { "id": "DIG", "level": 2 } ], [ { "id": "HAMMER", "level": 2 } ], [ { "id": "SAW_W", "level": 2 } ] ],
        "components": [
          [ [ "2x4", 58 ] ],
          [ [ "glass_sheet", 2 ] ],
          [ [ "hinge", 4 ] ],
          [ [ "mortar_adobe", 8 ], [ "mortar_build", 8 ] ],
          [ [ "nail", 132 ] ],
          [ [ "pebble", 200 ] ],
          [ [ "rock", 96 ] ],
          [ [ "wood_panel", 2 ] ]
        ]
      }
    },
    "id": "c7456cbf-bcc8-46fe-ba62-f26f2a52d41c"
  },
  {
    "type": "recipe",
    "result": "faction_base_modular_storehouse_rock_north",
    "description": "We could use a large stone central storage building.  Continue by building the northern entrance.",
    "category": "CC_BUILDING",
    "subcategory": "CSC_BUILDING_BASES",
    "autolearn": false,
    "never_learn": true,
    "construction_blueprint": "fbms_room7_rock_north",
    "blueprint_name": "north storeroom entrance",
    "blueprint_requires": [ { "id": "fbms_northeast" }, { "id": "fbms_northwest" } ],
    "blueprint_provides": [ { "id": "fbms_north" } ],
    "blueprint_excludes": [ { "id": "fbms_north" } ],
    "blueprint_needs": {
      "time": "1 d 10 h 30 m",
      "skills": [ [ "fabrication", 6 ] ],
      "inline": {
        "tools": [  ],
        "qualities": [ [ { "id": "DIG", "level": 2 } ], [ { "id": "HAMMER", "level": 2 } ], [ { "id": "SAW_W", "level": 2 } ] ],
        "components": [
          [ [ "2x4", 58 ] ],
          [ [ "glass_sheet", 2 ] ],
          [ [ "hinge", 4 ] ],
          [ [ "mortar_adobe", 8 ], [ "mortar_build", 8 ] ],
          [ [ "nail", 132 ] ],
          [ [ "pebble", 200 ] ],
          [ [ "rock", 96 ] ],
          [ [ "wood_panel", 2 ] ]
        ]
      }
    },
    "id": "3eb9e241-d3c5-4bb6-9508-9325e993f9d7"
  },
  {
    "type": "recipe",
    "result": "faction_base_modular_storehouse_rock_center",
    "description": "We could use a large stone central storage building.  Continue by filling in the floor.",
    "category": "CC_BUILDING",
    "subcategory": "CSC_BUILDING_BASES",
    "autolearn": false,
    "never_learn": true,
    "construction_blueprint": "fbms_room8_rock_center",
    "blueprint_name": "north storeroom entrance",
    "blueprint_requires": [ { "id": "fbms_north" }, { "id": "fbms_south" } ],
    "blueprint_provides": [ { "id": "fbms_center" } ],
    "blueprint_excludes": [ { "id": "fbms_center" } ],
    "blueprint_needs": {
      "time": "10 h",
      "skills": [ [ "fabrication", 0 ] ],
      "inline": { "tools": [  ], "qualities": [ [ { "id": "HAMMER" } ] ], "components": [  ] }
    },
    "id": "b9b69073-0b50-46b5-8768-b4ce21a73301"
  }
]
