[
  {
    "type": "recipe",
    "result": "water_clean",
    "category": "CC_FOOD",
    "subcategory": "CSC_FOOD_DRINKS",
    "skill_used": "cooking",
    "time": "5 m",
    "autolearn": true,
    "batch_time_factors": [ 80, 5 ],
    "qualities": [ { "id": "BOIL", "level": 1 } ],
    "tools": [ [ [ "water_boiling_heat", 3, "LIST" ] ] ],
    "components": [ [ [ "water", 1 ] ] ],
    "id": "277260a3-3c15-4be1-a743-07099c39f254"
  },
  {
    "type": "recipe",
    "result": "water_clean",
    "category": "CC_FOOD",
    "id_suffix": "using_water_purifier",
    "subcategory": "CSC_FOOD_DRINKS",
    "skill_used": "cooking",
    "time": "9 s",
    "autolearn": true,
    "tools": [ [ [ "water_purifier", 1 ], [ "pur_tablets", 1 ], [ "char_purifier", 1 ] ] ],
    "components": [ [ [ "water", 1 ] ] ],
    "flags": [ "BLIND_EASY" ],
    "id": "2be1e6c5-6d3b-4c65-8f9e-9676408a0eb6"
  },
  {
    "type": "recipe",
    "result": "protein_drink",
    "category": "CC_FOOD",
    "subcategory": "CSC_FOOD_DRINKS",
    "skill_used": "cooking",
    "time": "4 m",
    "autolearn": true,
    "flags": [ "BLIND_HARD" ],
    "components": [ [ [ "protein_powder", 1 ] ], [ [ "water_clean", 1 ] ] ],
    "id": "838e9469-96d0-443f-8c0d-5400eb36ee92"
  },
  {
    "type": "recipe",
    "result": "protein_shake",
    "category": "CC_FOOD",
    "subcategory": "CSC_FOOD_DRINKS",
    "skill_used": "cooking",
    "time": "4 m",
    "autolearn": true,
    "qualities": [ { "id": "CUT", "level": 1 } ],
    "components": [
      [ [ "protein_powder", 1 ] ],
      [ [ "water_clean", 1 ] ],
      [ [ "lemonade_powder", 1 ], [ "sweet_fruit_like", 1, "LIST" ], [ "coconut", 1 ] ]
    ],
    "id": "a177d0e5-6c6b-47e6-a3bc-dd476b311949"
  },
  {
    "type": "recipe",
    "result": "tea",
    "category": "CC_FOOD",
    "subcategory": "CSC_FOOD_DRINKS",
    "skill_used": "cooking",
    "time": "10 m",
    "autolearn": true,
    "batch_time_factors": [ 80, 5 ],
    "qualities": [ { "id": "BOIL", "level": 1 } ],
    "tools": [ [ [ "water_boiling_heat", 2, "LIST" ] ] ],
    "components": [ [ [ "tea_raw", 1 ] ], [ [ "water", 1 ], [ "water_clean", 1 ] ] ],
    "id": "e89ab2e5-3dfb-483e-8008-7b0dcdb2182a"
  },
  {
    "type": "recipe",
    "result": "herbal_tea",
    "category": "CC_FOOD",
    "subcategory": "CSC_FOOD_DRINKS",
    "skill_used": "cooking",
    "difficulty": 1,
    "time": "10 m",
    "autolearn": true,
    "batch_time_factors": [ 80, 5 ],
    "qualities": [ { "id": "BOIL", "level": 1 } ],
    "tools": [ [ [ "water_boiling_heat", 2, "LIST" ] ] ],
    "components": [ [ [ "wild_herbs", 10 ] ], [ [ "water", 1 ], [ "water_clean", 1 ] ] ],
    "id": "b94b15a3-09f6-4126-a772-ebe77f59df5d"
  },
  {
    "type": "recipe",
    "result": "pine_tea",
    "category": "CC_FOOD",
    "subcategory": "CSC_FOOD_DRINKS",
    "skill_used": "cooking",
    "difficulty": 2,
    "skills_required": [ "survival", 2 ],
    "time": "10 m",
    "batch_time_factors": [ 80, 5 ],
    "book_learn": [
      [ "pocket_survival", 1 ],
      [ "survival_book", 1 ],
      [ "textbook_survival", 1 ],
      [ "manual_survival", 1 ],
      [ "mag_survival", 1 ],
      [ "family_cookbook", 1 ]
    ],
    "qualities": [ { "id": "CUT", "level": 1 }, { "id": "BOIL", "level": 1 } ],
    "tools": [ [ [ "water_boiling_heat", 2, "LIST" ] ] ],
    "components": [ [ [ "pine_bough", 1 ] ], [ [ "water", 1 ], [ "water_clean", 1 ] ] ],
    "id": "0b6e6523-fb4b-4cab-94a5-7cf5ab546c12"
  },
  {
    "type": "recipe",
    "result": "dandelion_tea",
    "category": "CC_FOOD",
    "subcategory": "CSC_FOOD_DRINKS",
    "skill_used": "cooking",
    "difficulty": 1,
    "time": "12 m",
    "batch_time_factors": [ 80, 5 ],
    "book_learn": [
      [ "pocket_survival", 1 ],
      [ "survival_book", 1 ],
      [ "textbook_survival", 1 ],
      [ "manual_survival", 1 ],
      [ "mag_survival", 1 ],
      [ "family_cookbook", 1 ],
      [ "cookbook_daintydishes", 2, "Royal Penny Tea" ]
    ],
    "qualities": [ { "id": "BOIL", "level": 1 }, { "id": "CUT", "level": 1 } ],
    "tools": [ [ [ "water_boiling_heat", 2, "LIST" ] ] ],
    "components": [ [ [ "raw_dandelion", 1 ] ], [ [ "water", 1 ], [ "water_clean", 1 ] ] ],
    "id": "d5215310-363a-4962-9093-911964eb3d3b"
  },
  {
    "type": "recipe",
    "result": "dandelionburdock_tea",
    "category": "CC_FOOD",
    "subcategory": "CSC_FOOD_DRINKS",
    "skill_used": "cooking",
    "difficulty": 1,
    "time": "12 m",
    "batch_time_factors": [ 80, 5 ],
    "book_learn": [
      [ "pocket_survival", 1 ],
      [ "survival_book", 1 ],
      [ "textbook_survival", 1 ],
      [ "manual_survival", 1 ],
      [ "mag_survival", 1 ],
      [ "family_cookbook", 1 ],
      [ "cookbook_daintydishes", 2, "Royal Penny Tea" ]
    ],
    "qualities": [ { "id": "BOIL", "level": 1 }, { "id": "CUT", "level": 1 } ],
    "tools": [ [ [ "water_boiling_heat", 2, "LIST" ] ] ],
    "components": [ [ [ "raw_dandelion", 1 ] ], [ [ "raw_burdock", 1 ] ], [ [ "water", 1 ], [ "water_clean", 1 ] ] ],
    "id": "f2d4ca09-7b3d-4d6e-91e8-c71a2d1b4c2e"
  },
  {
    "type": "recipe",
    "result": "chicory_coffee",
    "category": "CC_FOOD",
    "subcategory": "CSC_FOOD_DRINKS",
    "skill_used": "cooking",
    "difficulty": 1,
    "time": "12 m",
    "batch_time_factors": [ 80, 5 ],
    "book_learn": [
      [ "pocket_survival", 1 ],
      [ "survival_book", 1 ],
      [ "textbook_survival", 1 ],
      [ "manual_survival", 1 ],
      [ "mag_survival", 1 ],
      [ "family_cookbook", 1 ]
    ],
    "qualities": [ { "id": "BOIL", "level": 1 }, { "id": "CUT", "level": 1 } ],
    "tools": [ [ [ "water_boiling_heat", 2, "LIST" ] ] ],
    "components": [ [ [ "chicory_raw", 1 ] ], [ [ "water", 1 ], [ "water_clean", 1 ] ] ],
    "id": "fb5204bc-b41d-40ab-bd34-10987b459a86"
  },
  {
    "type": "recipe",
    "result": "chamomile_tea",
    "category": "CC_FOOD",
    "subcategory": "CSC_FOOD_DRINKS",
    "skill_used": "cooking",
    "difficulty": 1,
    "skills_required": [ "survival", 1 ],
    "time": "10 m",
    "batch_time_factors": [ 80, 5 ],
    "book_learn": [
      [ "pocket_survival", 1 ],
      [ "survival_book", 1 ],
      [ "textbook_survival", 1 ],
      [ "manual_survival", 1 ],
      [ "mag_survival", 1 ],
      [ "family_cookbook", 1 ]
    ],
    "qualities": [ { "id": "BOIL", "level": 1 } ],
    "tools": [ [ [ "water_boiling_heat", 2, "LIST" ] ] ],
    "components": [ [ [ "chamomile", 1 ] ], [ [ "water", 1 ], [ "water_clean", 1 ] ] ],
    "id": "3485d0ec-b1a6-4acf-be76-018e7c132b97"
  },
  {
    "type": "recipe",
    "result": "lotus_tea",
    "category": "CC_FOOD",
    "subcategory": "CSC_FOOD_DRINKS",
    "skill_used": "cooking",
    "difficulty": 1,
    "skills_required": [ "survival", 1 ],
    "time": "10 m",
    "batch_time_factors": [ 80, 5 ],
    "book_learn": [
      [ "pocket_survival", 1 ],
      [ "survival_book", 1 ],
      [ "textbook_survival", 1 ],
      [ "manual_survival", 1 ],
      [ "mag_survival", 1 ],
      [ "family_cookbook", 1 ]
    ],
    "qualities": [ { "id": "BOIL", "level": 1 } ],
    "tools": [ [ [ "water_boiling_heat", 2, "LIST" ] ] ],
    "components": [ [ [ "lotus", 1 ] ], [ [ "water", 1 ], [ "water_clean", 1 ] ] ],
    "id": "7616571a-d78d-4aea-848e-120b489aa927"
  },
  {
    "type": "recipe",
    "result": "spurge_tea",
    "category": "CC_FOOD",
    "subcategory": "CSC_FOOD_DRINKS",
    "skill_used": "cooking",
    "difficulty": 1,
    "skills_required": [ "survival", 1 ],
    "time": "10 m",
    "batch_time_factors": [ 80, 5 ],
    "book_learn": [
      [ "pocket_survival", 1 ],
      [ "survival_book", 1 ],
      [ "textbook_survival", 1 ],
      [ "manual_survival", 1 ],
      [ "mag_survival", 1 ],
      [ "family_cookbook", 1 ]
    ],
    "qualities": [ { "id": "BOIL", "level": 1 } ],
    "tools": [ [ [ "water_boiling_heat", 2, "LIST" ] ] ],
    "components": [ [ [ "spurge", 1 ] ], [ [ "water", 1 ], [ "water_clean", 1 ] ] ],
    "id": "5259b689-1c9c-4f58-8644-589f25a57c94"
  },
  {
    "type": "recipe",
    "result": "kompot",
    "category": "CC_FOOD",
    "subcategory": "CSC_FOOD_DRINKS",
    "skill_used": "cooking",
    "difficulty": 3,
    "result_mult": 2,
    "time": "20 m",
    "autolearn": true,
    "batch_time_factors": [ 80, 5 ],
    "qualities": [ { "id": "COOK", "level": 3 } ],
    "tools": [ [ [ "surface_heat", 10, "LIST" ] ] ],
    "components": [ [ [ "sweet_fruit_like", 1, "LIST" ] ], [ [ "sugar", 5 ] ], [ [ "water", 2 ], [ "water_clean", 2 ] ] ],
    "id": "4d06d79e-dcfa-49eb-a954-01d9fe004872"
  },
  {
    "type": "recipe",
    "result": "coffee",
    "category": "CC_FOOD",
    "subcategory": "CSC_FOOD_DRINKS",
    "skill_used": "cooking",
    "time": "10 m",
    "autolearn": true,
    "batch_time_factors": [ 80, 5 ],
    "qualities": [ { "id": "BOIL", "level": 1 } ],
    "tools": [ [ [ "water_boiling_heat", 3, "LIST" ] ] ],
    "components": [ [ [ "coffee_raw", 1 ] ], [ [ "water", 1 ], [ "water_clean", 1 ] ] ],
    "id": "f4a8eeef-e538-4350-96a7-ab2003b12853"
  },
  {
    "type": "recipe",
    "result": "atomic_coffee",
    "category": "CC_FOOD",
    "subcategory": "CSC_FOOD_DRINKS",
    "skill_used": "cooking",
    "time": "6 m",
    "autolearn": true,
    "batch_time_factors": [ 80, 5 ],
    "tools": [ [ [ "atomic_coffeepot", -1 ] ] ],
    "components": [ [ [ "coffee_raw", 1 ] ], [ [ "water", 1 ], [ "water_clean", 1 ] ] ],
    "id": "8d702d33-0bad-498c-b7da-fd86e70f3d94"
  },
  {
    "type": "recipe",
    "result": "coffee_substitute",
    "category": "CC_FOOD",
    "subcategory": "CSC_FOOD_DRINKS",
    "skill_used": "cooking",
    "time": "10 m",
    "autolearn": true,
    "batch_time_factors": [ 80, 5 ],
    "qualities": [ { "id": "BOIL", "level": 1 } ],
    "tools": [ [ [ "water_boiling_heat", 3, "LIST" ] ] ],
    "components": [ [ [ "coffee_raw_kentucky", 1 ] ], [ [ "water", 1 ], [ "water_clean", 1 ] ] ],
    "id": "ca81a093-452c-45d2-9940-c6116cab4913"
  },
  {
    "type": "recipe",
    "result": "almond_milk",
    "result_mult": 3,
    "byproducts": [ [ "almond_pulp" ] ],
    "id_suffix": "mortar",
    "category": "CC_FOOD",
    "subcategory": "CSC_FOOD_DRINKS",
    "skill_used": "cooking",
    "difficulty": 1,
    "time": "15 m",
    "qualities": [ { "id": "CONTAIN", "level": 1 } ],
    "tools": [ [ [ "rag", -1 ] ], [ [ "mortar_pestle", -1 ] ] ],
    "autolearn": true,
    "batch_time_factors": [ 50, 3 ],
    "components": [ [ [ "almond", 2 ] ], [ [ "water_clean", 3 ] ] ],
    "id": "d2e9d966-53be-4385-aa03-ca9811acdfce"
  },
  {
    "type": "recipe",
    "result": "almond_milk",
    "result_mult": 3,
    "byproducts": [ [ "almond_pulp" ] ],
    "category": "CC_FOOD",
    "subcategory": "CSC_FOOD_DRINKS",
    "skill_used": "cooking",
    "difficulty": 1,
    "time": "9 m",
    "qualities": [ { "id": "CONTAIN", "level": 1 } ],
    "tools": [ [ [ "food_processor", 20 ] ], [ [ "rag", -1 ] ] ],
    "autolearn": true,
    "batch_time_factors": [ 80, 5 ],
    "components": [ [ [ "almond", 2 ] ], [ [ "water_clean", 3 ] ] ],
    "id": "6fbdde60-fca9-4a02-baee-fe21c333e1ac"
  },
  {
    "type": "recipe",
    "result": "soy_milk",
    "category": "CC_FOOD",
    "subcategory": "CSC_FOOD_DRINKS",
    "skill_used": "cooking",
    "difficulty": 1,
    "time": "13 m",
    "qualities": [ { "id": "CONTAIN", "level": 1 } ],
    "tools": [ [ [ "food_processor", 20 ] ], [ [ "rag", -1 ] ], [ [ "surface_heat", 10, "LIST" ] ] ],
    "autolearn": true,
    "batch_time_factors": [ 80, 5 ],
    "components": [ [ [ "soybean", 2 ] ], [ [ "water_clean", 2 ] ] ],
    "id": "4fe12c54-72a6-4ff5-86e0-e1553b2db43c"
  },
  {
    "type": "recipe",
    "result": "milk",
    "category": "CC_FOOD",
    "subcategory": "CSC_FOOD_DRINKS",
    "skill_used": "cooking",
    "time": "5 m",
    "autolearn": true,
    "batch_time_factors": [ 80, 5 ],
    "qualities": [ { "id": "BOIL", "level": 1 } ],
    "tools": [ [ [ "water_boiling_heat", 3, "LIST" ] ] ],
    "components": [ [ [ "milk_raw", 1 ] ] ],
    "id": "aaafeb86-5c4c-4001-8f5b-a57257c9bf04"
  },
  {
    "type": "recipe",
    "result": "milk_reconstituted",
    "id_suffix": "from_powder",
    "category": "CC_FOOD",
    "subcategory": "CSC_FOOD_DRINKS",
    "skill_used": "cooking",
    "time": "1 m",
    "autolearn": true,
    "components": [ [ [ "milk_powder", 1 ] ], [ [ "water_clean", 1 ] ] ],
    "id": "a5702ccd-bded-4c15-b510-0c5836af3daa"
  },
  {
    "type": "recipe",
    "result": "milk_reconstituted",
    "id_suffix": "from_condensed",
    "result_mult": 4,
    "category": "CC_FOOD",
    "subcategory": "CSC_FOOD_DRINKS",
    "skill_used": "cooking",
    "time": "1 m",
    "autolearn": true,
    "components": [ [ [ "con_milk", 5 ] ], [ [ "water_clean", 3 ] ] ],
    "id": "adef97e2-9547-4227-8527-83218e49c061"
  },
  {
    "type": "recipe",
    "result": "can_coconut",
    "charges": 1,
    "byproducts": [ [ "juice_pulp", 2 ] ],
    "category": "CC_FOOD",
    "subcategory": "CSC_FOOD_DRINKS",
    "skill_used": "cooking",
    "difficulty": 1,
    "time": "15 m",
    "book_learn": [ [ "manual_sealing", 1 ] ],
    "qualities": [ { "id": "CONTAIN", "level": 1 }, { "id": "CUT", "level": 1 } ],
    "tools": [ [ [ "rag", -1 ] ] ],
    "components": [ [ [ "coconut", 2 ] ], [ [ "water_clean", 2 ] ] ],
    "id": "66d088f0-448e-4b21-8229-ddf164d65555"
  },
  {
    "type": "recipe",
    "result": "coffee_syrup",
    "category": "CC_FOOD",
    "subcategory": "CSC_FOOD_DRINKS",
    "skill_used": "cooking",
    "difficulty": 1,
    "time": "12 m",
    "autolearn": true,
    "batch_time_factors": [ 50, 3 ],
    "qualities": [ { "id": "COOK", "level": 3 } ],
    "tools": [ [ [ "surface_heat", 2, "LIST" ] ] ],
    "components": [
      [ [ "coffee_raw", 4 ] ],
      [ [ "honeycomb", 1 ], [ "beverage_sweetener", 8, "LIST" ] ],
      [ [ "water", 1 ], [ "water_clean", 1 ] ]
    ],
    "id": "7e40fb21-ec61-46af-a85d-abd9fa8c01f2"
  },
  {
    "type": "recipe",
    "result": "oj",
    "byproducts": [ [ "juice_pulp", 2 ] ],
    "category": "CC_FOOD",
    "subcategory": "CSC_FOOD_DRINKS",
    "skill_used": "cooking",
    "difficulty": 1,
    "time": "5 m",
    "autolearn": true,
    "qualities": [ { "id": "HAMMER", "level": 1 }, { "id": "CONTAIN", "level": 1 } ],
    "tools": [ [ [ "rag", -1 ] ] ],
    "components": [ [ [ "irradiated_orange", 2 ], [ "orange", 2 ] ] ],
    "id": "c22b317f-4df9-4d89-a319-fde3ee38d466"
  },
  {
    "type": "recipe",
    "result": "cranberry_juice",
    "byproducts": [ [ "juice_pulp", 2 ] ],
    "category": "CC_FOOD",
    "subcategory": "CSC_FOOD_DRINKS",
    "skill_used": "cooking",
    "difficulty": 1,
    "time": "5 m",
    "autolearn": true,
    "qualities": [ { "id": "HAMMER", "level": 1 }, { "id": "CONTAIN", "level": 1 } ],
    "tools": [ [ [ "rag", -1 ] ] ],
    "components": [ [ [ "cranberries", 3 ], [ "irradiated_cranberries", 3 ] ], [ [ "water_clean", 1 ] ] ],
    "id": "7b15f761-2c80-479c-bb0e-d888dc75b7cb"
  },
  {
    "type": "recipe",
    "result": "apple_cider",
    "byproducts": [ [ "juice_pulp", 2 ] ],
    "category": "CC_FOOD",
    "subcategory": "CSC_FOOD_DRINKS",
    "skill_used": "cooking",
    "difficulty": 2,
    "time": "7 m",
    "autolearn": true,
    "qualities": [ { "id": "HAMMER", "level": 1 }, { "id": "CONTAIN", "level": 1 } ],
    "tools": [ [ [ "rag", -1 ] ] ],
    "components": [ [ [ "irradiated_apple", 2 ], [ "apple", 2 ] ] ],
    "id": "b3767d67-47f2-4d46-8b0e-bfbaaefe2877"
  },
  {
    "type": "recipe",
    "result": "lemonade",
    "result_mult": 2,
    "category": "CC_FOOD",
    "subcategory": "CSC_FOOD_DRINKS",
    "skill_used": "cooking",
    "difficulty": 1,
    "time": "5 m",
    "autolearn": true,
    "qualities": [ { "id": "HAMMER", "level": 1 }, { "id": "CONTAIN", "level": 1 } ],
    "components": [ [ [ "irradiated_lemon", 1 ], [ "lemon", 1 ] ], [ [ "sugar", 10 ] ], [ [ "water_clean", 1 ] ] ],
    "id": "ab0a0aca-8218-4798-8038-ae51ab8e33e7"
  },
  {
    "type": "recipe",
    "result": "lemonade",
    "id_suffix": "from_mix",
    "category": "CC_FOOD",
    "subcategory": "CSC_FOOD_DRINKS",
    "skill_used": "cooking",
    "time": "30 s",
    "autolearn": true,
    "components": [ [ [ "lemonade_powder", 1 ] ], [ [ "water_clean", 1 ] ] ],
    "id": "4e20194b-d674-424a-bfa2-acecf6033bf3"
  },
  {
    "type": "recipe",
    "result": "spezi",
    "result_mult": 2,
    "category": "CC_FOOD",
    "subcategory": "CSC_FOOD_DRINKS",
    "skill_used": "cooking",
    "difficulty": 1,
    "time": "30 s",
    "autolearn": true,
    "flags": [ "BLIND_HARD" ],
    "components": [ [ [ "orangesoda", 1 ] ], [ [ "cola", 1 ] ] ],
    "id": "e7220724-4289-45f3-951f-c631d6b08aa3"
  },
  {
    "type": "recipe",
    "result": "crispycran",
    "result_mult": 2,
    "category": "CC_FOOD",
    "subcategory": "CSC_FOOD_DRINKS",
    "skill_used": "cooking",
    "difficulty": 1,
    "time": "30 s",
    "autolearn": true,
    "flags": [ "BLIND_HARD" ],
    "components": [ [ [ "lemonlime", 1 ] ], [ [ "cranberry_juice", 1 ] ] ],
    "id": "3aca52a1-562a-4dd7-bb8d-bfe58b45daf4"
  },
  {
    "type": "recipe",
    "result": "irish_coffee",
    "category": "CC_FOOD",
    "subcategory": "CSC_FOOD_DRINKS",
    "charges": 2,
    "skill_used": "cooking",
    "time": "14 m",
    "autolearn": true,
    "batch_time_factors": [ 80, 5 ],
    "qualities": [ { "id": "BOIL", "level": 1 } ],
    "tools": [ [ [ "water_boiling_heat", 3, "LIST" ] ] ],
    "components": [
      [ [ "beverage_sweetener", 1, "LIST" ] ],
      [ [ "whiskey", 1 ], [ "single_malt_whiskey", 1 ], [ "single_pot_whiskey", 1 ], [ "canadian_whiskey", 1 ] ],
      [ [ "coffee_raw", 1 ] ],
      [ [ "milk_standard", 1, "LIST" ] ],
      [ [ "water_clean", 1 ], [ "water", 1 ] ]
    ],
    "id": "964e0ad8-2e46-42d4-b7ee-43b90a76870a"
  },
  {
    "type": "recipe",
    "result": "long_island",
    "category": "CC_FOOD",
    "subcategory": "CSC_FOOD_DRINKS",
    "skill_used": "cooking",
    "difficulty": 1,
    "time": "7 m",
    "autolearn": true,
    "flags": [ "BLIND_HARD" ],
    "components": [
      [ [ "cola", 1 ] ],
      [ [ "vodka", 1 ] ],
      [ [ "gin", 1 ] ],
      [ [ "rum", 1 ] ],
      [ [ "tequila", 1 ] ],
      [ [ "triple_sec", 1 ] ]
    ],
    "id": "f6912356-af2a-4c77-b9b0-4f4f97109b25"
  },
  {
    "type": "recipe",
    "result": "drink_screwdriver",
    "category": "CC_FOOD",
    "subcategory": "CSC_FOOD_DRINKS",
    "skill_used": "cooking",
    "difficulty": 1,
    "time": "30 s",
    "autolearn": true,
    "flags": [ "BLIND_HARD" ],
    "components": [ [ [ "oj", 1 ] ], [ [ "vodka", 1 ] ] ],
    "id": "547e2418-0b5d-4aa5-b6ae-d7004cd78137"
  },
  {
    "type": "recipe",
    "result": "drink_wild_apple",
    "category": "CC_FOOD",
    "subcategory": "CSC_FOOD_DRINKS",
    "skill_used": "cooking",
    "difficulty": 1,
    "time": "30 s",
    "autolearn": true,
    "flags": [ "BLIND_HARD" ],
    "components": [ [ [ "apple_cider", 1 ] ], [ [ "vodka", 1 ] ] ],
    "id": "38672f5f-0d27-4a37-a484-5bbb0a3f0e1b"
  },
  {
    "type": "recipe",
    "result": "drink_rumcola",
    "category": "CC_FOOD",
    "subcategory": "CSC_FOOD_DRINKS",
    "skill_used": "cooking",
    "difficulty": 1,
    "time": "30 s",
    "autolearn": true,
    "flags": [ "BLIND_HARD" ],
    "components": [ [ [ "rum", 1 ] ], [ [ "cola", 1 ] ] ],
    "id": "3385b786-91b0-495b-acc9-f9ad380c00ff"
  },
  {
    "type": "recipe",
    "result": "V8",
    "category": "CC_FOOD",
    "subcategory": "CSC_FOOD_DRINKS",
    "skill_used": "cooking",
    "difficulty": 2,
    "charges": 3,
    "time": "5 m",
    "autolearn": true,
    "components": [
      [ [ "water_clean", 2 ] ],
      [ [ "irradiated_tomato", 1 ], [ "can_tomato", 1 ], [ "tomato", 1 ] ],
      [ [ "irradiated_broccoli", 1 ], [ "broccoli", 1 ] ],
      [ [ "irradiated_zucchini", 1 ], [ "zucchini", 1 ] ]
    ],
    "id": "10d2501e-0ff2-4774-af26-6385507436f3"
  },
  {
    "type": "recipe",
    "result": "syrup",
    "category": "CC_FOOD",
    "subcategory": "CSC_FOOD_DRINKS",
    "skill_used": "cooking",
    "difficulty": 4,
    "time": "10 m",
    "charges": 2,
    "autolearn": true,
    "batch_time_factors": [ 60, 3 ],
    "qualities": [ { "id": "BOIL", "level": 2 } ],
    "tools": [ [ [ "surface_heat", 2, "LIST" ] ], [ [ "rag", -1 ] ] ],
    "components": [ [ [ "maple_sap", 5 ] ] ],
    "id": "d0305b6f-2d33-4cde-a929-098a1630a0ce"
  },
  {
    "type": "recipe",
    "result": "hickory_nut_ambrosia",
    "category": "CC_FOOD",
    "subcategory": "CSC_FOOD_DRINKS",
    "skill_used": "cooking",
    "difficulty": 5,
    "time": "48 m",
    "batch_time_factors": [ 80, 5 ],
    "charges": 10,
    "book_learn": [
      [ "family_cookbook", 5 ],
      [ "survival_book", 3 ],
      [ "textbook_survival", 3 ],
      [ "cookbook_foodfashions", 6, "Shagbark Nut Ambrosia" ]
    ],
    "qualities": [ { "id": "COOK", "level": 3 }, { "id": "BOIL", "level": 2 } ],
    "tools": [ [ [ "surface_heat", 5, "LIST" ] ] ],
    "components": [
      [ [ "hickory_nut", 4 ] ],
      [ [ "milk_standard_raw", 1, "LIST" ], [ "milk_powder", 1 ], [ "con_milk", 1 ] ],
      [
        [ "honeycomb", 1 ],
        [ "honey_bottled", 6 ],
        [ "honey_glassed", 6 ],
        [ "sugar", 20 ],
        [ "syrup", 8 ],
        [ "beet_syrup", 8 ]
      ],
      [ [ "water", 10 ], [ "water_clean", 10 ] ]
    ],
    "id": "8a6f36cd-b14f-4137-9355-28e985b932ff"
  },
  {
    "type": "recipe",
    "result": "vodka",
    "id_suffix": "from_ethanol",
    "category": "CC_FOOD",
    "subcategory": "CSC_FOOD_DRINKS",
    "skill_used": "cooking",
    "time": "1 s",
    "autolearn": true,
    "flags": [ "BLIND_HARD" ],
    "components": [ [ [ "chem_ethanol", 125 ] ], [ [ "water", 1 ], [ "water_clean", 1 ] ] ],
    "id": "f66adf89-d4f3-4622-bfbc-485535dc6d97"
  },
  {
    "type": "recipe",
    "result": "mixed_alcohol_strong",
    "category": "CC_FOOD",
    "subcategory": "CSC_FOOD_DRINKS",
    "skill_used": "cooking",
    "time": "1 s",
    "charges": 1,
    "autolearn": true,
    "flags": [ "BLIND_EASY" ],
    "components": [
      [
        [ "gin", 1 ],
        [ "rum", 1 ],
        [ "single_malt_whiskey", 1 ],
        [ "cheap_whiskey", 1 ],
        [ "canadian_whiskey", 1 ],
        [ "single_pot_whiskey", 1 ],
        [ "tequila", 1 ],
        [ "triple_sec", 1 ],
        [ "vodka", 1 ],
        [ "whiskey", 1 ],
        [ "brandy", 1 ]
      ]
    ],
    "id": "9471b579-1ac5-4065-8d1c-65b7e8c41016"
  },
  {
    "type": "recipe",
    "result": "mixed_alcohol_weak",
    "category": "CC_FOOD",
    "subcategory": "CSC_FOOD_DRINKS",
    "skill_used": "cooking",
    "time": "1 s",
    "charges": 1,
    "autolearn": true,
    "flags": [ "BLIND_EASY" ],
    "components": [
      [
        [ "beer", 1 ],
        [ "belgian_ale", 1 ],
        [ "drink_beeknees", 1 ],
        [ "european_pilsner", 1 ],
        [ "hb_beer", 1 ],
        [ "india_pale_ale", 1 ],
        [ "wine_barley", 1 ],
        [ "pale_ale", 1 ],
        [ "stout", 1 ]
      ]
    ],
    "id": "3b8556ef-0094-4221-874f-d8f47b6f8caf"
  },
  {
    "type": "recipe",
    "result": "drink_strawberry_surprise",
    "category": "CC_FOOD",
    "subcategory": "CSC_FOOD_DRINKS",
    "skill_used": "cooking",
    "difficulty": 3,
    "time": "7 m",
    "autolearn": true,
    "qualities": [ { "id": "COOK", "level": 2 } ],
    "tools": [ [ [ "water_boiling_heat", 6, "LIST" ] ] ],
    "components": [ [ [ "strawberries", 2 ], [ "irradiated_strawberries", 2 ] ], [ [ "vodka", 4 ] ] ],
    "id": "fb975537-9ca1-45be-b6ad-15d898ec51e7"
  },
  {
    "type": "recipe",
    "result": "drink_boozeberry",
    "category": "CC_FOOD",
    "subcategory": "CSC_FOOD_DRINKS",
    "skill_used": "cooking",
    "difficulty": 3,
    "time": "7 m",
    "autolearn": true,
    "qualities": [ { "id": "COOK", "level": 2 } ],
    "tools": [ [ [ "water_boiling_heat", 6, "LIST" ] ] ],
    "components": [ [ [ "blueberries", 2 ], [ "irradiated_blueberries", 2 ] ], [ [ "vodka", 4 ] ] ],
    "id": "2e0cbd1e-f480-4cc9-af43-901e1b7198b3"
  },
  {
    "type": "recipe",
    "result": "cola_meth",
    "category": "CC_FOOD",
    "subcategory": "CSC_FOOD_DRINKS",
    "skill_used": "cooking",
    "difficulty": 3,
    "time": "7 m",
    "autolearn": true,
    "batch_time_factors": [ 80, 5 ],
    "qualities": [ { "id": "COOK", "level": 2 } ],
    "tools": [ [ [ "surface_heat", 4, "LIST" ] ] ],
    "components": [ [ [ "meth", 4 ] ], [ [ "cola", 2 ] ] ],
    "id": "de1c5e3a-b5a2-4d6f-84d7-b883a4c66d35"
  },
  {
    "type": "recipe",
    "result": "juice",
    "byproducts": [ [ "juice_pulp" ] ],
    "category": "CC_FOOD",
    "subcategory": "CSC_FOOD_DRINKS",
    "skill_used": "cooking",
    "difficulty": 1,
    "time": "3 m",
    "autolearn": true,
    "qualities": [ { "id": "HAMMER", "level": 1 }, { "id": "CONTAIN", "level": 1 } ],
    "tools": [ [ [ "rag", -1 ] ] ],
    "components": [ [ [ "sweet_fruit", 1, "LIST" ] ], [ [ "water_clean", 1 ] ] ],
    "id": "b2c80a3c-c1e4-4bb9-807e-e5224ccd2181"
  },
  {
    "type": "recipe",
    "result": "juice",
    "id_suffix": "fresh",
    "byproducts": [ [ "juice_pulp", 2 ] ],
    "category": "CC_FOOD",
    "subcategory": "CSC_FOOD_DRINKS",
    "skill_used": "cooking",
    "difficulty": 1,
    "time": "5 m",
    "autolearn": true,
    "qualities": [ { "id": "HAMMER", "level": 1 }, { "id": "CONTAIN", "level": 1 } ],
    "tools": [ [ [ "rag", -1 ] ] ],
    "components": [ [ [ "sweet_fruit", 2, "LIST" ] ] ],
    "id": "17b616e3-4b68-49f5-8805-018e94d2cd4d"
  },
  {
    "type": "recipe",
    "result": "sweet_water",
    "category": "CC_FOOD",
    "subcategory": "CSC_FOOD_DRINKS",
    "skill_used": "cooking",
    "time": "1 m",
    "autolearn": true,
    "flags": [ "BLIND_HARD" ],
    "components": [
      [ [ "water_clean", 1 ] ],
      [
        [ "sugar", 10 ],
        [ "honey_bottled", 1 ],
        [ "honey_glassed", 2 ],
        [ "honeycomb", 1 ],
        [ "syrup", 1 ],
        [ "beet_syrup", 1 ]
      ]
    ],
    "id": "58fa9110-f746-4a56-b18f-444b34432200"
  },
  {
    "type": "recipe",
    "result": "tea_bark",
    "category": "CC_FOOD",
    "subcategory": "CSC_FOOD_DRINKS",
    "skill_used": "cooking",
    "skills_required": [ "survival", 6 ],
    "difficulty": 5,
    "time": "12 m",
    "batch_time_factors": [ 80, 5 ],
    "book_learn": [ [ "textbook_survival", 5 ], [ "atomic_survival", 4 ], [ "survival_book", 3 ] ],
    "qualities": [ { "id": "BOIL", "level": 1 }, { "id": "CUT", "level": 1 } ],
    "tools": [ [ [ "water_boiling_heat", 8, "LIST" ] ] ],
    "components": [ [ [ "water", 1 ], [ "water_clean", 1 ] ], [ [ "tanbark", 2 ] ] ],
    "id": "dc973371-adf0-4546-ad3a-2938bdb8a0a0"
  },
  {
    "type": "recipe",
    "result": "milk_tea",
    "category": "CC_FOOD",
    "subcategory": "CSC_FOOD_DRINKS",
    "skill_used": "cooking",
    "time": "10 m",
    "autolearn": true,
    "batch_time_factors": [ 80, 4 ],
    "qualities": [ { "id": "BOIL", "level": 1 } ],
    "tools": [ [ [ "water_boiling_heat", 2, "LIST" ] ] ],
    "components": [ [ [ "tea_raw", 1 ] ], [ [ "water", 1 ], [ "water_clean", 1 ] ], [ [ "milk_standard", 1, "LIST" ] ] ],
    "id": "2cb88957-7430-4004-918a-233402255c05"
  },
  {
    "type": "recipe",
    "result": "milk_coffee",
    "category": "CC_FOOD",
    "subcategory": "CSC_FOOD_DRINKS",
    "skill_used": "cooking",
    "time": "10 m",
    "autolearn": true,
    "batch_time_factors": [ 80, 4 ],
    "qualities": [ { "id": "BOIL", "level": 1 } ],
    "tools": [ [ [ "water_boiling_heat", 3, "LIST" ] ] ],
    "components": [ [ [ "coffee_raw", 1 ] ], [ [ "milk_standard", 1, "LIST" ] ], [ [ "water_clean", 1 ], [ "water", 1 ] ] ],
    "id": "4aef8fe9-e367-4e08-b2f0-05203e2b52d3"
  },
  {
    "type": "recipe",
    "result": "milk_atomic_coffee",
    "category": "CC_FOOD",
    "subcategory": "CSC_FOOD_DRINKS",
    "skill_used": "cooking",
    "time": "6 m",
    "autolearn": true,
    "batch_time_factors": [ 83, 5 ],
    "tools": [ [ [ "atomic_coffeepot", -1 ] ] ],
    "components": [ [ [ "coffee_raw", 1 ] ], [ [ "milk_standard", 1, "LIST" ] ], [ [ "water", 1 ], [ "water_clean", 1 ] ] ],
    "id": "d4c866cb-b45b-4be1-93fa-f069deaa8359"
  },
  {
    "type": "recipe",
    "result": "chai_tea",
    "category": "CC_FOOD",
    "subcategory": "CSC_FOOD_DRINKS",
    "skill_used": "cooking",
    "difficulty": 2,
    "time": "15 m",
    "autolearn": true,
    "batch_time_factors": [ 80, 5 ],
    "qualities": [ { "id": "BOIL", "level": 1 } ],
    "tools": [ [ [ "water_boiling_heat", 2, "LIST" ] ] ],
    "components": [
      [ [ "tea_raw", 1 ] ],
      [ [ "water", 1 ], [ "water_clean", 1 ] ],
      [ [ "milk_standard_raw", 1, "LIST" ], [ "milk_powder", 1 ], [ "con_milk", 1 ] ],
      [ [ "sugar", 10 ], [ "honey_bottled", 1 ], [ "honey_glassed", 2 ], [ "syrup", 1 ] ],
      [ [ "pepper", 10 ] ],
      [ [ "cinnamon", 10 ] ]
    ],
    "id": "401948b0-12d4-4c9e-bcb2-b9a66d8e2118"
  },
  {
    "type": "recipe",
    "result": "coffee_sweetened",
    "category": "CC_FOOD",
    "subcategory": "CSC_FOOD_DRINKS",
    "skill_used": "cooking",
    "time": "10 m",
    "autolearn": true,
    "batch_time_factors": [ 80, 5 ],
    "qualities": [ { "id": "BOIL", "level": 1 } ],
    "tools": [ [ [ "water_boiling_heat", 3, "LIST" ] ] ],
    "components": [ [ [ "coffee_raw", 1 ] ], [ [ "water", 1 ], [ "water_clean", 1 ] ], [ [ "beverage_sweetener", 1, "LIST" ] ] ],
    "id": "0056d514-e406-47e3-b7c1-41a544054ac3"
  },
  {
    "type": "recipe",
    "result": "coffee_sweetened",
    "id_suffix": "syrupy",
    "category": "CC_FOOD",
    "subcategory": "CSC_FOOD_DRINKS",
    "skill_used": "cooking",
    "time": "10 m",
    "autolearn": true,
    "batch_time_factors": [ 80, 5 ],
    "qualities": [ { "id": "BOIL", "level": 1 } ],
    "tools": [ [ [ "water_boiling_heat", 3, "LIST" ] ] ],
    "components": [ [ [ "coffee_syrup", 1 ] ], [ [ "water", 1 ], [ "water_clean", 1 ] ] ],
    "id": "efd7c41f-15c6-45ad-af5f-ee2c733a1b12"
  },
  {
    "type": "recipe",
    "result": "atomic_coffee_sweetened",
    "category": "CC_FOOD",
    "subcategory": "CSC_FOOD_DRINKS",
    "skill_used": "cooking",
    "time": "6 m",
    "autolearn": true,
    "batch_time_factors": [ 80, 5 ],
    "tools": [ [ [ "atomic_coffeepot", -1 ] ] ],
    "components": [ [ [ "coffee_raw", 1 ] ], [ [ "water", 1 ], [ "water_clean", 1 ] ], [ [ "beverage_sweetener", 1, "LIST" ] ] ],
    "id": "d205b8fd-be7a-4103-9b4d-3b387bd903dd"
  },
  {
    "type": "recipe",
    "result": "atomic_coffee_sweetened",
    "id_suffix": "syrupy",
    "category": "CC_FOOD",
    "subcategory": "CSC_FOOD_DRINKS",
    "skill_used": "cooking",
    "time": "6 m",
    "autolearn": true,
    "batch_time_factors": [ 80, 5 ],
    "tools": [ [ [ "atomic_coffeepot", -1 ] ] ],
    "components": [ [ [ "coffee_syrup", 1 ] ], [ [ "water", 1 ], [ "water_clean", 1 ] ] ],
    "id": "66c11288-9053-4563-a788-ef7605a33804"
  },
  {
    "type": "recipe",
    "result": "coffee_substitute_sweetened",
    "category": "CC_FOOD",
    "subcategory": "CSC_FOOD_DRINKS",
    "skill_used": "cooking",
    "time": "10 m",
    "autolearn": true,
    "batch_time_factors": [ 80, 5 ],
    "qualities": [ { "id": "BOIL", "level": 1 } ],
    "tools": [ [ [ "water_boiling_heat", 3, "LIST" ] ] ],
    "components": [ [ [ "coffee_raw_kentucky", 1 ] ], [ [ "water", 1 ], [ "water_clean", 1 ] ], [ [ "beverage_sweetener", 1, "LIST" ] ] ],
    "id": "ef59594b-2499-4455-a5ee-2ca8e4c3a290"
  },
  {
    "type": "recipe",
    "result": "milk_coffee_sweetened",
    "category": "CC_FOOD",
    "subcategory": "CSC_FOOD_DRINKS",
    "skill_used": "cooking",
    "time": "10 m",
    "autolearn": true,
    "batch_time_factors": [ 80, 5 ],
    "qualities": [ { "id": "BOIL", "level": 1 } ],
    "tools": [ [ [ "water_boiling_heat", 3, "LIST" ] ] ],
    "components": [
      [ [ "coffee_raw", 1 ] ],
      [ [ "milk_standard", 1, "LIST" ] ],
      [ [ "beverage_sweetener", 1, "LIST" ] ],
      [ [ "water_clean", 1 ], [ "water", 1 ] ]
    ],
    "id": "c7bedd06-86b3-4b56-bec0-9d8a21e45fff"
  },
  {
    "type": "recipe",
    "result": "milk_coffee_sweetened",
    "id_suffix": "syrupy",
    "category": "CC_FOOD",
    "subcategory": "CSC_FOOD_DRINKS",
    "skill_used": "cooking",
    "time": "10 m",
    "autolearn": true,
    "batch_time_factors": [ 80, 5 ],
    "qualities": [ { "id": "BOIL", "level": 1 } ],
    "tools": [ [ [ "water_boiling_heat", 3, "LIST" ] ] ],
    "components": [ [ [ "coffee_syrup", 1 ] ], [ [ "milk_standard", 1, "LIST" ] ], [ [ "water", 1 ], [ "water_clean", 1 ] ] ],
    "id": "8b8a36fc-63bc-4e5b-942b-e255925d1e1e"
  },
  {
    "type": "recipe",
    "result": "milk_atomic_coffee_sweetened",
    "category": "CC_FOOD",
    "subcategory": "CSC_FOOD_DRINKS",
    "skill_used": "cooking",
    "time": "6 m",
    "autolearn": true,
    "batch_time_factors": [ 80, 5 ],
    "tools": [ [ [ "atomic_coffeepot", -1 ] ] ],
    "components": [
      [ [ "coffee_raw", 1 ] ],
      [ [ "beverage_sweetener", 1, "LIST" ] ],
      [ [ "milk_standard", 1, "LIST" ] ],
      [ [ "water", 1 ], [ "water_clean", 1 ] ]
    ],
    "id": "b3fe183d-1f6a-46dc-b41d-1707782da54e"
  },
  {
    "type": "recipe",
    "result": "milk_atomic_coffee_sweetened",
    "id_suffix": "syrupy",
    "category": "CC_FOOD",
    "subcategory": "CSC_FOOD_DRINKS",
    "skill_used": "cooking",
    "time": "6 m",
    "autolearn": true,
    "batch_time_factors": [ 80, 5 ],
    "tools": [ [ [ "atomic_coffeepot", -1 ] ] ],
    "components": [ [ [ "coffee_syrup", 1 ] ], [ [ "milk_standard", 1, "LIST" ] ], [ [ "water", 1 ], [ "water_clean", 1 ] ] ],
    "id": "df6acac5-f9ab-4fbd-b6c8-764dda3b732b"
  },
  {
    "type": "recipe",
    "result": "tea_sweetened",
    "category": "CC_FOOD",
    "subcategory": "CSC_FOOD_DRINKS",
    "skill_used": "cooking",
    "time": "10 m",
    "autolearn": true,
    "batch_time_factors": [ 80, 5 ],
    "qualities": [ { "id": "BOIL", "level": 1 } ],
    "tools": [ [ [ "water_boiling_heat", 2, "LIST" ] ] ],
    "components": [ [ [ "tea_raw", 1 ] ], [ [ "water", 1 ], [ "water_clean", 1 ] ], [ [ "beverage_sweetener", 1, "LIST" ] ] ],
    "id": "0eab9580-fb06-4fca-b063-b3407226d66e"
  },
  {
    "type": "recipe",
    "result": "milk_tea_sweetened",
    "category": "CC_FOOD",
    "subcategory": "CSC_FOOD_DRINKS",
    "skill_used": "cooking",
    "time": "10 m",
    "autolearn": true,
    "batch_time_factors": [ 80, 5 ],
    "qualities": [ { "id": "BOIL", "level": 1 } ],
    "tools": [ [ [ "water_boiling_heat", 2, "LIST" ] ] ],
    "components": [
      [ [ "tea_raw", 1 ] ],
      [ [ "water", 1 ], [ "water_clean", 1 ] ],
      [ [ "milk_standard", 1, "LIST" ] ],
      [ [ "beverage_sweetener", 1, "LIST" ] ]
    ],
    "id": "f4afc28b-1e51-41bf-be80-e2d025c3055d"
  },
  {
    "type": "recipe",
    "result": "drink_beeknees",
    "category": "CC_FOOD",
    "subcategory": "CSC_FOOD_DRINKS",
    "skill_used": "cooking",
    "difficulty": 2,
    "time": "3 m 30 s",
    "autolearn": true,
    "components": [ [ [ "gin", 1 ] ], [ [ "honeycomb", 1 ], [ "honey_bottled", 1 ] ], [ [ "lemonade", 1 ] ] ],
    "id": "24b345f1-c6a0-4486-8f47-b2aa62a6782c"
  },
  {
    "type": "recipe",
    "result": "drink_wsour",
    "category": "CC_FOOD",
    "subcategory": "CSC_FOOD_DRINKS",
    "skill_used": "cooking",
    "difficulty": 1,
    "time": "3 m",
    "autolearn": true,
    "flags": [ "BLIND_HARD" ],
    "components": [ [ [ "lemon", 1 ], [ "irradiated_lemon", 1 ] ], [ [ "whiskey", 3 ], [ "single_malt_whiskey", 3 ] ] ],
    "id": "53f32546-588d-4bb4-9ebb-7497177f7a21"
  },
  {
    "type": "recipe",
    "result": "drink_martini",
    "category": "CC_FOOD",
    "subcategory": "CSC_FOOD_DRINKS",
    "skill_used": "cooking",
    "difficulty": 3,
    "time": "2 m",
    "autolearn": true,
    "components": [ [ [ "gin", 6 ] ], [ [ "wine_vermouth", 1 ] ] ],
    "id": "ca481a2c-15b2-4e2b-9478-fe41fdc7fb2a"
  },
  {
    "type": "recipe",
    "result": "drink_kalimotxo",
    "category": "CC_FOOD",
    "subcategory": "CSC_FOOD_DRINKS",
    "skill_used": "cooking",
    "time": "3 m",
    "charges": 5,
    "autolearn": true,
    "flags": [ "BLIND_HARD" ],
    "components": [
      [ [ "bum_wine", 2 ], [ "wine_cabernet", 2 ], [ "wine_chardonnay", 2 ], [ "wine_noir", 2 ], [ "wine_vermouth", 2 ] ],
      [ [ "cola", 1 ] ]
    ],
    "id": "6428a0da-8750-42d8-ae67-5d13002016ff"
  },
  {
    "type": "recipe",
    "result": "drink_hobo",
    "category": "CC_FOOD",
    "subcategory": "CSC_FOOD_DRINKS",
    "skill_used": "cooking",
    "difficulty": 1,
    "time": "4 m",
    "charges": 15,
    "autolearn": true,
    "flags": [ "BLIND_HARD" ],
    "components": [
      [ [ "oj", 1 ], [ "lemonade", 1 ], [ "apple_cider", 1 ], [ "cranberry_juice", 1 ], [ "juice", 1 ] ],
      [ [ "weak_liquor", 1, "LIST" ] ],
      [ [ "hard_liquor_chem", 1, "LIST" ] ]
    ],
    "id": "d6c7f7a7-241d-4ac7-9ec5-80c46eeda268"
  },
  {
    "type": "recipe",
    "result": "honey_gold",
    "category": "CC_FOOD",
    "subcategory": "CSC_FOOD_DRINKS",
    "skill_used": "cooking",
    "skills_required": [ "survival", 4 ],
    "difficulty": 5,
    "time": "15 m",
    "batch_time_factors": [ 50, 3 ],
    "autolearn": true,
    "qualities": [ { "id": "BOIL", "level": 1 } ],
    "tools": [ [ [ "water_boiling_heat", 3, "LIST" ] ] ],
    "components": [ [ [ "water", 1 ], [ "water_clean", 1 ] ], [ [ "honey_ant", 1 ] ], [ [ "honeycomb", 1 ], [ "honey_bottled", 3 ] ] ],
    "id": "a9d705bd-7833-46b2-80d3-6c84c76b420a"
  },
  {
    "type": "recipe",
    "result": "bee_balm_tea",
    "category": "CC_FOOD",
    "subcategory": "CSC_FOOD_DRINKS",
    "skill_used": "cooking",
    "difficulty": 2,
    "time": "10 m",
    "autolearn": true,
    "batch_time_factors": [ 80, 5 ],
    "qualities": [ { "id": "BOIL", "level": 1 } ],
    "tools": [ [ [ "water_boiling_heat", 2, "LIST" ] ] ],
    "components": [ [ [ "bee_balm", 1 ] ], [ [ "water", 1 ], [ "water_clean", 1 ] ] ],
    "id": "90d9839d-0156-4fae-9db7-1ecd347b3c8f"
  },
  {
    "type": "recipe",
    "result": "eggnog",
    "category": "CC_FOOD",
    "subcategory": "CSC_FOOD_DRINKS",
    "skill_used": "cooking",
    "difficulty": 1,
    "time": "5 m",
    "charges": 4,
    "book_learn": [ [ "family_cookbook", 2 ] ],
    "batch_time_factors": [ 50, 3 ],
    "qualities": [ { "id": "COOK", "level": 3 }, { "id": "BOIL", "level": 2 } ],
    "tools": [ [ [ "surface_heat", 5, "LIST" ] ] ],
    "components": [
      [ [ "eggs_small", 1, "LIST" ] ],
      [ [ "milk_standard_raw", 1, "LIST" ], [ "milk_powder", 1 ] ],
      [ [ "sugar", 4 ] ],
      [ [ "con_milk", 1 ] ],
      [ [ "cinnamon", 2 ] ]
    ],
    "id": "9ff81b18-f69d-4429-9035-f7b12ab4205a"
  },
  {
    "type": "recipe",
    "result": "eggnog_spiked",
    "category": "CC_FOOD",
    "subcategory": "CSC_FOOD_DRINKS",
    "skill_used": "cooking",
    "difficulty": 1,
    "charges": 6,
    "time": "5 m",
    "book_learn": [ [ "family_cookbook", 2 ] ],
    "batch_time_factors": [ 50, 3 ],
    "qualities": [ { "id": "COOK", "level": 3 }, { "id": "BOIL", "level": 2 } ],
    "tools": [ [ [ "surface_heat", 5, "LIST" ] ] ],
    "components": [
      [ [ "eggs_small", 1, "LIST" ] ],
      [ [ "milk_standard_raw", 1, "LIST" ], [ "milk_powder", 1 ] ],
      [ [ "sugar", 4 ] ],
      [ [ "con_milk", 1 ] ],
      [ [ "hard_liquor_chem", 1, "LIST" ] ],
      [ [ "cinnamon", 2 ] ]
    ],
    "id": "86b37321-8a44-4281-8398-2988e187454b"
  },
  {
    "result": "hot_chocolate",
    "type": "recipe",
    "category": "CC_FOOD",
    "subcategory": "CSC_FOOD_DRINKS",
    "skill_used": "cooking",
    "difficulty": 1,
    "time": "5 m",
    "autolearn": true,
    "result_mult": 2,
    "batch_time_factors": [ 80, 5 ],
    "qualities": [ { "id": "COOK", "level": 3 } ],
    "tools": [ [ [ "surface_heat", 5, "LIST" ] ] ],
    "components": [
      [ [ "chocolate", 1 ] ],
      [ [ "milk_standard_raw", 1, "LIST" ], [ "con_milk", 1 ], [ "milk_powder", 1 ] ],
      [ [ "water", 1 ], [ "water_clean", 1 ] ],
      [ [ "sugar", 5 ] ]
    ],
    "id": "50a22865-c7f9-41a0-838c-7457da935c94"
  },
  {
    "result": "mex_chocolate",
    "type": "recipe",
    "category": "CC_FOOD",
    "subcategory": "CSC_FOOD_DRINKS",
    "skill_used": "cooking",
    "difficulty": 1,
    "time": "5 m",
    "book_learn": [ [ "family_cookbook", 2 ] ],
    "charges": 6,
    "qualities": [ { "id": "COOK", "level": 3 } ],
    "batch_time_factors": [ 80, 5 ],
    "tools": [ [ [ "surface_heat", 5, "LIST" ] ] ],
    "components": [
      [ [ "chocolate", 2 ] ],
      [ [ "milk_standard_raw", 1, "LIST" ], [ "con_milk", 1 ], [ "milk_powder", 1 ] ],
      [ [ "water", 1 ] ],
      [ [ "sugar", 5 ] ],
      [ [ "chilly-p", 1 ] ],
      [ [ "cinnamon", 1 ] ],
      [ [ "water", 6 ], [ "water_clean", 6 ] ]
    ],
    "id": "be8b6c91-97ca-4a2b-a684-a439656f00d9"
  },
  {
    "type": "recipe",
    "result": "rehydration_drink",
    "category": "CC_FOOD",
    "subcategory": "CSC_FOOD_DRINKS",
    "book_learn": [ [ "textbook_firstaid", 1 ], [ "manual_survival", 1 ], [ "manual_first_aid", 1 ] ],
    "skill_used": "cooking",
    "time": "3 m",
    "charges": 8,
    "qualities": [ { "id": "CONTAIN", "level": 1 } ],
    "components": [ [ [ "sugar", 10 ] ], [ [ "salt", 1 ] ], [ [ "water_clean", 8 ] ] ],
    "//": "For later: this should also include baking soda / sodium bicarbonate.  Other electrolytes are debatable.",
    "id": "03f3b042-5dd1-4d99-8590-345a32d1c587"
  },
  {
    "type": "recipe",
    "result": "kompot",
    "id_suffix": "jarred_3l",
    "byproducts": [ [ "water", 10 ] ],
    "container": "jar_3l_glass_sealed",
    "category": "CC_FOOD",
    "subcategory": "CSC_FOOD_DRINKS",
    "skill_used": "cooking",
    "skills_required": [ "mechanics", 1 ],
    "difficulty": 3,
    "time": "40 m",
    "result_mult": 12,
    "book_learn": [ [ "manual_canning", 2 ] ],
    "batch_time_factors": [ 80, 5 ],
    "qualities": [ { "id": "COOK", "level": 3 } ],
    "tools": [ [ [ "surface_heat", 200, "LIST" ] ], [ [ "pot_canning", -1 ] ] ],
    "components": [
      [ [ "jar_3l_glass", 1 ] ],
      [ [ "sweet_fruit_like", 6, "LIST" ] ],
      [ [ "sugar", 30 ] ],
      [ [ "water", 22 ], [ "water_clean", 22 ] ]
    ],
    "id": "0d5a0dc6-ce62-4681-8ac9-796e4bd0ac47"
  },
  {
    "type": "recipe",
    "result": "kompot",
    "id_suffix": "jarred",
    "byproducts": [ [ "water", 10 ] ],
    "container": "jar_glass_sealed",
    "category": "CC_FOOD",
    "subcategory": "CSC_FOOD_DRINKS",
    "skill_used": "cooking",
    "skills_required": [ "mechanics", 1 ],
    "difficulty": 3,
    "time": "30 m",
    "book_learn": [ [ "manual_canning", 2 ] ],
    "batch_time_factors": [ 80, 5 ],
    "qualities": [ { "id": "COOK", "level": 3 } ],
    "tools": [ [ [ "surface_heat", 100, "LIST" ] ], [ [ "pot_canning", -1 ] ] ],
    "components": [
      [ [ "jar_glass", 1 ] ],
      [ [ "water", 12 ], [ "water_clean", 12 ] ],
      [ [ "sweet_fruit_like", 1, "LIST" ] ],
      [ [ "sugar", 5 ] ]
    ],
    "id": "14c99559-7f75-4384-a386-9c3caa8faec7"
  },
  {
    "type": "recipe",
    "result": "taint_tornado",
    "category": "CC_FOOD",
    "subcategory": "CSC_FOOD_DRINKS",
    "skill_used": "cooking",
    "difficulty": 5,
    "time": "7 m",
    "autolearn": true,
    "batch_time_factors": [ 83, 5 ],
    "qualities": [ { "id": "COOK", "level": 2 } ],
    "tools": [ [ [ "surface_heat", 20, "LIST" ] ] ],
    "components": [ [ [ "meat_tainted", 12 ] ], [ [ "hard_liquor_chem", 1, "LIST" ] ] ],
    "id": "73264bae-cce3-4143-8d4c-1f6400cb3997"
  },
  {
    "type": "recipe",
    "result": "drink_sewerbrew",
    "category": "CC_FOOD",
    "subcategory": "CSC_FOOD_DRINKS",
    "skill_used": "cooking",
    "skills_required": [ "survival", 1 ],
    "difficulty": 5,
    "time": "7 m",
    "autolearn": true,
    "qualities": [ { "id": "COOK", "level": 2 } ],
    "tools": [ [ [ "water_boiling_heat", 1, "LIST" ] ] ],
    "components": [ [ [ "sewage", 1 ] ], [ [ "hard_liquor_chem", 1, "LIST" ] ] ],
    "id": "78509b52-8dc9-473f-9153-15a446323ab9"
  }
]
