[
  {
    "type": "recipe",
    "result": "butter",
    "category": "CC_FOOD",
    "subcategory": "CSC_FOOD_OTHER",
    "skill_used": "cooking",
    "difficulty": 5,
    "time": "10 m",
    "charges": 5,
    "batch_time_factors": [ 80, 5 ],
    "qualities": [ { "id": "CHURN", "level": 1 } ],
    "book_learn": [ [ "dairy_book", 3 ], [ "survival_book", 4 ] ],
    "components": [ [ [ "milk_raw", 4 ] ], [ [ "salt", 2 ], [ "seasoning_salt", 2 ] ] ],
    "id": "5b6a6970-5132-49ef-a642-f18329ede2a2"
  },
  {
    "type": "recipe",
    "result": "butter",
    "id_suffix": "jar_method",
    "category": "CC_FOOD",
    "subcategory": "CSC_FOOD_OTHER",
    "skill_used": "cooking",
    "difficulty": 3,
    "time": "20 m",
    "charges": 5,
    "autolearn": [ [ "cooking", 5 ] ],
    "book_learn": [ [ "dairy_book", 3 ], [ "cookbook", 4 ] ],
    "batch_time_factors": [ 50, 3 ],
    "tools": [ [ [ "butter_resealable_containers", 1, "LIST" ] ] ],
    "components": [ [ [ "milk_raw", 4 ] ], [ [ "salt", 2 ], [ "seasoning_salt", 2 ] ] ],
    "id": "6b909c22-66d4-40fd-be2b-b16eb0d98078"
  },
  {
    "type": "recipe",
    "result": "ghee",
    "category": "CC_FOOD",
    "subcategory": "CSC_FOOD_OTHER",
    "skill_used": "cooking",
    "difficulty": 2,
    "charges": 1,
    "autolearn": [ [ "cooking", 4 ] ],
    "book_learn": [ [ "dairy_book", 2 ], [ "cookbook_indian", 1 ] ],
    "time": "30 m",
    "batch_time_factors": [ 80, 1 ],
    "qualities": [ { "id": "BOIL", "level": 1 }, { "id": "COOK", "level": 2 } ],
    "tools": [ [ [ "water_boiling_heat", 2, "LIST" ] ], [ [ "rag", -1 ] ] ],
    "components": [ [ [ "butter", 1 ] ] ],
    "id": "d136f6c5-e57e-4de6-bade-08a9b1c9358a"
  },
  {
    "type": "recipe",
    "result": "flask_yeast",
    "category": "CC_FOOD",
    "subcategory": "CSC_FOOD_OTHER",
    "skill_used": "cooking",
    "difficulty": 2,
    "time": "30 m",
    "autolearn": true,
    "tools": [ [ [ "surface_heat", 7, "LIST" ] ] ],
    "components": [
      [ [ "water", 1 ], [ "water_clean", 1 ] ],
      [ [ "flask_glass", 1 ] ],
      [ [ "yeast", 1 ] ],
      [ [ "beverage_sweetener", 1, "LIST" ] ]
    ],
    "id": "63c96c61-fff6-46b8-831f-a2407fefa05e"
  },
  {
    "type": "recipe",
    "result": "jar_yeast",
    "category": "CC_FOOD",
    "subcategory": "CSC_FOOD_OTHER",
    "skill_used": "cooking",
    "difficulty": 2,
    "time": "30 m",
    "autolearn": true,
    "tools": [ [ [ "surface_heat", 7, "LIST" ] ] ],
    "components": [
      [ [ "water", 1 ], [ "water_clean", 1 ] ],
      [ [ "jar_glass", 1 ] ],
      [ [ "yeast", 1 ] ],
      [ [ "beverage_sweetener", 1, "LIST" ] ]
    ],
    "id": "531e9768-48b1-4501-acfe-3189061ee454"
  },
  {
    "type": "recipe",
    "result": "wild_yeast",
    "category": "CC_FOOD",
    "subcategory": "CSC_FOOD_OTHER",
    "skill_used": "cooking",
    "difficulty": 4,
    "skills_required": [ "survival", 4 ],
    "time": "20 m",
    "book_learn": [ [ "brewing_cookbook", 1 ], [ "textbook_survival", 1 ] ],
    "autolearn": true,
    "qualities": [ { "id": "BOIL", "level": 2 } ],
    "tools": [ [ [ "surface_heat", 10, "LIST" ] ] ],
    "components": [
      [ [ "water", 1 ], [ "water_clean", 1 ] ],
      [ [ "jar_glass", 1 ] ],
      [ [ "sweet_fruit", 1, "LIST" ] ],
      [ [ "beverage_sweetener", 1, "LIST" ] ]
    ],
    "id": "7183b1f0-b993-426b-a6ef-1388d447f3c2"
  },
  {
    "type": "recipe",
    "result": "salt",
    "id_suffix": "from_salt_water",
    "category": "CC_FOOD",
    "subcategory": "CSC_FOOD_OTHER",
    "skill_used": "cooking",
    "time": "1 h 30 m",
    "autolearn": true,
    "batch_time_factors": [ 50, 3 ],
    "qualities": [ { "id": "BOIL", "level": 1 } ],
    "tools": [ [ [ "water_boiling_heat", 3, "LIST" ] ] ],
    "components": [ [ [ "salt_water", 10 ], [ "saline", 50 ] ] ],
    "id": "cf063cf1-3572-4749-8289-f04c7d7b1c9a"
  },
  {
    "type": "recipe",
    "result": "salt",
    "id_suffix": "from_mineral",
    "category": "CC_FOOD",
    "subcategory": "CSC_FOOD_OTHER",
    "skill_used": "cooking",
    "time": "1 h 30 m",
    "autolearn": true,
    "batch_time_factors": [ 50, 3 ],
    "qualities": [ { "id": "BOIL", "level": 1 } ],
    "tools": [ [ [ "water_boiling_heat", 3, "LIST" ] ] ],
    "components": [ [ [ "material_rocksalt", 1 ] ], [ [ "water", 1 ], [ "water_clean", 1 ] ] ],
    "id": "1c125266-0b3d-40ac-9df6-365442b77816"
  },
  {
    "type": "recipe",
    "result": "cooking_oil",
    "category": "CC_FOOD",
    "subcategory": "CSC_FOOD_OTHER",
    "skill_used": "cooking",
    "difficulty": 4,
    "charges": 1,
    "time": "10 m",
    "autolearn": true,
    "batch_time_factors": [ 80, 5 ],
    "qualities": [ { "id": "CUT", "level": 1 }, { "id": "COOK", "level": 2 } ],
    "tools": [ [ [ "surface_heat", 10, "LIST" ] ] ],
    "components": [
      [
        [ "plant_sac", 2 ],
        [ "seed_cotton_boll", 1 ],
        [ "seed_pumpkin", 4 ],
        [ "seed_sunflower", 2 ],
        [ "seed_canola", 4 ],
        [ "seed_grapes", 6 ],
        [ "seed_weed", 6 ]
      ]
    ],
    "id": "8be8e743-d1c7-4865-83db-cb2e6230d721"
  },
  {
    "type": "recipe",
    "result": "cooking_oil2",
    "category": "CC_FOOD",
    "subcategory": "CSC_FOOD_OTHER",
    "skill_used": "cooking",
    "difficulty": 2,
    "charges": 16,
    "time": "20 m",
    "autolearn": true,
    "batch_time_factors": [ 80, 5 ],
    "qualities": [ { "id": "BOIL", "level": 1 }, { "id": "COOK", "level": 2 } ],
    "tools": [ [ [ "water_boiling_heat", 2, "LIST" ] ] ],
    "components": [ [ [ "edible_fat", 1, "LIST" ], [ "edible_tallow_lard", 2, "LIST" ] ], [ [ "water", 1 ], [ "water_clean", 1 ] ] ],
    "id": "be6fa7a8-5b5c-4a47-960f-0db814a80924"
  },
  {
    "type": "recipe",
    "result": "mayonnaise",
    "category": "CC_FOOD",
    "subcategory": "CSC_FOOD_OTHER",
    "skill_used": "cooking",
    "difficulty": 2,
    "time": "9 m",
    "charges": 4,
    "book_learn": [ [ "cookbook", 1 ], [ "mag_cooking", 1 ], [ "cookbook_foodfashions", 1 ] ],
    "qualities": [ { "id": "CONTAIN", "level": 1 } ],
    "components": [
      [ [ "any_butter_or_oil", 2, "LIST" ] ],
      [ [ "eggs_small_dry", 1, "LIST" ] ],
      [
        [ "lemon", 1 ],
        [ "irradiated_lemon", 1 ],
        [ "mustard", 1 ],
        [ "horseradish", 1 ],
        [ "pickle", 1 ],
        [ "veggy_pickled", 1 ],
        [ "vinegar", 1 ]
      ],
      [ [ "salt", 1 ], [ "seasoning_salt", 1 ], [ "pepper", 1 ] ]
    ],
    "id": "1cbd76ec-d9dd-48af-8708-7d0739b7648c"
  },
  {
    "type": "recipe",
    "result": "dogfood",
    "category": "CC_FOOD",
    "subcategory": "CSC_FOOD_OTHER",
    "skill_used": "cooking",
    "difficulty": 3,
    "time": "10 m",
    "autolearn": true,
    "batch_time_factors": [ 80, 5 ],
    "qualities": [ { "id": "COOK", "level": 2 } ],
    "tools": [ [ [ "surface_heat", 6, "LIST" ] ] ],
    "components": [
      [ [ "meat_red", 1, "LIST" ], [ "fish", 1 ] ],
      [ [ "veggy", 1 ], [ "veggy_wild", 1 ] ],
      [ [ "water", 1 ], [ "water_clean", 1 ] ]
    ],
    "id": "e33bf42f-04f8-41fa-9c5c-09271f2f249b"
  },
  {
    "type": "recipe",
    "result": "catfood",
    "category": "CC_FOOD",
    "subcategory": "CSC_FOOD_OTHER",
    "skill_used": "cooking",
    "difficulty": 3,
    "time": "10 m",
    "autolearn": true,
    "batch_time_factors": [ 80, 5 ],
    "qualities": [ { "id": "CUT", "level": 1 }, { "id": "COOK", "level": 2 } ],
    "tools": [ [ [ "surface_heat", 6, "LIST" ] ] ],
    "components": [ [ [ "meat_red", 2, "LIST" ], [ "fish", 2 ] ], [ [ "water", 1 ], [ "water_clean", 1 ] ] ],
    "id": "a10e5245-5c59-408c-bc72-d9306d7fc9cd"
  },
  {
    "type": "recipe",
    "result": "morel_cooked",
    "category": "CC_FOOD",
    "subcategory": "CSC_FOOD_OTHER",
    "skill_used": "cooking",
    "difficulty": 1,
    "skills_required": [ "survival", 1 ],
    "time": "4 m",
    "autolearn": true,
    "batch_time_factors": [ 80, 1 ],
    "qualities": [ { "id": "COOK", "level": 1 } ],
    "tools": [ [ [ "surface_heat", 5, "LIST" ] ] ],
    "components": [ [ [ "water", 1 ], [ "water_clean", 1 ] ], [ [ "mushroom_morel", 1 ] ] ],
    "id": "ba044603-9838-4a2a-a073-b5973a9c701d"
  },
  {
    "type": "recipe",
    "result": "morel_fried",
    "category": "CC_FOOD",
    "subcategory": "CSC_FOOD_OTHER",
    "skill_used": "cooking",
    "difficulty": 3,
    "time": "8 m",
    "autolearn": true,
    "batch_time_factors": [ 80, 1 ],
    "//": "the cooking oil isn't supposed to be expended since you can recycle it after frying the morel",
    "qualities": [ { "id": "COOK", "level": 2 } ],
    "tools": [ [ [ "surface_heat", 8, "LIST" ] ], [ [ "frying_oil", 1, "LIST" ] ] ],
    "components": [ [ [ "mushroom_morel", 1 ] ], [ [ "batter", 1, "LIST" ] ] ],
    "id": "0b1fcc35-3429-4cb6-918f-fee810cdb2a4"
  },
  {
    "type": "recipe",
    "result": "coffee_raw",
    "category": "CC_FOOD",
    "subcategory": "CSC_FOOD_OTHER",
    "skill_used": "cooking",
    "difficulty": 1,
    "time": "3 m",
    "autolearn": true,
    "contained": true,
    "qualities": [ { "id": "HAMMER", "level": 1 } ],
    "components": [ [ [ "roasted_coffee_bean", 1 ] ], [ [ "bag_plastic", 1 ] ] ],
    "id": "f5aa71e3-46c1-42e4-98ea-4bd935b22db4"
  },
  {
    "type": "recipe",
    "result": "coffee_raw_kentucky",
    "category": "CC_FOOD",
    "subcategory": "CSC_FOOD_OTHER",
    "delete_flags": [ "HIDDEN_POISON" ],
    "skill_used": "cooking",
    "difficulty": 1,
    "time": "2 h",
    "//": "2 hours of roasting are required to fully break up the toxins in raw pods",
    "book_learn": [ [ "survival_book", 1 ] ],
    "batch_time_factors": [ 80, 1 ],
    "qualities": [ { "id": "HAMMER", "level": 1 }, { "id": "BOIL", "level": 1 } ],
    "tools": [ [ [ "surface_heat", 30, "LIST" ] ] ],
    "components": [ [ [ "water_clean", 1 ] ], [ [ "coffee_pod", 1 ] ] ],
    "id": "f613aaf4-6084-40ac-9845-0e6d1cfcbbf6"
  },
  {
    "type": "recipe",
    "result": "roasted_coffee_bean",
    "category": "CC_FOOD",
    "subcategory": "CSC_FOOD_OTHER",
    "skill_used": "cooking",
    "difficulty": 1,
    "time": "6 m",
    "autolearn": true,
    "batch_time_factors": [ 80, 5 ],
    "qualities": [ { "id": "COOK", "level": 2 } ],
    "tools": [ [ [ "surface_heat", 8, "LIST" ] ] ],
    "components": [ [ [ "coffee_bean", 1 ] ] ],
    "id": "cbad0c83-fbde-4d9f-8b48-426e8bf1500d"
  },
  {
    "type": "recipe",
    "result": "cheese_fresh",
    "category": "CC_FOOD",
    "subcategory": "CSC_FOOD_OTHER",
    "skill_used": "cooking",
    "difficulty": 4,
    "skills_required": [ "survival", 3 ],
    "time": "30 m",
    "batch_time_factors": [ 50, 4 ],
    "autolearn": true,
    "book_learn": [
      [ "survival_book", 3 ],
      [ "textbook_survival", 3 ],
      [ "manual_survival", 3 ],
      [ "dairy_book", 2 ],
      [ "cookbook_indian", 2 ]
    ],
    "qualities": [
      { "id": "CUT", "level": 1 },
      { "id": "COOK", "level": 3 },
      { "id": "BOIL", "level": 2 },
      { "id": "CONTAIN", "level": 1 }
    ],
    "tools": [ [ [ "water_boiling_heat", 4, "LIST" ] ], [ [ "rag", -1 ] ] ],
    "components": [
      [
        [ "vinegar", 1 ],
        [ "lemon", 1 ],
        [ "irradiated_lemon", 1 ],
        [ "rennet", 1 ],
        [ "stomach_large", 1 ],
        [ "stomach", 1 ],
        [ "wild_herbs", 40 ]
      ],
      [ [ "salt_water", 1 ], [ "saline", 1 ], [ "salt", 1 ], [ "seasoning_salt", 1 ] ],
      [ [ "milk_standard_raw_fresh", 5, "LIST" ] ]
    ],
    "id": "f20b4ed8-798e-458d-b1f6-e73e48192cc1"
  },
  {
    "type": "recipe",
    "result": "cheese_hard",
    "category": "CC_FOOD",
    "subcategory": "CSC_FOOD_MEAT",
    "skill_used": "cooking",
    "difficulty": 4,
    "time": "40 m",
    "charges": 1,
    "autolearn": true,
    "book_learn": [ [ "survival_book", 3 ], [ "dairy_book", 3 ] ],
    "batch_time_factors": [ 80, 1 ],
    "qualities": [ { "id": "COOK", "level": 1 } ],
    "tools": [ [ [ "dehydrator", 5 ], [ "char_smoker", 5 ] ] ],
    "components": [ [ [ "cheese_fresh", 1 ] ] ],
    "id": "6da936ba-8749-4eba-a947-4954db5b3ea3"
  },
  {
    "type": "recipe",
    "result": "broth_bone",
    "charges": 1,
    "category": "CC_FOOD",
    "subcategory": "CSC_FOOD_OTHER",
    "skill_used": "cooking",
    "difficulty": 1,
    "time": "1 h",
    "autolearn": true,
    "batch_time_factors": [ 80, 5 ],
    "qualities": [ { "id": "COOK", "level": 3 } ],
    "tools": [ [ [ "surface_heat", 6, "LIST" ] ] ],
    "components": [ [ [ "bone_sturdy", 10, "LIST" ] ], [ [ "water", 1 ], [ "water_clean", 1 ] ] ],
    "id": "fd813e63-03ed-4946-a88b-256c354080f7"
  },
  {
    "type": "recipe",
    "result": "beet_syrup",
    "category": "CC_FOOD",
    "subcategory": "CSC_FOOD_OTHER",
    "skill_used": "cooking",
    "difficulty": 2,
    "charges": 7,
    "time": "20 m",
    "autolearn": true,
    "batch_time_factors": [ 50, 3 ],
    "qualities": [ { "id": "COOK", "level": 2 }, { "id": "CUT", "level": 1 } ],
    "tools": [ [ [ "surface_heat", 8, "LIST" ] ] ],
    "components": [ [ [ "sugar_beet", 5 ] ], [ [ "water_clean", 1 ], [ "water", 1 ] ] ],
    "id": "7ef219fe-7a59-43e0-83d2-a0333433f61c"
  },
  {
    "type": "recipe",
    "result": "deluxe_beans",
    "category": "CC_FOOD",
    "subcategory": "CSC_FOOD_OTHER",
    "skill_used": "cooking",
    "difficulty": 1,
    "time": "6 m",
    "autolearn": true,
    "batch_time_factors": [ 80, 1 ],
    "qualities": [ { "id": "COOK", "level": 2 }, { "id": "CUT", "level": 1 } ],
    "tools": [ [ [ "surface_heat", 2, "LIST" ] ] ],
    "components": [
      [ [ "can_beans", 1 ], [ "beans_cooked", 1 ] ],
      [
        [ "meat_red", 1, "LIST" ],
        [ "meat_smoked", 1 ],
        [ "dry_meat", 1 ],
        [ "can_chicken", 1 ],
        [ "can_spam", 2 ],
        [ "fish", 1 ],
        [ "fish_smoked", 1 ],
        [ "dry_fish", 1 ],
        [ "rehydrated_fish", 1 ],
        [ "fish_canned", 1 ],
        [ "can_salmon", 1 ],
        [ "can_tuna", 1 ],
        [ "sausage", 2 ],
        [ "sausage_cooked", 2 ],
        [ "bratwurst_sausage", 2 ],
        [ "bacon", 2 ],
        [ "eggs_small_dry", 2, "LIST" ]
      ],
      [
        [ "sugar", 10 ],
        [ "syrup", 1 ],
        [ "beet_syrup", 1 ],
        [ "molasses", 1 ],
        [ "honeycomb", 1 ],
        [ "honey_bottled", 1 ],
        [ "honey_glassed", 2 ]
      ]
    ],
    "id": "b77acef3-7221-49b6-8fdd-d73634a950dd"
  },
  {
    "type": "recipe",
    "result": "deluxe_rice",
    "category": "CC_FOOD",
    "subcategory": "CSC_FOOD_OTHER",
    "skill_used": "cooking",
    "difficulty": 1,
    "time": "3 m",
    "autolearn": true,
    "batch_time_factors": [ 80, 1 ],
    "qualities": [ { "id": "COOK", "level": 2 }, { "id": "CUT", "level": 1 } ],
    "tools": [ [ [ "surface_heat", 2, "LIST" ] ] ],
    "components": [
      [ [ "rice_cooked", 1 ] ],
      [
        [ "meat_red", 1, "LIST" ],
        [ "meat_smoked", 1 ],
        [ "dry_meat", 1 ],
        [ "can_chicken", 1 ],
        [ "can_spam", 2 ],
        [ "fish", 1 ],
        [ "fish_smoked", 1 ],
        [ "dry_fish", 1 ],
        [ "rehydrated_fish", 1 ],
        [ "fish_canned", 1 ],
        [ "can_salmon", 1 ],
        [ "can_tuna", 1 ],
        [ "sausage", 2 ],
        [ "sausage_cooked", 2 ],
        [ "bratwurst_sausage", 2 ],
        [ "bacon", 2 ],
        [ "eggs_small_dry", 2, "LIST" ]
      ],
      [ [ "any_butter_or_oil", 1, "LIST" ] ]
    ],
    "id": "5ad28084-f35a-4b52-b70e-8501efd8f3e6"
  },
  {
    "type": "recipe",
    "result": "tofu_rice",
    "category": "CC_FOOD",
    "subcategory": "CSC_FOOD_OTHER",
    "skill_used": "cooking",
    "difficulty": 1,
    "time": "3 m",
    "autolearn": true,
    "batch_time_factors": [ 80, 1 ],
    "qualities": [ { "id": "COOK", "level": 2 }, { "id": "CUT", "level": 1 } ],
    "tools": [ [ [ "surface_heat", 2, "LIST" ] ] ],
    "components": [ [ [ "rice_cooked", 1 ], [ "dry_rice", 1 ] ], [ [ "tofu", 1 ], [ "dry_tofu", 1 ] ], [ [ "cooking_oil", 1 ] ] ],
    "id": "79629151-bb50-46ec-ac8d-d4e11b38652b"
  },
  {
    "type": "recipe",
    "result": "deluxe_beansnrice",
    "category": "CC_FOOD",
    "subcategory": "CSC_FOOD_OTHER",
    "skill_used": "cooking",
    "difficulty": 2,
    "time": "9 m",
    "autolearn": true,
    "batch_time_factors": [ 80, 1 ],
    "qualities": [ { "id": "COOK", "level": 2 }, { "id": "CUT", "level": 1 } ],
    "tools": [ [ [ "surface_heat", 2, "LIST" ] ] ],
    "components": [
      [ [ "can_beans", 1 ], [ "dry_beans", 1 ], [ "raw_beans", 1 ] ],
      [ [ "dry_rice", 1 ] ],
      [
        [ "meat_red", 1, "LIST" ],
        [ "meat_smoked", 1 ],
        [ "dry_meat", 1 ],
        [ "can_chicken", 1 ],
        [ "can_spam", 2 ],
        [ "fish", 1 ],
        [ "fish_smoked", 1 ],
        [ "dry_fish", 1 ],
        [ "rehydrated_fish", 1 ],
        [ "fish_canned", 1 ],
        [ "can_salmon", 1 ],
        [ "can_tuna", 1 ],
        [ "sausage", 2 ],
        [ "sausage_cooked", 2 ],
        [ "bratwurst_sausage", 2 ],
        [ "bacon", 2 ],
        [ "eggs_small_dry", 2, "LIST" ]
      ],
      [ [ "salt", 1 ], [ "soysauce", 1 ], [ "seasoning_salt", 1 ], [ "garlic_clove", 1 ], [ "pepper", 1 ] ],
      [ [ "water", 1 ], [ "water_clean", 1 ] ]
    ],
    "id": "a75b6957-ad09-4ce1-9957-a3f320e2f92d"
  },
  {
    "type": "recipe",
    "result": "oatmeal",
    "category": "CC_FOOD",
    "subcategory": "CSC_FOOD_OTHER",
    "skill_used": "cooking",
    "difficulty": 2,
    "time": "45 m",
    "autolearn": true,
    "batch_time_factors": [ 50, 3 ],
    "tools": [ [ [ "surface_heat", 5, "LIST" ] ], [ [ "rock_quern", -1 ], [ "clay_quern", -1 ] ] ],
    "components": [ [ [ "oats", 2 ] ] ],
    "id": "85514151-b790-4eec-8bc1-1baeb0677814"
  },
  {
    "type": "recipe",
    "result": "oatmeal_cooked",
    "category": "CC_FOOD",
    "subcategory": "CSC_FOOD_OTHER",
    "skill_used": "cooking",
    "time": "6 m",
    "autolearn": true,
    "batch_time_factors": [ 80, 1 ],
    "qualities": [ { "id": "COOK", "level": 2 } ],
    "tools": [ [ [ "surface_heat", 2, "LIST" ] ] ],
    "components": [ [ [ "oatmeal", 1 ] ], [ [ "water", 1 ], [ "water_clean", 1 ] ] ],
    "id": "b0aee3f7-4ec1-4727-86d1-380f92dbfc92"
  },
  {
    "type": "recipe",
    "result": "oatmeal_deluxe",
    "category": "CC_FOOD",
    "subcategory": "CSC_FOOD_OTHER",
    "skill_used": "cooking",
    "time": "6 m",
    "autolearn": true,
    "batch_time_factors": [ 80, 1 ],
    "qualities": [ { "id": "COOK", "level": 2 } ],
    "tools": [ [ [ "surface_heat", 2, "LIST" ] ] ],
    "components": [
      [ [ "oatmeal", 1 ] ],
      [
        [ "sugar", 4 ],
        [ "syrup", 1 ],
        [ "beet_syrup", 1 ],
        [ "molasses", 1 ],
        [ "coffee_syrup", 1 ],
        [ "con_milk", 1 ],
        [ "honeycomb", 1 ],
        [ "honey_bottled", 1 ],
        [ "honey_glassed", 2 ],
        [ "jam_fruit", 1 ],
        [ "irradiated_strawberries", 1 ],
        [ "strawberries", 1 ],
        [ "irradiated_blueberries", 1 ],
        [ "blueberries", 1 ],
        [ "irradiated_cherries", 1 ],
        [ "cherries", 1 ],
        [ "irradiated_plums", 1 ],
        [ "plums", 1 ],
        [ "irradiated_grapes", 1 ],
        [ "grapes", 1 ],
        [ "irradiated_cranberries", 1 ],
        [ "cranberries", 1 ],
        [ "irradiated_raspberries", 1 ],
        [ "raspberries", 1 ],
        [ "irradiated_blackberries", 1 ],
        [ "blackberries", 1 ],
        [ "irradiated_pomegranate", 1 ],
        [ "pomegranate", 1 ],
        [ "dry_fruit", 1 ],
        [ "juice_pulp", 2 ]
      ],
      [ [ "water", 1 ], [ "water_clean", 1 ] ]
    ],
    "id": "77b1590a-9d42-4991-bf63-f0274750884f"
  },
  {
    "type": "recipe",
    "result": "chilly-p",
    "category": "CC_FOOD",
    "subcategory": "CSC_FOOD_OTHER",
    "skill_used": "cooking",
    "difficulty": 2,
    "time": "45 m",
    "autolearn": true,
    "batch_time_factors": [ 50, 3 ],
    "tools": [ [ [ "surface_heat", 5, "LIST" ] ], [ [ "rock_quern", -1 ], [ "clay_quern", -1 ] ] ],
    "components": [ [ [ "chili_pepper", 2 ] ] ],
    "id": "b5bec513-ca3f-407c-b052-bfa1c1221fd7"
  },
  {
    "type": "recipe",
    "result": "granola",
    "category": "CC_FOOD",
    "subcategory": "CSC_FOOD_OTHER",
    "skill_used": "cooking",
    "difficulty": 3,
    "time": "45 m",
    "batch_time_factors": [ 80, 1 ],
    "charges": 6,
    "autolearn": true,
    "tools": [ [ [ "surface_heat", 20, "LIST" ] ] ],
    "components": [
      [ [ "oatmeal", 4 ], [ "dry_rice", 4 ] ],
      [
        [ "honeycomb", 1 ],
        [ "con_milk", 1 ],
        [ "honey_bottled", 1 ],
        [ "honey_glassed", 2 ],
        [ "sugar", 10 ],
        [ "syrup", 3 ],
        [ "beet_syrup", 3 ]
      ],
      [
        [ "sweet_fruit_like", 1, "LIST" ],
        [ "jam_fruit", 1 ],
        [ "chocolate", 1 ],
        [ "candy", 1 ],
        [ "candy2", 1 ],
        [ "choco_coffee_beans", 2 ]
      ]
    ],
    "id": "0b717d75-1faa-406e-b459-682f43342475"
  },
  {
    "type": "recipe",
    "result": "scrambled_eggs",
    "category": "CC_FOOD",
    "subcategory": "CSC_FOOD_OTHER",
    "skill_used": "cooking",
    "difficulty": 1,
    "time": "6 m",
    "autolearn": true,
    "batch_time_factors": [ 80, 1 ],
    "qualities": [ { "id": "COOK", "level": 2 } ],
    "tools": [ [ [ "surface_heat", 2, "LIST" ] ] ],
    "components": [ [ [ "eggs_small", 2, "LIST" ] ] ],
    "id": "1ffc37c5-4fb1-40ef-ad58-74bd0845745c"
  },
  {
    "type": "recipe",
    "result": "scrambled_eggs",
    "id_suffix": "from_powder",
    "category": "CC_FOOD",
    "subcategory": "CSC_FOOD_OTHER",
    "skill_used": "cooking",
    "difficulty": 1,
    "time": "6 m",
    "autolearn": true,
    "batch_time_factors": [ 80, 1 ],
    "qualities": [ { "id": "COOK", "level": 2 } ],
    "tools": [ [ [ "surface_heat", 2, "LIST" ] ] ],
    "components": [ [ [ "eggs_small_dry", 2, "LIST" ] ], [ [ "water", 2 ], [ "water_clean", 2 ] ] ],
    "id": "c48de972-357c-4621-904d-10648e36d23f"
  },
  {
    "type": "recipe",
    "result": "boiled_egg",
    "category": "CC_FOOD",
    "subcategory": "CSC_FOOD_OTHER",
    "skill_used": "cooking",
    "difficulty": 1,
    "time": "10 m",
    "batch_time_factors": [ 80, 1 ],
    "autolearn": true,
    "qualities": [ { "id": "BOIL", "level": 1 } ],
    "tools": [ [ [ "surface_heat", 2, "LIST" ] ] ],
    "components": [ [ [ "eggs_small", 1, "LIST" ] ], [ [ "water", 1 ], [ "water_clean", 1 ] ] ],
    "id": "6578d4f3-b6cd-4f30-9c88-1234d5362d0e"
  },
  {
    "type": "recipe",
    "result": "deluxe_eggs",
    "category": "CC_FOOD",
    "subcategory": "CSC_FOOD_OTHER",
    "skill_used": "cooking",
    "difficulty": 1,
    "time": "6 m",
    "autolearn": true,
    "batch_time_factors": [ 80, 1 ],
    "qualities": [ { "id": "COOK", "level": 2 } ],
    "tools": [ [ [ "surface_heat", 2, "LIST" ] ] ],
    "components": [
      [ [ "eggs_small", 2, "LIST" ] ],
      [
        [ "bacon", 2 ],
        [ "meat_cooked", 1 ],
        [ "mutant_meat_cooked", 1 ],
        [ "meat_smoked", 1 ],
        [ "dry_meat", 1 ],
        [ "rehydrated_meat", 1 ],
        [ "sausage", 2 ],
        [ "sausage_cooked", 1 ],
        [ "bratwurst_sausage", 2 ],
        [ "jerky", 1 ],
        [ "salted_fish", 1 ],
        [ "meat_pickled", 1 ],
        [ "meat_salted", 1 ],
        [ "meat_canned", 1 ],
        [ "can_chicken", 1 ],
        [ "can_spam", 2 ],
        [ "fish_pickled", 1 ],
        [ "salted_fish", 1 ],
        [ "fish_canned", 1 ],
        [ "cracklins", 2 ],
        [ "can_sardine", 1 ],
        [ "can_tuna", 1 ],
        [ "can_salmon", 1 ],
        [ "can_herring", 1 ]
      ]
    ],
    "id": "75230129-de9a-4d25-af8e-fc3b8f35f0b5"
  },
  {
    "type": "recipe",
    "result": "deluxe_eggs",
    "id_suffix": "from_powder",
    "category": "CC_FOOD",
    "subcategory": "CSC_FOOD_OTHER",
    "skill_used": "cooking",
    "difficulty": 1,
    "time": "6 m",
    "autolearn": true,
    "batch_time_factors": [ 80, 1 ],
    "qualities": [ { "id": "COOK", "level": 2 } ],
    "tools": [ [ [ "surface_heat", 2, "LIST" ] ] ],
    "components": [
      [ [ "eggs_small_dry", 2, "LIST" ] ],
      [
        [ "bacon", 2 ],
        [ "meat_cooked", 1 ],
        [ "mutant_meat_cooked", 1 ],
        [ "meat_smoked", 1 ],
        [ "dry_meat", 1 ],
        [ "rehydrated_meat", 1 ],
        [ "sausage", 2 ],
        [ "sausage_cooked", 2 ],
        [ "bratwurst_sausage", 2 ],
        [ "jerky", 1 ],
        [ "salted_fish", 1 ],
        [ "meat_pickled", 1 ],
        [ "meat_salted", 1 ],
        [ "meat_canned", 1 ],
        [ "can_chicken", 1 ],
        [ "can_spam", 2 ],
        [ "fish_pickled", 1 ],
        [ "salted_fish", 1 ],
        [ "fish_canned", 1 ],
        [ "cracklins", 2 ],
        [ "can_sardine", 1 ],
        [ "can_tuna", 1 ],
        [ "can_salmon", 1 ],
        [ "can_herring", 1 ]
      ],
      [ [ "water", 1 ], [ "water_clean", 1 ] ]
    ],
    "id": "38bfda9d-ef56-4604-b396-87de96e25b11"
  },
  {
    "type": "recipe",
    "result": "seasoning_salt",
    "category": "CC_FOOD",
    "subcategory": "CSC_FOOD_OTHER",
    "skill_used": "cooking",
    "difficulty": 4,
    "time": "8 m",
    "autolearn": true,
    "batch_time_factors": [ 80, 5 ],
    "qualities": [ { "id": "COOK", "level": 2 } ],
    "tools": [ [ [ "surface_heat", 2, "LIST" ] ] ],
    "components": [
      [ [ "salt", 50 ] ],
      [
        [ "sugar", 20 ],
        [ "honeycomb", 1 ],
        [ "honey_bottled", 1 ],
        [ "honey_glassed", 2 ],
        [ "syrup", 1 ],
        [ "beet_syrup", 1 ],
        [ "molasses", 1 ],
        [ "rehydrated_fruit", 1 ],
        [ "dry_fruit", 1 ],
        [ "juice_pulp", 4 ]
      ],
      [
        [ "seasoning_italian", 20 ],
        [ "wild_herbs", 20 ],
        [ "pepper", 20 ],
        [ "cinnamon", 20 ],
        [ "chilly-p", 20 ],
        [ "curry_powder", 20 ],
        [ "mustard_powder", 20 ],
        [ "garlic_clove", 6 ],
        [ "rehydrated_veggy", 1 ],
        [ "dry_mushroom", 1 ],
        [ "dry_veggy", 1 ]
      ]
    ],
    "id": "60c63899-7320-4644-9a54-c92492bab244"
  },
  {
    "type": "recipe",
    "result": "seasoning_italian",
    "category": "CC_FOOD",
    "subcategory": "CSC_FOOD_OTHER",
    "skill_used": "cooking",
    "difficulty": 4,
    "result_mult": 2,
    "time": "8 m",
    "batch_time_factors": [ 80, 5 ],
    "book_learn": [ [ "cookbook_italian", 2 ] ],
    "qualities": [ { "id": "CUT", "level": 1 }, { "id": "COOK", "level": 2 } ],
    "tools": [ [ [ "surface_heat", 2, "LIST" ] ] ],
    "components": [ [ [ "salt", 20 ] ], [ [ "garlic_clove", 6 ] ], [ [ "thyme", 2 ] ], [ [ "wild_herbs", 200 ] ] ],
    "id": "bafd767d-f0e0-414a-ad22-06094f21ccee"
  },
  {
    "type": "recipe",
    "result": "pizza_cheese",
    "category": "CC_FOOD",
    "subcategory": "CSC_FOOD_OTHER",
    "skill_used": "cooking",
    "difficulty": 3,
    "time": "20 m",
    "batch_time_factors": [ 50, 3 ],
    "book_learn": [ [ "cookbook_italian", 2 ] ],
    "qualities": [ { "id": "COOK", "level": 2 } ],
    "tools": [ [ [ "surface_heat", 8, "LIST" ] ] ],
    "components": [
      [ [ "flour", 30 ] ],
      [ [ "cheese_any", 2, "LIST" ] ],
      [ [ "sauce_pesto", 1 ], [ "sauce_red", 1 ], [ "seasoning_italian", 5 ], [ "wild_herbs", 10 ] ],
      [ [ "water", 1 ], [ "water_clean", 1 ] ]
    ],
    "id": "dc698728-b660-4dfe-9b3d-75ea50562528"
  },
  {
    "type": "recipe",
    "result": "salt",
    "category": "CC_FOOD",
    "subcategory": "CSC_FOOD_OTHER",
    "skill_used": "cooking",
    "difficulty": 6,
    "time": "48 m",
    "batch_time_factors": [ 80, 5 ],
    "book_learn": [ [ "textbook_chemistry", 4 ] ],
    "qualities": [ { "id": "CHEM", "level": 2 } ],
    "tools": [ [ [ "surface_heat", 50, "LIST" ] ] ],
    "components": [ [ [ "lye_powder", 100 ], [ "bleach", 10 ] ], [ [ "water_clean", 1 ], [ "water", 1 ] ] ],
    "id": "80b43f0a-866c-439c-ae69-bf7d7e7ec5e9"
  },
  {
    "type": "recipe",
    "result": "salt",
    "id_suffix": "from_hickory",
    "category": "CC_FOOD",
    "subcategory": "CSC_FOOD_OTHER",
    "skills_required": [ "survival", 2 ],
    "skill_used": "cooking",
    "difficulty": 2,
    "time": "48 m",
    "autolearn": true,
    "batch_time_factors": [ 80, 5 ],
    "qualities": [ { "id": "CUT", "level": 1 }, { "id": "BOIL", "level": 2 } ],
    "tools": [ [ [ "surface_heat", 50, "LIST" ] ] ],
    "components": [ [ [ "hickory_root", 10 ] ], [ [ "water_clean", 1 ], [ "water", 1 ] ] ],
    "id": "ff87cb0d-3674-48c2-b563-1cce4b87b285"
  },
  {
    "type": "recipe",
    "result": "sugar",
    "id_suffix": "from_sweets",
    "category": "CC_FOOD",
    "subcategory": "CSC_FOOD_OTHER",
    "skill_used": "cooking",
    "difficulty": 4,
    "time": "24 m",
    "charges": 10,
    "autolearn": true,
    "batch_time_factors": [ 50, 3 ],
    "qualities": [ { "id": "CHEM", "level": 2 } ],
    "tools": [ [ [ "surface_heat", 50, "LIST" ] ] ],
    "components": [
      [
        [ "sweet_fruit_like", 2, "LIST" ],
        [ "coconut", 2 ],
        [ "coffee_syrup", 5 ],
        [ "cola", 6 ],
        [ "con_milk", 1 ],
        [ "corn", 3 ],
        [ "honey_bottled", 1 ],
        [ "honey_glassed", 2 ],
        [ "honeycomb", 1 ],
        [ "can_corn", 3 ],
        [ "molasses", 1 ],
        [ "purple_drink", 6 ],
        [ "rootbeer", 6 ],
        [ "syrup", 2 ],
        [ "beet_syrup", 4 ]
      ],
      [ [ "lye_powder", 20 ] ],
      [ [ "water_clean", 1 ], [ "water", 1 ] ]
    ],
    "id": "0b5672cd-0348-4dcf-b387-59c0ee855ccd"
  },
  {
    "type": "recipe",
    "result": "sugar",
    "id_suffix": "from_wood",
    "category": "CC_FOOD",
    "subcategory": "CSC_FOOD_OTHER",
    "//": "high-temperature acid hydrolysis, to extract edible wood sugars",
    "skill_used": "cooking",
    "difficulty": 7,
    "time": "1 h",
    "batch_time_factors": [ 50, 3 ],
    "book_learn": [ [ "adv_chemistry", 7 ], [ "textbook_chemistry", 8 ], [ "recipe_labchem", 6 ] ],
    "qualities": [ { "id": "CHEM", "level": 2 } ],
    "tools": [ [ [ "surface_heat", 50, "LIST" ] ] ],
    "components": [
      [ [ "pine_bough", 6 ], [ "wood_structural", 4, "LIST" ], [ "splinter", 16 ] ],
      [ [ "water_acid_weak", 3 ], [ "water_acid", 2 ], [ "acid", 1 ] ]
    ],
    "id": "d4f0bfe3-3e43-4180-91c1-c62f9eb27c50"
  },
  {
    "type": "recipe",
    "result": "sugar",
    "id_suffix": "from_beets",
    "category": "CC_FOOD",
    "subcategory": "CSC_FOOD_OTHER",
    "//": "process sugar beets into sugar",
    "skill_used": "cooking",
    "difficulty": 5,
    "time": "1 h 30 m",
    "batch_time_factors": [ 50, 3 ],
    "book_learn": [ [ "adv_chemistry", 6 ], [ "textbook_chemistry", 6 ], [ "cookbook_foodfashions", 5, "Natural Beet Sugar" ] ],
    "qualities": [ { "id": "CONTAIN", "level": 1 }, { "id": "BOIL", "level": 2 }, { "id": "CHEM", "level": 1 } ],
    "tools": [ [ [ "surface_heat", 40, "LIST" ] ] ],
    "components": [ [ [ "sugar_beet", 2 ] ], [ [ "water_clean", 1 ], [ "water", 1 ] ], [ [ "lye_powder", 20 ] ] ],
    "id": "e9f3f32e-a247-4a51-91bb-234d476cc207"
  },
  {
    "type": "recipe",
    "result": "flour",
    "category": "CC_FOOD",
    "subcategory": "CSC_FOOD_OTHER",
    "skill_used": "cooking",
    "difficulty": 2,
    "time": "45 m",
    "charges": 15,
    "autolearn": true,
    "batch_time_factors": [ 50, 3 ],
    "flags": [ "BLIND_EASY" ],
    "tools": [ [ [ "rock_quern", -1 ], [ "clay_quern", -1 ] ] ],
    "components": [
      [
        [ "wheat", 1 ],
        [ "buckwheat", 1 ],
        [ "barley", 1 ],
        [ "acorns_cooked", 2 ],
        [ "oats", 4 ],
        [ "starch", 1 ],
        [ "dry_rice", 5 ]
      ]
    ],
    "id": "fba74e4f-fb76-4641-8f53-c857780da05a"
  },
  {
    "type": "recipe",
    "result": "cornmeal",
    "charges": 3,
    "category": "CC_FOOD",
    "subcategory": "CSC_FOOD_OTHER",
    "skill_used": "cooking",
    "difficulty": 2,
    "time": "45 m",
    "autolearn": true,
    "batch_time_factors": [ 50, 3 ],
    "tools": [ [ [ "surface_heat", 5, "LIST" ] ], [ [ "rock_quern", -1 ], [ "clay_quern", -1 ] ] ],
    "components": [ [ [ "corn", 1 ], [ "irradiated_corn", 1 ], [ "kernels", 1 ] ] ],
    "id": "ef71d7f9-7cd7-45bd-bf07-047577db3eb4"
  },
  {
    "type": "recipe",
    "result": "meal_bone",
    "category": "CC_FOOD",
    "subcategory": "CSC_FOOD_OTHER",
    "skill_used": "cooking",
    "difficulty": 2,
    "time": "1 h",
    "autolearn": true,
    "batch_time_factors": [ 50, 3 ],
    "flags": [ "BLIND_EASY" ],
    "tools": [ [ [ "rock_quern", -1 ], [ "clay_quern", -1 ] ] ],
    "components": [ [ [ "bone_sturdy", 1, "LIST" ] ] ],
    "id": "419ebe22-66b1-4ad8-97ab-062750b9e385"
  },
  {
    "type": "recipe",
    "result": "meal_bone_tainted",
    "category": "CC_FOOD",
    "subcategory": "CSC_FOOD_OTHER",
    "skill_used": "cooking",
    "difficulty": 2,
    "time": "1 h",
    "autolearn": true,
    "batch_time_factors": [ 50, 3 ],
    "flags": [ "BLIND_EASY" ],
    "tools": [ [ [ "rock_quern", -1 ], [ "clay_quern", -1 ] ] ],
    "components": [ [ [ "bone_tainted", 1 ] ] ],
    "id": "bdb259a3-0b6b-437a-a2f8-21c805f17cd2"
  },
  {
    "type": "recipe",
    "result": "vinegar",
    "category": "CC_FOOD",
    "subcategory": "CSC_FOOD_OTHER",
    "skill_used": "cooking",
    "time": "1 m",
    "book_learn": [ [ "vinegar_maker", 1 ] ],
    "charges": 160,
    "components": [ [ [ "chem_acetic_acid", 1 ] ], [ [ "water_clean", 9 ] ] ],
    "id": "c081cadd-f77f-419c-bd0e-58f350ad1a17"
  },
  {
    "type": "recipe",
    "result": "eggs_ferment",
    "category": "CC_FOOD",
    "subcategory": "CSC_FOOD_OTHER",
    "skill_used": "cooking",
    "difficulty": 5,
    "time": "30 m",
    "batch_time_factors": [ 80, 5 ],
    "book_learn": [ [ "fermenting_book", 4 ] ],
    "qualities": [ { "id": "COOK", "level": 3 } ],
    "tools": [ [ [ "surface_heat", 20, "LIST" ] ] ],
    "components": [
      [ [ "water", 1 ], [ "water_clean", 1 ] ],
      [ [ "vinegar", 1 ] ],
      [ [ "saline", 1 ], [ "salt", 2 ] ],
      [ [ "jar_glass", 1 ] ],
      [ [ "boiled_egg", 6 ] ]
    ],
    "id": "5aaebff1-2d32-4f4a-90e9-e06fa1f92f34"
  },
  {
    "type": "recipe",
    "result": "sugar",
    "category": "CC_FOOD",
    "subcategory": "CSC_FOOD_OTHER",
    "skill_used": "cooking",
    "time": "1 h 30 m",
    "autolearn": true,
    "batch_time_factors": [ 50, 3 ],
    "qualities": [ { "id": "BOIL", "level": 1 } ],
    "tools": [ [ [ "water_boiling_heat", 3, "LIST" ] ] ],
    "components": [ [ [ "sweet_water", 10 ] ] ],
    "id": "c72aecf4-b858-4f99-9b75-eeab176a7bd8"
  },
  {
    "type": "recipe",
    "result": "sugar_fried",
    "category": "CC_FOOD",
    "subcategory": "CSC_FOOD_OTHER",
    "skill_used": "cooking",
    "difficulty": 3,
    "charges": 3,
    "time": "3 m 30 s",
    "autolearn": true,
    "batch_time_factors": [ 50, 3 ],
    "qualities": [ { "id": "COOK", "level": 2 } ],
    "tools": [ [ [ "surface_heat", 2, "LIST" ] ] ],
    "components": [ [ [ "sugar", 40 ] ], [ [ "water", 1 ], [ "water_clean", 1 ] ] ],
    "id": "01cb7873-ba6e-4cf5-a9b6-6bbac158f118"
  },
  {
    "type": "recipe",
    "result": "honey_bottled",
    "charges": 6,
    "category": "CC_FOOD",
    "subcategory": "CSC_FOOD_OTHER",
    "skill_used": "cooking",
    "difficulty": 1,
    "time": "10 m",
    "autolearn": true,
    "qualities": [ { "id": "CUT", "level": 1 } ],
    "tools": [ [ [ "rag", -1 ] ] ],
    "components": [ [ [ "honeycomb", 1 ] ] ],
    "id": "64e91a54-7ba6-4909-a171-156afe0942cd"
  },
  {
    "type": "recipe",
    "result": "honey_bottled",
    "id_suffix": "from_honey_glassed",
    "category": "CC_FOOD",
    "subcategory": "CSC_FOOD_OTHER",
    "skill_used": "cooking",
    "difficulty": 1,
    "charges": 7,
    "time": "20 m",
    "batch_time_factors": [ 50, 3 ],
    "autolearn": true,
    "qualities": [ { "id": "BOIL", "level": 1 }, { "id": "CONTAIN", "level": 1 } ],
    "tools": [ [ [ "surface_heat", 5, "LIST" ] ], [ [ "rag", -1 ] ] ],
    "components": [ [ [ "water", 1 ], [ "water_clean", 1 ] ], [ [ "honey_glassed", 10 ] ] ],
    "id": "75a0ec66-1ee7-4b8b-a6b1-9b7fe0108637"
  },
  {
    "type": "recipe",
    "result": "honey_glassed",
    "category": "CC_FOOD",
    "subcategory": "CSC_FOOD_OTHER",
    "skill_used": "cooking",
    "difficulty": 1,
    "time": "10 m",
    "autolearn": true,
    "qualities": [ { "id": "CONTAIN", "level": 1 } ],
    "components": [ [ [ "honey_bottled", 7 ] ] ],
    "id": "02e1f48b-9684-4189-a9b8-49716bae7314"
  },
  {
    "result": "oatmeal",
    "type": "recipe",
    "id_suffix": "with_food_processor",
    "category": "CC_FOOD",
    "subcategory": "CSC_FOOD_OTHER",
    "skill_used": "cooking",
    "difficulty": 2,
    "time": "11 m 15 s",
    "autolearn": true,
    "batch_time_factors": [ 80, 1 ],
    "tools": [ [ [ "food_processor", 20 ] ] ],
    "components": [ [ [ "oats", 2 ] ] ],
    "id": "bfa02a48-214b-4d5b-82a9-1028db8fcdd2"
  },
  {
    "result": "cornmeal",
    "type": "recipe",
    "id_suffix": "with_from_food_processor",
    "charges": 3,
    "category": "CC_FOOD",
    "subcategory": "CSC_FOOD_OTHER",
    "skill_used": "cooking",
    "difficulty": 2,
    "time": "11 m 15 s",
    "autolearn": true,
    "batch_time_factors": [ 80, 1 ],
    "tools": [ [ [ "food_processor", 20 ] ] ],
    "components": [ [ [ "corn", 1 ], [ "irradiated_corn", 1 ], [ "kernels", 1 ] ] ],
    "id": "70e85986-2ba7-4abf-b3c3-73660cd5af03"
  },
  {
    "result": "flour",
    "type": "recipe",
    "id_suffix": "with_from_food_processor",
    "category": "CC_FOOD",
    "subcategory": "CSC_FOOD_OTHER",
    "skill_used": "cooking",
    "difficulty": 2,
    "charges": 15,
    "time": "11 m 15 s",
    "autolearn": true,
    "batch_time_factors": [ 50, 3 ],
    "tools": [ [ [ "food_processor", 20 ] ] ],
    "components": [
      [
        [ "wheat", 1 ],
        [ "buckwheat", 1 ],
        [ "barley", 1 ],
        [ "acorns_cooked", 2 ],
        [ "oats", 4 ],
        [ "starch", 1 ],
        [ "dry_rice", 5 ]
      ]
    ],
    "id": "b41ae817-750e-4ed5-a757-ad13af4c2b6d"
  },
  {
    "result": "meal_bone",
    "type": "recipe",
    "id_suffix": "with_from_food_processor",
    "category": "CC_FOOD",
    "subcategory": "CSC_FOOD_OTHER",
    "skill_used": "cooking",
    "difficulty": 2,
    "time": "15 m",
    "autolearn": true,
    "batch_time_factors": [ 50, 3 ],
    "tools": [ [ [ "food_processor", 20 ] ] ],
    "components": [ [ [ "bone_sturdy", 1, "LIST" ] ] ],
    "id": "6265ab7b-ac3b-4ee8-a82e-66c9fbf275ce"
  },
  {
    "result": "meal_bone_tainted",
    "type": "recipe",
    "id_suffix": "with_from_food_processor",
    "category": "CC_FOOD",
    "subcategory": "CSC_FOOD_OTHER",
    "skill_used": "cooking",
    "difficulty": 2,
    "time": "15 m",
    "autolearn": true,
    "batch_time_factors": [ 50, 3 ],
    "tools": [ [ [ "food_processor", 20 ] ] ],
    "components": [ [ [ "bone_tainted", 1 ] ] ],
    "id": "c71d5eb4-7725-47f5-9c3f-dde5cceef43c"
  },
  {
    "result": "cattlefodder",
    "type": "recipe",
    "category": "CC_FOOD",
    "subcategory": "CSC_FOOD_OTHER",
    "skill_used": "cooking",
    "difficulty": 2,
    "skills_required": [ "survival", 1 ],
    "time": "10 m",
    "autolearn": true,
    "components": [
      [
        [ "oats", 5 ],
        [ "buckwheat", 5 ],
        [ "wheat", 5 ],
        [ "potato", 5 ],
        [ "barley", 5 ],
        [ "raw_beans", 5 ],
        [ "cabbage", 5 ],
        [ "veggy_wild", 5 ],
        [ "veggy", 5 ]
      ]
    ],
    "id": "d1809dbb-5e4a-4899-b03f-78a18bd8b155"
  },
  {
    "result": "birdfood",
    "type": "recipe",
    "category": "CC_FOOD",
    "subcategory": "CSC_FOOD_OTHER",
    "skill_used": "cooking",
    "difficulty": 1,
    "skills_required": [ "survival", 1 ],
    "time": "2 m",
    "autolearn": true,
    "components": [
      [
        [ "can_corn", 1 ],
        [ "corn", 1 ],
        [ "oats", 1 ],
        [ "buckwheat", 1 ],
        [ "wheat", 1 ],
        [ "barley", 1 ],
        [ "raw_beans", 1 ],
        [ "seed_blackberries", 1 ],
        [ "seed_blueberries", 1 ],
        [ "seed_cranberries", 1 ],
        [ "seed_huckleberries", 1 ],
        [ "seed_mulberries", 1 ],
        [ "seed_elderberries", 1 ],
        [ "seed_grapes", 1 ],
        [ "seed_rose", 1 ],
        [ "seed_tobacco", 1 ],
        [ "seed_beans", 1 ],
        [ "soybean_seed", 1 ],
        [ "seed_lentils", 1 ],
        [ "seed_cattail", 1 ],
        [ "seed_dahlia", 1 ],
        [ "seed_flower", 1 ],
        [ "seed_cactus", 1 ],
        [ "seed_hops", 1 ],
        [ "seed_raspberries", 1 ],
        [ "seed_strawberries", 1 ],
        [ "seed_barley", 1 ],
        [ "seed_sugar_beet", 1 ],
        [ "seed_lettuce", 1 ],
        [ "seed_cabbage", 1 ],
        [ "seed_tomato", 1 ],
        [ "seed_cotton_boll", 1 ],
        [ "seed_broccoli", 1 ],
        [ "seed_zucchini", 1 ],
        [ "seed_onion", 1 ],
        [ "seed_garlic", 1 ],
        [ "seed_carrot", 1 ],
        [ "seed_corn", 1 ],
        [ "seed_chili_pepper", 1 ],
        [ "seed_cucumber", 1 ],
        [ "seed_potato_raw", 1 ],
        [ "seed_weed", 1 ],
        [ "seed_thyme", 1 ],
        [ "seed_canola", 1 ],
        [ "seed_pumpkin", 1 ],
        [ "seed_sunflower", 1 ],
        [ "seed_dogbane", 1 ],
        [ "seed_bee_balm", 1 ],
        [ "seed_mugwort", 1 ],
        [ "seed_buckwheat", 1 ],
        [ "seed_wild_herbs", 1 ],
        [ "seed_veggy_wild", 1 ],
        [ "seed_raw_dandelion", 1 ],
        [ "seed_raw_burdock", 1 ],
        [ "seed_rhubarb", 1 ],
        [ "seed_mushroom", 1 ],
        [ "seed_mushroom_morel", 1 ],
        [ "seed_celery", 1 ],
        [ "seed_oats", 1 ],
        [ "seed_wheat", 1 ],
        [ "soybean", 1 ],
        [ "raw_edamame", 1 ],
        [ "raw_lentils", 1 ],
        [ "bread", 1 ],
        [ "cornbread", 1 ],
        [ "wastebread", 1 ],
        [ "sourdough_bread", 1 ],
        [ "hardtack", 1 ],
        [ "crackers", 1 ],
        [ "brioche", 1 ]
      ]
    ],
    "id": "af8b72a9-448c-404a-9637-483603f87911"
  },
  {
    "result": "meal_chitin_piece",
    "type": "recipe",
    "id_suffix": "with_from_food_processor",
    "category": "CC_FOOD",
    "subcategory": "CSC_FOOD_OTHER",
    "skill_used": "cooking",
    "difficulty": 2,
    "time": "15 m",
    "autolearn": true,
    "batch_time_factors": [ 50, 3 ],
    "tools": [ [ [ "food_processor", 20 ] ] ],
    "components": [ [ [ "chitin_piece", 1 ], [ "acidchitin_piece", 1 ] ] ],
    "id": "f497f720-d852-4fd3-9282-296ab8796937"
  },
  {
    "result": "chilly-p",
    "type": "recipe",
    "id_suffix": "with_from_food_processor",
    "category": "CC_FOOD",
    "subcategory": "CSC_FOOD_OTHER",
    "skill_used": "cooking",
    "difficulty": 2,
    "time": "11 m 15 s",
    "autolearn": true,
    "batch_time_factors": [ 50, 3 ],
    "tools": [ [ [ "food_processor", 20 ] ] ],
    "components": [ [ [ "chili_pepper", 2 ] ] ],
    "id": "dd273ee8-ab45-4d37-90fe-2e7a720e8b84"
  },
  {
    "type": "recipe",
    "result": "oatmeal",
    "id_suffix": "mortar",
    "category": "CC_FOOD",
    "subcategory": "CSC_FOOD_OTHER",
    "skill_used": "cooking",
    "skills_required": [ [ "survival", 1 ] ],
    "difficulty": 2,
    "time": "1 h 7 m 30 s",
    "autolearn": true,
    "batch_time_factors": [ 50, 3 ],
    "tools": [ [ [ "surface_heat", 5, "LIST" ] ], [ [ "mortar_pestle", -1 ] ] ],
    "components": [ [ [ "oats", 2 ] ] ],
    "id": "6edefbe8-1984-4717-b5e3-e8384b47263c"
  },
  {
    "type": "recipe",
    "result": "flour",
    "id_suffix": "mortar",
    "category": "CC_FOOD",
    "subcategory": "CSC_FOOD_OTHER",
    "skill_used": "cooking",
    "skills_required": [ [ "survival", 1 ] ],
    "difficulty": 2,
    "charges": 15,
    "time": "1 h 7 m 30 s",
    "autolearn": true,
    "batch_time_factors": [ 50, 3 ],
    "flags": [ "BLIND_EASY" ],
    "tools": [ [ [ "mortar_pestle", -1 ] ] ],
    "components": [
      [
        [ "wheat", 1 ],
        [ "buckwheat", 1 ],
        [ "barley", 1 ],
        [ "acorns_cooked", 2 ],
        [ "oats", 4 ],
        [ "starch", 1 ],
        [ "dry_rice", 5 ]
      ]
    ],
    "id": "ea7f921e-1932-4d31-9559-e517ab5712c2"
  },
  {
    "type": "recipe",
    "result": "cornmeal",
    "id_suffix": "mortar",
    "charges": 3,
    "category": "CC_FOOD",
    "subcategory": "CSC_FOOD_OTHER",
    "skill_used": "cooking",
    "skills_required": [ [ "survival", 1 ] ],
    "difficulty": 2,
    "time": "1 h 7 m 30 s",
    "autolearn": true,
    "batch_time_factors": [ 50, 3 ],
    "tools": [ [ [ "surface_heat", 5, "LIST" ] ], [ [ "mortar_pestle", -1 ] ] ],
    "components": [ [ [ "corn", 1 ], [ "irradiated_corn", 1 ], [ "kernels", 1 ] ] ],
    "id": "ae7a0ee2-0d5b-4526-86c4-f065b0e3d4ac"
  },
  {
    "type": "recipe",
    "result": "meal_bone",
    "id_suffix": "mortar",
    "category": "CC_FOOD",
    "subcategory": "CSC_FOOD_OTHER",
    "skill_used": "cooking",
    "skills_required": [ [ "survival", 1 ] ],
    "difficulty": 2,
    "time": "1 h 30 m",
    "autolearn": true,
    "batch_time_factors": [ 50, 3 ],
    "flags": [ "BLIND_EASY" ],
    "tools": [ [ [ "mortar_pestle", -1 ] ] ],
    "components": [ [ [ "bone_sturdy", 1, "LIST" ] ] ],
    "id": "34b93a68-ea98-4cb8-8c99-df3d7e774d4d"
  },
  {
    "type": "recipe",
    "result": "meal_bone_tainted",
    "id_suffix": "mortar",
    "category": "CC_FOOD",
    "subcategory": "CSC_FOOD_OTHER",
    "skill_used": "cooking",
    "skills_required": [ [ "survival", 1 ] ],
    "difficulty": 2,
    "time": "1 h 30 m",
    "autolearn": true,
    "batch_time_factors": [ 50, 3 ],
    "flags": [ "BLIND_EASY" ],
    "tools": [ [ [ "mortar_pestle", -1 ] ] ],
    "components": [ [ [ "bone_tainted", 1 ] ] ],
    "id": "081786e4-9a9d-421f-9940-0d80dd087c0f"
  },
  {
    "type": "recipe",
    "result": "peanutbutter",
    "category": "CC_FOOD",
    "subcategory": "CSC_FOOD_OTHER",
    "skill_used": "cooking",
    "difficulty": 1,
    "time": "10 m",
    "charges": 4,
    "autolearn": true,
    "qualities": [ { "id": "COOK", "level": 1 } ],
    "tools": [ [ [ "food_processor", 40 ] ] ],
    "components": [ [ [ "peanut", 3 ] ], [ [ "sugar", 10 ], [ "honey_bottled", 1 ], [ "honey_glassed", 2 ] ] ],
    "id": "b95b0eda-d66d-433b-9f4d-24ce6903b3f0"
  },
  {
    "type": "recipe",
    "result": "peanutbutter_imitation",
    "category": "CC_FOOD",
    "subcategory": "CSC_FOOD_OTHER",
    "skill_used": "cooking",
    "difficulty": 1,
    "charges": 3,
    "time": "10 m",
    "autolearn": true,
    "qualities": [ { "id": "COOK", "level": 1 } ],
    "tools": [ [ [ "food_processor", 40 ] ] ],
    "components": [
      [
        [ "pine_nuts", 5 ],
        [ "pecan", 5 ],
        [ "cashews", 5 ],
        [ "pistachio", 5 ],
        [ "almond", 5 ],
        [ "beech_nuts", 5 ],
        [ "hickory_nut", 5 ],
        [ "chestnut", 5 ],
        [ "hazelnut", 5 ],
        [ "walnut", 5 ],
        [ "acorns", 5 ]
      ],
      [ [ "sugar", 10 ], [ "honeycomb", 1 ], [ "honey_bottled", 1 ], [ "honey_glassed", 2 ], [ "syrup", 1 ] ]
    ],
    "id": "6d4fa07b-f40a-4a77-9225-3f6e8a438c55"
  },
  {
    "type": "recipe",
    "result": "con_milk",
    "charges": 10,
    "category": "CC_FOOD",
    "subcategory": "CSC_FOOD_OTHER",
    "skill_used": "cooking",
    "difficulty": 3,
    "time": "40 m",
    "book_learn": [ [ "cookbook_italian", 2 ], [ "family_cookbook", 2 ], [ "mag_cooking", 2 ] ],
    "batch_time_factors": [ 50, 3 ],
    "qualities": [ { "id": "COOK", "level": 3 } ],
    "tools": [ [ [ "surface_heat", 120, "LIST" ] ] ],
    "components": [ [ [ "milk_standard_raw_fresh", 2, "LIST" ] ], [ [ "sugar_standard", 3, "LIST" ] ] ],
    "id": "a16edd1f-39ac-4984-affe-ebf8c3e0fffc"
  },
  {
    "type": "recipe",
    "result": "mustard_powder",
    "category": "CC_FOOD",
    "subcategory": "CSC_FOOD_OTHER",
    "skill_used": "cooking",
    "difficulty": 2,
    "time": "15 m",
    "autolearn": true,
    "batch_time_factors": [ 50, 3 ],
    "tools": [ [ [ "rock_quern", -1 ], [ "clay_quern", -1 ] ] ],
    "components": [ [ [ "seed_mustard", 4 ] ] ],
    "id": "bf4937bc-b9e0-45ce-a859-bf0d01e10551"
  },
  {
    "type": "recipe",
    "result": "mustard_powder",
    "category": "CC_FOOD",
    "id_suffix": "with_from_food_processor",
    "subcategory": "CSC_FOOD_OTHER",
    "skill_used": "cooking",
    "difficulty": 2,
    "time": "5 m 30 s",
    "autolearn": true,
    "batch_time_factors": [ 50, 3 ],
    "tools": [ [ [ "food_processor", 20 ] ] ],
    "components": [ [ [ "seed_mustard", 4 ] ] ],
    "id": "9ae882be-c884-4460-88c9-da6878ff36a3"
  },
  {
    "result": "milkshake",
    "type": "recipe",
    "category": "CC_FOOD",
    "subcategory": "CSC_FOOD_OTHER",
    "skill_used": "cooking",
    "difficulty": 1,
    "time": "10 m",
    "autolearn": true,
    "batch_time_factors": [ 50, 3 ],
    "qualities": [ { "id": "COOK", "level": 3 } ],
    "tools": [ [ [ "rock_quern", -1 ], [ "clay_quern", -1 ], [ "mortar_pestle", -1 ], [ "food_processor", 10 ] ] ],
    "components": [
      [ [ "milk_standard", 1, "LIST" ], [ "con_milk", 1 ], [ "can_coconut", 1 ] ],
      [
        [ "chocolate", 1 ],
        [ "candy", 1 ],
        [ "candy2", 1 ],
        [ "candy3", 1 ],
        [ "maple_candy", 1 ],
        [ "syrup", 1 ],
        [ "strawberries", 1 ],
        [ "strawberries_cooked", 1 ],
        [ "irradiated_strawberries", 1 ],
        [ "blueberries", 1 ],
        [ "blueberries_cooked", 1 ],
        [ "irradiated_blueberries", 1 ],
        [ "blackberries", 1 ],
        [ "irradiated_blackberries", 1 ],
        [ "cherries", 1 ],
        [ "irradiated_cherries", 1 ]
      ],
      [ [ "sugar", 10 ] ],
      [ [ "water_clean", 1 ] ]
    ],
    "id": "f1cb5468-099c-4b26-93e5-653fd4f3b94d"
  },
  {
    "result": "milkshake_deluxe",
    "type": "recipe",
    "category": "CC_FOOD",
    "subcategory": "CSC_FOOD_OTHER",
    "skill_used": "cooking",
    "time": "12 m 30 s",
    "autolearn": true,
    "batch_time_factors": [ 50, 3 ],
    "tools": [ [ [ "rock_quern", -1 ], [ "clay_quern", -1 ], [ "mortar_pestle", -1 ], [ "food_processor", 10 ] ] ],
    "components": [
      [ [ "milk_standard", 1, "LIST" ] ],
      [
        [ "chocolate", 2 ],
        [ "candy", 2 ],
        [ "candy2", 2 ],
        [ "candy3", 2 ],
        [ "maple_candy", 2 ],
        [ "syrup", 2 ],
        [ "strawberries", 2 ],
        [ "strawberries_cooked", 2 ],
        [ "irradiated_strawberries", 2 ],
        [ "blueberries", 2 ],
        [ "blueberries_cooked", 2 ],
        [ "irradiated_blueberries", 2 ],
        [ "blackberries", 2 ],
        [ "irradiated_blackberries", 2 ],
        [ "cherries", 2 ],
        [ "irradiated_cherries", 2 ]
      ],
      [ [ "sugar", 20 ] ],
      [ [ "water_clean", 1 ] ]
    ],
    "id": "a9780cb7-de2d-46b2-8e76-e8a0c419a242"
  },
  {
    "result": "icecream",
    "type": "recipe",
    "category": "CC_FOOD",
    "subcategory": "CSC_FOOD_OTHER",
    "skill_used": "cooking",
    "difficulty": 2,
    "time": "20 m",
    "batch_time_factors": [ 50, 3 ],
    "book_learn": [ [ "dairy_book", 2 ] ],
    "qualities": [ { "id": "COOK", "level": 3 } ],
    "tools": [ [ [ "rock_quern", -1 ], [ "clay_quern", -1 ], [ "mortar_pestle", -1 ], [ "food_processor", 10 ] ] ],
    "components": [
      [ [ "milk_standard", 2, "LIST" ] ],
      [
        [ "chocolate", 1 ],
        [ "candy", 1 ],
        [ "candy2", 1 ],
        [ "candy3", 1 ],
        [ "maple_candy", 1 ],
        [ "syrup", 1 ],
        [ "strawberries", 1 ],
        [ "strawberries_cooked", 1 ],
        [ "irradiated_strawberries", 1 ],
        [ "blueberries", 1 ],
        [ "blueberries_cooked", 1 ],
        [ "irradiated_blueberries", 1 ],
        [ "blackberries", 1 ],
        [ "irradiated_blackberries", 1 ]
      ],
      [ [ "sugar", 20 ] ]
    ],
    "id": "cf9beccc-cf5e-4682-bbda-048021c99578"
  },
  {
    "result": "icecream",
    "id_suffix": "from_bags",
    "//": "in real life, you can use some plastic bags with the correct materials and shake up to make ice cream!",
    "type": "recipe",
    "category": "CC_FOOD",
    "subcategory": "CSC_FOOD_OTHER",
    "skill_used": "cooking",
    "time": "20 m",
    "book_learn": [ [ "mag_cooking", 0 ] ],
    "components": [
      [ [ "water_clean", 2 ] ],
      [ [ "milk_standard", 2, "LIST" ] ],
      [
        [ "chocolate", 1 ],
        [ "candy", 1 ],
        [ "candy2", 1 ],
        [ "candy3", 1 ],
        [ "maple_candy", 1 ],
        [ "syrup", 1 ],
        [ "strawberries", 1 ],
        [ "strawberries_cooked", 1 ],
        [ "irradiated_strawberries", 1 ],
        [ "blueberries", 1 ],
        [ "blueberries_cooked", 1 ],
        [ "irradiated_blueberries", 1 ],
        [ "blackberries", 1 ],
        [ "irradiated_blackberries", 1 ]
      ],
      [ [ "sugar", 20 ] ],
      [ [ "salt", 30 ] ],
      [ [ "bag_plastic", 2 ] ]
    ],
    "id": "5e1518d2-de96-498b-b848-aa5b21ca8801"
  },
  {
    "result": "icecream_candy",
    "type": "recipe",
    "category": "CC_FOOD",
    "subcategory": "CSC_FOOD_OTHER",
    "skill_used": "cooking",
    "time": "5 m",
    "autolearn": true,
    "components": [
      [ [ "icecream", 1 ], [ "icecream_artificial", 1 ] ],
      [ [ "chocolate", 1 ], [ "candy", 1 ], [ "candy2", 1 ], [ "candy3", 1 ], [ "maple_candy", 1 ], [ "syrup", 1 ] ],
      [ [ "sugar", 5 ] ]
    ],
    "id": "e07160b3-f5d0-4b5d-9617-b2c251b799dd"
  },
  {
    "result": "icecream_fruit",
    "type": "recipe",
    "category": "CC_FOOD",
    "subcategory": "CSC_FOOD_OTHER",
    "skill_used": "cooking",
    "time": "5 m",
    "autolearn": true,
    "components": [ [ [ "icecream", 1 ], [ "icecream_artificial", 1 ] ], [ [ "sweet_fruit_like", 1, "LIST" ], [ "jam_fruit", 1 ] ] ],
    "id": "f22c5f7b-610d-441a-bb28-0dbc572d016b"
  },
  {
    "result": "icecream_custard",
    "type": "recipe",
    "category": "CC_FOOD",
    "subcategory": "CSC_FOOD_OTHER",
    "skill_used": "cooking",
    "difficulty": 2,
    "time": "20 m",
    "batch_time_factors": [ 50, 3 ],
    "book_learn": [ [ "dairy_book", 2 ] ],
    "qualities": [ { "id": "COOK", "level": 3 } ],
    "tools": [ [ [ "rock_quern", -1 ], [ "clay_quern", -1 ], [ "mortar_pestle", -1 ], [ "food_processor", 10 ] ] ],
    "components": [
      [ [ "milk_standard", 2, "LIST" ] ],
      [
        [ "chocolate", 1 ],
        [ "candy", 1 ],
        [ "candy2", 1 ],
        [ "candy3", 1 ],
        [ "maple_candy", 1 ],
        [ "syrup", 1 ],
        [ "strawberries", 1 ],
        [ "strawberries_cooked", 1 ],
        [ "irradiated_strawberries", 1 ],
        [ "blueberries", 1 ],
        [ "blueberries_cooked", 1 ],
        [ "irradiated_blueberries", 1 ],
        [ "blackberries", 1 ],
        [ "irradiated_blackberries", 1 ]
      ],
      [ [ "sugar", 10 ] ],
      [ [ "eggs_small_dry", 1, "LIST" ] ]
    ],
    "id": "c1f67820-d782-448a-ad55-98ee16539059"
  },
  {
    "result": "icecream_yogurt",
    "type": "recipe",
    "category": "CC_FOOD",
    "subcategory": "CSC_FOOD_OTHER",
    "skill_used": "cooking",
    "difficulty": 2,
    "time": "20 m",
    "batch_time_factors": [ 50, 3 ],
    "book_learn": [ [ "dairy_book", 2 ] ],
    "qualities": [ { "id": "COOK", "level": 3 } ],
    "tools": [ [ [ "rock_quern", -1 ], [ "clay_quern", -1 ], [ "mortar_pestle", -1 ], [ "food_processor", 10 ] ] ],
    "components": [ [ [ "yoghurt", 1 ] ], [ [ "sugar", 5 ] ] ],
    "id": "720d9fc3-e62f-40f6-b455-782341380b60"
  },
  {
    "result": "icecream_sorbet",
    "type": "recipe",
    "category": "CC_FOOD",
    "subcategory": "CSC_FOOD_OTHER",
    "skill_used": "cooking",
    "time": "10 m",
    "batch_time_factors": [ 50, 3 ],
    "book_learn": [ [ "dairy_book", 2 ] ],
    "qualities": [ { "id": "COOK", "level": 2 } ],
    "tools": [ [ [ "rock_quern", -1 ], [ "clay_quern", -1 ], [ "mortar_pestle", -1 ], [ "food_processor", 10 ] ] ],
    "components": [
      [ [ "water_clean", 1 ], [ "kompot", 1 ] ],
      [ [ "juice", 1 ], [ "oj", 1 ], [ "apple_cider", 1 ], [ "lemonade", 1 ], [ "cranberry_juice", 1 ] ],
      [ [ "sugar", 5 ] ]
    ],
    "id": "d179f2ae-2196-40f3-a052-a20baa0f7e0a"
  },
  {
    "result": "icecream_gelato",
    "type": "recipe",
    "category": "CC_FOOD",
    "subcategory": "CSC_FOOD_OTHER",
    "skill_used": "cooking",
    "difficulty": 2,
    "time": "20 m",
    "batch_time_factors": [ 50, 3 ],
    "book_learn": [ [ "cookbook_italian", 1 ] ],
    "qualities": [ { "id": "COOK", "level": 3 } ],
    "tools": [ [ [ "rock_quern", -1 ], [ "clay_quern", -1 ], [ "mortar_pestle", -1 ], [ "food_processor", 10 ] ] ],
    "components": [
      [ [ "milk_standard", 1, "LIST" ] ],
      [
        [ "chocolate", 1 ],
        [ "candy", 1 ],
        [ "candy2", 1 ],
        [ "candy3", 1 ],
        [ "maple_candy", 1 ],
        [ "syrup", 1 ],
        [ "strawberries", 1 ],
        [ "strawberries_cooked", 1 ],
        [ "irradiated_strawberries", 1 ],
        [ "blueberries", 1 ],
        [ "blueberries_cooked", 1 ],
        [ "irradiated_blueberries", 1 ],
        [ "blackberries", 1 ],
        [ "irradiated_blackberries", 1 ]
      ],
      [ [ "sugar", 15 ] ]
    ],
    "id": "c8fedd4e-b0ad-4bce-b559-599eecdf3f26"
  },
  {
    "type": "recipe",
    "result": "dogfood",
    "id_suffix": "jarred",
    "byproducts": [ [ "water", 10 ] ],
    "container": "jar_glass_sealed",
    "category": "CC_FOOD",
    "subcategory": "CSC_FOOD_OTHER",
    "skill_used": "cooking",
    "difficulty": 4,
    "time": "30 m",
    "book_learn": [ [ "manual_canning", 3 ] ],
    "batch_time_factors": [ 80, 5 ],
    "qualities": [ { "id": "CUT", "level": 1 }, { "id": "COOK", "level": 3 } ],
    "tools": [ [ [ "surface_heat", 100, "LIST" ] ], [ [ "pot_canning", -1 ] ] ],
    "components": [
      [ [ "water", 11 ], [ "water_clean", 11 ] ],
      [ [ "jar_glass", 1 ] ],
      [ [ "meat", 1 ], [ "fish", 1 ] ],
      [ [ "veggy", 1 ], [ "veggy_wild", 1 ] ]
    ],
    "id": "e87af24d-bffc-4b06-9dff-c36e0ee23377"
  },
  {
    "type": "recipe",
    "result": "dogfood",
    "id_suffix": "canned",
    "category": "CC_FOOD",
    "subcategory": "CSC_FOOD_OTHER",
    "skill_used": "cooking",
    "difficulty": 5,
    "time": "24 m",
    "book_learn": [ [ "manual_sealing", 4 ] ],
    "contained": true,
    "batch_time_factors": [ 80, 5 ],
    "qualities": [
      { "id": "SAW_M", "level": 1 },
      { "id": "HAMMER", "level": 1 },
      { "id": "CUT", "level": 1 },
      { "id": "COOK", "level": 3 }
    ],
    "tools": [ [ [ "surface_heat", 10, "LIST" ] ], [ [ "can_sealer", -1 ] ] ],
    "components": [
      [ [ "can_medium_unsealed", 1 ] ],
      [ [ "scrap", 1 ] ],
      [ [ "water", 1 ], [ "water_clean", 1 ] ],
      [ [ "meat", 1 ], [ "fish", 1 ] ],
      [ [ "veggy", 1 ], [ "veggy_wild", 1 ] ]
    ],
    "id": "edb8ff8d-221f-4949-b31b-58ef633fa504"
  },
  {
    "type": "recipe",
    "result": "dogfood",
    "id_suffix": "jarred_3l",
    "byproducts": [ [ "water", 10 ] ],
    "container": "jar_3l_glass_sealed",
    "category": "CC_FOOD",
    "subcategory": "CSC_FOOD_OTHER",
    "skill_used": "cooking",
    "difficulty": 4,
    "time": "40 m",
    "result_mult": 6,
    "book_learn": [ [ "manual_canning", 3 ] ],
    "batch_time_factors": [ 80, 5 ],
    "qualities": [ { "id": "CUT", "level": 1 }, { "id": "COOK", "level": 3 } ],
    "tools": [ [ [ "surface_heat", 200, "LIST" ] ], [ [ "pot_canning", -1 ] ] ],
    "components": [
      [ [ "water", 16 ], [ "water_clean", 16 ] ],
      [ [ "jar_3l_glass", 1 ] ],
      [ [ "meat", 6 ], [ "fish", 6 ] ],
      [ [ "veggy", 6 ], [ "veggy_wild", 6 ] ]
    ],
    "id": "86e39e43-04f7-4cf7-a617-9e399178890e"
  },
  {
    "type": "recipe",
    "result": "catfood",
    "id_suffix": "jarred",
    "byproducts": [ [ "water", 10 ] ],
    "container": "jar_glass_sealed",
    "category": "CC_FOOD",
    "subcategory": "CSC_FOOD_OTHER",
    "skill_used": "cooking",
    "difficulty": 4,
    "time": "30 m",
    "book_learn": [ [ "manual_canning", 3 ] ],
    "batch_time_factors": [ 80, 5 ],
    "result_mult": 2,
    "qualities": [ { "id": "CUT", "level": 1 }, { "id": "COOK", "level": 3 } ],
    "tools": [ [ [ "surface_heat", 100, "LIST" ] ], [ [ "pot_canning", -1 ] ] ],
    "components": [ [ [ "water", 11 ], [ "water_clean", 11 ] ], [ [ "jar_glass", 1 ] ], [ [ "meat", 4 ], [ "fish", 4 ] ] ],
    "id": "e2f22ce9-3b4f-4274-b2a9-9458f0868e47"
  },
  {
    "type": "recipe",
    "result": "catfood",
    "id_suffix": "canned",
    "category": "CC_FOOD",
    "subcategory": "CSC_FOOD_OTHER",
    "skill_used": "cooking",
    "difficulty": 5,
    "time": "24 m",
    "book_learn": [ [ "manual_sealing", 4 ] ],
    "contained": true,
    "batch_time_factors": [ 80, 5 ],
    "qualities": [
      { "id": "SAW_M", "level": 1 },
      { "id": "HAMMER", "level": 1 },
      { "id": "CUT", "level": 1 },
      { "id": "COOK", "level": 3 }
    ],
    "tools": [ [ [ "surface_heat", 10, "LIST" ] ], [ [ "can_sealer", -1 ] ] ],
    "components": [
      [ [ "canister_empty", 1 ], [ "can_food_unsealed", 1 ] ],
      [ [ "scrap", 1 ] ],
      [ [ "water", 1 ], [ "water_clean", 1 ] ],
      [ [ "meat", 2 ], [ "fish", 2 ] ]
    ],
    "id": "37909676-25db-4d3a-a988-6531d8245e21"
  },
  {
    "type": "recipe",
    "result": "catfood",
    "id_suffix": "jarred_3l",
    "byproducts": [ [ "water", 10 ] ],
    "container": "jar_3l_glass_sealed",
    "category": "CC_FOOD",
    "subcategory": "CSC_FOOD_OTHER",
    "skill_used": "cooking",
    "difficulty": 4,
    "time": "40 m",
    "result_mult": 12,
    "book_learn": [ [ "manual_canning", 3 ] ],
    "batch_time_factors": [ 80, 5 ],
    "qualities": [ { "id": "CUT", "level": 1 }, { "id": "COOK", "level": 3 } ],
    "tools": [ [ [ "surface_heat", 200, "LIST" ] ], [ [ "pot_canning", -1 ] ] ],
    "components": [ [ [ "water", 16 ], [ "water_clean", 16 ] ], [ [ "jar_3l_glass", 1 ] ], [ [ "meat", 24 ], [ "fish", 24 ] ] ],
    "id": "71f6ae76-5763-453e-81f5-c18dbc945f2e"
  },
  {
    "type": "recipe",
    "result": "broth_bone",
    "id_suffix": "jarred",
    "byproducts": [ [ "water", 10 ] ],
    "container": "jar_glass_sealed",
    "category": "CC_FOOD",
    "subcategory": "CSC_FOOD_OTHER",
    "skill_used": "cooking",
    "skills_required": [ "mechanics", 1 ],
    "difficulty": 4,
    "time": "1 h",
    "charges": 2,
    "book_learn": [ [ "cookbook_eatyrway", 5 ], [ "manual_canning", 3 ] ],
    "batch_time_factors": [ 80, 5 ],
    "qualities": [ { "id": "COOK", "level": 3 } ],
    "tools": [ [ [ "surface_heat", 100, "LIST" ] ], [ [ "pot_canning", -1 ] ] ],
    "components": [ [ [ "jar_glass", 1 ] ], [ [ "bone", 20 ] ], [ [ "water", 12 ], [ "water_clean", 12 ] ] ],
    "id": "4dd060e5-8786-4455-bd0e-2d01b8de466a"
  },
  {
    "type": "recipe",
    "result": "broth_bone",
    "id_suffix": "jarred_3l",
    "byproducts": [ [ "water", 10 ] ],
    "container": "jar_3l_glass_sealed",
    "category": "CC_FOOD",
    "subcategory": "CSC_FOOD_OTHER",
    "skill_used": "cooking",
    "skills_required": [ "mechanics", 1 ],
    "difficulty": 4,
    "time": "1 h 10 m",
    "charges": 12,
    "book_learn": [ [ "cookbook_eatyrway", 5 ], [ "manual_canning", 3 ] ],
    "batch_time_factors": [ 80, 5 ],
    "qualities": [ { "id": "COOK", "level": 3 } ],
    "tools": [ [ [ "surface_heat", 200, "LIST" ] ], [ [ "pot_canning", -1 ] ] ],
    "components": [ [ [ "jar_3l_glass", 1 ] ], [ [ "water", 22 ], [ "water_clean", 22 ] ], [ [ "bone", 120 ] ] ],
    "id": "e91acc7b-196a-44f9-903d-6f162ae9dc02"
  },
  {
    "type": "recipe",
    "result": "con_milk",
    "id_suffix": "jarred_3l",
    "byproducts": [ [ "water", 10 ] ],
    "container": "jar_3l_glass_sealed",
    "category": "CC_FOOD",
    "subcategory": "CSC_FOOD_OTHER",
    "skill_used": "cooking",
    "skills_required": [ "mechanics", 1 ],
    "difficulty": 3,
    "time": "2 h",
    "charges": 12,
    "book_learn": [
      [ "cookbook_italian", 3 ],
      [ "family_cookbook", 3 ],
      [ "dairy_book", 2 ],
      [ "mag_cooking", 3 ],
      [ "manual_canning", 2 ]
    ],
    "batch_time_factors": [ 80, 5 ],
    "qualities": [ { "id": "CUT", "level": 1 }, { "id": "COOK", "level": 3 } ],
    "tools": [ [ [ "surface_heat", 200, "LIST" ] ], [ [ "pot_canning", -1 ] ] ],
    "components": [
      [ [ "jar_3l_glass", 1 ] ],
      [ [ "water", 22 ], [ "water_clean", 22 ] ],
      [ [ "milk_standard_raw_fresh", 24, "LIST" ] ],
      [ [ "sugar_standard", 36, "LIST" ] ]
    ],
    "id": "252e112f-7ca4-4efc-b8e4-7640597034bc"
  },
  {
    "type": "recipe",
    "result": "con_milk",
    "id_suffix": "jarred",
    "byproducts": [ [ "water", 10 ] ],
    "container": "jar_glass_sealed",
    "category": "CC_FOOD",
    "subcategory": "CSC_FOOD_OTHER",
    "skill_used": "cooking",
    "skills_required": [ "mechanics", 1 ],
    "difficulty": 3,
    "time": "45 m",
    "charges": 2,
    "book_learn": [
      [ "cookbook_italian", 3 ],
      [ "family_cookbook", 3 ],
      [ "dairy_book", 2 ],
      [ "mag_cooking", 3 ],
      [ "manual_canning", 2 ]
    ],
    "batch_time_factors": [ 80, 5 ],
    "qualities": [ { "id": "CUT", "level": 1 }, { "id": "COOK", "level": 3 } ],
    "tools": [ [ [ "surface_heat", 200, "LIST" ] ], [ [ "pot_canning", -1 ] ] ],
    "components": [ [ [ "jar_glass", 1 ] ], [ [ "milk_standard_raw_fresh", 4, "LIST" ] ], [ [ "sugar_standard", 6, "LIST" ] ] ],
    "id": "2c83112c-e276-4364-b645-c372b30f966b"
  },
  {
    "type": "recipe",
    "result": "con_milk",
    "id_suffix": "canned",
    "category": "CC_FOOD",
    "subcategory": "CSC_FOOD_OTHER",
    "skill_used": "cooking",
    "skills_required": [ "mechanics", 1 ],
    "difficulty": 3,
    "time": "45 m",
    "book_learn": [
      [ "cookbook_italian", 3 ],
      [ "family_cookbook", 3 ],
      [ "dairy_book", 2 ],
      [ "mag_cooking", 3 ],
      [ "manual_canning", 2 ]
    ],
    "contained": true,
    "batch_time_factors": [ 80, 5 ],
    "qualities": [
      { "id": "SAW_M", "level": 1 },
      { "id": "HAMMER", "level": 1 },
      { "id": "CUT", "level": 1 },
      { "id": "COOK", "level": 3 }
    ],
    "tools": [ [ [ "surface_heat", 10, "LIST" ] ], [ [ "can_sealer", -1 ] ] ],
    "components": [
      [ [ "can_medium_unsealed", 1 ] ],
      [ [ "scrap", 1 ] ],
      [ [ "milk_standard_raw_fresh", 4, "LIST" ] ],
      [ [ "sugar_standard", 6, "LIST" ] ]
    ],
    "id": "870f82cb-76de-4074-9469-b0b84def4af4"
  },
  {
    "type": "recipe",
    "result": "broth_bone",
    "id_suffix": "canned",
    "category": "CC_FOOD",
    "subcategory": "CSC_FOOD_OTHER",
    "skill_used": "cooking",
    "difficulty": 4,
    "time": "24 m",
    "book_learn": [ [ "manual_sealing", 3 ] ],
    "contained": true,
    "batch_time_factors": [ 80, 5 ],
    "qualities": [
      { "id": "SAW_M", "level": 1 },
      { "id": "HAMMER", "level": 1 },
      { "id": "CUT", "level": 1 },
      { "id": "COOK", "level": 3 }
    ],
    "tools": [ [ [ "surface_heat", 10, "LIST" ] ], [ [ "can_sealer", -1 ] ] ],
    "components": [ [ [ "can_medium_unsealed", 1 ] ], [ [ "scrap", 1 ] ], [ [ "bone", 20 ] ], [ [ "water", 2 ], [ "water_clean", 2 ] ] ],
    "id": "2ba68a28-5d5f-4150-b274-ce6c849fd538"
  },
  {
    "result": "rennet",
    "type": "recipe",
    "category": "CC_FOOD",
    "subcategory": "CSC_FOOD_OTHER",
    "skill_used": "cooking",
    "difficulty": 4,
    "time": "40 m",
    "book_learn": [
      [ "survival_book", 4 ],
      [ "textbook_survival", 4 ],
      [ "manual_survival", 4 ],
      [ "dairy_book", 3 ],
      [ "scots_cookbook", 5 ]
    ],
    "batch_time_factors": [ 50, 3 ],
    "qualities": [ { "id": "CUT", "level": 1 }, { "id": "BOIL", "level": 2 } ],
    "tools": [
      [ [ "dehydrator", 20 ], [ "char_smoker", 20 ] ],
      [ [ "rock_quern", -1 ], [ "clay_quern", -1 ], [ "mortar_pestle", -1 ], [ "food_processor", 10 ] ]
    ],
    "components": [ [ [ "stomach_large", 1 ], [ "stomach", 2 ] ] ],
    "id": "670946e3-4113-4611-be32-aa3f7455739a"
  }
]
