[
  {
    "type": "mapgen",
    "om_terrain": "bungalow17",
    "weight": 50,
    "method": "json",
    "object": {
      "palettes": [
        "standard_domestic_palette",
        "standard_domestic_lino_bathroom",
        "standard_domestic_lino_kitchen",
        "standard_domestic_landscaping_palette"
      ],
      "fill_ter": "t_floor_waxed",
      "rows": [
        "...........--...........",
        "...,,,.....--.....,,,...",
        "...,&,.....--.....,&,...",
        "...,,,.....--.....,,,...",
        "...........--...........",
        "..../.?????--?????......",
        ".##o#######o*#####o#o##.",
        ".#t_|QQ|qU|L iii|R   R#.",
        ".#S_|++|q +     +  h  o.",
        ".#8_+  ||||b   y|PrrrP#.",
        "^#BB|y         |||||||#.",
        ".#||||||||++|  +     D#.",
        ".:y h   V|WZ|  |++|  @o.",
        ".:  ff  V||||  |dd| ¤@o.",
        ".: hffh yRRRR  |||||||#-",
        ".:  ff                *-",
        ".:y h          RR||+||#-",
        ".#||| ||||  l H|||   ¤#.",
        ".#723_JJJ|a l H|d|  @@o.",
        ".o6______|    H| +  @@o.",
        ".#641F5OJ|sHHHs|d|D  ¤#.",
        ".###o##o##:::::####oo##.",
        ".................^......",
        "........................"
      ],
      "terrain": {
        "_": "t_linoleum_gray",
        ",": "t_dirtmound",
        "?": "t_shrub_lilac",
        "/": "t_region_groundcover_urban",
        "&": "t_region_groundcover_urban",
        "Q": "t_floor_waxed"
      },
      "furniture": { "!": "f_table", "&": "f_boulder_large", "/": [ [ "f_null", 4 ], "f_ladder" ] }
    },
    "id": "1de011d6-6188-4a7d-ba8e-bb886d38453c"
  },
  {
    "type": "mapgen",
    "om_terrain": "bungalow17_roof",
    "weight": 50,
    "method": "json",
    "object": {
      "palettes": [ "roof_palette" ],
      "fill_ter": "t_shingle_flat_roof",
      "rows": [
        "                        ",
        "                        ",
        "                        ",
        "                        ",
        "                        ",
        "                        ",
        " ---------------------- ",
        " -....................- ",
        " -....................- ",
        " -....................- ",
        " 5....................- ",
        " -....................- ",
        " -....................- ",
        " -....................- ",
        " -.........oooo.......- ",
        " -.........oooo.......- ",
        " -.........oooo.......- ",
        " -.........oooo.......- ",
        " -........~oooo.......- ",
        " -....................- ",
        " -....................- ",
        " ----------------5----- ",
        "                        ",
        "                        "
      ],
      "terrain": { ".": "t_shingle_flat_roof" }
    },
    "id": "2d4c43e5-50bd-414e-8d7b-5621660219da"
  }
]
