[
  {
    "type": "mapgen",
    "method": "json",
    "om_terrain": [ "house_2story_base" ],
    "object": {
      "fill_ter": "t_floor",
      "rows": [
        ".......``...............",
        ".......``p..............",
        "......````..............",
        "..###o#**#o#######o###..",
        "..#L          Ey|QQ|t#..",
        "..o   yiiis     |++|-o..",
        "..o  ||||||||   +----#..",
        "..#  |F457O2|   |8S8b#..",
        "..#<>|3     |   |||||#..",
        "..#|||n    y|        #..",
        "..#66|1        hfh  y#..",
        "..o  +         hfh  ro..",
        "..#UU|Y     |  hfh  ro..",
        "..#|||||JJJJ|  hfh  y#..",
        "..#vRRP|AA A         #..",
        ".^#   P|         ee  ]..",
        "..#r   |  HHHHs  ee  ]..",
        "..orh  +  Hl     ee  )..",
        "..#r   |R H         y]..",
        "..#T yE|R  EsE      R#..",
        "..##oo#####]]]]]])]]##..",
        "........................",
        "........................",
        "........................"
      ],
      "palettes": [ "standard_domestic_palette" ],
      "terrain": {
        "8": "t_linoleum_gray",
        "9": "t_linoleum_gray",
        "%": [ "t_region_shrub", "t_region_shrub_fruit", "t_region_shrub_decorative" ],
        "[": [ [ "t_region_tree_fruit", 2 ], [ "t_region_tree_nut", 2 ], "t_region_tree_shade" ],
        "!": "t_region_groundcover_urban",
        "`": "t_concrete",
        "#": "t_adobe_brick_wall",
        "t": "t_linoleum_gray",
        "S": "t_linoleum_gray",
        "b": "t_linoleum_gray",
        "Q": "t_linoleum_gray",
        "-": "t_linoleum_gray",
        "]": "t_wall_glass",
        ")": "t_door_glass_c"
      },
      "furniture": { "!": "f_region_flower" },
      "place_loot": [ { "item": "stereo", "x": 12, "y": 19 } ]
    },
    "id": "cf2174a7-9968-4edf-87cb-50f5841fb693"
  },
  {
    "type": "mapgen",
    "method": "json",
    "om_terrain": [ "house_2story_second" ],
    "object": {
      "fill_ter": "t_floor",
      "rows": [
        "________________________",
        "________________________",
        "________________________",
        "__##o###o#o#o####ooo##__",
        "__#S8-B|@@   +D|R  @@#__",
        "__o8--B|s   d|||R  @@#__",
        "__#t---|   hI|D+  h  #__",
        "__#||+||  T I|||y II o__",
        "__o>   |+|||||c||+|||#__",
        "__#y              |Dv#__",
        "__#||+|||||||  ||||+|#__",
        "__#d   b|t89|  |II   #__",
        "__o@@   +--S|  +   @@o__",
        "__o@@  E|||||  |E  @@#__",
        "__oI      +D|  |b   so__",
        "__#y   yy +D|y |d   T#__",
        "_^##]])]]####])##]])##__",
        "__$G                 $__",
        "__$   G G       GK  y$__",
        "__$ G      yKy      y$__",
        "__$$$$$$$$$$$$$$$$$$$$__",
        "________________________",
        "________________________",
        "________________________"
      ],
      "palettes": [ "standard_domestic_palette" ],
      "terrain": {
        "8": "t_linoleum_gray",
        "9": "t_linoleum_gray",
        "_": "t_open_air",
        "#": "t_adobe_brick_wall",
        "t": "t_linoleum_gray",
        "S": "t_linoleum_gray",
        "Q": "t_linoleum_gray",
        "B": "t_linoleum_gray",
        "-": "t_linoleum_gray",
        "]": "t_wall_glass",
        ")": "t_door_glass_c",
        "$": "t_screened_porch_wall"
      },
      "place_loot": [ { "item": "stereo", "x": 12, "y": 19 } ]
    },
    "id": "1e2cde7a-ccef-4c3b-8f64-a17ea353d8ab"
  },
  {
    "type": "mapgen",
    "method": "json",
    "om_terrain": "house_2story_roof",
    "object": {
      "fill_ter": "t_shingle_flat_roof",
      "rows": [
        "                        ",
        "                        ",
        "                        ",
        "  |2222222222222222223  ",
        "  |..................3  ",
        "  |..................3  ",
        "  |..................3  ",
        "  |..................3  ",
        "  |..................3  ",
        "  |......:...........3  ",
        "  |..................3  ",
        "  |..................3  ",
        "  |.......=..........3  ",
        "  |..................3  ",
        "  |..................3  ",
        "  |..................3  ",
        "  5...............&..3  ",
        "  |......N...........3  ",
        "  |..................3  ",
        "  |..................3  ",
        "  |------------------3  ",
        "                        ",
        "                        ",
        "                        "
      ],
      "palettes": [ "roof_palette" ],
      "terrain": { ".": "t_shingle_flat_roof" }
    },
    "id": "0e8aeab8-ceef-4fa2-b486-ea336b973307"
  },
  {
    "type": "mapgen",
    "method": "json",
    "om_terrain": "house_2story_basement",
    "object": {
      "fill_ter": "t_thconc_floor",
      "rows": [
        "                        ",
        "                        ",
        "                        ",
        "  ||||||||||||||||||||  ",
        "  |U..F.g...WJZ......|  ",
        "  |...........J......|  ",
        "  |...........J.z.z.z|  ",
        "  |.......z..z..z..zz|  ",
        "  |.<....1...........|  ",
        "  |2.................|  ",
        "  |..................|  ",
        "  |..................|  ",
        "  |..................|  ",
        "  |..................|  ",
        "  |..................|  ",
        "  |..................|  ",
        "  |..................|  ",
        "  |..................|  ",
        "  |..................|  ",
        "  |..................|  ",
        "  ||||||||||||||||||||  ",
        "                        ",
        "                        ",
        "                        "
      ],
      "palettes": [ "basement_empty" ],
      "nested": {
        "1": { "chunks": [ [ "null", 25 ], [ "recroom_12x12", 25 ], [ "tvroom_12x12", 25 ], [ "workoutroom_12x12", 25 ] ] },
        "2": { "chunks": [ [ "null", 25 ], [ "room_6x6_woodworker", 25 ], [ "room_6x6_junk", 25 ], [ "room_6x6_bike", 25 ] ] }
      }
    },
    "id": "60c42e9c-7eda-4ee9-a530-ea1904f6a190"
  }
]
