[
  {
    "type": "mapgen",
    "method": "json",
    "om_terrain": [ "house_12" ],
    "weight": 200,
    "object": {
      "fill_ter": "t_floor",
      "rows": [
        "......--................",
        "......--p...............",
        "......--.........X......",
        "......--................",
        "......--................",
        "......--....#####o###...",
        "......--....#z|ET  s#...",
        "......--....#D+   @@#...",
        "..$$$$--$$$$#D+   @@#...",
        "..$..%--%...#v|    so...",
        "..$..%--%.###||     o...",
        "..$%%%--%%#6| +    E#...",
        "..###o**o##+| |y  II#...",
        "..#RR       + |||+|##...",
        "..#      134| W|d d#^...",
        "..oEE      F| Z||+|#....",
        "..o   H hh 2| ||Q B#....",
        "..oll H ff O| +   Bo....",
        "..#   H ff 5|+|8Sty#....",
        ".^#HHHH hh Y|>##o###....",
        "..##oo##oo#####.........",
        ".................u......",
        "........................",
        "........................"
      ],
      "palettes": [ "standard_domestic_palette" ],
      "terrain": { "%": [ "t_region_shrub", "t_region_shrub_fruit", "t_region_shrub_decorative" ], "$": "t_fence" },
      "place_loot": [ { "group": "livingroom", "x": [ 3, 7 ], "y": [ 13, 19 ], "chance": 90, "repeat": [ 1, 4 ] } ],
      "place_monsters": [ { "monster": "GROUP_ZOMBIE", "x": [ 2, 21 ], "y": [ 2, 21 ], "chance": 10 } ]
    },
    "id": "448da801-36e2-4415-8577-285fde033667"
  },
  {
    "type": "mapgen",
    "method": "json",
    "om_terrain": "house_12_roof",
    "object": {
      "fill_ter": "t_shingle_flat_roof",
      "rows": [
        "                        ",
        "                        ",
        "                        ",
        "                        ",
        "                        ",
        "            |22222223   ",
        "            |.......3   ",
        "            |.......3   ",
        "            |...&...3   ",
        "            |.......3   ",
        "          222.......3   ",
        "          |.........3   ",
        "  |22222222.........3   ",
        "  |................53   ",
        "  |................3    ",
        "  |................3    ",
        "  |................3    ",
        "  |.............=..3    ",
        "  |................3    ",
        "  5...........3----3    ",
        "  |-----------3         ",
        "                        ",
        "                        ",
        "                        "
      ],
      "palettes": [ "roof_palette" ],
      "terrain": { ".": "t_shingle_flat_roof" }
    },
    "id": "cf07759d-9128-4b35-b9ef-4f934989af82"
  },
  {
    "type": "mapgen",
    "method": "json",
    "om_terrain": "house_12_basement",
    "object": {
      "fill_ter": "t_thconc_floor",
      "rows": [
        "                        ",
        "                        ",
        "                        ",
        "                        ",
        "                        ",
        "            |||||||||   ",
        "            |2......|   ",
        "            |.......|   ",
        "            |.......|   ",
        "            |.......|   ",
        "          |||.......|   ",
        "          |F........|   ",
        "  |||||||||.........|   ",
        "  |1...............||   ",
        "  |................|    ",
        "  |...............g|    ",
        "  |................|    ",
        "  |...........z...U|    ",
        "  |.............z.z|    ",
        "  |..........<||||||    ",
        "  |||||||||||||         ",
        "                        ",
        "                        ",
        "                        "
      ],
      "palettes": [ "basement_empty" ],
      "nested": {
        "1": { "chunks": [ [ "null", 70 ], [ "7x7_tent_indoors", 10 ], [ "7x7_band_practice_open", 30 ] ] },
        "2": { "chunks": [ [ "null", 70 ], [ "room_7x7_recroom_S", 30 ], [ "room_7x7_wine_cellar_S", 30 ] ] }
      }
    },
    "id": "cc71c0c1-abaa-405e-9804-231b0001f6ae"
  }
]
