[
  {
    "method": "json",
    "om_terrain": "house_duplex9",
    "type": "mapgen",
    "weight": 200,
    "object": {
      "fill_ter": "t_floor",
      "rows": [
        "..`!!``````%%``````!!`..",
        "..`.&``````%%``````&.`..",
        ".p`.#======##======#.`p.",
        ".#*o#~~~~~~#q~~~~~~#o*#.",
        ".# L#~~~~~~#N~~~~~~#Y #.",
        ".o  #~~~~~~#N~~~~~~#  o.",
        ".#  #~~~~~~##~~~~~~# T#.",
        ".#R #~~~~~~q#~~~~~~# R#.",
        ".#s *~~~~~~N#~~~~~~* s#.",
        ".#s #~~~~~~N#~~~~~~# R#.",
        ".#  ################  #.",
        ".o   TR UZW#I  D|RET  o.",
        ".osE       #@@ E|x  lHo.",
        ".#H    I|||#@@  |x  lH#.",
        "^#H   hI|S9#d   +    y#^",
        ".#      +-t##||||y   1#.",
        ".oYAA  |||||#t-+     2o.",
        ".o7JJ  + dbD#S9|6 AJ 5o.",
        ".#O   6|    #|||6 AJ O#.",
        ".#F   6| @@ #     AJ F#.",
        ".#12354|I@@I#WZU7Y  34#.",
        ".###oo###oo#######oo###.",
        "...%%%%.%%%%.....%%%%...",
        "........................"
      ],
      "palettes": [ "standard_domestic_palette" ],
      "terrain": {
        "8": "t_linoleum_gray",
        "9": "t_linoleum_gray",
        "%": [ "t_region_shrub", "t_region_shrub_fruit", "t_region_shrub_decorative" ],
        "!": "t_region_groundcover_urban",
        "=": "t_door_metal_locked",
        "`": "t_concrete",
        "t": "t_linoleum_gray",
        "S": "t_linoleum_gray",
        "Q": "t_linoleum_gray",
        "-": "t_linoleum_gray",
        "&": "t_gates_control_brick",
        "~": "t_thconc_floor",
        "N": "t_thconc_floor",
        "q": "t_thconc_floor"
      },
      "furniture": { "!": "f_region_flower" },
      "place_loot": [
        { "group": "mischw", "x": [ 13, 20 ], "y": [ 2, 11 ], "chance": 80, "repeat": [ 1, 4 ] },
        { "item": "television", "x": 17, "y": 13, "chance": 100 }
      ],
      "place_vehicles": [
        { "chance": 35, "fuel": 10, "rotation": 90, "status": -1, "vehicle": "car", "x": 8, "y": 7 },
        { "chance": 30, "fuel": 10, "rotation": 90, "status": -1, "vehicle": "car_sports", "x": 16, "y": 7 }
      ]
    },
    "id": "2e588f63-c282-4f26-90f3-5b33cbb0ee08"
  },
  {
    "type": "mapgen",
    "method": "json",
    "om_terrain": "house_duplex9_roof",
    "object": {
      "fill_ter": "t_shingle_flat_roof",
      "rows": [
        "                        ",
        "                        ",
        "    |222222222222223    ",
        " |222..............3222 ",
        " |....................3 ",
        " |....................3 ",
        " |....................3 ",
        " |..........X.:.......3 ",
        " |....................3 ",
        " |....................3 ",
        " |..N.................3 ",
        " |....................3 ",
        " |....................3 ",
        " |................&...3 ",
        " 5...&................5 ",
        " |....................3 ",
        " |....................3 ",
        " |...=...........=....3 ",
        " |....................3 ",
        " |....................3 ",
        " |....................3 ",
        " |--------------------3 ",
        "                        ",
        "                        "
      ],
      "palettes": [ "roof_palette" ],
      "terrain": { ".": "t_shingle_flat_roof" }
    },
    "id": "f3788c0b-ffc2-48c1-a1fa-9b67bdf12471"
  }
]
