[
  {
    "type": "mapgen",
    "method": "json",
    "om_terrain": [ "house_16" ],
    "weight": 200,
    "object": {
      "fill_ter": "t_floor",
      "rows": [
        "...............--.......",
        "...............--p......",
        "...............--.......",
        "...............--.......",
        ".....%%....%%..--.......",
        "..###oo####oo##*######..",
        "..#y PII +      HHHHH#^.",
        "..#   A  |   Ly H l Ho%.",
        "..o@@   R||+||| H l Ho%.",
        "..o@@   R|t  |F H l Ho%.",
        "..#d     |8S |1      o%.",
        "..#||||++|||9|2     E#..",
        "..#D D|DD|9|||5     R#..",
        "..#|+||||| S8|O      #..",
        "..#y TII +  t|73  hh o%.",
        "..o   h  ||||||4  ff o%.",
        "..o      |66ZW|y  ff o%.",
        "..#  @@  +        hh o%.",
        "..#yd@@ E|Q          #..",
        "..###oo#######|+||####..",
        ".....%%...---#> zq#^....",
        "..........-X-##*###.....",
        "..u...-------------.....",
        "........................"
      ],
      "palettes": [ "standard_domestic_palette" ],
      "terrain": { "%": "t_region_shrub_decorative", "#": "t_rock_wall" },
      "place_monsters": [ { "monster": "GROUP_ZOMBIE", "x": [ 2, 21 ], "y": [ 2, 21 ], "chance": 5 } ]
    },
    "id": "ba7a9f16-9ec9-4c6e-8fe8-29bd70f7c834"
  },
  {
    "type": "mapgen",
    "method": "json",
    "om_terrain": "house_16_roof",
    "object": {
      "fill_ter": "t_shingle_flat_roof",
      "rows": [
        "                        ",
        "                        ",
        "                        ",
        "                        ",
        "                        ",
        "  |2222222222222222223  ",
        "  |..................5  ",
        "  |..................3  ",
        "  |..................3  ",
        "  |..................3  ",
        "  |.........=........3  ",
        "  |..................3  ",
        "  |..................3  ",
        "  |............&.....3  ",
        "  |..................3  ",
        "  |..................3  ",
        "  |..................3  ",
        "  |..................3  ",
        "  |..................3  ",
        "  |----------|....5--3  ",
        "             |....3     ",
        "             |----3     ",
        "                        ",
        "                        "
      ],
      "palettes": [ "roof_palette" ],
      "terrain": { ".": "t_shingle_flat_roof" }
    },
    "id": "cc39c6e6-cae4-4ab7-bfea-2ff44102ad46"
  },
  {
    "type": "mapgen",
    "method": "json",
    "om_terrain": "house_16_basement",
    "object": {
      "fill_ter": "t_thconc_floor",
      "rows": [
        "                        ",
        "                        ",
        "                        ",
        "                        ",
        "                        ",
        "  ||||||||||||||||||||  ",
        "  |.............2....|  ",
        "  |1.................|  ",
        "  |..................|  ",
        "  |..................|  ",
        "  |..................|  ",
        "  |..................|  ",
        "  |..................|  ",
        "  |..................|  ",
        "  |..................|  ",
        "  |..................|  ",
        "  |...............z.F|  ",
        "  |..............z...|  ",
        "  |................zg|  ",
        "  ||||||||||||%%+%||||  ",
        "             |<..U|     ",
        "             ||||||     ",
        "                        ",
        "                        "
      ],
      "palettes": [ "basement_empty" ],
      "nested": {
        "1": { "chunks": [ [ "null", 25 ], [ "recroom_12x12", 25 ], [ "tvroom_12x12", 25 ], [ "workoutroom_12x12", 25 ] ] },
        "2": {
          "chunks": [
            [ "null", 40 ],
            [ "livingroom_5x5_S_1", 10 ],
            [ "livingroom_5x5_E_1", 10 ],
            [ "livingroom_5x5_N_1", 10 ],
            [ "livingroom_5x5_W_1", 10 ],
            [ "livingroom_5x5_S_2", 10 ],
            [ "livingroom_5x5_E_2", 10 ],
            [ "livingroom_5x5_N_2", 10 ],
            [ "livingroom_5x5_W_2", 10 ],
            [ "home_office_4x4_N", 10 ],
            [ "home_office_4x4_S", 10 ]
          ]
        }
      }
    },
    "id": "2d9acaf1-dfde-48f5-9369-7ebe91703fe6"
  }
]
