[
  {
    "type": "mapgen",
    "method": "json",
    "om_terrain": [ "house_05" ],
    "weight": 300,
    "object": {
      "fill_ter": "t_floor",
      "rows": [
        "..............p.----....",
        ".##########oo####**####.",
        ".#  Es T |S  Q|    LYy#.",
        ".#x     R|t  B|R      #.",
        ".#x  E  R|8  B|R   A A#.",
        ".o      R|8  Y|R  JJ37#^",
        ".o       ||+|||      4#.",
        ".#   A   |   y|  hh  2#.",
        ".#  NNN  +    +  ff  1#.",
        ".#||||||||   R|A hh  5o.",
        ".#HHHHHH>|   R|6     Oo.",
        ".#H ll       R|6     F#.",
        ".#H l sE     R||||+|||#.",
        ".os   E              s#.",
        ".oT                  so.",
        ".#y      y   yT      s#.",
        ".#||||+||||+|||+|+||||#.",
        ".#      b|q q|vU|   ET#.",
        ".#d      ||||||||    R#.",
        ".#@@     AI|@@        #.",
        ".#@@      I|@@       D#.",
        ".#y       D|s  b    d #.",
        ".####oo#########oo#####.",
        "...........^............"
      ],
      "palettes": [ "standard_domestic_palette" ],
      "place_loot": [
        { "group": "guns_pistol_common", "x": 2, "y": 13, "chance": 5, "ammo": 90, "magazine": 100 },
        { "item": "television", "x": 2, "y": 3, "chance": 85 },
        { "item": "laptop", "x": 21, "y": [ 13, 15 ], "chance": 5 }
      ],
      "place_monsters": [
        { "monster": "GROUP_ZOMBIE", "x": [ 2, 21 ], "y": [ 2, 21 ], "chance": 2 },
        { "monster": "GROUP_ROACH", "x": [ 2, 21 ], "y": [ 2, 21 ], "chance": 5 }
      ]
    },
    "id": "be433e12-afe6-4cf6-8cfb-9c879df55a64"
  }
]
