[
  {
    "type": "mapgen",
    "method": "json",
    "om_terrain": [ "house_garage8" ],
    "weight": 200,
    "object": {
      "fill_ter": "t_floor",
      "rows": [
        "..````````...`..........",
        ".&````````&p.`.....[....",
        ".#~~~~~~~~#%.`.,;,;,....",
        ".#~~~~~~~q#%.`..........",
        ".#~~~~~~~q#%.`.,;,;,....",
        ".#~~~~~~~q#%.`..........",
        ".#~~~~~~~~#%%`%#ooo#....",
        ".#~~~~~NNN##o*o#HHH##?$.",
        ".####*#####L    ll R#.$.",
        ".#U>+              R#.$.",
        ".#|||+||+||2        #.$.",
        ".#Ddb |B_S|O    hfh o.$.",
        ".#    |B_8|1    hfh o.$.",
        ".#@@ E|Q_S|5    hfh o.$.",
        ".#@@ y|t_8|F34     T#^$.",
        ".##oo###o#####)]])###.$.",
        ".$^......``````````...$.",
        ".$.......`.........[..$.",
        ".$.#####o*o#..////....$.",
        ".$.#6      o.......[..$.",
        ".$.#  h    o..////....$.",
        ".$.# rrr RR#..........$.",
        ".$$##ooo####$$$$$$$$$$$.",
        "........................"
      ],
      "palettes": [ "standard_domestic_palette" ],
      "terrain": {
        "8": "t_linoleum_white",
        "%": [ "t_region_shrub", "t_region_shrub_fruit", "t_region_shrub_decorative" ],
        "[": [ [ "t_region_tree_fruit", 2 ], [ "t_region_tree_nut", 2 ], "t_region_tree_shade" ],
        "!": "t_region_groundcover_urban",
        "`": "t_concrete",
        "?": "t_fencegate_c",
        "#": "t_rock_wall",
        "$": "t_fence",
        "_": "t_linoleum_white",
        "Q": "t_linoleum_white",
        "B": "t_linoleum_white",
        "S": "t_linoleum_white",
        "t": "t_linoleum_white",
        ")": "t_wall_glass",
        "]": "t_door_glass_c",
        "/": "t_dirtmound",
        "N": "t_thconc_floor",
        "q": "t_thconc_floor",
        "~": "t_thconc_floor",
        "&": "t_column",
        ";": "t_shrub_blueberry",
        ",": "t_shrub_strawberry"
      },
      "furniture": { "!": "f_region_flower" },
      "place_loot": [
        { "group": "drugs_heal_simple", "x": [ 9, 9 ], "y": [ 12, 12 ], "chance": 80, "repeat": [ 1, 2 ] },
        { "group": "farming_seeds", "x": [ 4, 4 ], "y": [ 19, 19 ], "chance": 85, "repeat": [ 1, 4 ] },
        { "group": "hydro", "x": [ 14, 17 ], "y": [ 18, 18 ], "chance": 90, "repeat": [ 1, 4 ] },
        { "group": "hydro", "x": [ 14, 17 ], "y": [ 20, 20 ], "chance": 90, "repeat": [ 1, 4 ] },
        { "group": "tools_common", "x": [ 9, 9 ], "y": [ 3, 5 ], "chance": 75, "repeat": [ 1, 3 ] }
      ],
      "place_monsters": [ { "monster": "GROUP_ZOMBIE", "x": [ 4, 5 ], "y": [ 12, 13 ], "chance": 6 } ],
      "place_vehicles": [ { "vehicle": "suburban_home", "x": 4, "y": 2, "chance": 15, "fuel": 80, "status": 50, "rotation": 270 } ]
    },
    "id": "feadbea5-5b9b-4ae9-b9c9-e7988ccb2b11"
  },
  {
    "type": "mapgen",
    "method": "json",
    "om_terrain": "house_garage8_roof",
    "object": {
      "fill_ter": "t_shingle_flat_roof",
      "rows": [
        "                        ",
        "                        ",
        " |222222223             ",
        " |........3             ",
        " |........3             ",
        " |........3             ",
        " |........3    |2223    ",
        " |........32222|...33   ",
        " |..................3   ",
        " |..................3   ",
        " |..................3   ",
        " |..................3   ",
        " |..................3   ",
        " |..................3   ",
        " |..................5   ",
        " |5-----------------3   ",
        "                        ",
        "                        ",
        "   .........            ",
        "   .........            ",
        "   .........            ",
        "   .........            ",
        "   .........            ",
        "                        "
      ],
      "palettes": [ "roof_palette" ],
      "terrain": { ".": "t_shingle_flat_roof" }
    },
    "id": "4d5bbc64-42ff-40f4-bada-9500b315dd4b"
  },
  {
    "type": "mapgen",
    "method": "json",
    "om_terrain": "house_garage8_basement",
    "object": {
      "fill_ter": "t_thconc_floor",
      "rows": [
        "                        ",
        "                        ",
        " ||||||||||             ",
        " |98S%...J|             ",
        " |t..+.A.J|             ",
        " |%%%%...W|             ",
        " |g+.....Z|    |||||    ",
        " |F+.....J||||||...||   ",
        " |%%.........1......|   ",
        " |z<..2.............|   ",
        " |z.................|   ",
        " |..................|   ",
        " |..................|   ",
        " |zz................|   ",
        " |z.................|   ",
        " ||||||||||||||||||||   ",
        "                        ",
        "                        ",
        "                        ",
        "                        ",
        "                        ",
        "                        ",
        "                        ",
        "                        "
      ],
      "palettes": [ "basement_empty" ],
      "nested": {
        "1": {
          "chunks": [
            [ "null", 60 ],
            [ "room_7x7_wine_cellar_W", 10 ],
            [ "room_7x7_junk_W", 30 ],
            [ "room_7x7_recroom_W", 30 ],
            [ "7x7_tent_indoors", 15 ]
          ]
        },
        "2": {
          "chunks": [
            [ "null", 60 ],
            [ "5x5_holdout_W", 2 ],
            [ "livingroom_5x5_S_1", 30 ],
            [ "livingroom_5x5_N_1", 30 ],
            [ "livingroom_5x5_W_1", 30 ],
            [ "livingroom_5x5_S_2", 30 ],
            [ "livingroom_5x5_E_2", 30 ],
            [ "livingroom_5x5_N_2", 30 ],
            [ "livingroom_5x5_W_2", 30 ],
            [ "home_office_4x4_N", 20 ],
            [ "home_office_4x4_S", 20 ]
          ]
        }
      }
    },
    "id": "c05a5020-26b5-4ec6-99c8-e0b6c4593aeb"
  }
]
