[
  {
    "type": "palette",
    "id": "fbms_log_palette",
    "terrain": {
      ".": "t_floor",
      "b": "t_grass",
      "p": "t_floor",
      "d": "t_door_c",
      "o": "t_window_no_curtains",
      "w": "t_wall_log",
      ";": "t_floor_primitive"
    },
    "furniture": { "b": "f_bench", "t": "f_table", "x": "f_brazier", "U": "f_birdbath", "l": "f_locker", "B": "f_bookcase" }
  },
  {
    "type": "mapgen",
    "method": "json",
    "nested_mapgen_id": "fbms_room0_log",
    "object": {
      "mapgensize": [ 6, 6 ],
      "rows": [
        "  wwww",
        "  ...w",
        "  ...w",
        "  ...w",
        "  ...w",
        "  wwww"
      ],
      "palettes": [ "fbms_log_palette" ]
    },
    "id": "90d09e19-62ec-4b30-838a-ebfec1d8b6ac"
  },
  {
    "type": "mapgen",
    "update_mapgen_id": "fbms_room0_log_east",
    "method": "json",
    "object": { "place_nested": [ { "chunks": [ "fbms_room0_log" ], "x": 15, "y": 9 } ] },
    "id": "7f26853d-386d-4b4c-8aaf-164739fdf2bf"
  },
  {
    "type": "mapgen",
    "method": "json",
    "nested_mapgen_id": "fbms_room1_log",
    "object": {
      "mapgensize": [ 6, 6 ],
      "rows": [
        "wwww  ",
        "w...  ",
        "w...  ",
        "w...  ",
        "w...  ",
        "wwww  "
      ],
      "palettes": [ "fbms_log_palette" ]
    },
    "id": "b353386f-ac43-4e75-8055-19af0585d82a"
  },
  {
    "type": "mapgen",
    "update_mapgen_id": "fbms_room1_log_west",
    "method": "json",
    "object": { "place_nested": [ { "chunks": [ "fbms_room1_log" ], "x": 3, "y": 9 } ] },
    "id": "510faae5-006c-4a35-86f2-e6ce6aaa3a80"
  },
  {
    "type": "mapgen",
    "method": "json",
    "nested_mapgen_id": "fbms_room2_log",
    "object": {
      "mapgensize": [ 6, 6 ],
      "rows": [
        "      ",
        "      ",
        "      ",
        "   wow",
        "   w..",
        "   w.."
      ],
      "palettes": [ "fbms_log_palette" ]
    },
    "id": "2976f35c-4510-4317-9c24-459808d8b731"
  },
  {
    "type": "mapgen",
    "update_mapgen_id": "fbms_room2_log_northwest",
    "method": "json",
    "object": { "place_nested": [ { "chunks": [ "fbms_room2_log" ], "x": 3, "y": 3 } ] },
    "id": "0cca8ca7-bc85-4fe5-adc9-4017948e2c78"
  },
  {
    "type": "mapgen",
    "method": "json",
    "nested_mapgen_id": "fbms_room3_log",
    "object": {
      "mapgensize": [ 6, 6 ],
      "rows": [
        "   w..",
        "   w..",
        "   wow",
        "      ",
        "      ",
        "      "
      ],
      "palettes": [ "fbms_log_palette" ]
    },
    "id": "8cac30e8-1699-41a8-86a0-06dc1d92dcd8"
  },
  {
    "type": "mapgen",
    "update_mapgen_id": "fbms_room3_log_southwest",
    "method": "json",
    "object": { "place_nested": [ { "chunks": [ "fbms_room3_log" ], "x": 3, "y": 15 } ] },
    "id": "0922d40a-b458-48f2-a528-8cb917e0715e"
  },
  {
    "type": "mapgen",
    "method": "json",
    "nested_mapgen_id": "fbms_room4_log",
    "object": {
      "mapgensize": [ 6, 6 ],
      "rows": [
        "      ",
        "      ",
        "      ",
        "wow   ",
        "..w   ",
        "..w   "
      ],
      "palettes": [ "fbms_log_palette" ]
    },
    "id": "0ad5058c-5c10-4d2f-afc5-5d541e5ef3af"
  },
  {
    "type": "mapgen",
    "update_mapgen_id": "fbms_room4_log_northeast",
    "method": "json",
    "object": { "place_nested": [ { "chunks": [ "fbms_room4_log" ], "x": 15, "y": 3 } ] },
    "id": "e021a81b-069c-41c7-b9bd-50c3295cf727"
  },
  {
    "type": "mapgen",
    "method": "json",
    "nested_mapgen_id": "fbms_room5_log",
    "object": {
      "mapgensize": [ 6, 6 ],
      "rows": [
        "..w   ",
        "..w   ",
        "wow   ",
        "      ",
        "      ",
        "      "
      ],
      "palettes": [ "fbms_log_palette" ]
    },
    "id": "65537017-b6c7-4e36-97b1-cb5ef3023c20"
  },
  {
    "type": "mapgen",
    "update_mapgen_id": "fbms_room5_log_southeast",
    "method": "json",
    "object": { "place_nested": [ { "chunks": [ "fbms_room5_log" ], "x": 15, "y": 15 } ] },
    "id": "b7aa7f7c-77af-45bf-aecf-213c11d1d94e"
  },
  {
    "type": "mapgen",
    "method": "json",
    "nested_mapgen_id": "fbms_room6_log",
    "object": {
      "mapgensize": [ 6, 6 ],
      "rows": [
        "......",
        "......",
        "woddow",
        " .... ",
        " .... ",
        "w....w"
      ],
      "palettes": [ "fbms_log_palette" ]
    },
    "id": "3085c9bf-37be-4ac5-9cd1-88ec821de152"
  },
  {
    "type": "mapgen",
    "update_mapgen_id": "fbms_room6_log_south",
    "method": "json",
    "object": { "place_nested": [ { "chunks": [ "fbms_room6_log" ], "x": 9, "y": 15 } ] },
    "id": "9c5086d5-2576-45db-b549-a3fe7e7f6d87"
  },
  {
    "type": "mapgen",
    "method": "json",
    "nested_mapgen_id": "fbms_room7_log",
    "object": {
      "mapgensize": [ 6, 6 ],
      "rows": [
        "w....w",
        " .... ",
        " .... ",
        "woddow",
        "......",
        "......"
      ],
      "palettes": [ "fbms_log_palette" ]
    },
    "id": "575811c3-73fb-41a4-acdc-cef7ea1e96a9"
  },
  {
    "type": "mapgen",
    "update_mapgen_id": "fbms_room7_log_north",
    "method": "json",
    "object": { "place_nested": [ { "chunks": [ "fbms_room7_log" ], "x": 9, "y": 3 } ] },
    "id": "15b66ef1-ef03-424d-abcf-e6db8af6f59c"
  },
  {
    "type": "mapgen",
    "method": "json",
    "nested_mapgen_id": "fbms_room8_log",
    "object": {
      "mapgensize": [ 6, 6 ],
      "rows": [
        "......",
        "......",
        "......",
        "......",
        "......",
        "......"
      ],
      "palettes": [ "fbms_log_palette" ]
    },
    "id": "e1099652-8e23-45dc-88f6-609da2fdc574"
  },
  {
    "type": "mapgen",
    "method": "json",
    "nested_mapgen_id": "fbms_room9_log",
    "object": {
      "mapgensize": [ 6, 6 ],
      "rows": [
        "    ..",
        "    ..",
        "    ..",
        "    ..",
        "    ..",
        "    .."
      ],
      "palettes": [ "fbms_log_palette" ]
    },
    "id": "d39acde7-c966-4a71-9eee-cb5975d23bab"
  },
  {
    "type": "mapgen",
    "method": "json",
    "nested_mapgen_id": "fbms_room10_log",
    "object": {
      "mapgensize": [ 6, 6 ],
      "rows": [
        "..    ",
        "..    ",
        "..    ",
        "..    ",
        "..    ",
        "..    "
      ],
      "palettes": [ "fbms_log_palette" ]
    },
    "id": "b1046fbf-2c6d-4e89-8a83-e00fbe2c1afd"
  },
  {
    "type": "mapgen",
    "update_mapgen_id": "fbms_room8_log_center",
    "method": "json",
    "object": {
      "place_nested": [
        { "chunks": [ "fbms_room9_log" ], "x": 3, "y": 9 },
        { "chunks": [ "fbms_room10_log" ], "x": 15, "y": 9 },
        { "chunks": [ "fbms_room8_log" ], "x": 9, "y": 9 }
      ]
    },
    "id": "1705cc5f-9bc3-4c26-af02-25254d20f121"
  }
]
