[
  {
    "type": "mapgen",
    "om_terrain": "FEMA_trc",
    "//": "top right corner.",
    "weight": 150,
    "method": "json",
    "object": {
      "fill_ter": "t_dirt",
      "rows": [
        "........................",
        ".fffffffffffffffffffffff",
        ".f......................",
        ".f......................",
        ".f..##################..",
        ".f..##################..",
        ".f..##################..",
        ".f..##################..",
        ".f..##################..",
        ".f..##################..",
        ".f..##################..",
        ".f..##################..",
        ".f..##################..",
        ".f..##################..",
        ".f..##################..",
        ".f..##################..",
        ".f..##################..",
        ".f..##################..",
        ".f..##################..",
        ".f..##################..",
        ".f..##################..",
        ".f..##################..",
        ".f......................",
        ".f......................"
      ],
      "rotation": 1,
      "palettes": [ "FEMA_camp" ],
      "place_monsters": [
        { "monster": "GROUP_VANILLA", "x": [ 1, 22 ], "y": [ 1, 22 ] },
        { "monster": "GROUP_SCHOOL", "x": [ 1, 22 ], "y": [ 1, 22 ], "chance": 20 }
      ]
    },
    "id": "7eab847c-3e88-4bf9-adba-b876c370d39b"
  }
]
