[
  {
    "abstract": "seed",
    "type": "COMESTIBLE",
    "comestible_type": "FOOD",
    "name": { "str_sp": "seeds" },
    "category": "seeds",
    "volume": "250 ml",
    "weight": "1 g",
    "price": 120,
    "price_postapoc": 25,
    "charges": 4,
    "stack_size": 100,
    "material": "veggy",
    "primary_material": "dried_vegetable",
    "symbol": ".",
    "color": "brown",
    "flags": [ "NUTRIENT_OVERRIDE", "PLANTABLE_SEED" ],
    "id": "seed"
  },
  {
    "abstract": "seed_fruit",
    "type": "COMESTIBLE",
    "copy-from": "seed",
    "name": { "str_sp": "fruit seeds" },
    "primary_material": "dried_vegetable",
    "material": "fruit",
    "id": "seed_fruit"
  },
  {
    "abstract": "seed_mushroom_base",
    "type": "COMESTIBLE",
    "copy-from": "seed",
    "name": { "str_sp": "mushroom spores" },
    "description": "Some mushroom spores.",
    "charges": 2,
    "color": "green",
    "id": "seed_mushroom_base"
  },
  {
    "id": "seed_hops",
    "copy-from": "seed",
    "type": "COMESTIBLE",
    "name": { "str_sp": "hop rhizomes" },
    "description": "Roots of a hop plant, for growing your own.",
    "weight": "152 g",
    "price": 160,
    "charges": 2,
    "stack_size": 8,
    "seed_data": { "plant_name": "hops", "fruit": "hops", "byproducts": [ "straw_pile" ], "grow": "19 days" }
  },
  {
    "id": "seed_blackberries",
    "copy-from": "seed_fruit",
    "type": "COMESTIBLE",
    "name": { "str_sp": "blackberry seeds" },
    "description": "Some blackberry seeds.",
    "seed_data": { "plant_name": "blackberry", "fruit": "blackberries", "byproducts": [ "withered" ], "grow": "14 days" }
  },
  {
    "id": "seed_blueberries",
    "copy-from": "seed_fruit",
    "type": "COMESTIBLE",
    "name": { "str_sp": "blueberry seeds" },
    "description": "Some blueberry seeds.",
    "seed_data": { "plant_name": "blueberry", "fruit": "blueberries", "byproducts": [ "withered" ], "grow": "14 days" }
  },
  {
    "id": "seed_cranberries",
    "copy-from": "seed_fruit",
    "type": "COMESTIBLE",
    "name": { "str_sp": "cranberry seeds" },
    "description": "Some cranberry seeds.",
    "seed_data": { "plant_name": "cranberry", "fruit": "cranberries", "byproducts": [ "withered" ], "grow": "14 days" }
  },
  {
    "id": "seed_huckleberries",
    "copy-from": "seed_fruit",
    "type": "COMESTIBLE",
    "name": { "str_sp": "huckleberry seeds" },
    "description": "Some huckleberry seeds.",
    "seed_data": { "plant_name": "huckleberry", "fruit": "huckleberries", "byproducts": [ "withered" ], "grow": "14 days" }
  },
  {
    "id": "seed_mulberries",
    "copy-from": "seed_fruit",
    "type": "COMESTIBLE",
    "name": { "str_sp": "mulberry seeds" },
    "description": "Some mulberry seeds.",
    "seed_data": { "plant_name": "mulberry", "fruit": "mulberries", "byproducts": [ "withered" ], "grow": "14 days" }
  },
  {
    "id": "seed_elderberries",
    "copy-from": "seed_fruit",
    "type": "COMESTIBLE",
    "name": { "str_sp": "elderberry seeds" },
    "description": "Some elderberry seeds.",
    "seed_data": { "plant_name": "elderberry", "fruit": "elderberries", "byproducts": [ "withered" ], "grow": "14 days" }
  },
  {
    "id": "seed_raspberries",
    "copy-from": "seed_fruit",
    "type": "COMESTIBLE",
    "name": { "str_sp": "raspberry seeds" },
    "description": "Some raspberry seeds.",
    "seed_data": { "plant_name": "raspberry", "fruit": "raspberries", "byproducts": [ "withered" ], "grow": "14 days" }
  },
  {
    "id": "seed_strawberries",
    "copy-from": "seed_fruit",
    "type": "COMESTIBLE",
    "name": { "str_sp": "strawberry seeds" },
    "description": "Some strawberry seeds.",
    "seed_data": { "plant_name": "strawberry", "fruit": "strawberries", "byproducts": [ "withered" ], "grow": "14 days" }
  },
  {
    "id": "seed_grapes",
    "copy-from": "seed_fruit",
    "type": "COMESTIBLE",
    "name": { "str_sp": "grape seeds" },
    "description": "Some grape seeds.",
    "seed_data": { "plant_name": "grape", "fruit": "grapes", "byproducts": [ "grape_leaves", "withered" ], "grow": "14 days" }
  },
  {
    "id": "seed_rose",
    "copy-from": "seed_fruit",
    "type": "COMESTIBLE",
    "name": { "str_sp": "rose seeds" },
    "description": "Some rose seeds.",
    "seed_data": { "plant_name": "rose", "fruit": "rose_hips", "byproducts": [ "withered" ], "grow": "14 days" }
  },
  {
    "type": "COMESTIBLE",
    "id": "seed_tobacco",
    "copy-from": "seed",
    "name": { "str_sp": "tobacco seeds" },
    "description": "Some tobacco seeds.",
    "seed_data": { "plant_name": "tobacco", "fruit": "tobacco_raw", "grow": "14 days" }
  },
  {
    "type": "COMESTIBLE",
    "id": "seed_barley",
    "copy-from": "seed",
    "price": 160,
    "name": { "str_sp": "barley seeds" },
    "description": "Some barley seeds.",
    "weight": "5 g",
    "charges": 2,
    "stack_size": 40,
    "seed_data": { "plant_name": "barley", "fruit": "barley", "byproducts": [ "straw_pile" ], "grow": "11 days" }
  },
  {
    "type": "COMESTIBLE",
    "id": "seed_sugar_beet",
    "copy-from": "seed",
    "price": 120,
    "name": { "str_sp": "sugar beet seeds" },
    "description": "Some sugar beet seeds.",
    "volume": "1 ml",
    "weight": "5 g",
    "stack_size": 40,
    "seed_data": { "plant_name": "sugar beet", "fruit": "sugar_beet", "grow": "14 days" }
  },
  {
    "type": "COMESTIBLE",
    "id": "seed_lettuce",
    "copy-from": "seed",
    "price": 50,
    "name": { "str_sp": "lettuce seeds" },
    "description": "Some lettuce seeds.",
    "seed_data": { "plant_name": "lettuce", "fruit": "lettuce", "byproducts": [ "withered" ], "grow": "13 days" }
  },
  {
    "type": "COMESTIBLE",
    "id": "seed_cabbage",
    "copy-from": "seed",
    "price": 50,
    "name": { "str_sp": "cabbage seeds" },
    "color": "light_gray",
    "description": "Some white cabbage seeds.",
    "seed_data": { "plant_name": "cabbage", "fruit": "cabbage", "byproducts": [ "withered" ], "grow": "13 days" }
  },
  {
    "type": "COMESTIBLE",
    "id": "seed_tomato",
    "copy-from": "seed",
    "price": 50,
    "name": { "str_sp": "tomato seeds" },
    "description": "Some tomato seeds.",
    "seed_data": { "plant_name": "tomato", "fruit": "tomato", "byproducts": [ "withered" ], "grow": "10 days" }
  },
  {
    "type": "COMESTIBLE",
    "id": "seed_cotton_boll",
    "copy-from": "seed",
    "price": 50,
    "name": { "str_sp": "cotton seeds" },
    "description": "Some cotton seeds.  Can be processed to produce an edible oil.",
    "weight": "5 g",
    "charges": 8,
    "stack_size": 40,
    "seed_data": { "plant_name": "cotton", "fruit": "cotton_boll", "byproducts": [ "withered" ], "grow": "20 days" }
  },
  {
    "type": "COMESTIBLE",
    "id": "seed_broccoli",
    "copy-from": "seed",
    "price": 50,
    "name": { "str_sp": "broccoli seeds" },
    "description": "Some broccoli seeds.",
    "seed_data": { "plant_name": "broccoli", "fruit": "broccoli", "byproducts": [ "withered" ], "grow": "12 days" }
  },
  {
    "type": "COMESTIBLE",
    "id": "seed_zucchini",
    "copy-from": "seed",
    "price": 50,
    "name": { "str_sp": "zucchini seeds" },
    "description": "Some zucchini seeds.",
    "seed_data": { "plant_name": "zucchini", "fruit": "zucchini", "byproducts": [ "withered" ], "grow": "7 days" }
  },
  {
    "type": "COMESTIBLE",
    "id": "seed_onion",
    "copy-from": "seed",
    "price": 50,
    "name": { "str_sp": "onion seeds" },
    "description": "Some onion seeds.",
    "seed_data": { "plant_name": "onion", "fruit": "onion", "byproducts": [ "withered" ], "grow": "10 days" }
  },
  {
    "type": "COMESTIBLE",
    "id": "seed_garlic",
    "copy-from": "seed",
    "price": 50,
    "name": { "str_sp": "garlic seeds" },
    "description": "Some garlic seeds.",
    "seed_data": { "plant_name": "garlic", "fruit": "garlic", "byproducts": [ "withered" ], "grow": "10 days" }
  },
  {
    "type": "COMESTIBLE",
    "id": "seed_cattail",
    "copy-from": "seed",
    "name": { "str_sp": "cattail seeds" },
    "color": "green",
    "description": "Some cattail seeds.",
    "seed_data": { "plant_name": "cattail", "fruit": "cattail_stalk", "byproducts": [ "cattail_rhizome" ], "grow": "14 days" }
  },
  {
    "type": "COMESTIBLE",
    "id": "seed_dahlia",
    "copy-from": "seed",
    "name": { "str_sp": "dahlia seeds" },
    "color": "green",
    "description": "Some dahlia seeds.",
    "seed_data": { "plant_name": "dahlia", "fruit": "dahlia_root", "byproducts": [ "withered" ], "grow": "14 days" }
  },
  {
    "type": "COMESTIBLE",
    "id": "seed_salsify_raw",
    "copy-from": "seed",
    "name": { "str_sp": "salsify seeds" },
    "color": "green",
    "description": "Some salsify seeds.",
    "charges": 2,
    "seed_data": { "plant_name": "salsify", "fruit": "salsify_raw", "grow": "14 days" }
  },
  {
    "type": "COMESTIBLE",
    "id": "seed_chicory",
    "copy-from": "seed",
    "name": { "str_sp": "chicory seeds" },
    "color": "green",
    "description": "Some chicory seeds.",
    "charges": 2,
    "seed_data": { "plant_name": "chicory", "fruit": "chicory_raw", "byproducts": [ "withered" ], "grow": "14 days" }
  },
  {
    "type": "COMESTIBLE",
    "id": "seed_wildcarrot",
    "copy-from": "seed",
    "price": 50,
    "name": { "str_sp": "wild root seeds" },
    "description": "Some seeds from a white flower.",
    "seed_data": { "plant_name": "wild root", "fruit": "carrot_wild", "byproducts": [ "withered" ], "grow": "10 days" }
  },
  {
    "type": "COMESTIBLE",
    "id": "seed_flower",
    "copy-from": "seed",
    "name": { "str_sp": "decorative plant seeds" },
    "color": "green",
    "description": "Some small decorative plant seeds, likely grass or flower.  Don't expect them to be useful for anything other than dry plant material.",
    "seed_data": { "plant_name": "decorative plant", "fruit": "withered", "grow": "14 days" }
  },
  {
    "type": "COMESTIBLE",
    "id": "seed_cactus",
    "copy-from": "seed",
    "name": { "str_sp": "cactus seeds" },
    "color": "green",
    "description": "Some cactus seeds.",
    "seed_data": { "plant_name": "cactus", "fruit": "cactus_pad", "grow": "14 days" }
  },
  {
    "type": "COMESTIBLE",
    "id": "garlic_clove",
    "name": { "str": "garlic clove" },
    "weight": "3 g",
    "color": "white",
    "spoils_in": "360 days",
    "comestible_type": "FOOD",
    "symbol": "%",
    "quench": -3,
    "healthy": 1,
    "calories": 4,
    "description": "Cloves of garlic.  Useful as a seasoning, or for planting.",
    "price": 50,
    "charges": 6,
    "stack_size": 6,
    "material": "garlic",
    "volume": "150 ml",
    "fun": -3,
    "seed_data": { "plant_name": "garlic", "fruit": "garlic", "byproducts": [ "withered" ], "grow": "10 days" }
  },
  {
    "type": "COMESTIBLE",
    "id": "seed_carrot",
    "copy-from": "seed",
    "price": 50,
    "name": { "str_sp": "carrot seeds" },
    "description": "Some carrot seeds.",
    "seed_data": { "plant_name": "carrot", "fruit": "carrot", "byproducts": [ "withered" ], "grow": "10 days" }
  },
  {
    "type": "COMESTIBLE",
    "id": "seed_corn",
    "copy-from": "seed",
    "price": 50,
    "name": { "str_sp": "corn seeds" },
    "description": "Some corn seeds.",
    "seed_data": { "plant_name": "corn", "fruit": "corn", "byproducts": [ "withered" ], "grow": "12 days" }
  },
  {
    "type": "COMESTIBLE",
    "id": "seed_chili_pepper",
    "copy-from": "seed",
    "price": 50,
    "name": { "str_sp": "chili pepper seeds" },
    "color": "white",
    "description": "Some chili pepper seeds.",
    "seed_data": { "plant_name": "chili pepper", "fruit": "chili_pepper", "byproducts": [ "withered" ], "grow": "10 days" }
  },
  {
    "type": "COMESTIBLE",
    "id": "seed_cucumber",
    "copy-from": "seed",
    "price": 50,
    "name": { "str_sp": "cucumber seeds" },
    "description": "Some cucumber seeds.",
    "seed_data": { "plant_name": "cucumber", "fruit": "cucumber", "byproducts": [ "withered" ], "grow": "9 days" }
  },
  {
    "type": "COMESTIBLE",
    "id": "seed_potato_raw",
    "copy-from": "seed",
    "price": 50,
    "name": { "str": "seed potato", "str_pl": "seed potatoes" },
    "description": "A raw potato, cut into pieces, separating each bud for planting.",
    "weight": "20 g",
    "stack_size": 10,
    "seed_data": { "plant_name": "potatoes", "fruit": "potato", "byproducts": [ "withered" ], "grow": "15 days" }
  },
  {
    "type": "COMESTIBLE",
    "id": "seed_weed",
    "copy-from": "seed",
    "name": { "str_sp": "cannabis seeds" },
    "color": "green",
    "use_action": "SEED",
    "quench": -1,
    "healthy": 1,
    "calories": 17,
    "description": "Seeds of the cannabis plant.  Filled with vitamins, they can be roasted or eaten raw.",
    "price": 100,
    "weight": "2 g",
    "charges": 2,
    "flags": [ "RAW" ],
    "seed_data": { "plant_name": "cannabis", "fruit": "cannabis", "grow": "14 days" }
  },
  {
    "type": "AMMO",
    "id": "fungal_seeds",
    "copy-from": "seed",
    "price": 100,
    "name": { "str_sp": "fungal seeds" },
    "color": "dark_gray",
    "description": "Some fungal seeds.",
    "ammo_type": "NULL",
    "stack_size": 8,
    "seed_data": { "fruit": "null", "//": "dummy entry, results are hardcoded", "plant_name": "fungal flower", "grow": "14 days" }
  },
  {
    "type": "COMESTIBLE",
    "id": "marloss_seed",
    "category": "seeds",
    "name": { "str": "Marloss seed" },
    "weight": "177 g",
    "color": "cyan",
    "addiction_type": "marloss_b",
    "use_action": "MARLOSS_SEED",
    "comestible_type": "FOOD",
    "symbol": ".",
    "quench": 5,
    "healthy": -10,
    "addiction_potential": 5,
    "calories": 174,
    "description": "This looks like a sunflower seed the size of your palm.  It has a strong but delicious aroma, but is clearly either mutated or of alien origin.  You could probably plant it.",
    "price": 0,
    "material": "fruit",
    "primary_material": "dried_vegetable",
    "volume": "100 ml",
    "stack_size": 10,
    "fun": 30,
    "seed_data": { "fruit": "null", "//": "dummy entry, results are hardcoded", "plant_name": "marloss berry", "grow": "14 days" }
  },
  {
    "type": "COMESTIBLE",
    "id": "seed_beans",
    "copy-from": "seed",
    "name": { "str_sp": "bean seeds" },
    "weight": "194 g",
    "symbol": "%",
    "description": "Raw, uncooked beans, ready for planting.",
    "charges": 2,
    "price": 90,
    "seed_data": { "plant_name": "beans", "fruit": "raw_beans", "byproducts": [ "withered" ], "grow": "14 days" }
  },
  {
    "type": "COMESTIBLE",
    "id": "soybean_seed",
    "copy-from": "seed",
    "name": { "str_sp": "soybean seeds" },
    "weight": "160 g",
    "symbol": ".",
    "color": "yellow",
    "description": "Some soybean seeds.",
    "price": 90,
    "seed_data": { "plant_name": "soybean", "fruit": "soybean", "byproducts": [ "withered", "raw_edamame" ], "grow": "14 days" }
  },
  {
    "type": "COMESTIBLE",
    "id": "seed_lentils",
    "copy-from": "seed",
    "name": { "str_sp": "raw lentils" },
    "weight": "194 g",
    "symbol": "%",
    "description": "Raw, uncooked lentils, ready for planting.",
    "charges": 2,
    "price": 90,
    "seed_data": { "plant_name": "lentils", "fruit": "raw_lentils", "byproducts": [ "withered" ], "grow": "14 days" }
  },
  {
    "type": "COMESTIBLE",
    "id": "seed_thyme",
    "copy-from": "seed",
    "price": 120,
    "name": { "str_sp": "thyme seeds" },
    "color": "green",
    "description": "Some thyme seeds.",
    "charges": 2,
    "seed_data": { "plant_name": "thyme", "fruit": "thyme", "grow": "14 days" }
  },
  {
    "type": "COMESTIBLE",
    "id": "seed_canola",
    "copy-from": "seed",
    "name": { "str_sp": "canola seeds" },
    "color": "green",
    "description": "Some canola seeds.  You could press them into oil.",
    "charges": 2,
    "seed_data": { "plant_name": "canola", "fruit": "seed_canola", "byproducts": [ "withered" ], "grow": "14 days" }
  },
  {
    "type": "COMESTIBLE",
    "id": "seed_pumpkin",
    "copy-from": "seed",
    "name": { "str_sp": "pumpkin seeds" },
    "weight": "2 g",
    "color": "green",
    "use_action": "SEED",
    "calories": 17,
    "description": "Some raw pumpkin seeds.  Could be fried and eaten.",
    "price": 100,
    "charges": 2,
    "seed_data": { "plant_name": "pumpkin", "fruit": "pumpkin", "fruit_div": 3, "byproducts": [ "withered" ], "grow": "14 days" }
  },
  {
    "type": "COMESTIBLE",
    "id": "seed_sunflower",
    "copy-from": "seed",
    "name": { "str_sp": "sunflower seeds" },
    "weight": "2 g",
    "color": "green",
    "use_action": "SEED",
    "calories": 17,
    "description": "Some raw sunflower seeds.  Could be pressed into oil.",
    "price": 100,
    "charges": 2,
    "seed_data": { "plant_name": "sunflower", "fruit": "seed_sunflower", "byproducts": [ "withered" ], "grow": "14 days" }
  },
  {
    "type": "COMESTIBLE",
    "id": "seed_dogbane",
    "copy-from": "seed",
    "name": { "str_sp": "dogbane seeds" },
    "color": "green",
    "description": "Some dogbane seeds.",
    "charges": 2,
    "seed_data": { "plant_name": "dogbane", "fruit": "dogbane", "grow": "14 days" }
  },
  {
    "type": "COMESTIBLE",
    "id": "seed_bee_balm",
    "copy-from": "seed",
    "name": { "str_sp": "bee balm seeds" },
    "color": "green",
    "description": "Some bee balm seeds.",
    "charges": 2,
    "seed_data": { "plant_name": "bee balm", "fruit": "bee_balm", "byproducts": [ "withered" ], "grow": "14 days" }
  },
  {
    "type": "COMESTIBLE",
    "id": "seed_mugwort",
    "copy-from": "seed",
    "name": { "str_sp": "mugwort seeds" },
    "color": "green",
    "description": "Some mugwort seeds.",
    "charges": 2,
    "seed_data": { "plant_name": "mugwort", "fruit": "mugwort", "grow": "14 days" }
  },
  {
    "type": "COMESTIBLE",
    "id": "seed_buckwheat",
    "copy-from": "seed",
    "name": { "str_sp": "buckwheat seeds" },
    "color": "green",
    "description": "Some buckwheat seeds.",
    "charges": 2,
    "seed_data": { "plant_name": "buckwheat", "fruit": "buckwheat", "byproducts": [ "straw_pile" ], "grow": "14 days" }
  },
  {
    "type": "COMESTIBLE",
    "id": "seed_wild_herbs",
    "copy-from": "seed",
    "name": { "str_sp": "wild herb seeds" },
    "color": "green",
    "description": "Some seeds harvested from wild herbs.",
    "charges": 2,
    "seed_data": { "plant_name": "wild herb", "fruit": "wild_herbs", "grow": "14 days" }
  },
  {
    "type": "COMESTIBLE",
    "id": "seed_veggy_wild",
    "copy-from": "seed",
    "name": { "str_sp": "wild vegetable stems" },
    "color": "green",
    "description": "Some wild vegetable stems.",
    "charges": 2,
    "seed_data": { "plant_name": "wild vegetable", "fruit": "veggy_wild", "byproducts": [ "withered" ], "grow": "14 days" }
  },
  {
    "type": "COMESTIBLE",
    "id": "seed_raw_dandelion",
    "copy-from": "seed",
    "name": { "str_sp": "dandelion seeds" },
    "color": "green",
    "description": "Some dandelion seeds.",
    "charges": 2,
    "seed_data": { "plant_name": "dandelion", "fruit": "raw_dandelion", "grow": "14 days" }
  },
  {
    "type": "COMESTIBLE",
    "id": "seed_raw_burdock",
    "copy-from": "seed",
    "name": { "str_sp": "burdock seeds" },
    "color": "green",
    "description": "Some burdock seeds.",
    "charges": 2,
    "seed_data": { "plant_name": "burdock", "fruit": "raw_burdock", "grow": "14 days" }
  },
  {
    "type": "COMESTIBLE",
    "id": "seed_rhubarb",
    "copy-from": "seed",
    "name": { "str_sp": "rhubarb stems" },
    "color": "green",
    "description": "Some rhubarb stems.",
    "charges": 2,
    "seed_data": { "plant_name": "rhubarb", "fruit": "rhubarb", "byproducts": [ "withered" ], "grow": "14 days" }
  },
  {
    "type": "COMESTIBLE",
    "id": "seed_mushroom",
    "copy-from": "seed_mushroom_base",
    "name": { "str_sp": "mushroom spores" },
    "seed_data": { "plant_name": "mushroom", "fruit": "mushroom", "grow": "14 days" }
  },
  {
    "type": "COMESTIBLE",
    "id": "seed_mushroom_morel",
    "copy-from": "seed_mushroom_base",
    "name": { "str_sp": "morel mushroom spores" },
    "description": "Some morel mushroom spores.",
    "seed_data": { "plant_name": "morel mushroom", "fruit": "mushroom_morel", "grow": "14 days" }
  },
  {
    "id": "datura_seed",
    "type": "COMESTIBLE",
    "copy-from": "seed",
    "comestible_type": "MED",
    "name": { "str_sp": "datura seeds" },
    "description": "Small, dark seeds from the spiny pods of a datura plant.  Full of powerful psychoactive chemicals, these tiny seeds are a potent analgesic and deliriant, and can be deadly in cases of overdose.",
    "weight": "2 g",
    "price": 0,
    "stim": 6,
    "healthy": -2,
    "fun": -1,
    "use_action": "DATURA",
    "seed_data": { "plant_name": "datura", "fruit": "datura_seed", "byproducts": [ "withered" ], "grow": "14 days" }
  },
  {
    "type": "COMESTIBLE",
    "id": "seed_celery",
    "copy-from": "seed",
    "price": 50,
    "name": { "str_sp": "celery seeds" },
    "description": "Some celery seeds.",
    "seed_data": { "plant_name": "celery", "fruit": "celery", "byproducts": [ "withered" ], "grow": "20 days" }
  },
  {
    "type": "COMESTIBLE",
    "id": "seed_oats",
    "copy-from": "seed",
    "price": 50,
    "name": { "str_sp": "oat seeds" },
    "description": "Some oat seeds.",
    "material": "wheat",
    "primary_material": "dried_vegetable",
    "weight": "5 g",
    "stack_size": 40,
    "seed_data": { "plant_name": "oats", "fruit": "oats", "byproducts": [ "withered" ], "grow": "7 days" }
  },
  {
    "id": "seed_wheat",
    "copy-from": "seed",
    "type": "COMESTIBLE",
    "name": { "str_sp": "wheat seeds" },
    "description": "Some wheat seeds.",
    "weight": "5 g",
    "price": 50,
    "stack_size": 40,
    "material": "wheat",
    "primary_material": "dried_vegetable",
    "seed_data": { "plant_name": "wheat", "fruit": "wheat", "byproducts": [ "straw_pile" ], "grow": "19 days" }
  },
  {
    "type": "COMESTIBLE",
    "id": "fried_seeds",
    "name": { "str_sp": "fried seeds" },
    "weight": "32 g",
    "color": "yellow",
    "container": "bag_plastic",
    "comestible_type": "FOOD",
    "symbol": "%",
    "calories": 78,
    "description": "Some fried seeds of a sunflower, pumpkin or other plant.  Quite nutritious and tasty.",
    "price": 80,
    "price_postapoc": 50,
    "material": "veggy",
    "primary_material": "dried_vegetable",
    "volume": "250 ml",
    "flags": [ "SMOKED" ],
    "freezing_point": -490,
    "charges": 4,
    "fun": 3
  },
  {
    "type": "COMESTIBLE",
    "id": "coffee_pod",
    "name": { "str": "Kentucky coffee pod" },
    "category": "other",
    "weight": "26 g",
    "color": "light_green",
    "comestible_type": "FOOD",
    "looks_like": "hickory_nut",
    "symbol": "%",
    "quench": -6,
    "healthy": -2,
    "calories": 9,
    "description": "Coffee pods taken from a Kentucky coffeetree.  If washed thoroughly and roasted, you could use them to make a dark and bitter brew much like coffee.",
    "price": 100,
    "price_postapoc": 50,
    "material": [ "veggy" ],
    "primary_material": "dried_vegetable",
    "volume": "250 ml",
    "charges": 4,
    "fun": -10,
    "flags": [ "HIDDEN_POISON", "RAW" ],
    "use_action": "POISON",
    "//": "USDA states that the pods of the Kentucky coffeetree contain a toxic alkaloid broken down in the roasting process, so they're poisonous"
  },
  {
    "type": "COMESTIBLE",
    "id": "coffee_bean",
    "category": "seeds",
    "container": "bag_plastic",
    "price": 50,
    "material": "veggy",
    "primary_material": "dried_vegetable",
    "name": { "str_sp": "coffee beans" },
    "symbol": ".",
    "color": "brown",
    "description": "Some coffee beans, can be roasted.",
    "comestible_type": "FOOD",
    "addiction_type": "caffeine",
    "addiction_potential": 1,
    "calories": 549,
    "volume": "250 ml",
    "vitamins": [ [ "calcium", 4 ], [ "iron", 8 ] ],
    "flags": [ "RAW" ],
    "stack_size": 40,
    "weight": "106 g"
  },
  {
    "type": "COMESTIBLE",
    "id": "roasted_coffee_bean",
    "copy-from": "coffee_bean",
    "category": "other",
    "container": "bag_plastic",
    "name": { "str_sp": "roasted coffee beans" },
    "description": "Some roasted coffee beans, can be ground into powder.",
    "addiction_type": "caffeine",
    "delete": { "flags": [ "RAW" ] }
  },
  {
    "type": "COMESTIBLE",
    "id": "seed_chamomile",
    "copy-from": "seed",
    "looks_like": "seed_raw_dandelion",
    "name": { "str_sp": "chamomile seeds" },
    "description": "Some chamomile seeds.",
    "seed_data": { "plant_name": "chamomile", "fruit": "chamomile", "byproducts": [ "withered" ], "grow": "14 days" }
  },
  {
    "type": "COMESTIBLE",
    "id": "seed_popcorn",
    "copy-from": "seed",
    "name": { "str_sp": "popcorn seeds" },
    "description": "Some popcorn seeds.",
    "seed_data": { "plant_name": "popcorn", "fruit": "popcorn_raw", "byproducts": [ "withered" ], "grow": "14 days" }
  },
  {
    "type": "COMESTIBLE",
    "id": "seed_horseradish",
    "copy-from": "seed",
    "name": { "str_sp": "horseradish seeds" },
    "description": "Some horseradish seeds.",
    "seed_data": { "plant_name": "horseradish", "fruit": "horseradish_root", "byproducts": [ "horseradish_greens" ], "grow": "14 days" }
  },
  {
    "type": "COMESTIBLE",
    "id": "seed_mustard",
    "copy-from": "seed",
    "name": { "str_sp": "mustard seeds" },
    "weight": "2 g",
    "color": "yellow",
    "use_action": "SEED",
    "fun": -3,
    "description": "Some mustard seeds.  Could be ground into mustard powder.",
    "price": 100,
    "charges": 2,
    "seed_data": { "plant_name": "mustard", "fruit": "seed_mustard", "byproducts": [ "withered" ], "grow": "14 days" }
  }
]
