[
  {
    "type": "recipe",
    "result": "arrow_small_game_fletched",
    "category": "CC_AMMO",
    "subcategory": "CSC_AMMO_ARROWS",
    "skill_used": "fabrication",
    "skills_required": [ "survival", 1 ],
    "difficulty": 3,
    "time": "15 m",
    "autolearn": true,
    "book_learn": [ [ "recipe_arrows", 1 ], [ "pocket_survival", 1 ], [ "book_archery", 2 ] ],
    "qualities": [ { "id": "CUT", "level": 1 } ],
    "components": [
      [ [ "adhesive", 1, "LIST" ], [ "filament", 20, "LIST" ] ],
      [ [ "stick", 1 ], [ "broom", 1 ], [ "2x4", 1 ], [ "bee_sting", 1 ] ],
      [ [ "fletching", 1, "LIST" ] ]
    ],
    "delete_flags": [ "FILTHY" ],
    "flags": [ "ALLOW_FILTHY" ],
    "id": "8677ec7a-575b-4aa3-b552-ab1a15db2f89"
  },
  {
    "type": "recipe",
    "result": "arrow_fire_hardened_fletched",
    "category": "CC_AMMO",
    "subcategory": "CSC_AMMO_ARROWS",
    "skill_used": "fabrication",
    "skills_required": [ "survival", 2 ],
    "difficulty": 1,
    "time": "15 m",
    "autolearn": true,
    "book_learn": [ [ "recipe_arrows", 1 ], [ "book_archery", 1 ] ],
    "qualities": [ { "id": "CUT", "level": 1 } ],
    "components": [ [ [ "stick", 1 ], [ "broom", 1 ], [ "2x4", 1 ], [ "bee_sting", 1 ] ] ],
    "id": "387a3aa0-7d46-4096-b32d-09c48e85f9c5"
  },
  {
    "type": "recipe",
    "result": "arrow_wood",
    "category": "CC_AMMO",
    "subcategory": "CSC_AMMO_ARROWS",
    "skill_used": "fabrication",
    "skills_required": [ [ "archery", 4 ], [ "survival", 1 ] ],
    "using": [ [ "forging_standard", 1 ] ],
    "difficulty": 5,
    "time": "30 m",
    "autolearn": true,
    "book_learn": [ [ "recipe_arrows", 3 ] ],
    "qualities": [ { "id": "HAMMER", "level": 2 }, { "id": "CUT", "level": 1 }, { "id": "ANVIL", "level": 1 } ],
    "tools": [ [ [ "tongs", -1 ] ] ],
    "components": [
      [ [ "adhesive", 1, "LIST" ], [ "filament", 20, "LIST" ] ],
      [ [ "steel_tiny", 1, "LIST" ], [ "scrap_bronze", 1 ] ],
      [ [ "stick", 1 ], [ "broom", 1 ], [ "2x4", 1 ], [ "bee_sting", 1 ] ],
      [ [ "fletching", 1, "LIST" ] ]
    ],
    "delete_flags": [ "FILTHY" ],
    "flags": [ "ALLOW_FILTHY" ],
    "id": "c1f20609-0ef8-49b5-994e-ab03e505ab2a"
  },
  {
    "type": "recipe",
    "result": "arrow_field_point_fletched",
    "category": "CC_AMMO",
    "subcategory": "CSC_AMMO_ARROWS",
    "skill_used": "fabrication",
    "skills_required": [ [ "archery", 4 ], [ "survival", 1 ] ],
    "using": [ [ "forging_standard", 1 ] ],
    "difficulty": 5,
    "time": "30 m",
    "autolearn": true,
    "book_learn": [ [ "recipe_arrows", 3 ] ],
    "qualities": [ { "id": "HAMMER", "level": 2 }, { "id": "CUT", "level": 1 }, { "id": "ANVIL", "level": 1 } ],
    "tools": [ [ [ "tongs", -1 ] ] ],
    "components": [
      [ [ "adhesive", 1, "LIST" ], [ "filament", 20, "LIST" ] ],
      [ [ "steel_tiny", 1, "LIST" ] ],
      [ [ "stick", 1 ], [ "broom", 1 ], [ "2x4", 1 ], [ "bee_sting", 1 ] ],
      [ [ "fletching", 1, "LIST" ] ]
    ],
    "delete_flags": [ "FILTHY" ],
    "flags": [ "ALLOW_FILTHY" ],
    "id": "6d4c3f6b-2d9a-4196-baa8-4ee48de6e9d7"
  },
  {
    "type": "recipe",
    "result": "arrow_heavy_field_point_fletched",
    "category": "CC_AMMO",
    "subcategory": "CSC_AMMO_ARROWS",
    "skill_used": "fabrication",
    "skills_required": [ [ "archery", 4 ], [ "survival", 1 ] ],
    "using": [ [ "forging_standard", 1 ] ],
    "difficulty": 5,
    "time": "30 m",
    "autolearn": true,
    "book_learn": [ [ "recipe_arrows", 3 ] ],
    "qualities": [ { "id": "HAMMER", "level": 2 }, { "id": "CUT", "level": 1 }, { "id": "ANVIL", "level": 1 } ],
    "tools": [ [ [ "tongs", -1 ] ] ],
    "components": [
      [ [ "adhesive", 1, "LIST" ], [ "filament", 20, "LIST" ] ],
      [ [ "steel_tiny", 1, "LIST" ] ],
      [ [ "stick", 1 ], [ "broom", 1 ], [ "2x4", 1 ], [ "bee_sting", 1 ] ],
      [ [ "fletching", 1, "LIST" ] ]
    ],
    "delete_flags": [ "FILTHY" ],
    "flags": [ "ALLOW_FILTHY" ],
    "id": "c5af4472-a6af-409b-85c4-f50a2657f425"
  },
  {
    "type": "recipe",
    "result": "arrow_metal_sharpened_fletched",
    "category": "CC_AMMO",
    "subcategory": "CSC_AMMO_ARROWS",
    "skill_used": "fabrication",
    "skills_required": [ [ "archery", 3 ], [ "survival", 1 ] ],
    "difficulty": 4,
    "time": "20 m",
    "autolearn": true,
    "book_learn": [ [ "recipe_arrows", 3 ] ],
    "qualities": [ { "id": "HAMMER", "level": 1 }, { "id": "CUT", "level": 1 }, { "id": "SAW_M", "level": 1 } ],
    "components": [
      [ [ "adhesive", 1, "LIST" ], [ "filament", 10, "LIST" ] ],
      [ [ "wire", 5 ], [ "pipe", 1 ] ],
      [ [ "fletching", 1, "LIST" ] ]
    ],
    "delete_flags": [ "FILTHY" ],
    "flags": [ "ALLOW_FILTHY" ],
    "id": "298e7c37-2027-4cf0-908d-767708304ab5"
  },
  {
    "type": "recipe",
    "result": "arrow_heavy_fire_hardened_fletched",
    "category": "CC_AMMO",
    "subcategory": "CSC_AMMO_ARROWS",
    "skill_used": "fabrication",
    "skills_required": [ [ "survival", 3 ], [ "archery", 1 ] ],
    "difficulty": 3,
    "time": "20 m",
    "autolearn": true,
    "qualities": [ { "id": "CUT", "level": 1 } ],
    "tools": [ [ [ "fire", -1 ] ] ],
    "components": [
      [ [ "adhesive", 1, "LIST" ], [ "filament", 10, "LIST" ] ],
      [ [ "stick", 1 ], [ "broom", 1 ], [ "2x4", 1 ], [ "bee_sting", 1 ], [ "arrow_fire_hardened_fletched", 10 ] ],
      [ [ "fletching", 1, "LIST" ] ]
    ],
    "delete_flags": [ "FILTHY" ],
    "flags": [ "ALLOW_FILTHY" ],
    "id": "24bc15e0-5b51-4a5b-959e-14fced24c736"
  },
  {
    "type": "recipe",
    "result": "arrow_wood_heavy",
    "category": "CC_AMMO",
    "subcategory": "CSC_AMMO_ARROWS",
    "skill_used": "fabrication",
    "skills_required": [ [ "archery", 3 ], [ "survival", 1 ] ],
    "difficulty": 4,
    "time": "20 m",
    "autolearn": true,
    "book_learn": [ [ "recipe_arrows", 2 ], [ "pocket_survival", 2 ] ],
    "qualities": [ { "id": "CUT", "level": 1 }, { "id": "HAMMER", "level": 1 } ],
    "components": [
      [ [ "adhesive", 1, "LIST" ], [ "filament", 20, "LIST" ] ],
      [ [ "stick", 2 ], [ "broom", 2 ], [ "2x4", 2 ], [ "bee_sting", 2 ] ],
      [
        [ "bone", 5 ],
        [ "bone_human", 5 ],
        [ "bone_tainted", 10 ],
        [ "rock", 1 ],
        [ "ceramic_shard", 1 ],
        [ "scrap", 2 ],
        [ "scrap_copper", 4 ],
        [ "nail", 10 ],
        [ "sharp_rock", 1 ]
      ],
      [ [ "fletching", 1, "LIST" ] ]
    ],
    "delete_flags": [ "FILTHY" ],
    "flags": [ "ALLOW_FILTHY" ],
    "id": "d1fb9d44-a853-46c5-918e-ced4042bb087"
  },
  {
    "type": "recipe",
    "result": "bolt_wood",
    "category": "CC_AMMO",
    "subcategory": "CSC_AMMO_ARROWS",
    "skill_used": "fabrication",
    "skills_required": [ [ "survival", 1 ] ],
    "using": [ [ "forging_standard", 1 ] ],
    "difficulty": 5,
    "time": "30 m",
    "autolearn": true,
    "book_learn": [ [ "recipe_arrows", 3 ] ],
    "qualities": [ { "id": "HAMMER", "level": 2 }, { "id": "CUT", "level": 1 }, { "id": "ANVIL", "level": 1 } ],
    "tools": [ [ [ "tongs", -1 ] ] ],
    "components": [
      [ [ "adhesive", 1, "LIST" ], [ "filament", 20, "LIST" ] ],
      [ [ "steel_tiny", 1, "LIST" ], [ "scrap_bronze", 1 ] ],
      [ [ "stick", 1 ], [ "broom", 1 ], [ "2x4", 1 ], [ "bee_sting", 1 ] ],
      [ [ "fletching", 1, "LIST" ] ]
    ],
    "delete_flags": [ "FILTHY" ],
    "flags": [ "ALLOW_FILTHY" ],
    "id": "72d46396-df07-4761-a760-cb607a5606ef"
  },
  {
    "type": "recipe",
    "result": "bolt_wood_bodkin",
    "category": "CC_AMMO",
    "subcategory": "CSC_AMMO_ARROWS",
    "skill_used": "fabrication",
    "skills_required": [ [ "survival", 1 ] ],
    "using": [ [ "forging_standard", 1 ] ],
    "difficulty": 5,
    "time": "30 m",
    "autolearn": true,
    "book_learn": [ [ "recipe_arrows", 3 ] ],
    "qualities": [ { "id": "HAMMER", "level": 2 }, { "id": "CUT", "level": 1 }, { "id": "ANVIL", "level": 1 } ],
    "tools": [ [ [ "tongs", -1 ] ] ],
    "components": [
      [ [ "adhesive", 1, "LIST" ], [ "filament", 20, "LIST" ] ],
      [ [ "steel_tiny", 1, "LIST" ] ],
      [ [ "stick", 1 ], [ "broom", 1 ], [ "2x4", 1 ], [ "bee_sting", 1 ] ],
      [ [ "fletching", 1, "LIST" ] ]
    ],
    "delete_flags": [ "FILTHY" ],
    "flags": [ "ALLOW_FILTHY" ],
    "id": "b38a93d5-dfb1-42f6-9d29-7957cd0c0ab9"
  },
  {
    "type": "recipe",
    "result": "bolt_wood_small_game",
    "category": "CC_AMMO",
    "subcategory": "CSC_AMMO_ARROWS",
    "skill_used": "fabrication",
    "skills_required": [ [ "survival", 1 ] ],
    "using": [ [ "forging_standard", 1 ] ],
    "difficulty": 5,
    "time": "30 m",
    "autolearn": true,
    "book_learn": [ [ "recipe_arrows", 3 ] ],
    "qualities": [ { "id": "HAMMER", "level": 2 }, { "id": "CUT", "level": 1 }, { "id": "ANVIL", "level": 1 } ],
    "tools": [ [ [ "tongs", -1 ] ] ],
    "components": [
      [ [ "adhesive", 1, "LIST" ], [ "filament", 20, "LIST" ] ],
      [ [ "steel_tiny", 1, "LIST" ] ],
      [ [ "stick", 1 ], [ "broom", 1 ], [ "2x4", 1 ], [ "bee_sting", 1 ] ],
      [ [ "fletching", 1, "LIST" ] ]
    ],
    "delete_flags": [ "FILTHY" ],
    "flags": [ "ALLOW_FILTHY" ],
    "id": "66710a2e-b702-4e0a-bbb7-259554de5fae"
  },
  {
    "type": "recipe",
    "result": "bolt_metal",
    "category": "CC_AMMO",
    "subcategory": "CSC_AMMO_ARROWS",
    "skill_used": "fabrication",
    "skills_required": [ [ "survival", 1 ] ],
    "difficulty": 4,
    "time": "20 m",
    "autolearn": true,
    "book_learn": [ [ "recipe_arrows", 3 ] ],
    "qualities": [ { "id": "HAMMER", "level": 1 }, { "id": "CUT", "level": 1 }, { "id": "SAW_M", "level": 1 } ],
    "components": [
      [ [ "adhesive", 1, "LIST" ], [ "filament", 10, "LIST" ] ],
      [ [ "wire", 4 ], [ "pipe", 1 ] ],
      [ [ "fletching", 1, "LIST" ] ]
    ],
    "delete_flags": [ "FILTHY" ],
    "flags": [ "ALLOW_FILTHY" ],
    "id": "bc8f515e-a12e-4a86-b49c-707ed0a586ee"
  },
  {
    "type": "recipe",
    "result": "bolt_crude",
    "category": "CC_AMMO",
    "subcategory": "CSC_AMMO_ARROWS",
    "skill_used": "fabrication",
    "skills_required": [ "survival", 2 ],
    "difficulty": 1,
    "time": "15 m",
    "autolearn": true,
    "book_learn": [ [ "recipe_arrows", 1 ], [ "book_archery", 1 ] ],
    "qualities": [ { "id": "CUT", "level": 1 } ],
    "components": [ [ [ "stick", 1 ], [ "broom", 1 ], [ "2x4", 1 ], [ "bee_sting", 1 ] ] ],
    "id": "395dbd6a-461a-485e-b7f0-dc7a0b34e8bd"
  },
  {
    "type": "recipe",
    "result": "bolt_simple_wood",
    "category": "CC_AMMO",
    "subcategory": "CSC_AMMO_ARROWS",
    "skill_used": "fabrication",
    "skills_required": [ [ "survival", 3 ] ],
    "difficulty": 3,
    "time": "20 m",
    "autolearn": true,
    "qualities": [ { "id": "CUT", "level": 1 } ],
    "tools": [ [ [ "fire", -1 ] ] ],
    "components": [
      [ [ "adhesive", 1, "LIST" ], [ "filament", 10, "LIST" ] ],
      [ [ "stick", 1 ], [ "broom", 1 ], [ "2x4", 1 ], [ "bee_sting", 1 ], [ "bolt_crude", 10 ] ],
      [ [ "fletching", 1, "LIST" ] ]
    ],
    "delete_flags": [ "FILTHY" ],
    "flags": [ "ALLOW_FILTHY" ],
    "id": "b849e00a-5b26-45a8-87c8-510e8b9d1184"
  },
  {
    "type": "recipe",
    "result": "bolt_simple_small_game",
    "category": "CC_AMMO",
    "subcategory": "CSC_AMMO_ARROWS",
    "skill_used": "fabrication",
    "skills_required": [ "survival", 1 ],
    "difficulty": 3,
    "time": "15 m",
    "autolearn": true,
    "book_learn": [ [ "recipe_arrows", 1 ], [ "pocket_survival", 1 ], [ "book_archery", 2 ] ],
    "qualities": [ { "id": "CUT", "level": 1 } ],
    "components": [
      [ [ "adhesive", 1, "LIST" ], [ "filament", 20, "LIST" ] ],
      [ [ "stick", 1 ], [ "broom", 1 ], [ "2x4", 1 ], [ "bee_sting", 1 ] ],
      [ [ "fletching", 1, "LIST" ] ]
    ],
    "delete_flags": [ "FILTHY" ],
    "flags": [ "ALLOW_FILTHY" ],
    "id": "a3b945b5-e9c6-4bdf-9c16-22333827d044"
  },
  {
    "type": "recipe",
    "result": "bolt_makeshift",
    "category": "CC_AMMO",
    "subcategory": "CSC_AMMO_ARROWS",
    "skill_used": "fabrication",
    "skills_required": [ [ "survival", 1 ] ],
    "difficulty": 4,
    "time": "20 m",
    "autolearn": true,
    "book_learn": [ [ "recipe_arrows", 2 ], [ "pocket_survival", 2 ] ],
    "qualities": [ { "id": "CUT", "level": 1 }, { "id": "HAMMER", "level": 1 } ],
    "components": [
      [ [ "adhesive", 1, "LIST" ], [ "filament", 20, "LIST" ] ],
      [ [ "stick", 2 ], [ "broom", 2 ], [ "2x4", 2 ], [ "bee_sting", 2 ] ],
      [
        [ "bone", 5 ],
        [ "bone_human", 5 ],
        [ "bone_tainted", 10 ],
        [ "rock", 1 ],
        [ "ceramic_shard", 1 ],
        [ "scrap", 2 ],
        [ "scrap_copper", 4 ],
        [ "nail", 10 ],
        [ "sharp_rock", 1 ]
      ],
      [ [ "fletching", 1, "LIST" ] ]
    ],
    "delete_flags": [ "FILTHY" ],
    "flags": [ "ALLOW_FILTHY" ],
    "id": "8194d5b9-a981-4444-be41-61aaa8b1dc03"
  },
  {
    "type": "recipe",
    "result": "flamable_arrow",
    "category": "CC_AMMO",
    "subcategory": "CSC_AMMO_ARROWS",
    "skill_used": "fabrication",
    "skills_required": [ "archery", 3 ],
    "difficulty": 3,
    "time": "5 m",
    "reversible": true,
    "book_learn": [ [ "recipe_arrows", 5 ] ],
    "qualities": [ { "id": "CUT", "level": 1 } ],
    "components": [
      [
        [ "arrow_field_point_fletched", 5 ],
        [ "arrow_fire_hardened_fletched", 5 ],
        [ "arrow_wood", 5 ],
        [ "arrow_heavy_fire_hardened_fletched", 5 ],
        [ "arrow_heavy_field_point_fletched", 5 ],
        [ "arrow_wood_heavy", 5 ],
        [ "arrow_metal", 5 ]
      ],
      [ [ "rag", 1, "NO_RECOVER" ] ],
      [
        [ "lamp_oil", 50, "NO_RECOVER" ],
        [ "motor_oil", 50, "NO_RECOVER" ],
        [ "chem_ethanol", 100, "NO_RECOVER" ],
        [ "denat_alcohol", 100, "NO_RECOVER" ],
        [ "gasoline", 250, "NO_RECOVER" ],
        [ "diesel", 250, "NO_RECOVER" ],
        [ "biodiesel", 250, "NO_RECOVER" ]
      ]
    ],
    "delete_flags": [ "FILTHY" ],
    "flags": [ "ALLOW_FILTHY" ],
    "id": "e2866cbb-0a99-4e9e-b717-fbde918caa2c"
  },
  {
    "type": "recipe",
    "result": "arrow_exploding",
    "category": "CC_AMMO",
    "subcategory": "CSC_AMMO_ARROWS",
    "skill_used": "fabrication",
    "skills_required": [ [ "archery", 4 ] ],
    "difficulty": 4,
    "time": "7 m",
    "book_learn": [ [ "recipe_arrows", 6 ], [ "textbook_anarch", 4 ], [ "recipe_bullets", 7 ] ],
    "qualities": [ { "id": "SAW_M", "level": 1 }, { "id": "SCREW", "level": 1 } ],
    "components": [
      [ [ "exploding_arrow_warhead", 5 ] ],
      [
        [ "arrow_field_point_fletched", 5 ],
        [ "arrow_fire_hardened_fletched", 5 ],
        [ "arrow_wood", 5 ],
        [ "arrow_heavy_fire_hardened_fletched", 5 ],
        [ "arrow_heavy_field_point_fletched", 5 ],
        [ "arrow_wood_heavy", 5 ],
        [ "arrow_metal", 5 ]
      ]
    ],
    "id": "7e2d9049-1699-42af-9c6c-6567af06f87a"
  },
  {
    "type": "recipe",
    "result": "bolt_explosive",
    "category": "CC_AMMO",
    "subcategory": "CSC_AMMO_ARROWS",
    "skill_used": "fabrication",
    "skills_required": [ [ "mechanics", 3 ] ],
    "difficulty": 5,
    "time": "10 m",
    "book_learn": [ [ "recipe_arrows", 7 ], [ "textbook_anarch", 4 ], [ "recipe_bullets", 7 ] ],
    "using": [ [ "soldering_standard", 10 ] ],
    "qualities": [ { "id": "SAW_M", "level": 1 } ],
    "components": [
      [ [ "bolt_metal", 1 ], [ "bolt_steel", 1 ] ],
      [ [ "can_food_unsealed", 1 ], [ "can_drink_unsealed", 1 ], [ "canister_empty", 1 ] ],
      [ [ "superglue", 1 ], [ "cordage", 1, "LIST" ] ],
      [
        [ "smpistol_primer", 1 ],
        [ "lgpistol_primer", 1 ],
        [ "smrifle_primer", 1 ],
        [ "lgrifle_primer", 1 ],
        [ "shotgun_primer", 1 ]
      ],
      [ [ "gunpowder", 20 ], [ "chem_black_powder", 20 ] ]
    ],
    "delete_flags": [ "FILTHY" ],
    "flags": [ "ALLOW_FILTHY" ],
    "id": "e03cb862-5a46-401d-aeb2-5ac5748b3874"
  },
  {
    "type": "recipe",
    "result": "arrow_plastic",
    "category": "CC_AMMO",
    "subcategory": "CSC_AMMO_ARROWS",
    "skill_used": "fabrication",
    "skills_required": [ [ "archery", 3 ], [ "survival", 1 ] ],
    "difficulty": 5,
    "time": "56 m",
    "autolearn": true,
    "qualities": [ { "id": "CUT", "level": 1 } ],
    "tools": [ [ [ "mold_plastic", -1 ] ], [ [ "surface_heat", 15, "LIST" ] ] ],
    "components": [
      [ [ "plastic_chunk", 3 ] ],
      [ [ "stick", 1 ], [ "broom", 1 ], [ "2x4", 1 ], [ "bee_sting", 1 ] ],
      [ [ "fletching", 1, "LIST" ] ]
    ],
    "delete_flags": [ "FILTHY" ],
    "flags": [ "ALLOW_FILTHY" ],
    "id": "39533a23-44b0-4689-b69b-06674b3840bb"
  }
]
