[
  {
    "result": "socks_ankle",
    "type": "uncraft",
    "time": "30 m",
    "qualities": [ { "id": "CUT_FINE", "level": 1 } ],
    "components": [ [ [ "thread", 35 ] ] ],
    "id": "f08e0be2-77e1-4c09-b9c7-ea4bdef58286"
  },
  {
    "result": "socks",
    "type": "uncraft",
    "time": "30 m",
    "qualities": [ { "id": "CUT_FINE", "level": 1 } ],
    "components": [ [ [ "thread", 35 ] ] ],
    "id": "a191e7b4-1161-4305-955b-6afbf3c8cd26"
  },
  {
    "result": "boxer_shorts",
    "type": "uncraft",
    "time": "30 m",
    "qualities": [ { "id": "CUT_FINE", "level": 1 } ],
    "components": [ [ [ "thread", 40 ] ] ],
    "id": "ab015b9b-c852-472d-bc35-b719a35baea0"
  },
  {
    "result": "boxer_briefs",
    "type": "uncraft",
    "time": "30 m",
    "qualities": [ { "id": "CUT_FINE", "level": 1 } ],
    "components": [ [ [ "thread", 40 ] ] ],
    "id": "d2f57edf-230d-4e7e-91e4-f0eb6ae8191d"
  },
  {
    "result": "briefs",
    "type": "uncraft",
    "time": "30 m",
    "qualities": [ { "id": "CUT_FINE", "level": 1 } ],
    "components": [ [ [ "thread", 35 ] ] ],
    "id": "437d5d49-a991-4f41-b6e7-4c79acdb0fc6"
  },
  {
    "result": "panties",
    "type": "uncraft",
    "time": "30 m",
    "qualities": [ { "id": "CUT_FINE", "level": 1 } ],
    "components": [ [ [ "thread", 35 ] ] ],
    "id": "2a9d7a27-7385-4127-82ce-27fc0c7f1552"
  },
  {
    "result": "boy_shorts",
    "type": "uncraft",
    "time": "30 m",
    "qualities": [ { "id": "CUT_FINE", "level": 1 } ],
    "components": [ [ [ "thread", 40 ] ] ],
    "id": "ab9d0e91-036d-4141-9adb-8b1d812c461c"
  },
  {
    "result": "down_blanket",
    "type": "uncraft",
    "time": "20 m",
    "qualities": [ { "id": "CUT", "level": 1 } ],
    "components": [ [ [ "rag", 35 ] ], [ [ "down_feather", 160 ] ] ],
    "id": "4e6fa691-377c-4041-bca3-b5f403d56b09"
  },
  {
    "result": "blanket",
    "type": "uncraft",
    "time": "20 m",
    "qualities": [ { "id": "CUT", "level": 1 } ],
    "components": [ [ [ "rag", 35 ] ] ],
    "id": "126441ef-b36f-4bb8-b4bb-0f76ef21ed21"
  },
  {
    "result": "under_armor",
    "type": "uncraft",
    "time": "2 m",
    "qualities": [ { "id": "CUT", "level": 1 } ],
    "components": [ [ [ "nylon", 1 ] ] ],
    "id": "e5197186-4497-4f0f-87ad-561f5dd956ec"
  },
  {
    "result": "under_armor_shorts",
    "type": "uncraft",
    "time": "2 m",
    "qualities": [ { "id": "CUT", "level": 1 } ],
    "components": [ [ [ "nylon", 1 ] ] ],
    "id": "9fd0bb6f-0239-49a6-9fe7-9fde8e90b278"
  }
]
