[
  {
    "type": "mapgen",
    "method": "json",
    "om_terrain": [ [ "mall_upper_roof_3", "mall_upper_roof_4" ], [ "mall_upper_roof_12", "mall_upper_roof_13" ] ],
    "object": {
      "fill_ter": "t_flat_roof",
      "rows": [
        "                                                ",
        "                                                ",
        "                                                ",
        "                                                ",
        "                                                ",
        "                                                ",
        "                                                ",
        "                                                ",
        "                                                ",
        "                                                ",
        "                                                ",
        "                                                ",
        "                 2222222222222222222222222222223",
        "                 |.............................3",
        "                 |.............................3",
        "                 |.............................3",
        "                 |.............................3",
        "                 |.............................3",
        "                 |.............................3",
        "                 |.....&.........&.......&.....3",
        "                 |.............................3",
        "                 |.............................3",
        "                 |.............................3",
        "                 |........................:....3",
        "                 |...........=.......=.........3",
        "                 |.............................3",
        "                 |.............................3",
        "                 |.............................3",
        "                 |.............................3",
        "                 |.............................3",
        "                 |.............................3",
        "                 |.....N.......................3",
        "                 5.............................5",
        "                 |--------|..........3----------",
        "                          |..........3          ",
        "                          |...XXXX...3          ",
        "                          |..........3          ",
        "                          |----------3          ",
        "                                                ",
        "                                                ",
        "                                                ",
        "                                                ",
        "                                                ",
        "                                                ",
        "                                                ",
        "                                                ",
        "                                                ",
        "                                                "
      ],
      "palettes": [ "roof_palette" ]
    },
    "id": "466a2177-39f7-409d-8385-771681baf63f"
  },
  {
    "type": "mapgen",
    "method": "json",
    "om_terrain": [ [ "mall_upper_roof_34", "mall_upper_roof_35" ] ],
    "object": {
      "fill_ter": "t_flat_roof",
      "rows": [
        "                                                ",
        "                                                ",
        "                 22252222222223                 ",
        "                 |............3                 ",
        "                 |............3                 ",
        "                 |............3                 ",
        "                 |............5                 ",
        "                 |............3                 ",
        "                 |........3---3                 ",
        "                 |........3                     ",
        "                 ----------                     ",
        "                                                ",
        "                                                ",
        "                                                ",
        "                                                ",
        "                                                ",
        "                                                ",
        "                                                ",
        "                                                ",
        "                                                ",
        "                                                ",
        "                                                ",
        "                                                ",
        "                                                "
      ],
      "palettes": [ "roof_palette" ]
    },
    "id": "ad1f2ba5-406d-4f94-9084-1bbe0985774a"
  },
  {
    "type": "mapgen",
    "method": "json",
    "om_terrain": [ [ "mall_upper_roof_48", "mall_upper_roof_49", "mall_upper_roof_50", "mall_upper_roof_51" ] ],
    "object": {
      "fill_ter": "t_flat_roof",
      "rows": [
        "                                                                                                ",
        "                                                                                                ",
        "                                                                                                ",
        "                                                                                                ",
        "                |222222222222222223                                          |222222222222222222",
        "                |.................3                                          |.................3",
        "                |.................3                                          |.................3",
        "                |.................5222222222222222222222222222222222222222222|.................3",
        "                |..........:...................................................................3",
        "                |..............................................................................3",
        "                |....................................................................X...&.....5",
        "                |....................................................................X.........3",
        "                |......&....=.................=...............=......................X...=.....3",
        "                |..............................................................................3",
        "                5..............................................................................3",
        "                |..............................................................................3",
        "                |.................3------------------------------------------5.................3",
        "                |.................3                                          |.................3",
        "                |.................3                                          |...........:.....3",
        "                |-----------------3                                          ------------------3",
        "                                                                                                ",
        "                                                                                                ",
        "                                                                                                ",
        "                                                                                                "
      ],
      "palettes": [ "roof_palette" ]
    },
    "id": "0238d910-9ddb-402e-bcac-dc31acc77f24"
  }
]
