[
  {
    "type": "palette",
    "id": "fbml_migo_resin_palette",
    "terrain": {
      ".": "t_floor_resin",
      "b": "t_floor_resin",
      "r": "t_floor_resin",
      "t": "t_floor_resin",
      "d": "t_chickenwire_gate_c",
      "f": "t_chickenwire_fence",
      "o": "t_wall_resin_cage",
      "F": "t_splitrail_fence",
      "D": "t_splitrail_fencegate_c",
      "w": "t_wall_resin",
      "+": "t_resin_hole_c"
    },
    "furniture": { "b": "f_bench", "r": "f_rack_wood", "t": "f_table" }
  },
  {
    "type": "mapgen",
    "method": "json",
    "nested_mapgen_id": "fbml_coop_migo_resin",
    "object": {
      "mapgensize": [ 6, 6 ],
      "rows": [
        "wwwwww",
        "w....w",
        "w....w",
        "w....w",
        "w....w",
        "wwdfww"
      ],
      "palettes": [ "fbml_migo_resin_palette" ]
    },
    "id": "71ea4faa-84a0-4015-aafa-7bd2380bb11c"
  },
  {
    "type": "mapgen",
    "update_mapgen_id": "fbml_coop_migo_resin_northeast",
    "method": "json",
    "object": { "place_nested": [ { "chunks": [ "fbml_coop_migo_resin" ], "x": 15, "y": 3 } ] },
    "id": "9fb9ab0f-eb6c-4826-929b-10985f0bb3b3"
  },
  {
    "type": "mapgen",
    "method": "json",
    "nested_mapgen_id": "fbml_shack_migo_resin",
    "object": {
      "mapgensize": [ 6, 6 ],
      "rows": [
        "      ",
        "  woww",
        " wwrrw",
        " +..to",
        " orrrw",
        " wwoww"
      ],
      "palettes": [ "fbml_migo_resin_palette" ]
    },
    "id": "b8b304a5-3f2a-4f47-b02c-395168d0b87a"
  },
  {
    "type": "mapgen",
    "update_mapgen_id": "fbml_shack_migo_resin_southeast",
    "method": "json",
    "object": { "place_nested": [ { "chunks": [ "fbml_shack_migo_resin" ], "x": 15, "y": 15 } ] },
    "id": "aa48737a-99f5-44ab-9b90-ca32408d4e00"
  },
  {
    "type": "mapgen",
    "method": "json",
    "nested_mapgen_id": "fbml_stable0_migo_resin",
    "object": {
      "mapgensize": [ 6, 6 ],
      "rows": [
        "wwww.w",
        "w..D..",
        "w..F..",
        "w..F..",
        "w..Fbb",
        "wwwwww"
      ],
      "palettes": [ "fbml_migo_resin_palette" ]
    },
    "id": "c46a912d-4ff2-450d-81ee-b947c83989af"
  },
  {
    "type": "mapgen",
    "update_mapgen_id": "fbml_stable0_migo_resin_southwest",
    "method": "json",
    "object": { "place_nested": [ { "chunks": [ "fbml_stable0_migo_resin" ], "x": 3, "y": 15 } ] },
    "id": "1c8379da-870f-4e20-82ec-68bdc52c400c"
  },
  {
    "type": "mapgen",
    "method": "json",
    "nested_mapgen_id": "fbml_stable1_migo_resin",
    "object": {
      "mapgensize": [ 6, 6 ],
      "rows": [
        "wwww.w",
        "w..F..",
        "w..D..",
        "wwwwb.",
        "w..Fb.",
        "w..D.."
      ],
      "palettes": [ "fbml_migo_resin_palette" ]
    },
    "id": "83036ddc-dba4-4d54-8b33-741844ec5d48"
  },
  {
    "type": "mapgen",
    "update_mapgen_id": "fbml_stable1_migo_resin_west",
    "method": "json",
    "object": { "place_nested": [ { "chunks": [ "fbml_stable1_migo_resin" ], "x": 3, "y": 9 } ] },
    "id": "57b9e116-092e-4661-8a6a-7bc43c2a0561"
  },
  {
    "type": "mapgen",
    "method": "json",
    "nested_mapgen_id": "fbml_stable2_migo_resin",
    "object": {
      "mapgensize": [ 6, 6 ],
      "rows": [
        "wwwwww",
        "w..F..",
        "w..D..",
        "wwwwb.",
        "w..Fb.",
        "w..D.."
      ],
      "palettes": [ "fbml_migo_resin_palette" ]
    },
    "id": "aec64d77-d35e-4c73-ad1a-8bda5721330c"
  },
  {
    "type": "mapgen",
    "update_mapgen_id": "fbml_stable2_migo_resin_northwest",
    "method": "json",
    "object": { "place_nested": [ { "chunks": [ "fbml_stable2_migo_resin" ], "x": 3, "y": 3 } ] },
    "id": "b4c90531-b59d-4fb1-b2a6-3ec61a8a2884"
  }
]
